"Prob_Chromosome"	"Prob_Plasmid"	"Prediction"	"Contig_name"	"Contig_length"
1	0	"Chromosome"	"S1_LN:i:465932_dp:f:1.0"	465932
1	0	"Chromosome"	"S10_LN:i:114354_dp:f:1.0324502306455554"	114354
1	0	"Chromosome"	"S100_LN:i:2481_dp:f:0.8092997040539289"	2481
0	1	"Plasmid"	"S101_LN:i:2186_dp:f:1.1023644440363256"	2186
1	0	"Chromosome"	"S102_LN:i:2113_dp:f:0.9921166024710327"	2113
0	1	"Plasmid"	"S103_LN:i:2088_dp:f:35.44728271292598"	2088
0	1	"Plasmid"	"S104_LN:i:1976_dp:f:54.05169614315399"	1976
0.5	0.5	"Plasmid"	"S105_LN:i:1965_dp:f:0.973409035879706"	1965
1	0	"Chromosome"	"S106_LN:i:1950_dp:f:0.8821740194500225"	1950
1	0	"Chromosome"	"S107_LN:i:1805_dp:f:0.8592565604365632"	1805
1	0	"Chromosome"	"S108_LN:i:1657_dp:f:3.0331433807787063"	1657
0	1	"Plasmid"	"S109_LN:i:1551_dp:f:37.96649742218907"	1551
1	0	"Chromosome"	"S11_LN:i:109591_dp:f:1.026134629859957"	109591
1	0	"Chromosome"	"S110_LN:i:1469_dp:f:7.413660371707062"	1469
1	0	"Chromosome"	"S111_LN:i:1443_dp:f:3.4171186024858393"	1443
1	0	"Chromosome"	"S112_LN:i:1317_dp:f:0.8233027287669636"	1317
0.33	0.67	"Plasmid"	"S113_LN:i:1316_dp:f:2.972037108800759"	1316
0.5	0.5	"Plasmid"	"S114_LN:i:1299_dp:f:40.46685151425186"	1299
1	0	"Chromosome"	"S115_LN:i:1286_dp:f:8.537069748482963"	1286
1	0	"Chromosome"	"S116_LN:i:1216_dp:f:0.8993498159409503"	1216
1	0	"Chromosome"	"S117_LN:i:1133_dp:f:2.132023107414602"	1133
1	0	"Chromosome"	"S118_LN:i:1087_dp:f:4.108249437620611"	1087
0.67	0.33	"Chromosome"	"S119_LN:i:1059_dp:f:1.8308034981293035"	1059
1	0	"Chromosome"	"S12_LN:i:100809_dp:f:0.9626398767871049"	100809
1	0	"Chromosome"	"S120_LN:i:1056_dp:f:8.994679903925826"	1056
1	0	"Chromosome"	"S121_LN:i:1031_dp:f:2.1610991417588292"	1031
1	0	"Chromosome"	"S13_LN:i:97002_dp:f:1.009445765573581"	97002
1	0	"Chromosome"	"S14_LN:i:92164_dp:f:0.9866081498922699"	92164
1	0	"Chromosome"	"S15_LN:i:88119_dp:f:1.0866161367766318"	88119
1	0	"Chromosome"	"S16_LN:i:77616_dp:f:1.0207050447512562"	77616
1	0	"Chromosome"	"S17_LN:i:74942_dp:f:1.0598838939675426"	74942
1	0	"Chromosome"	"S18_LN:i:72366_dp:f:1.0484961070521082"	72366
1	0	"Chromosome"	"S19_LN:i:71401_dp:f:1.054255992393191"	71401
1	0	"Chromosome"	"S2_LN:i:367766_dp:f:0.9871842912747638"	367766
1	0	"Chromosome"	"S20_LN:i:68933_dp:f:1.0333107058174822"	68933
1	0	"Chromosome"	"S21_LN:i:68151_dp:f:1.047002994607248"	68151
1	0	"Chromosome"	"S22_LN:i:65648_dp:f:1.0283623152400827"	65648
0	1	"Plasmid"	"S23_LN:i:64993_dp:f:1.3519146928414527"	64993
1	0	"Chromosome"	"S24_LN:i:64611_dp:f:0.9356106052629327"	64611
1	0	"Chromosome"	"S25_LN:i:64012_dp:f:1.0010198713450618"	64012
1	0	"Chromosome"	"S26_LN:i:62083_dp:f:0.9543824630006627"	62083
1	0	"Chromosome"	"S27_LN:i:61501_dp:f:1.0447735960255575"	61501
1	0	"Chromosome"	"S28_LN:i:61465_dp:f:1.0432732155201192"	61465
1	0	"Chromosome"	"S29_LN:i:60835_dp:f:1.0427518111742948"	60835
1	0	"Chromosome"	"S3_LN:i:363240_dp:f:0.9534586062883387"	363240
1	0	"Chromosome"	"S30_LN:i:55486_dp:f:1.0186303821259324"	55486
1	0	"Chromosome"	"S31_LN:i:55186_dp:f:1.0363774060446187"	55186
1	0	"Chromosome"	"S32_LN:i:50993_dp:f:0.9997757237508722"	50993
1	0	"Chromosome"	"S33_LN:i:49654_dp:f:1.0045079800303032"	49654
1	0	"Chromosome"	"S34_LN:i:48833_dp:f:1.0428984363963933"	48833
1	0	"Chromosome"	"S35_LN:i:48737_dp:f:0.9677890343712"	48737
1	0	"Chromosome"	"S36_LN:i:41246_dp:f:1.0244607360543596"	41246
1	0	"Chromosome"	"S37_LN:i:40606_dp:f:0.9887394823232613"	40606
0	1	"Plasmid"	"S38_LN:i:39033_dp:f:1.2468197813824462"	39033
1	0	"Chromosome"	"S39_LN:i:36869_dp:f:1.0074248233960086"	36869
1	0	"Chromosome"	"S4_LN:i:183301_dp:f:0.9619763387967681"	183301
1	0	"Chromosome"	"S40_LN:i:36029_dp:f:1.0556787415849176"	36029
0	1	"Plasmid"	"S41_LN:i:32891_dp:f:1.4066553882540567"	32891
1	0	"Chromosome"	"S42_LN:i:31622_dp:f:0.9660159468403879"	31622
1	0	"Chromosome"	"S43_LN:i:30733_dp:f:1.0891373111235616"	30733
1	0	"Chromosome"	"S44_LN:i:30485_dp:f:0.938249815350432"	30485
1	0	"Chromosome"	"S45_LN:i:30165_dp:f:0.9775832200042152"	30165
1	0	"Chromosome"	"S46_LN:i:30027_dp:f:0.999780719683592"	30027
0	1	"Plasmid"	"S47_LN:i:28216_dp:f:1.2793082688282118"	28216
1	0	"Chromosome"	"S48_LN:i:25838_dp:f:0.9415913228284911"	25838
1	0	"Chromosome"	"S49_LN:i:25637_dp:f:1.0435135881902544"	25637
1	0	"Chromosome"	"S5_LN:i:150181_dp:f:1.0324293052208862"	150181
1	0	"Chromosome"	"S50_LN:i:25197_dp:f:0.948887795560165"	25197
1	0	"Chromosome"	"S51_LN:i:24884_dp:f:0.9862323174264315"	24884
1	0	"Chromosome"	"S52_LN:i:22922_dp:f:1.042050285327186"	22922
1	0	"Chromosome"	"S53_LN:i:22673_dp:f:1.0410556143700915"	22673
0	1	"Plasmid"	"S54_LN:i:21953_dp:f:1.3077383241763532"	21953
1	0	"Chromosome"	"S55_LN:i:21644_dp:f:1.0513959578885812"	21644
1	0	"Chromosome"	"S56_LN:i:20893_dp:f:1.0197845290789014"	20893
1	0	"Chromosome"	"S57_LN:i:19753_dp:f:1.0475340897005099"	19753
1	0	"Chromosome"	"S58_LN:i:16722_dp:f:0.9900691160722185"	16722
1	0	"Chromosome"	"S59_LN:i:16404_dp:f:1.0084165449951872"	16404
1	0	"Chromosome"	"S6_LN:i:133051_dp:f:1.035115923530358"	133051
1	0	"Chromosome"	"S60_LN:i:16400_dp:f:1.0502516070172612"	16400
1	0	"Chromosome"	"S61_LN:i:15869_dp:f:1.0169194385321503"	15869
0	1	"Plasmid"	"S62_LN:i:15520_dp:f:1.2144977679834876"	15520
1	0	"Chromosome"	"S63_LN:i:14747_dp:f:1.0331476621881261"	14747
1	0	"Chromosome"	"S64_LN:i:14540_dp:f:1.0046937179660025"	14540
1	0	"Chromosome"	"S65_LN:i:14497_dp:f:0.957767221507614"	14497
1	0	"Chromosome"	"S66_LN:i:14086_dp:f:0.8275613909289177"	14086
1	0	"Chromosome"	"S67_LN:i:12606_dp:f:1.0584309138571792"	12606
1	0	"Chromosome"	"S68_LN:i:11722_dp:f:1.02600662093907"	11722
0	1	"Plasmid"	"S69_LN:i:11303_dp:f:1.3036717064687215"	11303
1	0	"Chromosome"	"S7_LN:i:131651_dp:f:1.040992097840691"	131651
1	0	"Chromosome"	"S70_LN:i:11272_dp:f:0.9488768034073606"	11272
0.33	0.67	"Plasmid"	"S71_LN:i:11271_dp:f:31.46196555857904"	11271
0	1	"Plasmid"	"S72_LN:i:11231_dp:f:1.36492397509588"	11231
1	0	"Chromosome"	"S73_LN:i:11060_dp:f:2.0085172700126406"	11060
1	0	"Chromosome"	"S74_LN:i:10387_dp:f:1.0384345831908706"	10387
1	0	"Chromosome"	"S75_LN:i:10361_dp:f:0.8800886127351483"	10361
0	1	"Plasmid"	"S76_LN:i:9966_dp:f:1.2221211712383369"	9966
1	0	"Chromosome"	"S77_LN:i:9693_dp:f:0.8860993115624927"	9693
1	0	"Chromosome"	"S78_LN:i:9426_dp:f:0.9252692999758216"	9426
1	0	"Chromosome"	"S79_LN:i:9406_dp:f:1.085023799504748"	9406
1	0	"Chromosome"	"S8_LN:i:126398_dp:f:1.0032892500777444"	126398
1	0	"Chromosome"	"S80_LN:i:8982_dp:f:1.0530701398426274"	8982
1	0	"Chromosome"	"S81_LN:i:7600_dp:f:0.9201497413050959"	7600
1	0	"Chromosome"	"S82_LN:i:7142_dp:f:1.0812698988832368"	7142
0.33	0.67	"Plasmid"	"S83_LN:i:7034_dp:f:1.1499408929220707"	7034
1	0	"Chromosome"	"S84_LN:i:5284_dp:f:0.9481063889860762"	5284
0	1	"Plasmid"	"S85_LN:i:5095_dp:f:1.308273866926032"	5095
1	0	"Chromosome"	"S86_LN:i:4962_dp:f:1.11446787158318"	4962
0	1	"Plasmid"	"S87_LN:i:4739_dp:f:1.2032158419503876"	4739
1	0	"Chromosome"	"S88_LN:i:4470_dp:f:0.9526613562843541"	4470
1	0	"Chromosome"	"S89_LN:i:4316_dp:f:0.9421994570860502"	4316
1	0	"Chromosome"	"S9_LN:i:121986_dp:f:1.0337029718672506"	121986
1	0	"Chromosome"	"S90_LN:i:4084_dp:f:0.9183191380473021"	4084
0	1	"Plasmid"	"S91_LN:i:3954_dp:f:1.2693327570245996"	3954
0	1	"Plasmid"	"S92_LN:i:3631_dp:f:1.266478410567399"	3631
1	0	"Chromosome"	"S93_LN:i:3629_dp:f:2.1007287345808674"	3629
0	1	"Plasmid"	"S94_LN:i:3133_dp:f:29.8302585812361"	3133
1	0	"Chromosome"	"S95_LN:i:3068_dp:f:0.8979288574308154"	3068
1	0	"Chromosome"	"S96_LN:i:2816_dp:f:7.320903907929684"	2816
1	0	"Chromosome"	"S97_LN:i:2688_dp:f:0.8024057137845908"	2688
1	0	"Chromosome"	"S98_LN:i:2642_dp:f:0.9511272688313069"	2642
1	0	"Chromosome"	"S99_LN:i:2559_dp:f:1.0387036067664737"	2559
