"Prob_Chromosome"	"Prob_Plasmid"	"Prediction"	"Contig_name"	"Contig_length"
1	0	"Chromosome"	"S1_LN:i:358008_dp:f:1.0"	358008
1	0	"Chromosome"	"S10_LN:i:181262_dp:f:0.9429089248084396"	181262
1	0	"Chromosome"	"S11_LN:i:168637_dp:f:1.0187509780607902"	168637
1	0	"Chromosome"	"S12_LN:i:145061_dp:f:1.0239813582778232"	145061
1	0	"Chromosome"	"S13_LN:i:143023_dp:f:1.0179541218722516"	143023
1	0	"Chromosome"	"S14_LN:i:134643_dp:f:0.9971226522582897"	134643
1	0	"Chromosome"	"S15_LN:i:120772_dp:f:0.9921016383097947"	120772
1	0	"Chromosome"	"S16_LN:i:120011_dp:f:1.0374135878066608"	120011
1	0	"Chromosome"	"S17_LN:i:116082_dp:f:0.9402522756173728"	116082
1	0	"Chromosome"	"S18_LN:i:110927_dp:f:1.0294448008829993"	110927
1	0	"Chromosome"	"S19_LN:i:102815_dp:f:1.030534900489561"	102815
1	0	"Chromosome"	"S2_LN:i:246583_dp:f:0.9279869676881604"	246583
0	1	"Plasmid"	"S20_LN:i:96123_dp:f:1.03309350275031"	96123
1	0	"Chromosome"	"S21_LN:i:94620_dp:f:1.0265900264493144"	94620
1	0	"Chromosome"	"S22_LN:i:87057_dp:f:1.0296913244963344"	87057
1	0	"Chromosome"	"S23_LN:i:81974_dp:f:1.0587379836560036"	81974
1	0	"Chromosome"	"S24_LN:i:81339_dp:f:1.0100135137981887"	81339
1	0	"Chromosome"	"S25_LN:i:78407_dp:f:0.9753399989069277"	78407
1	0	"Chromosome"	"S26_LN:i:75479_dp:f:0.998118871674174"	75479
1	0	"Chromosome"	"S27_LN:i:72967_dp:f:0.9542987417649724"	72967
1	0	"Chromosome"	"S28_LN:i:72944_dp:f:0.8802482230690735"	72944
1	0	"Chromosome"	"S29_LN:i:71813_dp:f:1.034333491658697"	71813
1	0	"Chromosome"	"S3_LN:i:235894_dp:f:0.9838090954973651"	235894
1	0	"Chromosome"	"S30_LN:i:66416_dp:f:1.0552548042947272"	66416
1	0	"Chromosome"	"S31_LN:i:63371_dp:f:0.943177108151774"	63371
1	0	"Chromosome"	"S32_LN:i:55355_dp:f:0.928584345680063"	55355
1	0	"Chromosome"	"S33_LN:i:46671_dp:f:0.9143980956212329"	46671
1	0	"Chromosome"	"S34_LN:i:43644_dp:f:1.030390139157998"	43644
1	0	"Chromosome"	"S35_LN:i:39777_dp:f:0.9438299473917475"	39777
0.33	0.67	"Plasmid"	"S36_LN:i:37550_dp:f:0.9211744751488562"	37550
1	0	"Chromosome"	"S37_LN:i:33627_dp:f:1.0016592122163954"	33627
1	0	"Chromosome"	"S38_LN:i:30716_dp:f:0.9352295252110285"	30716
1	0	"Chromosome"	"S39_LN:i:30711_dp:f:1.0899599077116073"	30711
1	0	"Chromosome"	"S4_LN:i:227645_dp:f:0.9951990375390035"	227645
1	0	"Chromosome"	"S40_LN:i:27895_dp:f:0.953834976952253"	27895
1	0	"Chromosome"	"S41_LN:i:26062_dp:f:1.0403880270139128"	26062
1	0	"Chromosome"	"S42_LN:i:24514_dp:f:0.9347250072989446"	24514
1	0	"Chromosome"	"S43_LN:i:21216_dp:f:1.0099024696962435"	21216
1	0	"Chromosome"	"S44_LN:i:18663_dp:f:0.8341613160298151"	18663
1	0	"Chromosome"	"S45_LN:i:11779_dp:f:1.0061767398081998"	11779
1	0	"Chromosome"	"S46_LN:i:9690_dp:f:1.0022438967622933"	9690
1	0	"Chromosome"	"S47_LN:i:9554_dp:f:0.978621019464184"	9554
0.67	0.33	"Chromosome"	"S48_LN:i:8435_dp:f:0.9751068183548397"	8435
1	0	"Chromosome"	"S49_LN:i:8338_dp:f:0.9860610025148356"	8338
1	0	"Chromosome"	"S5_LN:i:221297_dp:f:0.9376589319077473"	221297
1	0	"Chromosome"	"S50_LN:i:7914_dp:f:2.1014416152365563"	7914
1	0	"Chromosome"	"S51_LN:i:7247_dp:f:0.9330338181438816"	7247
0	1	"Plasmid"	"S52_LN:i:6826_dp:f:91.76791477549882"	6826
1	0	"Chromosome"	"S53_LN:i:5597_dp:f:1.989119382023552"	5597
1	0	"Chromosome"	"S54_LN:i:4507_dp:f:2.185358522360403"	4507
1	0	"Chromosome"	"S55_LN:i:4392_dp:f:0.9529491708937318"	4392
1	0	"Chromosome"	"S56_LN:i:4388_dp:f:2.2045966560965473"	4388
1	0	"Chromosome"	"S57_LN:i:3163_dp:f:0.7755216983073882"	3163
0.33	0.67	"Plasmid"	"S58_LN:i:3101_dp:f:139.46511361372887"	3101
1	0	"Chromosome"	"S59_LN:i:2865_dp:f:7.338470384740887"	2865
1	0	"Chromosome"	"S6_LN:i:192723_dp:f:1.023804684089634"	192723
0	1	"Plasmid"	"S60_LN:i:2590_dp:f:191.99429913343138"	2590
1	0	"Chromosome"	"S61_LN:i:2396_dp:f:1.0701971616523842"	2396
0.33	0.67	"Plasmid"	"S62_LN:i:2198_dp:f:67.87536749979962"	2198
1	0	"Chromosome"	"S63_LN:i:2009_dp:f:0.9886958285946199"	2009
0	1	"Plasmid"	"S64_LN:i:1857_dp:f:144.7860083398932"	1857
1	0	"Chromosome"	"S65_LN:i:1700_dp:f:0.5913997030181872"	1700
1	0	"Chromosome"	"S66_LN:i:1689_dp:f:0.7265336690890533"	1689
0	1	"Plasmid"	"S67_LN:i:1678_dp:f:86.54629395611508"	1678
1	0	"Chromosome"	"S68_LN:i:1673_dp:f:2.150771329899732"	1673
1	0	"Chromosome"	"S69_LN:i:1607_dp:f:0.8174469894128777"	1607
1	0	"Chromosome"	"S7_LN:i:190614_dp:f:1.0146089111461483"	190614
0	1	"Plasmid"	"S70_LN:i:1551_dp:f:107.23487157574408"	1551
1	0	"Chromosome"	"S71_LN:i:1459_dp:f:7.803383736849404"	1459
1	0	"Chromosome"	"S72_LN:i:1433_dp:f:1.0259698881050658"	1433
1	0	"Chromosome"	"S73_LN:i:1430_dp:f:0.9336551576174708"	1430
1	0	"Chromosome"	"S74_LN:i:1368_dp:f:1.5152498597244115"	1368
1	0	"Chromosome"	"S75_LN:i:1258_dp:f:2.1159538906642466"	1258
1	0	"Chromosome"	"S76_LN:i:1252_dp:f:3.2466357569075956"	1252
1	0	"Chromosome"	"S77_LN:i:1168_dp:f:10.472764876069178"	1168
1	0	"Chromosome"	"S78_LN:i:1151_dp:f:1.9869813487936812"	1151
0.67	0.33	"Chromosome"	"S79_LN:i:1136_dp:f:5.519148226632034"	1136
1	0	"Chromosome"	"S8_LN:i:189301_dp:f:1.0354276632506678"	189301
1	0	"Chromosome"	"S80_LN:i:1095_dp:f:2.1946113283207507"	1095
1	0	"Chromosome"	"S81_LN:i:1040_dp:f:0.7873250335982143"	1040
1	0	"Chromosome"	"S82_LN:i:1008_dp:f:1.211743405765692"	1008
1	0	"Chromosome"	"S9_LN:i:188011_dp:f:1.0141290007379689"	188011
