"Prob_Chromosome"	"Prob_Plasmid"	"Prediction"	"Contig_name"	"Contig_length"
1	0	"Chromosome"	"S1_LN:i:440730_dp:f:1.0076011984372024"	440730
1	0	"Chromosome"	"S10_LN:i:216083_dp:f:1.0070598759857503"	216083
1	0	"Chromosome"	"S11_LN:i:211129_dp:f:1.0122849931041051"	211129
1	0	"Chromosome"	"S12_LN:i:169884_dp:f:0.9863665847837941"	169884
1	0	"Chromosome"	"S13_LN:i:165118_dp:f:1.0125881186192067"	165118
1	0	"Chromosome"	"S14_LN:i:150561_dp:f:1.0017994460112347"	150561
1	0	"Chromosome"	"S15_LN:i:148197_dp:f:0.9917429012467063"	148197
1	0	"Chromosome"	"S16_LN:i:134828_dp:f:1.0137904497816328"	134828
1	0	"Chromosome"	"S17_LN:i:109829_dp:f:1.0413568329319878"	109829
1	0	"Chromosome"	"S18_LN:i:99927_dp:f:0.9980263317319458"	99927
1	0	"Chromosome"	"S19_LN:i:99723_dp:f:0.9900853172398676"	99723
1	0	"Chromosome"	"S2_LN:i:360602_dp:f:0.9937223533212828"	360602
1	0	"Chromosome"	"S20_LN:i:96341_dp:f:0.9951186870444877"	96341
1	0	"Chromosome"	"S21_LN:i:89509_dp:f:1.0010991764051393"	89509
1	0	"Chromosome"	"S22_LN:i:78517_dp:f:1.0165633500528841"	78517
1	0	"Chromosome"	"S23_LN:i:72920_dp:f:0.9917980511468268"	72920
1	0	"Chromosome"	"S24_LN:i:70833_dp:f:0.9992748555407023"	70833
1	0	"Chromosome"	"S25_LN:i:68644_dp:f:1.0363040512380073"	68644
0	1	"Plasmid"	"S26_LN:i:53264_dp:f:2.107414165623572"	53264
0	1	"Plasmid"	"S27_LN:i:42210_dp:f:2.138578109291597"	42210
1	0	"Chromosome"	"S28_LN:i:32321_dp:f:0.9683032386886092"	32321
1	0	"Chromosome"	"S29_LN:i:29972_dp:f:0.974095871039252"	29972
1	0	"Chromosome"	"S3_LN:i:340888_dp:f:0.9950594144361756"	340888
1	0	"Chromosome"	"S30_LN:i:29731_dp:f:0.9894129759183213"	29731
1	0	"Chromosome"	"S31_LN:i:26053_dp:f:1.021288162923013"	26053
1	0	"Chromosome"	"S32_LN:i:18726_dp:f:1.0474271111719733"	18726
1	0	"Chromosome"	"S33_LN:i:16182_dp:f:1.011703478897622"	16182
1	0	"Chromosome"	"S34_LN:i:14273_dp:f:1.898914398435921"	14273
1	0	"Chromosome"	"S35_LN:i:12058_dp:f:2.8563749543725985"	12058
1	0	"Chromosome"	"S36_LN:i:6527_dp:f:1.013395048126083"	6527
1	0	"Chromosome"	"S37_LN:i:5191_dp:f:1.1099826489743885"	5191
1	0	"Chromosome"	"S38_LN:i:4521_dp:f:1.9149970722162895"	4521
1	0	"Chromosome"	"S39_LN:i:4479_dp:f:1.0500140579715436"	4479
1	0	"Chromosome"	"S4_LN:i:312735_dp:f:1.0"	312735
1	0	"Chromosome"	"S40_LN:i:4476_dp:f:1.0720146540766082"	4476
1	0	"Chromosome"	"S41_LN:i:3803_dp:f:1.1593558298099915"	3803
0.33	0.67	"Plasmid"	"S42_LN:i:3661_dp:f:0.9919775720829549"	3661
1	0	"Chromosome"	"S43_LN:i:3477_dp:f:1.9763578877164627"	3477
1	0	"Chromosome"	"S44_LN:i:3047_dp:f:6.64504547915462"	3047
1	0	"Chromosome"	"S45_LN:i:2705_dp:f:0.9417927608460936"	2705
1	0	"Chromosome"	"S46_LN:i:2621_dp:f:0.9927981028658958"	2621
1	0	"Chromosome"	"S47_LN:i:2581_dp:f:6.232937711324649"	2581
1	0	"Chromosome"	"S48_LN:i:2530_dp:f:0.9324726256171412"	2530
1	0	"Chromosome"	"S49_LN:i:2063_dp:f:1.992304180099697"	2063
1	0	"Chromosome"	"S5_LN:i:311908_dp:f:1.0113576916888922"	311908
1	0	"Chromosome"	"S50_LN:i:1984_dp:f:2.179137353135247"	1984
1	0	"Chromosome"	"S51_LN:i:1727_dp:f:1.0872131503102176"	1727
1	0	"Chromosome"	"S52_LN:i:1672_dp:f:0.9596926764641757"	1672
1	0	"Chromosome"	"S53_LN:i:1662_dp:f:2.850990360303895"	1662
1	0	"Chromosome"	"S54_LN:i:1621_dp:f:6.543811260945092"	1621
1	0	"Chromosome"	"S55_LN:i:1595_dp:f:1.1706459229587862"	1595
1	0	"Chromosome"	"S56_LN:i:1593_dp:f:1.1742730889886106"	1593
1	0	"Chromosome"	"S57_LN:i:1505_dp:f:1.8892681507399214"	1505
1	0	"Chromosome"	"S58_LN:i:1499_dp:f:0.9659215129621366"	1499
1	0	"Chromosome"	"S59_LN:i:1469_dp:f:1.1925959963383403"	1469
1	0	"Chromosome"	"S6_LN:i:262053_dp:f:1.001779788040633"	262053
1	0	"Chromosome"	"S60_LN:i:1464_dp:f:0.9051319131572997"	1464
1	0	"Chromosome"	"S61_LN:i:1464_dp:f:0.9395274722945084"	1464
1	0	"Chromosome"	"S62_LN:i:1463_dp:f:1.1731845096656826"	1463
1	0	"Chromosome"	"S63_LN:i:1452_dp:f:1.1339559637668366"	1452
1	0	"Chromosome"	"S64_LN:i:1171_dp:f:1.727456712365004"	1171
1	0	"Chromosome"	"S65_LN:i:1120_dp:f:1.8305328296963388"	1120
1	0	"Chromosome"	"S66_LN:i:1052_dp:f:0.992187715775135"	1052
1	0	"Chromosome"	"S67_LN:i:1050_dp:f:1.8331282076962765"	1050
1	0	"Chromosome"	"S7_LN:i:258131_dp:f:0.9949558538429817"	258131
1	0	"Chromosome"	"S8_LN:i:242157_dp:f:0.9871976761309202"	242157
1	0	"Chromosome"	"S9_LN:i:223796_dp:f:0.9974768622925075"	223796
