"Prob_Chromosome"	"Prob_Plasmid"	"Prediction"	"Contig_name"	"Contig_length"
1	0	"Chromosome"	"S1_LN:i:576943_dp:f:1.0"	576943
1	0	"Chromosome"	"S10_LN:i:133517_dp:f:1.0268587809609793"	133517
1	0	"Chromosome"	"S100_LN:i:1299_dp:f:1.0092930473218318"	1299
0.67	0.33	"Chromosome"	"S101_LN:i:1234_dp:f:1.9411117600430032"	1234
1	0	"Chromosome"	"S102_LN:i:1186_dp:f:0.9933026551056917"	1186
1	0	"Chromosome"	"S103_LN:i:1186_dp:f:1.0046069388531427"	1186
1	0	"Chromosome"	"S104_LN:i:1133_dp:f:2.1048616606174884"	1133
1	0	"Chromosome"	"S105_LN:i:1130_dp:f:0.8025263196008341"	1130
1	0	"Chromosome"	"S106_LN:i:1119_dp:f:2.120862851309865"	1119
1	0	"Chromosome"	"S107_LN:i:1116_dp:f:0.8325762418339364"	1116
0	1	"Plasmid"	"S108_LN:i:1086_dp:f:8.880483756467669"	1086
0.5	0.5	"Plasmid"	"S109_LN:i:1043_dp:f:1.8789637759026323"	1043
1	0	"Chromosome"	"S11_LN:i:127094_dp:f:0.9410948917219764"	127094
1	0	"Chromosome"	"S110_LN:i:1031_dp:f:1.9553511212578567"	1031
1	0	"Chromosome"	"S12_LN:i:119378_dp:f:0.969322250910512"	119378
1	0	"Chromosome"	"S13_LN:i:109260_dp:f:0.9421790547669632"	109260
1	0	"Chromosome"	"S14_LN:i:101314_dp:f:0.9892002666592492"	101314
1	0	"Chromosome"	"S15_LN:i:97442_dp:f:1.0349316414357501"	97442
1	0	"Chromosome"	"S16_LN:i:95415_dp:f:1.0354762976475458"	95415
1	0	"Chromosome"	"S17_LN:i:95193_dp:f:1.0086935813143154"	95193
1	0	"Chromosome"	"S18_LN:i:90955_dp:f:1.029736154645761"	90955
1	0	"Chromosome"	"S19_LN:i:88359_dp:f:1.0619297249882733"	88359
1	0	"Chromosome"	"S2_LN:i:222173_dp:f:0.9955105778107117"	222173
1	0	"Chromosome"	"S20_LN:i:88303_dp:f:1.0259064815015753"	88303
1	0	"Chromosome"	"S21_LN:i:82664_dp:f:1.0151366577951304"	82664
1	0	"Chromosome"	"S22_LN:i:76439_dp:f:1.0192317325325677"	76439
1	0	"Chromosome"	"S23_LN:i:72683_dp:f:0.9861295414007097"	72683
1	0	"Chromosome"	"S24_LN:i:69350_dp:f:0.9855020681898853"	69350
1	0	"Chromosome"	"S25_LN:i:66407_dp:f:0.9716421509007411"	66407
1	0	"Chromosome"	"S26_LN:i:65425_dp:f:0.9239256765866655"	65425
1	0	"Chromosome"	"S27_LN:i:60369_dp:f:1.0201946038340048"	60369
1	0	"Chromosome"	"S28_LN:i:60139_dp:f:1.0276192230851289"	60139
0	1	"Plasmid"	"S29_LN:i:58644_dp:f:0.9396858475715258"	58644
1	0	"Chromosome"	"S3_LN:i:205866_dp:f:1.0322310328746893"	205866
1	0	"Chromosome"	"S30_LN:i:55096_dp:f:1.0233188024639293"	55096
1	0	"Chromosome"	"S31_LN:i:53669_dp:f:1.0068039340164725"	53669
1	0	"Chromosome"	"S32_LN:i:51901_dp:f:1.010376422734583"	51901
1	0	"Chromosome"	"S33_LN:i:46451_dp:f:1.0240927246901153"	46451
1	0	"Chromosome"	"S34_LN:i:45606_dp:f:0.9693324040594838"	45606
1	0	"Chromosome"	"S35_LN:i:45143_dp:f:1.0272364149514357"	45143
1	0	"Chromosome"	"S36_LN:i:44608_dp:f:0.9875955958817011"	44608
1	0	"Chromosome"	"S37_LN:i:43005_dp:f:1.0330094266219256"	43005
1	0	"Chromosome"	"S38_LN:i:42929_dp:f:0.9478429200860057"	42929
1	0	"Chromosome"	"S39_LN:i:41167_dp:f:1.0145305664276916"	41167
1	0	"Chromosome"	"S4_LN:i:180916_dp:f:1.0288060229475766"	180916
1	0	"Chromosome"	"S40_LN:i:38012_dp:f:1.0447275802554328"	38012
0	1	"Plasmid"	"S41_LN:i:31880_dp:f:7.411657115259258"	31880
1	0	"Chromosome"	"S42_LN:i:30783_dp:f:1.0990202537279115"	30783
1	0	"Chromosome"	"S43_LN:i:26395_dp:f:1.042788715998167"	26395
1	0	"Chromosome"	"S44_LN:i:21670_dp:f:1.0545547959365666"	21670
1	0	"Chromosome"	"S45_LN:i:20644_dp:f:1.0209478298179002"	20644
1	0	"Chromosome"	"S46_LN:i:20467_dp:f:0.9926655826946443"	20467
1	0	"Chromosome"	"S47_LN:i:20259_dp:f:0.9392618313538965"	20259
0.67	0.33	"Chromosome"	"S48_LN:i:18903_dp:f:0.9713684546028827"	18903
1	0	"Chromosome"	"S49_LN:i:18241_dp:f:0.9725296326160943"	18241
1	0	"Chromosome"	"S5_LN:i:157761_dp:f:0.980460900659905"	157761
1	0	"Chromosome"	"S50_LN:i:18034_dp:f:1.0540202928737432"	18034
1	0	"Chromosome"	"S51_LN:i:17535_dp:f:1.001799335031518"	17535
1	0	"Chromosome"	"S52_LN:i:17453_dp:f:0.9204099289785821"	17453
1	0	"Chromosome"	"S53_LN:i:17038_dp:f:1.0118476828555134"	17038
1	0	"Chromosome"	"S54_LN:i:16539_dp:f:1.0486613231765802"	16539
1	0	"Chromosome"	"S55_LN:i:16407_dp:f:0.9825017266250661"	16407
0	1	"Plasmid"	"S56_LN:i:15854_dp:f:0.8935375314225483"	15854
1	0	"Chromosome"	"S57_LN:i:15399_dp:f:1.0114602713873289"	15399
1	0	"Chromosome"	"S58_LN:i:15323_dp:f:0.9097334626164969"	15323
1	0	"Chromosome"	"S59_LN:i:13782_dp:f:0.9712609861023247"	13782
1	0	"Chromosome"	"S6_LN:i:154354_dp:f:0.9528798539682544"	154354
1	0	"Chromosome"	"S60_LN:i:13594_dp:f:0.9972412594922366"	13594
1	0	"Chromosome"	"S61_LN:i:12069_dp:f:1.022707594248175"	12069
1	0	"Chromosome"	"S62_LN:i:12003_dp:f:0.9605106943011051"	12003
1	0	"Chromosome"	"S63_LN:i:11563_dp:f:0.9744495050976648"	11563
0	1	"Plasmid"	"S64_LN:i:11365_dp:f:1.969367930609865"	11365
1	0	"Chromosome"	"S65_LN:i:10528_dp:f:0.9746994188365525"	10528
0	1	"Plasmid"	"S66_LN:i:10496_dp:f:0.8057737096514839"	10496
1	0	"Chromosome"	"S67_LN:i:9714_dp:f:0.9294548789488886"	9714
1	0	"Chromosome"	"S68_LN:i:8422_dp:f:0.9862458723957094"	8422
1	0	"Chromosome"	"S69_LN:i:8308_dp:f:1.0489342535879254"	8308
1	0	"Chromosome"	"S7_LN:i:153429_dp:f:1.0076877546813183"	153429
0	1	"Plasmid"	"S70_LN:i:8120_dp:f:0.9533982165794205"	8120
1	0	"Chromosome"	"S71_LN:i:7493_dp:f:1.0355175125488805"	7493
1	0	"Chromosome"	"S72_LN:i:6555_dp:f:0.998796670288544"	6555
0.33	0.67	"Plasmid"	"S73_LN:i:5852_dp:f:8.771909207998949"	5852
1	0	"Chromosome"	"S74_LN:i:4966_dp:f:0.9530245968725203"	4966
1	0	"Chromosome"	"S75_LN:i:4949_dp:f:0.7162615521032464"	4949
1	0	"Chromosome"	"S76_LN:i:4909_dp:f:0.982119047556826"	4909
0.67	0.33	"Chromosome"	"S77_LN:i:4739_dp:f:0.9336547978560058"	4739
0.67	0.33	"Chromosome"	"S78_LN:i:4730_dp:f:0.9753709894104962"	4730
0	1	"Plasmid"	"S79_LN:i:4515_dp:f:0.9725923937275244"	4515
1	0	"Chromosome"	"S8_LN:i:147367_dp:f:1.03148232418165"	147367
1	0	"Chromosome"	"S80_LN:i:4202_dp:f:0.9259242504593781"	4202
1	0	"Chromosome"	"S81_LN:i:4201_dp:f:1.0707519940302819"	4201
1	0	"Chromosome"	"S82_LN:i:4114_dp:f:0.9811023559614745"	4114
0	1	"Plasmid"	"S83_LN:i:3702_dp:f:1.0265686733192652"	3702
1	0	"Chromosome"	"S84_LN:i:3647_dp:f:0.9657719184285053"	3647
1	0	"Chromosome"	"S85_LN:i:3478_dp:f:0.8691721917575553"	3478
1	0	"Chromosome"	"S86_LN:i:3107_dp:f:7.045977608385563"	3107
0.5	0.5	"Plasmid"	"S87_LN:i:3085_dp:f:0.9171736987874378"	3085
0.67	0.33	"Chromosome"	"S88_LN:i:3085_dp:f:0.7058928638248251"	3085
0	1	"Plasmid"	"S89_LN:i:2872_dp:f:0.7832898451973016"	2872
1	0	"Chromosome"	"S9_LN:i:137881_dp:f:1.0176174248678602"	137881
1	0	"Chromosome"	"S90_LN:i:2418_dp:f:0.9216206919934761"	2418
1	0	"Chromosome"	"S91_LN:i:2002_dp:f:3.294346944924646"	2002
0	1	"Plasmid"	"S92_LN:i:1878_dp:f:7.848595736545321"	1878
1	0	"Chromosome"	"S93_LN:i:1509_dp:f:1.6541919872654816"	1509
1	0	"Chromosome"	"S94_LN:i:1503_dp:f:0.781166159211294"	1503
1	0	"Chromosome"	"S95_LN:i:1463_dp:f:7.310585406079251"	1463
1	0	"Chromosome"	"S96_LN:i:1427_dp:f:0.8752685984315259"	1427
1	0	"Chromosome"	"S97_LN:i:1343_dp:f:3.0093336839974962"	1343
1	0	"Chromosome"	"S98_LN:i:1332_dp:f:0.7268298616156905"	1332
1	0	"Chromosome"	"S99_LN:i:1329_dp:f:0.9793964118251139"	1329
