"Prob_Chromosome"	"Prob_Plasmid"	"Prediction"	"Contig_name"	"Contig_length"
1	0	"Chromosome"	"S1_LN:i:749781_dp:f:1.0"	749781
1	0	"Chromosome"	"S1_LN:i:749781_dp:f:1.0"	749781
1	0	"Chromosome"	"S1_LN:i:749781_dp:f:1.0"	749781
1	0	"Chromosome"	"S1_LN:i:749781_dp:f:1.0"	749781
1	0	"Chromosome"	"S10_LN:i:187029_dp:f:0.976392524950872"	187029
1	0	"Chromosome"	"S11_LN:i:154365_dp:f:1.0546538294818524"	154365
0	1	"Plasmid"	"S12_LN:i:142555_dp:f:1.5790293117563374"	142555
1	0	"Chromosome"	"S13_LN:i:134888_dp:f:0.9947082835443097"	134888
1	0	"Chromosome"	"S14_LN:i:119091_dp:f:1.0031090231815794"	119091
1	0	"Chromosome"	"S15_LN:i:116351_dp:f:1.0401652253671438"	116351
1	0	"Chromosome"	"S16_LN:i:110345_dp:f:1.0503815149269713"	110345
1	0	"Chromosome"	"S17_LN:i:104098_dp:f:1.076722291092788"	104098
1	0	"Chromosome"	"S18_LN:i:102637_dp:f:1.0326015449386046"	102637
1	0	"Chromosome"	"S19_LN:i:94489_dp:f:1.0595361665528078"	94489
1	0	"Chromosome"	"S2_LN:i:461207_dp:f:1.028164819323047"	461207
1	0	"Chromosome"	"S20_LN:i:88132_dp:f:1.0670963475616526"	88132
1	0	"Chromosome"	"S21_LN:i:69081_dp:f:1.049824239455842"	69081
1	0	"Chromosome"	"S22_LN:i:45451_dp:f:0.9993562001980466"	45451
1	0	"Chromosome"	"S23_LN:i:44238_dp:f:0.94641673345101"	44238
1	0	"Chromosome"	"S24_LN:i:38680_dp:f:1.0720379025046283"	38680
1	0	"Chromosome"	"S25_LN:i:35624_dp:f:0.9135442093278553"	35624
1	0	"Chromosome"	"S26_LN:i:32919_dp:f:1.02752184764186"	32919
1	0	"Chromosome"	"S27_LN:i:30862_dp:f:1.1441157589937065"	30862
1	0	"Chromosome"	"S28_LN:i:30165_dp:f:0.9735193642014079"	30165
1	0	"Chromosome"	"S29_LN:i:26140_dp:f:1.0639332896359692"	26140
1	0	"Chromosome"	"S3_LN:i:355905_dp:f:0.9455035663037739"	355905
1	0	"Chromosome"	"S30_LN:i:25547_dp:f:1.0669360475272933"	25547
1	0	"Chromosome"	"S31_LN:i:24481_dp:f:0.9171838534718988"	24481
1	0	"Chromosome"	"S32_LN:i:24126_dp:f:1.0185505361164835"	24126
1	0	"Chromosome"	"S33_LN:i:18780_dp:f:1.0616180080999515"	18780
1	0	"Chromosome"	"S34_LN:i:14029_dp:f:1.062988156711675"	14029
1	0	"Chromosome"	"S35_LN:i:10233_dp:f:1.001746394239071"	10233
1	0	"Chromosome"	"S36_LN:i:7489_dp:f:1.0554455253702006"	7489
1	0	"Chromosome"	"S37_LN:i:7345_dp:f:0.7486579230085691"	7345
0	1	"Plasmid"	"S38_LN:i:6760_dp:f:107.41313331114736"	6760
1	0	"Chromosome"	"S39_LN:i:4253_dp:f:1.0111739893366016"	4253
1	0	"Chromosome"	"S4_LN:i:297343_dp:f:0.922577032470146"	297343
1	0	"Chromosome"	"S40_LN:i:3028_dp:f:7.763157814491863"	3028
0	1	"Plasmid"	"S41_LN:i:2590_dp:f:236.424427858671"	2590
1	0	"Chromosome"	"S42_LN:i:1979_dp:f:0.7890580458868127"	1979
1	0	"Chromosome"	"S43_LN:i:1859_dp:f:2.3043450539182877"	1859
1	0	"Chromosome"	"S44_LN:i:1856_dp:f:1.0288327783815634"	1856
1	0	"Chromosome"	"S45_LN:i:1796_dp:f:1.2954342853726002"	1796
1	0	"Chromosome"	"S46_LN:i:1708_dp:f:7.542626145204281"	1708
1	0	"Chromosome"	"S47_LN:i:1564_dp:f:0.6935149115240993"	1564
1	0	"Chromosome"	"S48_LN:i:1353_dp:f:2.967864838707356"	1353
1	0	"Chromosome"	"S49_LN:i:1178_dp:f:9.353861527740305"	1178
1	0	"Chromosome"	"S5_LN:i:293611_dp:f:1.0297515377833852"	293611
1	0	"Chromosome"	"S50_LN:i:1153_dp:f:5.283102745663805"	1153
1	0	"Chromosome"	"S51_LN:i:1095_dp:f:0.7444092410261717"	1095
1	0	"Chromosome"	"S52_LN:i:1038_dp:f:0.6831699218449582"	1038
1	0	"Chromosome"	"S6_LN:i:270916_dp:f:0.9841198535071788"	270916
1	0	"Chromosome"	"S7_LN:i:215028_dp:f:1.055657003764153"	215028
1	0	"Chromosome"	"S8_LN:i:194750_dp:f:1.0338024680606883"	194750
1	0	"Chromosome"	"S9_LN:i:189883_dp:f:1.0446223807873474"	189883
