"Prob_Chromosome"	"Prob_Plasmid"	"Prediction"	"Contig_name"	"Contig_length"
1	0	"Chromosome"	"S1_LN:i:473849_dp:f:0.9559924283242159"	473849
1	0	"Chromosome"	"S10_LN:i:151185_dp:f:1.0467095436924394"	151185
1	0	"Chromosome"	"S11_LN:i:123512_dp:f:1.0593162763663573"	123512
1	0	"Chromosome"	"S12_LN:i:119266_dp:f:1.0025240160387907"	119266
1	0	"Chromosome"	"S13_LN:i:118882_dp:f:1.018395010522174"	118882
1	0	"Chromosome"	"S14_LN:i:115023_dp:f:1.0400894817743207"	115023
1	0	"Chromosome"	"S15_LN:i:113707_dp:f:0.9583616925353583"	113707
1	0	"Chromosome"	"S16_LN:i:109486_dp:f:0.9310012150308199"	109486
1	0	"Chromosome"	"S17_LN:i:108009_dp:f:0.9836029823288075"	108009
1	0	"Chromosome"	"S18_LN:i:107853_dp:f:1.035657181063319"	107853
1	0	"Chromosome"	"S19_LN:i:98972_dp:f:1.062070485789152"	98972
1	0	"Chromosome"	"S2_LN:i:427856_dp:f:1.0"	427856
1	0	"Chromosome"	"S20_LN:i:91828_dp:f:1.018369267766345"	91828
1	0	"Chromosome"	"S21_LN:i:81817_dp:f:1.0928677321341647"	81817
1	0	"Chromosome"	"S22_LN:i:79981_dp:f:0.9227466836382734"	79981
1	0	"Chromosome"	"S23_LN:i:76634_dp:f:1.0767603556477514"	76634
1	0	"Chromosome"	"S24_LN:i:76614_dp:f:1.0755455259780216"	76614
1	0	"Chromosome"	"S25_LN:i:76505_dp:f:1.0723127566253239"	76505
0	1	"Plasmid"	"S26_LN:i:71264_dp:f:7.74466178197116"	71264
1	0	"Chromosome"	"S27_LN:i:69091_dp:f:1.0608588389895846"	69091
1	0	"Chromosome"	"S28_LN:i:65959_dp:f:1.0595900032003247"	65959
1	0	"Chromosome"	"S29_LN:i:62157_dp:f:1.0411415743728436"	62157
1	0	"Chromosome"	"S3_LN:i:333773_dp:f:1.0477869752888571"	333773
1	0	"Chromosome"	"S30_LN:i:52895_dp:f:0.9828308796313456"	52895
1	0	"Chromosome"	"S31_LN:i:52788_dp:f:1.04316511920155"	52788
1	0	"Chromosome"	"S32_LN:i:41681_dp:f:1.0812993338458097"	41681
1	0	"Chromosome"	"S33_LN:i:40107_dp:f:1.0473074099168171"	40107
1	0	"Chromosome"	"S34_LN:i:38275_dp:f:0.9721178520308303"	38275
0.67	0.33	"Chromosome"	"S35_LN:i:37981_dp:f:1.0126623350037398"	37981
1	0	"Chromosome"	"S36_LN:i:37834_dp:f:0.9643970304026731"	37834
0	1	"Plasmid"	"S37_LN:i:37616_dp:f:8.348128477478165"	37616
1	0	"Chromosome"	"S38_LN:i:30710_dp:f:1.1399801655852264"	30710
1	0	"Chromosome"	"S39_LN:i:26062_dp:f:1.0425553847643396"	26062
1	0	"Chromosome"	"S4_LN:i:220002_dp:f:0.9469761572589058"	220002
1	0	"Chromosome"	"S40_LN:i:24829_dp:f:1.014067875424926"	24829
1	0	"Chromosome"	"S41_LN:i:23782_dp:f:1.0794766256887782"	23782
1	0	"Chromosome"	"S42_LN:i:21986_dp:f:0.8895117622889119"	21986
1	0	"Chromosome"	"S43_LN:i:20262_dp:f:1.0289429677923314"	20262
1	0	"Chromosome"	"S44_LN:i:19384_dp:f:0.9225540951885577"	19384
1	0	"Chromosome"	"S45_LN:i:19005_dp:f:1.0775107942934627"	19005
1	0	"Chromosome"	"S46_LN:i:16710_dp:f:1.0150056927172952"	16710
1	0	"Chromosome"	"S47_LN:i:15985_dp:f:1.0346224402408426"	15985
1	0	"Chromosome"	"S48_LN:i:14151_dp:f:1.027372272703798"	14151
1	0	"Chromosome"	"S49_LN:i:14077_dp:f:1.1160133586087446"	14077
1	0	"Chromosome"	"S5_LN:i:209157_dp:f:1.0228688194436815"	209157
1	0	"Chromosome"	"S50_LN:i:11734_dp:f:1.0258642253558041"	11734
1	0	"Chromosome"	"S51_LN:i:11073_dp:f:1.0852973267894892"	11073
1	0	"Chromosome"	"S52_LN:i:9799_dp:f:1.0005777422710929"	9799
1	0	"Chromosome"	"S53_LN:i:9787_dp:f:0.9643928208002003"	9787
1	0	"Chromosome"	"S54_LN:i:7379_dp:f:1.0803747614002452"	7379
0	1	"Plasmid"	"S55_LN:i:6809_dp:f:64.58805189556858"	6809
1	0	"Chromosome"	"S56_LN:i:6448_dp:f:0.9601469746767769"	6448
1	0	"Chromosome"	"S57_LN:i:6271_dp:f:0.946022628974776"	6271
1	0	"Chromosome"	"S58_LN:i:6176_dp:f:1.004935461563837"	6176
1	0	"Chromosome"	"S59_LN:i:4737_dp:f:0.9399314490816135"	4737
1	0	"Chromosome"	"S6_LN:i:204655_dp:f:1.0248466901949715"	204655
1	0	"Chromosome"	"S60_LN:i:4490_dp:f:1.8218438736474472"	4490
1	0	"Chromosome"	"S61_LN:i:4392_dp:f:0.9734758081846377"	4392
1	0	"Chromosome"	"S62_LN:i:3657_dp:f:4.02077685236113"	3657
1	0	"Chromosome"	"S63_LN:i:3491_dp:f:1.1277595869332706"	3491
1	0	"Chromosome"	"S64_LN:i:3324_dp:f:0.883140627723785"	3324
1	0	"Chromosome"	"S65_LN:i:3274_dp:f:1.9350657524505277"	3274
1	0	"Chromosome"	"S66_LN:i:3143_dp:f:7.694364584634931"	3143
1	0	"Chromosome"	"S67_LN:i:2772_dp:f:0.973253007273269"	2772
1	0	"Chromosome"	"S68_LN:i:2655_dp:f:3.505623772220669"	2655
0.67	0.33	"Chromosome"	"S69_LN:i:2049_dp:f:4.192347825694119"	2049
1	0	"Chromosome"	"S7_LN:i:196323_dp:f:1.0432231714590594"	196323
1	0	"Chromosome"	"S70_LN:i:1882_dp:f:3.557817606549402"	1882
1	0	"Chromosome"	"S71_LN:i:1871_dp:f:1.035088782056251"	1871
1	0	"Chromosome"	"S72_LN:i:1781_dp:f:0.8669620729408783"	1781
1	0	"Chromosome"	"S73_LN:i:1702_dp:f:1.050827664316442"	1702
1	0	"Chromosome"	"S74_LN:i:1622_dp:f:0.7448945992545718"	1622
1	0	"Chromosome"	"S75_LN:i:1612_dp:f:0.8417551906708638"	1612
1	0	"Chromosome"	"S76_LN:i:1554_dp:f:0.7579531968183209"	1554
1	0	"Chromosome"	"S77_LN:i:1459_dp:f:7.757301735167338"	1459
1	0	"Chromosome"	"S78_LN:i:1434_dp:f:0.6784684069847777"	1434
1	0	"Chromosome"	"S79_LN:i:1420_dp:f:1.0042331146427736"	1420
1	0	"Chromosome"	"S8_LN:i:184999_dp:f:1.0484027826939284"	184999
1	0	"Chromosome"	"S80_LN:i:1393_dp:f:1.0784409110935036"	1393
1	0	"Chromosome"	"S81_LN:i:1376_dp:f:1.0605468150404374"	1376
1	0	"Chromosome"	"S82_LN:i:1366_dp:f:1.8303015810548173"	1366
0.33	0.67	"Plasmid"	"S83_LN:i:1356_dp:f:1.0162780193964107"	1356
1	0	"Chromosome"	"S84_LN:i:1343_dp:f:6.022004516184741"	1343
1	0	"Chromosome"	"S85_LN:i:1342_dp:f:0.7115135810502999"	1342
1	0	"Chromosome"	"S86_LN:i:1284_dp:f:8.09041989963281"	1284
1	0	"Chromosome"	"S87_LN:i:1260_dp:f:2.163296845662728"	1260
1	0	"Chromosome"	"S88_LN:i:1113_dp:f:0.9449895975153185"	1113
1	0	"Chromosome"	"S89_LN:i:1090_dp:f:1.0264792209401643"	1090
1	0	"Chromosome"	"S9_LN:i:158594_dp:f:0.9777274845768442"	158594
1	0	"Chromosome"	"S90_LN:i:1090_dp:f:1.0349157776619395"	1090
1	0	"Chromosome"	"S91_LN:i:1089_dp:f:1.072496233689202"	1089
1	0	"Chromosome"	"S92_LN:i:1040_dp:f:0.7285664753214108"	1040
1	0	"Chromosome"	"S93_LN:i:1039_dp:f:0.9932710017837421"	1039
1	0	"Chromosome"	"S94_LN:i:1039_dp:f:0.9665020369855674"	1039
