"Prob_Chromosome"	"Prob_Plasmid"	"Prediction"	"Contig_name"	"Contig_length"
1	0	"Chromosome"	"S1_LN:i:618362_dp:f:1.0"	618362
1	0	"Chromosome"	"S10_LN:i:160185_dp:f:1.0271987554538773"	160185
1	0	"Chromosome"	"S11_LN:i:159819_dp:f:1.1194329056612289"	159819
1	0	"Chromosome"	"S12_LN:i:158701_dp:f:1.1791843696056938"	158701
1	0	"Chromosome"	"S13_LN:i:138725_dp:f:1.130939024839554"	138725
1	0	"Chromosome"	"S14_LN:i:136366_dp:f:0.8910776522124977"	136366
1	0	"Chromosome"	"S15_LN:i:124484_dp:f:1.0794347313992707"	124484
1	0	"Chromosome"	"S16_LN:i:115575_dp:f:1.2176638866066547"	115575
1	0	"Chromosome"	"S17_LN:i:110447_dp:f:0.8724627534641283"	110447
1	0	"Chromosome"	"S18_LN:i:105764_dp:f:1.1361531797283866"	105764
1	0	"Chromosome"	"S19_LN:i:93258_dp:f:0.9214768822281708"	93258
1	0	"Chromosome"	"S2_LN:i:519895_dp:f:0.9608535375109837"	519895
1	0	"Chromosome"	"S20_LN:i:88318_dp:f:0.8968930392684306"	88318
1	0	"Chromosome"	"S21_LN:i:83106_dp:f:1.2340232130787447"	83106
1	0	"Chromosome"	"S22_LN:i:73207_dp:f:1.2047094036399673"	73207
1	0	"Chromosome"	"S23_LN:i:71129_dp:f:1.166319695752862"	71129
1	0	"Chromosome"	"S24_LN:i:70785_dp:f:1.2319310233530756"	70785
1	0	"Chromosome"	"S25_LN:i:65754_dp:f:0.9866285237720104"	65754
1	0	"Chromosome"	"S26_LN:i:58781_dp:f:0.8416601639152183"	58781
1	0	"Chromosome"	"S27_LN:i:49785_dp:f:1.145141561603253"	49785
1	0	"Chromosome"	"S28_LN:i:38206_dp:f:1.25142401344878"	38206
1	0	"Chromosome"	"S29_LN:i:34738_dp:f:1.082357983897862"	34738
1	0	"Chromosome"	"S3_LN:i:230893_dp:f:0.8739292288443612"	230893
1	0	"Chromosome"	"S30_LN:i:34056_dp:f:1.3112848276045885"	34056
1	0	"Chromosome"	"S31_LN:i:32609_dp:f:1.1491162584103298"	32609
1	0	"Chromosome"	"S32_LN:i:29665_dp:f:1.1846807865714895"	29665
1	0	"Chromosome"	"S33_LN:i:22939_dp:f:0.8938200674913314"	22939
1	0	"Chromosome"	"S34_LN:i:22468_dp:f:0.9555470844020624"	22468
1	0	"Chromosome"	"S35_LN:i:21901_dp:f:1.355634222993422"	21901
1	0	"Chromosome"	"S36_LN:i:21204_dp:f:0.9597497682784819"	21204
1	0	"Chromosome"	"S37_LN:i:20484_dp:f:1.4221213313881806"	20484
1	0	"Chromosome"	"S38_LN:i:20432_dp:f:1.0103789595025108"	20432
1	0	"Chromosome"	"S39_LN:i:20278_dp:f:1.2517884455585044"	20278
1	0	"Chromosome"	"S4_LN:i:221963_dp:f:1.2693256909689212"	221963
1	0	"Chromosome"	"S40_LN:i:20179_dp:f:1.329740658161735"	20179
1	0	"Chromosome"	"S41_LN:i:17484_dp:f:1.2725101760475506"	17484
1	0	"Chromosome"	"S42_LN:i:15821_dp:f:0.9013898364650642"	15821
1	0	"Chromosome"	"S43_LN:i:14420_dp:f:0.9999291071932561"	14420
0	1	"Plasmid"	"S44_LN:i:13940_dp:f:0.6980155604960449"	13940
1	0	"Chromosome"	"S45_LN:i:12795_dp:f:1.3503465919484072"	12795
1	0	"Chromosome"	"S46_LN:i:12191_dp:f:1.034356877503533"	12191
0	1	"Plasmid"	"S47_LN:i:12037_dp:f:0.8479064580580281"	12037
0.33	0.67	"Plasmid"	"S48_LN:i:11210_dp:f:1.0109858827220073"	11210
0	1	"Plasmid"	"S49_LN:i:11201_dp:f:0.7293461814664033"	11201
1	0	"Chromosome"	"S5_LN:i:190858_dp:f:1.0624388157741582"	190858
0	1	"Plasmid"	"S50_LN:i:10524_dp:f:0.8947695710785178"	10524
1	0	"Chromosome"	"S51_LN:i:10522_dp:f:1.4759234941085524"	10522
1	0	"Chromosome"	"S52_LN:i:9040_dp:f:1.150642253477415"	9040
0	1	"Plasmid"	"S53_LN:i:8493_dp:f:0.9832544684026213"	8493
1	0	"Chromosome"	"S54_LN:i:8178_dp:f:1.046645177495328"	8178
1	0	"Chromosome"	"S55_LN:i:7260_dp:f:1.427352512110497"	7260
1	0	"Chromosome"	"S56_LN:i:7121_dp:f:1.285441646260356"	7121
0	1	"Plasmid"	"S57_LN:i:6669_dp:f:5.343164446496466"	6669
1	0	"Chromosome"	"S58_LN:i:6315_dp:f:1.4411033617488216"	6315
0	1	"Plasmid"	"S59_LN:i:5999_dp:f:0.843684075710909"	5999
1	0	"Chromosome"	"S6_LN:i:190808_dp:f:1.2076341244709872"	190808
1	0	"Chromosome"	"S60_LN:i:5825_dp:f:0.9620879767505188"	5825
1	0	"Chromosome"	"S61_LN:i:5334_dp:f:1.1312387749529222"	5334
0	1	"Plasmid"	"S62_LN:i:5073_dp:f:11.795170563185188"	5073
0	1	"Plasmid"	"S63_LN:i:4722_dp:f:0.8701284846862313"	4722
0.67	0.33	"Chromosome"	"S64_LN:i:4561_dp:f:0.762436066516927"	4561
1	0	"Chromosome"	"S65_LN:i:4488_dp:f:1.3900491626967524"	4488
1	0	"Chromosome"	"S66_LN:i:4226_dp:f:1.265056001986784"	4226
1	0	"Chromosome"	"S67_LN:i:4115_dp:f:1.3902646942715449"	4115
0	1	"Plasmid"	"S68_LN:i:4087_dp:f:20.078069745810293"	4087
1	0	"Chromosome"	"S69_LN:i:3797_dp:f:1.0695523472398014"	3797
1	0	"Chromosome"	"S7_LN:i:183665_dp:f:1.1694074106352235"	183665
1	0	"Chromosome"	"S70_LN:i:3085_dp:f:10.157870261369096"	3085
0.67	0.33	"Chromosome"	"S71_LN:i:2827_dp:f:1.279921121885006"	2827
1	0	"Chromosome"	"S72_LN:i:2691_dp:f:1.316686390713122"	2691
0.33	0.67	"Plasmid"	"S73_LN:i:2595_dp:f:0.8883365993979959"	2595
1	0	"Chromosome"	"S74_LN:i:2583_dp:f:3.721232069090043"	2583
1	0	"Chromosome"	"S75_LN:i:2532_dp:f:4.480166111180663"	2532
0.67	0.33	"Chromosome"	"S76_LN:i:2364_dp:f:1.1233709027021255"	2364
1	0	"Chromosome"	"S77_LN:i:2223_dp:f:1.2809144831135058"	2223
0.67	0.33	"Chromosome"	"S78_LN:i:1558_dp:f:1.8542939012900186"	1558
0	1	"Plasmid"	"S79_LN:i:1549_dp:f:128.4294900091635"	1549
1	0	"Chromosome"	"S8_LN:i:183153_dp:f:1.016248437053508"	183153
0.33	0.67	"Plasmid"	"S80_LN:i:1467_dp:f:0.8027185602426667"	1467
1	0	"Chromosome"	"S81_LN:i:1433_dp:f:1.843373675240977"	1433
1	0	"Chromosome"	"S82_LN:i:1298_dp:f:10.14337833891815"	1298
0.33	0.67	"Plasmid"	"S83_LN:i:1292_dp:f:0.8776151763763221"	1292
1	0	"Chromosome"	"S84_LN:i:1291_dp:f:1.006727499446944"	1291
1	0	"Chromosome"	"S85_LN:i:1259_dp:f:1.365123990697798"	1259
1	0	"Chromosome"	"S86_LN:i:1259_dp:f:1.1996922031527912"	1259
1	0	"Chromosome"	"S87_LN:i:1223_dp:f:1.2236861526784286"	1223
1	0	"Chromosome"	"S88_LN:i:1114_dp:f:1.9774453156002578"	1114
1	0	"Chromosome"	"S89_LN:i:1074_dp:f:1.4157148456673119"	1074
1	0	"Chromosome"	"S9_LN:i:182284_dp:f:1.2435098821346207"	182284
0.33	0.67	"Plasmid"	"S90_LN:i:1067_dp:f:1.471555706742331"	1067
1	0	"Chromosome"	"S91_LN:i:1062_dp:f:1.1952649264050572"	1062
1	0	"Chromosome"	"S92_LN:i:1031_dp:f:2.1777594884187685"	1031
