"Prob_Chromosome"	"Prob_Plasmid"	"Prediction"	"Contig_name"	"Contig_length"
1	0	"Chromosome"	"S1_LN:i:400005_dp:f:0.9804376526815498"	400005
1	0	"Chromosome"	"S10_LN:i:199498_dp:f:0.988764372757076"	199498
1	0	"Chromosome"	"S11_LN:i:190808_dp:f:1.0221619816588834"	190808
1	0	"Chromosome"	"S12_LN:i:173578_dp:f:1.015828479024877"	173578
1	0	"Chromosome"	"S13_LN:i:165545_dp:f:1.0382119464632107"	165545
1	0	"Chromosome"	"S14_LN:i:158936_dp:f:1.0250537133517514"	158936
1	0	"Chromosome"	"S15_LN:i:146851_dp:f:1.0245402113568074"	146851
1	0	"Chromosome"	"S16_LN:i:144301_dp:f:1.005437742082405"	144301
1	0	"Chromosome"	"S17_LN:i:136542_dp:f:1.0072038238995025"	136542
1	0	"Chromosome"	"S18_LN:i:111072_dp:f:1.0256004456345242"	111072
1	0	"Chromosome"	"S19_LN:i:108987_dp:f:1.0287070247229164"	108987
1	0	"Chromosome"	"S2_LN:i:341823_dp:f:1.015174684123771"	341823
1	0	"Chromosome"	"S20_LN:i:95326_dp:f:1.0170197165313843"	95326
1	0	"Chromosome"	"S21_LN:i:94106_dp:f:0.985800973482066"	94106
1	0	"Chromosome"	"S22_LN:i:90455_dp:f:0.9735046593549169"	90455
1	0	"Chromosome"	"S23_LN:i:87120_dp:f:1.0048761014524716"	87120
1	0	"Chromosome"	"S24_LN:i:75317_dp:f:1.0029971620540679"	75317
1	0	"Chromosome"	"S25_LN:i:69145_dp:f:1.0272248415544445"	69145
1	0	"Chromosome"	"S26_LN:i:62287_dp:f:1.0244907627919841"	62287
1	0	"Chromosome"	"S27_LN:i:50626_dp:f:1.0253215062792462"	50626
1	0	"Chromosome"	"S28_LN:i:41392_dp:f:1.0682032769304217"	41392
1	0	"Chromosome"	"S29_LN:i:35847_dp:f:1.0865438878658324"	35847
1	0	"Chromosome"	"S3_LN:i:332709_dp:f:1.0"	332709
1	0	"Chromosome"	"S30_LN:i:34108_dp:f:1.0542026737874521"	34108
1	0	"Chromosome"	"S31_LN:i:33555_dp:f:0.9631807235358878"	33555
1	0	"Chromosome"	"S32_LN:i:29791_dp:f:1.0073298481986277"	29791
1	0	"Chromosome"	"S33_LN:i:24950_dp:f:1.0481165084175763"	24950
1	0	"Chromosome"	"S34_LN:i:23397_dp:f:0.9175388057040694"	23397
1	0	"Chromosome"	"S35_LN:i:21955_dp:f:1.0654177846273638"	21955
1	0	"Chromosome"	"S36_LN:i:20484_dp:f:1.0659944729348045"	20484
0.33	0.67	"Plasmid"	"S37_LN:i:19216_dp:f:1.3494361853371941"	19216
0	1	"Plasmid"	"S38_LN:i:14735_dp:f:1.2463417635325638"	14735
1	0	"Chromosome"	"S39_LN:i:12707_dp:f:0.9924692258009"	12707
1	0	"Chromosome"	"S4_LN:i:307923_dp:f:1.0005174301981419"	307923
0	1	"Plasmid"	"S40_LN:i:11416_dp:f:1.2912320807822022"	11416
0.33	0.67	"Plasmid"	"S41_LN:i:11262_dp:f:1.2553738832728334"	11262
0.67	0.33	"Chromosome"	"S42_LN:i:10638_dp:f:1.0038036643539887"	10638
1	0	"Chromosome"	"S43_LN:i:10522_dp:f:1.1022500405946498"	10522
0	1	"Plasmid"	"S44_LN:i:9248_dp:f:1.2775268511708429"	9248
1	0	"Chromosome"	"S45_LN:i:8799_dp:f:0.9763582446294776"	8799
1	0	"Chromosome"	"S46_LN:i:8572_dp:f:1.023486723267962"	8572
0	1	"Plasmid"	"S47_LN:i:8122_dp:f:1.3820712176408734"	8122
0	1	"Plasmid"	"S48_LN:i:7707_dp:f:1.1514233427429608"	7707
0	1	"Plasmid"	"S49_LN:i:7141_dp:f:1.2441099303415475"	7141
1	0	"Chromosome"	"S5_LN:i:276430_dp:f:1.0462600231281804"	276430
1	0	"Chromosome"	"S50_LN:i:7140_dp:f:0.9621932779256813"	7140
1	0	"Chromosome"	"S51_LN:i:6721_dp:f:1.0648446318301286"	6721
0.67	0.33	"Chromosome"	"S52_LN:i:6598_dp:f:1.0954975360124894"	6598
0	1	"Plasmid"	"S53_LN:i:6004_dp:f:1.3464701542874316"	6004
1	0	"Chromosome"	"S54_LN:i:5600_dp:f:1.0134359529266592"	5600
1	0	"Chromosome"	"S55_LN:i:4887_dp:f:0.9692328906689741"	4887
1	0	"Chromosome"	"S56_LN:i:4873_dp:f:0.9400062397788387"	4873
0.33	0.67	"Plasmid"	"S57_LN:i:4662_dp:f:2.2455382326851097"	4662
0	1	"Plasmid"	"S58_LN:i:4273_dp:f:1.257583035594319"	4273
1	0	"Chromosome"	"S59_LN:i:4115_dp:f:1.135975856803891"	4115
1	0	"Chromosome"	"S6_LN:i:226783_dp:f:1.0402838857032528"	226783
0	1	"Plasmid"	"S60_LN:i:4074_dp:f:37.60972041981699"	4074
0	1	"Plasmid"	"S61_LN:i:4040_dp:f:1.3338103202718026"	4040
1	0	"Chromosome"	"S62_LN:i:3993_dp:f:0.930811982281198"	3993
1	0	"Chromosome"	"S63_LN:i:3680_dp:f:1.024302883188679"	3680
1	0	"Chromosome"	"S64_LN:i:3169_dp:f:6.92000520241054"	3169
0	1	"Plasmid"	"S65_LN:i:2600_dp:f:0.8381287464116152"	2600
1	0	"Chromosome"	"S66_LN:i:2581_dp:f:4.155856636593512"	2581
0.67	0.33	"Chromosome"	"S67_LN:i:2565_dp:f:1.3655927567970174"	2565
0	1	"Plasmid"	"S68_LN:i:2456_dp:f:1.310979231573524"	2456
1	0	"Chromosome"	"S69_LN:i:2258_dp:f:0.9859447995097173"	2258
1	0	"Chromosome"	"S7_LN:i:225781_dp:f:0.9945432235669632"	225781
1	0	"Chromosome"	"S70_LN:i:2252_dp:f:0.8243295384810073"	2252
0	1	"Plasmid"	"S71_LN:i:2248_dp:f:1.12074656218868"	2248
0	1	"Plasmid"	"S72_LN:i:2186_dp:f:0.9989262079668956"	2186
1	0	"Chromosome"	"S73_LN:i:1983_dp:f:0.9524979226557542"	1983
1	0	"Chromosome"	"S74_LN:i:1959_dp:f:1.0531923129694172"	1959
1	0	"Chromosome"	"S75_LN:i:1864_dp:f:5.20246364002853"	1864
1	0	"Chromosome"	"S76_LN:i:1740_dp:f:0.9947738849569049"	1740
1	0	"Chromosome"	"S77_LN:i:1670_dp:f:1.0719210285872092"	1670
1	0	"Chromosome"	"S78_LN:i:1613_dp:f:0.9772875157248047"	1613
1	0	"Chromosome"	"S79_LN:i:1577_dp:f:7.047328966020004"	1577
1	0	"Chromosome"	"S8_LN:i:209196_dp:f:0.9955516168733493"	209196
1	0	"Chromosome"	"S80_LN:i:1562_dp:f:1.044120723052768"	1562
1	0	"Chromosome"	"S81_LN:i:1535_dp:f:2.1474982248177032"	1535
1	0	"Chromosome"	"S82_LN:i:1433_dp:f:2.164154471184703"	1433
1	0	"Chromosome"	"S83_LN:i:1259_dp:f:1.1786263788598668"	1259
0.67	0.33	"Chromosome"	"S84_LN:i:1245_dp:f:2.261750293904943"	1245
1	0	"Chromosome"	"S85_LN:i:1066_dp:f:2.334790466553301"	1066
1	0	"Chromosome"	"S86_LN:i:1030_dp:f:2.0091034808079526"	1030
1	0	"Chromosome"	"S9_LN:i:208999_dp:f:0.9797959422882085"	208999
