"Prob_Chromosome"	"Prob_Plasmid"	"Prediction"	"Contig_name"	"Contig_length"
1	0	"Chromosome"	"S1_LN:i:321054_dp:f:1.0"	321054
1	0	"Chromosome"	"S10_LN:i:156601_dp:f:0.9436658274578578"	156601
1	0	"Chromosome"	"S11_LN:i:146019_dp:f:1.0255073708141311"	146019
1	0	"Chromosome"	"S12_LN:i:141409_dp:f:1.046304584420727"	141409
1	0	"Chromosome"	"S13_LN:i:137393_dp:f:0.9717095091888585"	137393
1	0	"Chromosome"	"S14_LN:i:134741_dp:f:0.9883964246286493"	134741
1	0	"Chromosome"	"S15_LN:i:130459_dp:f:0.9420028354076014"	130459
0	1	"Plasmid"	"S16_LN:i:112182_dp:f:0.6799240420377568"	112182
1	0	"Chromosome"	"S17_LN:i:108927_dp:f:0.9663834880090473"	108927
1	0	"Chromosome"	"S18_LN:i:104377_dp:f:1.0700957341136208"	104377
1	0	"Chromosome"	"S19_LN:i:103813_dp:f:1.0454792079282493"	103813
1	0	"Chromosome"	"S2_LN:i:288240_dp:f:1.0578929514860833"	288240
1	0	"Chromosome"	"S20_LN:i:101605_dp:f:1.0346854386408584"	101605
1	0	"Chromosome"	"S21_LN:i:98227_dp:f:0.9889970078744262"	98227
1	0	"Chromosome"	"S22_LN:i:94294_dp:f:1.069065552433749"	94294
1	0	"Chromosome"	"S23_LN:i:80598_dp:f:0.8947314481373905"	80598
1	0	"Chromosome"	"S24_LN:i:71940_dp:f:1.0586702407634165"	71940
1	0	"Chromosome"	"S25_LN:i:69758_dp:f:1.0596101432608829"	69758
1	0	"Chromosome"	"S26_LN:i:59044_dp:f:1.064286813008229"	59044
1	0	"Chromosome"	"S27_LN:i:57762_dp:f:1.0800405178239898"	57762
1	0	"Chromosome"	"S28_LN:i:53659_dp:f:1.0844001597886015"	53659
1	0	"Chromosome"	"S29_LN:i:45190_dp:f:0.9978030851472963"	45190
1	0	"Chromosome"	"S3_LN:i:285271_dp:f:0.9612283792204135"	285271
1	0	"Chromosome"	"S30_LN:i:41446_dp:f:1.069720740740097"	41446
1	0	"Chromosome"	"S31_LN:i:39765_dp:f:0.9798009797625246"	39765
1	0	"Chromosome"	"S32_LN:i:38632_dp:f:1.0560348585960677"	38632
1	0	"Chromosome"	"S33_LN:i:37518_dp:f:0.9119962683162319"	37518
1	0	"Chromosome"	"S34_LN:i:33940_dp:f:1.0917514203833594"	33940
1	0	"Chromosome"	"S35_LN:i:33160_dp:f:1.027017845281413"	33160
1	0	"Chromosome"	"S36_LN:i:30786_dp:f:1.127932994231562"	30786
1	0	"Chromosome"	"S37_LN:i:28786_dp:f:1.0358514087671105"	28786
1	0	"Chromosome"	"S38_LN:i:27509_dp:f:1.0236720903831074"	27509
1	0	"Chromosome"	"S39_LN:i:27229_dp:f:1.029966084029222"	27229
1	0	"Chromosome"	"S4_LN:i:249609_dp:f:1.0042745182795088"	249609
1	0	"Chromosome"	"S40_LN:i:27126_dp:f:0.9137615181191758"	27126
1	0	"Chromosome"	"S41_LN:i:26137_dp:f:1.0909455250066555"	26137
1	0	"Chromosome"	"S42_LN:i:24406_dp:f:0.9141903923482233"	24406
1	0	"Chromosome"	"S43_LN:i:23882_dp:f:1.0855593948079132"	23882
1	0	"Chromosome"	"S44_LN:i:20922_dp:f:1.0335700904474168"	20922
1	0	"Chromosome"	"S45_LN:i:19866_dp:f:0.9554862298203886"	19866
1	0	"Chromosome"	"S46_LN:i:16799_dp:f:0.95742637514227"	16799
1	0	"Chromosome"	"S47_LN:i:16690_dp:f:1.0371286167886373"	16690
1	0	"Chromosome"	"S48_LN:i:11791_dp:f:1.0408434265790785"	11791
1	0	"Chromosome"	"S49_LN:i:7483_dp:f:0.8802850673843828"	7483
1	0	"Chromosome"	"S5_LN:i:224209_dp:f:0.9190110632459855"	224209
0	1	"Plasmid"	"S50_LN:i:6768_dp:f:16.049509553857824"	6768
0.5	0.5	"Plasmid"	"S51_LN:i:6570_dp:f:0.8317706436821365"	6570
0	1	"Plasmid"	"S52_LN:i:4664_dp:f:22.71592419716801"	4664
1	0	"Chromosome"	"S53_LN:i:4430_dp:f:0.9770490730030552"	4430
1	0	"Chromosome"	"S54_LN:i:4397_dp:f:0.9499602556270008"	4397
1	0	"Chromosome"	"S55_LN:i:2820_dp:f:3.2632523730026786"	2820
0	1	"Plasmid"	"S56_LN:i:2460_dp:f:84.90400394141355"	2460
1	0	"Chromosome"	"S57_LN:i:2411_dp:f:0.7627266001382942"	2411
1	0	"Chromosome"	"S58_LN:i:2239_dp:f:0.7034216660713701"	2239
1	0	"Chromosome"	"S59_LN:i:1922_dp:f:1.078427061398973"	1922
1	0	"Chromosome"	"S6_LN:i:204291_dp:f:0.9307890271927408"	204291
1	0	"Chromosome"	"S60_LN:i:1708_dp:f:7.210764453467073"	1708
1	0	"Chromosome"	"S61_LN:i:1687_dp:f:7.6210046693844635"	1687
1	0	"Chromosome"	"S62_LN:i:1684_dp:f:0.7947439949641678"	1684
1	0	"Chromosome"	"S63_LN:i:1628_dp:f:0.9012741953285298"	1628
1	0	"Chromosome"	"S64_LN:i:1599_dp:f:0.6668000652363907"	1599
1	0	"Chromosome"	"S65_LN:i:1374_dp:f:1.5106673230861216"	1374
1	0	"Chromosome"	"S66_LN:i:1308_dp:f:2.04807149989528"	1308
1	0	"Chromosome"	"S67_LN:i:1259_dp:f:0.9664427279819215"	1259
1	0	"Chromosome"	"S68_LN:i:1258_dp:f:3.0716282968348474"	1258
1	0	"Chromosome"	"S69_LN:i:1258_dp:f:3.125287328352541"	1258
1	0	"Chromosome"	"S7_LN:i:199742_dp:f:1.0578011915306522"	199742
1	0	"Chromosome"	"S70_LN:i:1192_dp:f:7.389543521971367"	1192
1	0	"Chromosome"	"S71_LN:i:1143_dp:f:12.23899736997695"	1143
1	0	"Chromosome"	"S72_LN:i:1120_dp:f:0.7784588684846531"	1120
1	0	"Chromosome"	"S73_LN:i:1051_dp:f:0.8321595417925697"	1051
0.5	0.5	"Plasmid"	"S74_LN:i:1045_dp:f:3.0105787528088293"	1045
1	0	"Chromosome"	"S75_LN:i:1019_dp:f:0.9879774720087507"	1019
1	0	"Chromosome"	"S8_LN:i:163117_dp:f:1.0192332928068188"	163117
1	0	"Chromosome"	"S9_LN:i:160610_dp:f:1.0447432707591204"	160610
