"Prob_Chromosome"	"Prob_Plasmid"	"Prediction"	"Contig_name"	"Contig_length"
1	0	"Chromosome"	"S1_LN:i:526347_dp:f:1.0316948764739695"	526347
1	0	"Chromosome"	"S10_LN:i:155846_dp:f:1.0278377186850174"	155846
1	0	"Chromosome"	"S11_LN:i:138557_dp:f:1.036525015078865"	138557
1	0	"Chromosome"	"S12_LN:i:135017_dp:f:1.0096568082036266"	135017
1	0	"Chromosome"	"S13_LN:i:127015_dp:f:1.0185128792886908"	127015
1	0	"Chromosome"	"S14_LN:i:124974_dp:f:1.0454774642047584"	124974
1	0	"Chromosome"	"S15_LN:i:118925_dp:f:1.004281507738674"	118925
1	0	"Chromosome"	"S16_LN:i:112347_dp:f:1.0457462367693235"	112347
1	0	"Chromosome"	"S17_LN:i:101718_dp:f:1.0180849095064495"	101718
1	0	"Chromosome"	"S18_LN:i:98726_dp:f:1.0548431021301055"	98726
0	1	"Plasmid"	"S19_LN:i:96747_dp:f:1.6476161596511527"	96747
1	0	"Chromosome"	"S2_LN:i:490714_dp:f:1.0"	490714
1	0	"Chromosome"	"S20_LN:i:92563_dp:f:0.9723489111850837"	92563
1	0	"Chromosome"	"S21_LN:i:87813_dp:f:0.9657830806313169"	87813
1	0	"Chromosome"	"S22_LN:i:87534_dp:f:1.0663409722357338"	87534
1	0	"Chromosome"	"S23_LN:i:76507_dp:f:1.0399011876218018"	76507
1	0	"Chromosome"	"S24_LN:i:75345_dp:f:0.9638042388540454"	75345
1	0	"Chromosome"	"S25_LN:i:73023_dp:f:0.9309584064652622"	73023
1	0	"Chromosome"	"S26_LN:i:69095_dp:f:1.0625978391711426"	69095
1	0	"Chromosome"	"S27_LN:i:62267_dp:f:0.9822804602741546"	62267
1	0	"Chromosome"	"S28_LN:i:46782_dp:f:0.933999334251741"	46782
1	0	"Chromosome"	"S29_LN:i:45576_dp:f:1.0104586765198509"	45576
1	0	"Chromosome"	"S3_LN:i:287207_dp:f:0.9481883847852495"	287207
1	0	"Chromosome"	"S30_LN:i:40537_dp:f:1.0481697146410611"	40537
0.33	0.67	"Plasmid"	"S31_LN:i:38797_dp:f:1.5640193775667817"	38797
1	0	"Chromosome"	"S32_LN:i:32858_dp:f:0.9982958130151379"	32858
1	0	"Chromosome"	"S33_LN:i:30712_dp:f:1.0748609267887363"	30712
1	0	"Chromosome"	"S34_LN:i:26140_dp:f:1.073406809900423"	26140
1	0	"Chromosome"	"S35_LN:i:24784_dp:f:0.9800201081696452"	24784
1	0	"Chromosome"	"S36_LN:i:22559_dp:f:1.0577047305630454"	22559
1	0	"Chromosome"	"S37_LN:i:18729_dp:f:1.0660430147714806"	18729
1	0	"Chromosome"	"S38_LN:i:10225_dp:f:0.9244172703698841"	10225
1	0	"Chromosome"	"S39_LN:i:8463_dp:f:1.0130715922934368"	8463
1	0	"Chromosome"	"S4_LN:i:286748_dp:f:1.0458329619234341"	286748
1	0	"Chromosome"	"S40_LN:i:7958_dp:f:0.9678910297684468"	7958
1	0	"Chromosome"	"S41_LN:i:7324_dp:f:1.0608045892236682"	7324
1	0	"Chromosome"	"S42_LN:i:6517_dp:f:0.9480335335251542"	6517
1	0	"Chromosome"	"S43_LN:i:6316_dp:f:0.9309658723698335"	6316
1	0	"Chromosome"	"S44_LN:i:6252_dp:f:0.9567087817872961"	6252
0	1	"Plasmid"	"S45_LN:i:6230_dp:f:56.30295781039951"	6230
0	1	"Plasmid"	"S46_LN:i:5682_dp:f:57.711453723231536"	5682
0	1	"Plasmid"	"S47_LN:i:5569_dp:f:28.989440194409138"	5569
1	0	"Chromosome"	"S48_LN:i:4996_dp:f:1.0175258716217348"	4996
0.67	0.33	"Chromosome"	"S49_LN:i:4548_dp:f:1.7379389819914839"	4548
1	0	"Chromosome"	"S5_LN:i:269607_dp:f:0.9931514276996523"	269607
1	0	"Chromosome"	"S50_LN:i:4221_dp:f:1.086518672830638"	4221
1	0	"Chromosome"	"S51_LN:i:3509_dp:f:1.9202487548907332"	3509
1	0	"Chromosome"	"S52_LN:i:2813_dp:f:6.949551751614331"	2813
0	1	"Plasmid"	"S53_LN:i:2590_dp:f:46.28371666605582"	2590
1	0	"Chromosome"	"S54_LN:i:2523_dp:f:1.9308731895747016"	2523
1	0	"Chromosome"	"S55_LN:i:2221_dp:f:0.908787459139579"	2221
1	0	"Chromosome"	"S56_LN:i:2169_dp:f:1.9198230475038163"	2169
1	0	"Chromosome"	"S57_LN:i:2053_dp:f:0.963316843487944"	2053
1	0	"Chromosome"	"S58_LN:i:1992_dp:f:1.9680113891997166"	1992
1	0	"Chromosome"	"S59_LN:i:1859_dp:f:1.7918902478846226"	1859
1	0	"Chromosome"	"S6_LN:i:220453_dp:f:0.9809025154440792"	220453
1	0	"Chromosome"	"S60_LN:i:1708_dp:f:7.019960359817385"	1708
1	0	"Chromosome"	"S61_LN:i:1692_dp:f:2.1204836367733355"	1692
1	0	"Chromosome"	"S62_LN:i:1643_dp:f:0.9516546480685705"	1643
0	1	"Plasmid"	"S63_LN:i:1551_dp:f:16.603006029585192"	1551
1	0	"Chromosome"	"S64_LN:i:1440_dp:f:2.7592722387050292"	1440
1	0	"Chromosome"	"S65_LN:i:1336_dp:f:1.0108355161677558"	1336
0.67	0.33	"Chromosome"	"S66_LN:i:1306_dp:f:21.237990715431238"	1306
1	0	"Chromosome"	"S67_LN:i:1258_dp:f:3.2197625963007424"	1258
1	0	"Chromosome"	"S68_LN:i:1245_dp:f:7.352590766923358"	1245
1	0	"Chromosome"	"S69_LN:i:1145_dp:f:0.9373288592203394"	1145
1	0	"Chromosome"	"S7_LN:i:189883_dp:f:1.047810144610801"	189883
1	0	"Chromosome"	"S70_LN:i:1132_dp:f:0.904239366855094"	1132
1	0	"Chromosome"	"S71_LN:i:1132_dp:f:0.8454182950257015"	1132
1	0	"Chromosome"	"S72_LN:i:1103_dp:f:0.9786546017648794"	1103
1	0	"Chromosome"	"S73_LN:i:1089_dp:f:0.8921825342779286"	1089
1	0	"Chromosome"	"S74_LN:i:1038_dp:f:0.9708556726018346"	1038
1	0	"Chromosome"	"S8_LN:i:184292_dp:f:1.0585700643432532"	184292
1	0	"Chromosome"	"S9_LN:i:163128_dp:f:0.9705284514369236"	163128
