"Prob_Chromosome"	"Prob_Plasmid"	"Prediction"	"Contig_name"	"Contig_length"
1	0	"Chromosome"	"S1_LN:i:350491_dp:f:1.0"	350491
1	0	"Chromosome"	"S10_LN:i:210937_dp:f:0.9451607974952521"	210937
1	0	"Chromosome"	"S100_LN:i:1087_dp:f:1.5712078279188348"	1087
1	0	"Chromosome"	"S101_LN:i:1057_dp:f:2.9613345933056268"	1057
0.67	0.33	"Chromosome"	"S102_LN:i:1034_dp:f:1.0640573262533086"	1034
1	0	"Chromosome"	"S103_LN:i:1011_dp:f:0.823322030679404"	1011
1	0	"Chromosome"	"S11_LN:i:197439_dp:f:0.8292988461116007"	197439
1	0	"Chromosome"	"S12_LN:i:185983_dp:f:0.8555858535174491"	185983
1	0	"Chromosome"	"S13_LN:i:180064_dp:f:0.9048519307780407"	180064
1	0	"Chromosome"	"S14_LN:i:166024_dp:f:0.9303988147274543"	166024
1	0	"Chromosome"	"S15_LN:i:134514_dp:f:0.8737086261776957"	134514
1	0	"Chromosome"	"S16_LN:i:114138_dp:f:1.2539001311174072"	114138
1	0	"Chromosome"	"S17_LN:i:106575_dp:f:0.6863356407790479"	106575
1	0	"Chromosome"	"S18_LN:i:102801_dp:f:0.8430364400622878"	102801
1	0	"Chromosome"	"S19_LN:i:97792_dp:f:0.675611098413689"	97792
1	0	"Chromosome"	"S2_LN:i:341886_dp:f:1.0344722786093825"	341886
1	0	"Chromosome"	"S20_LN:i:88056_dp:f:0.6407220563808916"	88056
1	0	"Chromosome"	"S21_LN:i:86116_dp:f:0.9320607525022117"	86116
0	1	"Plasmid"	"S22_LN:i:79976_dp:f:0.6944920514397819"	79976
1	0	"Chromosome"	"S23_LN:i:79547_dp:f:1.119233709837518"	79547
1	0	"Chromosome"	"S24_LN:i:79220_dp:f:0.767709516264209"	79220
1	0	"Chromosome"	"S25_LN:i:71487_dp:f:1.2493740587611235"	71487
1	0	"Chromosome"	"S26_LN:i:66748_dp:f:1.0703014611029114"	66748
1	0	"Chromosome"	"S27_LN:i:43618_dp:f:1.1669170323557674"	43618
1	0	"Chromosome"	"S28_LN:i:38097_dp:f:0.7463444702467452"	38097
1	0	"Chromosome"	"S29_LN:i:36698_dp:f:0.8297430278903033"	36698
1	0	"Chromosome"	"S3_LN:i:325999_dp:f:1.0368320703205312"	325999
1	0	"Chromosome"	"S30_LN:i:31584_dp:f:0.9208442207323281"	31584
1	0	"Chromosome"	"S31_LN:i:30644_dp:f:0.6204588475428164"	30644
1	0	"Chromosome"	"S32_LN:i:26062_dp:f:0.855054799449679"	26062
1	0	"Chromosome"	"S33_LN:i:25006_dp:f:0.9745444864109082"	25006
1	0	"Chromosome"	"S34_LN:i:20491_dp:f:0.6750892057444742"	20491
1	0	"Chromosome"	"S35_LN:i:20086_dp:f:1.071756719572075"	20086
0.33	0.67	"Plasmid"	"S36_LN:i:13060_dp:f:0.5705349085400772"	13060
1	0	"Chromosome"	"S37_LN:i:11669_dp:f:0.5413869889396239"	11669
1	0	"Chromosome"	"S38_LN:i:11636_dp:f:1.2296061624982568"	11636
0	1	"Plasmid"	"S39_LN:i:11148_dp:f:0.4717757878835291"	11148
1	0	"Chromosome"	"S4_LN:i:292702_dp:f:0.8105765983683297"	292702
0	1	"Plasmid"	"S40_LN:i:10812_dp:f:0.4207543826219118"	10812
1	0	"Chromosome"	"S41_LN:i:9771_dp:f:0.9377465302932224"	9771
0	1	"Plasmid"	"S42_LN:i:9714_dp:f:0.5948557990147334"	9714
0	1	"Plasmid"	"S43_LN:i:9350_dp:f:0.49883778389102107"	9350
0.33	0.67	"Plasmid"	"S44_LN:i:8107_dp:f:0.477074782860193"	8107
0	1	"Plasmid"	"S45_LN:i:7239_dp:f:0.4742398389485344"	7239
0.5	0.5	"Plasmid"	"S46_LN:i:5767_dp:f:0.4898938284404633"	5767
0	1	"Plasmid"	"S47_LN:i:5717_dp:f:0.4667175152397321"	5717
0	1	"Plasmid"	"S48_LN:i:5631_dp:f:7.986173475030592"	5631
0	1	"Plasmid"	"S49_LN:i:5587_dp:f:0.5665877687496017"	5587
1	0	"Chromosome"	"S5_LN:i:279359_dp:f:0.8297628475719858"	279359
0	1	"Plasmid"	"S50_LN:i:5150_dp:f:0.46740497443267975"	5150
0	1	"Plasmid"	"S51_LN:i:5150_dp:f:0.49864401671328623"	5150
1	0	"Chromosome"	"S52_LN:i:4225_dp:f:0.6665762452824385"	4225
1	0	"Chromosome"	"S53_LN:i:4114_dp:f:1.0987453402934073"	4114
0	1	"Plasmid"	"S54_LN:i:3539_dp:f:0.4538293654645042"	3539
0	1	"Plasmid"	"S55_LN:i:3527_dp:f:0.46874447099264444"	3527
1	0	"Chromosome"	"S56_LN:i:3307_dp:f:2.1049696238836155"	3307
1	0	"Chromosome"	"S57_LN:i:3081_dp:f:1.299331805737088"	3081
0	1	"Plasmid"	"S58_LN:i:2996_dp:f:0.623268814074817"	2996
0	1	"Plasmid"	"S59_LN:i:2438_dp:f:0.5866014889143574"	2438
1	0	"Chromosome"	"S6_LN:i:252095_dp:f:0.905733812675558"	252095
1	0	"Chromosome"	"S60_LN:i:2275_dp:f:1.8333958025364243"	2275
1	0	"Chromosome"	"S61_LN:i:2172_dp:f:2.0471036589099207"	2172
1	0	"Chromosome"	"S62_LN:i:2061_dp:f:1.5640500858073738"	2061
1	0	"Chromosome"	"S63_LN:i:1891_dp:f:1.060687010198164"	1891
0.33	0.67	"Plasmid"	"S64_LN:i:1867_dp:f:0.760021276183801"	1867
0.33	0.67	"Plasmid"	"S65_LN:i:1864_dp:f:0.40530617417839876"	1864
1	0	"Chromosome"	"S66_LN:i:1834_dp:f:5.69503213507996"	1834
0.33	0.67	"Plasmid"	"S67_LN:i:1773_dp:f:0.9715719472243236"	1773
0.67	0.33	"Chromosome"	"S68_LN:i:1769_dp:f:1.092593154516769"	1769
1	0	"Chromosome"	"S69_LN:i:1758_dp:f:1.4568287502703625"	1758
1	0	"Chromosome"	"S7_LN:i:246660_dp:f:1.0288153867577174"	246660
0	1	"Plasmid"	"S70_LN:i:1755_dp:f:0.4829784198302054"	1755
0	1	"Plasmid"	"S71_LN:i:1718_dp:f:84.3738572740346"	1718
1	0	"Chromosome"	"S72_LN:i:1710_dp:f:2.049917205651664"	1710
1	0	"Chromosome"	"S73_LN:i:1698_dp:f:6.065884051835119"	1698
0.33	0.67	"Plasmid"	"S74_LN:i:1673_dp:f:0.4852241266105718"	1673
0.33	0.67	"Plasmid"	"S75_LN:i:1661_dp:f:0.5423498163023819"	1661
1	0	"Chromosome"	"S76_LN:i:1605_dp:f:1.0761274585868073"	1605
0.67	0.33	"Chromosome"	"S77_LN:i:1600_dp:f:0.5536558073477215"	1600
0.33	0.67	"Plasmid"	"S78_LN:i:1600_dp:f:0.5027154312328572"	1600
0.33	0.67	"Plasmid"	"S79_LN:i:1593_dp:f:0.8978343209476524"	1593
1	0	"Chromosome"	"S8_LN:i:222972_dp:f:1.056402806690833"	222972
1	0	"Chromosome"	"S80_LN:i:1480_dp:f:1.0730672509599108"	1480
0.33	0.67	"Plasmid"	"S81_LN:i:1436_dp:f:0.9047448729255634"	1436
1	0	"Chromosome"	"S82_LN:i:1344_dp:f:2.0205960972964325"	1344
0	1	"Plasmid"	"S83_LN:i:1331_dp:f:1.2628022408210817"	1331
0	1	"Plasmid"	"S84_LN:i:1326_dp:f:0.4475262178564697"	1326
0.33	0.67	"Plasmid"	"S85_LN:i:1314_dp:f:0.4455019672678613"	1314
0.67	0.33	"Chromosome"	"S86_LN:i:1266_dp:f:0.48828609634011244"	1266
0.67	0.33	"Chromosome"	"S87_LN:i:1258_dp:f:4.651573094164398"	1258
1	0	"Chromosome"	"S88_LN:i:1238_dp:f:1.4154687663693004"	1238
1	0	"Chromosome"	"S89_LN:i:1238_dp:f:1.2213531875280694"	1238
1	0	"Chromosome"	"S9_LN:i:221481_dp:f:0.8251592075258837"	221481
0.67	0.33	"Chromosome"	"S90_LN:i:1224_dp:f:0.5996783762275458"	1224
1	0	"Chromosome"	"S91_LN:i:1224_dp:f:1.5207978832265678"	1224
1	0	"Chromosome"	"S92_LN:i:1217_dp:f:2.898697298373762"	1217
0.5	0.5	"Plasmid"	"S93_LN:i:1208_dp:f:3.005551553449226"	1208
1	0	"Chromosome"	"S94_LN:i:1188_dp:f:5.95246496851387"	1188
1	0	"Chromosome"	"S95_LN:i:1156_dp:f:1.5954030721545787"	1156
1	0	"Chromosome"	"S96_LN:i:1151_dp:f:2.036884245955407"	1151
0.33	0.67	"Plasmid"	"S97_LN:i:1143_dp:f:1.1805477936823043"	1143
1	0	"Chromosome"	"S98_LN:i:1125_dp:f:2.1857612907182395"	1125
1	0	"Chromosome"	"S99_LN:i:1087_dp:f:1.2683376809351516"	1087
