"Prob_Chromosome"	"Prob_Plasmid"	"Prediction"	"Contig_name"	"Contig_length"
1	0	"Chromosome"	"S1_LN:i:301925_dp:f:1.0122834392016438"	301925
1	0	"Chromosome"	"S10_LN:i:165873_dp:f:0.9442768508000122"	165873
1	0	"Chromosome"	"S11_LN:i:148548_dp:f:0.9298101731043571"	148548
1	0	"Chromosome"	"S12_LN:i:132840_dp:f:0.9553183079146523"	132840
1	0	"Chromosome"	"S13_LN:i:99904_dp:f:1.026275893976054"	99904
1	0	"Chromosome"	"S14_LN:i:91813_dp:f:1.067620575132417"	91813
1	0	"Chromosome"	"S15_LN:i:91329_dp:f:0.9620909801962401"	91329
1	0	"Chromosome"	"S16_LN:i:90787_dp:f:0.9607621593130792"	90787
1	0	"Chromosome"	"S17_LN:i:87958_dp:f:1.0246293307442866"	87958
1	0	"Chromosome"	"S18_LN:i:80395_dp:f:1.063945511171827"	80395
1	0	"Chromosome"	"S19_LN:i:79554_dp:f:0.9404308924518285"	79554
1	0	"Chromosome"	"S2_LN:i:282745_dp:f:0.9906112597166677"	282745
1	0	"Chromosome"	"S20_LN:i:77912_dp:f:1.0238152537162823"	77912
1	0	"Chromosome"	"S21_LN:i:75076_dp:f:0.9812318267897379"	75076
1	0	"Chromosome"	"S22_LN:i:74305_dp:f:1.0267288760795565"	74305
1	0	"Chromosome"	"S23_LN:i:71813_dp:f:0.9684700689075162"	71813
0	1	"Plasmid"	"S24_LN:i:66632_dp:f:1.1418090909103213"	66632
1	0	"Chromosome"	"S25_LN:i:57293_dp:f:1.0105225592204112"	57293
1	0	"Chromosome"	"S26_LN:i:55386_dp:f:1.080810749563289"	55386
1	0	"Chromosome"	"S27_LN:i:55244_dp:f:1.0055080690236087"	55244
1	0	"Chromosome"	"S28_LN:i:53712_dp:f:1.013812300088404"	53712
1	0	"Chromosome"	"S29_LN:i:51497_dp:f:0.9683891930026071"	51497
1	0	"Chromosome"	"S3_LN:i:277382_dp:f:0.9544898113539315"	277382
1	0	"Chromosome"	"S30_LN:i:49162_dp:f:0.9869183458029881"	49162
1	0	"Chromosome"	"S31_LN:i:47675_dp:f:1.1024215211300425"	47675
1	0	"Chromosome"	"S32_LN:i:47189_dp:f:0.8734334566382722"	47189
1	0	"Chromosome"	"S33_LN:i:44985_dp:f:0.9998557114667643"	44985
1	0	"Chromosome"	"S34_LN:i:43648_dp:f:1.0184810363405037"	43648
1	0	"Chromosome"	"S35_LN:i:41798_dp:f:0.9835497840387886"	41798
1	0	"Chromosome"	"S36_LN:i:37414_dp:f:0.9361419244665596"	37414
1	0	"Chromosome"	"S37_LN:i:36117_dp:f:0.9475995732788615"	36117
1	0	"Chromosome"	"S38_LN:i:34767_dp:f:0.9662838835595942"	34767
1	0	"Chromosome"	"S39_LN:i:33574_dp:f:1.024451481178483"	33574
1	0	"Chromosome"	"S4_LN:i:250907_dp:f:0.9592482966395518"	250907
1	0	"Chromosome"	"S40_LN:i:32771_dp:f:1.0470834996761154"	32771
1	0	"Chromosome"	"S41_LN:i:31411_dp:f:1.0310157507284212"	31411
1	0	"Chromosome"	"S42_LN:i:30864_dp:f:1.1401121533738223"	30864
0	1	"Plasmid"	"S43_LN:i:28989_dp:f:1.075144280095246"	28989
1	0	"Chromosome"	"S44_LN:i:28552_dp:f:0.9095884341328127"	28552
1	0	"Chromosome"	"S45_LN:i:27021_dp:f:0.978223819052143"	27021
1	0	"Chromosome"	"S46_LN:i:26604_dp:f:1.0862340534639288"	26604
1	0	"Chromosome"	"S47_LN:i:26140_dp:f:1.0253729450650781"	26140
1	0	"Chromosome"	"S48_LN:i:25155_dp:f:0.9514955473485521"	25155
1	0	"Chromosome"	"S49_LN:i:22414_dp:f:0.9107640821846921"	22414
1	0	"Chromosome"	"S5_LN:i:241346_dp:f:1.0"	241346
1	0	"Chromosome"	"S50_LN:i:21413_dp:f:0.9899395137246438"	21413
1	0	"Chromosome"	"S51_LN:i:19348_dp:f:0.9190041985339154"	19348
1	0	"Chromosome"	"S52_LN:i:18551_dp:f:0.988455035879439"	18551
0	1	"Plasmid"	"S53_LN:i:15523_dp:f:1.1151271459746608"	15523
1	0	"Chromosome"	"S54_LN:i:13477_dp:f:0.7803226763845242"	13477
1	0	"Chromosome"	"S55_LN:i:12269_dp:f:0.901945177887053"	12269
1	0	"Chromosome"	"S56_LN:i:10478_dp:f:1.0398066381584556"	10478
0	1	"Plasmid"	"S57_LN:i:9711_dp:f:0.8049341743439741"	9711
1	0	"Chromosome"	"S58_LN:i:8268_dp:f:0.7181302554493917"	8268
1	0	"Chromosome"	"S59_LN:i:8044_dp:f:1.0706489903445298"	8044
1	0	"Chromosome"	"S6_LN:i:232589_dp:f:1.0166814865101927"	232589
0	1	"Plasmid"	"S60_LN:i:8017_dp:f:0.9568885365469386"	8017
1	0	"Chromosome"	"S61_LN:i:7529_dp:f:1.0409782658156292"	7529
0	1	"Plasmid"	"S62_LN:i:7215_dp:f:0.8372195837297967"	7215
1	0	"Chromosome"	"S63_LN:i:6787_dp:f:0.8258602758879973"	6787
0.5	0.5	"Plasmid"	"S64_LN:i:6562_dp:f:0.7594212431764594"	6562
0.33	0.67	"Plasmid"	"S65_LN:i:5609_dp:f:38.50638131110227"	5609
1	0	"Chromosome"	"S66_LN:i:5551_dp:f:0.9743669380309735"	5551
0	1	"Plasmid"	"S67_LN:i:5446_dp:f:45.07451987372478"	5446
1	0	"Chromosome"	"S68_LN:i:4448_dp:f:0.8558366033144728"	4448
0	1	"Plasmid"	"S69_LN:i:4420_dp:f:67.0378907636476"	4420
1	0	"Chromosome"	"S7_LN:i:229152_dp:f:1.0266272860568826"	229152
0	1	"Plasmid"	"S70_LN:i:3743_dp:f:28.06132164669956"	3743
1	0	"Chromosome"	"S71_LN:i:2999_dp:f:7.304997773909177"	2999
1	0	"Chromosome"	"S72_LN:i:2954_dp:f:0.7192403604875796"	2954
1	0	"Chromosome"	"S73_LN:i:2090_dp:f:0.6971437421849199"	2090
1	0	"Chromosome"	"S74_LN:i:2081_dp:f:2.468401737551231"	2081
1	0	"Chromosome"	"S75_LN:i:1877_dp:f:2.576347536805694"	1877
1	0	"Chromosome"	"S76_LN:i:1702_dp:f:7.262136028550519"	1702
1	0	"Chromosome"	"S77_LN:i:1621_dp:f:0.6782050381238456"	1621
1	0	"Chromosome"	"S78_LN:i:1597_dp:f:0.8926514294224658"	1597
1	0	"Chromosome"	"S79_LN:i:1545_dp:f:3.6344639517534105"	1545
1	0	"Chromosome"	"S8_LN:i:194732_dp:f:1.0151355389459324"	194732
1	0	"Chromosome"	"S80_LN:i:1512_dp:f:0.7437943392543297"	1512
1	0	"Chromosome"	"S81_LN:i:1419_dp:f:0.7329685801099408"	1419
1	0	"Chromosome"	"S82_LN:i:1375_dp:f:0.794536216936246"	1375
0.67	0.33	"Chromosome"	"S83_LN:i:1332_dp:f:4.311497997019246"	1332
1	0	"Chromosome"	"S84_LN:i:1250_dp:f:11.323411430268694"	1250
1	0	"Chromosome"	"S85_LN:i:1231_dp:f:10.466519526243866"	1231
1	0	"Chromosome"	"S86_LN:i:1116_dp:f:3.0564820107534616"	1116
0	1	"Plasmid"	"S87_LN:i:1056_dp:f:65.37822099223932"	1056
1	0	"Chromosome"	"S9_LN:i:187105_dp:f:1.0259945192465747"	187105
