"Prob_Chromosome"	"Prob_Plasmid"	"Prediction"	"Contig_name"	"Contig_length"
1	0	"Chromosome"	"S1_LN:i:401702_dp:f:0.9816945210228967"	401702
1	0	"Chromosome"	"S10_LN:i:212111_dp:f:1.0369906507997553"	212111
1	0	"Chromosome"	"S11_LN:i:173691_dp:f:1.0455029293719875"	173691
1	0	"Chromosome"	"S12_LN:i:169042_dp:f:1.0544455587528219"	169042
1	0	"Chromosome"	"S13_LN:i:159011_dp:f:1.0703152745015543"	159011
1	0	"Chromosome"	"S14_LN:i:152925_dp:f:1.0430852776772395"	152925
1	0	"Chromosome"	"S15_LN:i:133653_dp:f:0.9114858072222525"	133653
1	0	"Chromosome"	"S16_LN:i:113517_dp:f:0.8953243461743994"	113517
1	0	"Chromosome"	"S17_LN:i:108987_dp:f:1.115173055229895"	108987
1	0	"Chromosome"	"S18_LN:i:108222_dp:f:1.0628624400856452"	108222
1	0	"Chromosome"	"S19_LN:i:107225_dp:f:1.0787804564184775"	107225
1	0	"Chromosome"	"S2_LN:i:366394_dp:f:0.9850695197757642"	366394
1	0	"Chromosome"	"S20_LN:i:87663_dp:f:1.0980273779167071"	87663
1	0	"Chromosome"	"S21_LN:i:82523_dp:f:1.0927033503897106"	82523
1	0	"Chromosome"	"S22_LN:i:81284_dp:f:0.951376140564132"	81284
1	0	"Chromosome"	"S23_LN:i:74418_dp:f:0.8617405525068578"	74418
1	0	"Chromosome"	"S24_LN:i:67822_dp:f:0.9260146497252997"	67822
1	0	"Chromosome"	"S25_LN:i:65376_dp:f:1.0431658447959056"	65376
1	0	"Chromosome"	"S26_LN:i:47120_dp:f:0.9203544780053317"	47120
1	0	"Chromosome"	"S27_LN:i:45963_dp:f:0.9091124308937915"	45963
1	0	"Chromosome"	"S28_LN:i:43479_dp:f:0.9610366062503201"	43479
0	1	"Plasmid"	"S29_LN:i:43295_dp:f:1.2398894067370372"	43295
1	0	"Chromosome"	"S3_LN:i:341820_dp:f:1.0328202272406932"	341820
1	0	"Chromosome"	"S30_LN:i:41392_dp:f:1.0294854037858376"	41392
0	1	"Plasmid"	"S31_LN:i:38238_dp:f:1.2363271795228952"	38238
1	0	"Chromosome"	"S32_LN:i:35828_dp:f:1.0435820836776641"	35828
1	0	"Chromosome"	"S33_LN:i:30127_dp:f:0.9388581941513852"	30127
1	0	"Chromosome"	"S34_LN:i:29791_dp:f:1.1372324462969576"	29791
1	0	"Chromosome"	"S35_LN:i:28144_dp:f:0.9403389701748545"	28144
1	0	"Chromosome"	"S36_LN:i:25467_dp:f:0.9203505574780716"	25467
1	0	"Chromosome"	"S37_LN:i:21588_dp:f:1.0030352956076376"	21588
1	0	"Chromosome"	"S38_LN:i:20432_dp:f:0.9653718597710068"	20432
0.67	0.33	"Chromosome"	"S39_LN:i:19703_dp:f:0.8708662778631538"	19703
1	0	"Chromosome"	"S4_LN:i:319573_dp:f:0.8997921292020725"	319573
1	0	"Chromosome"	"S40_LN:i:14349_dp:f:0.9950292570754923"	14349
1	0	"Chromosome"	"S41_LN:i:14065_dp:f:0.9422550550831427"	14065
1	0	"Chromosome"	"S42_LN:i:13922_dp:f:0.9011468100669923"	13922
1	0	"Chromosome"	"S43_LN:i:13568_dp:f:0.9227428397899815"	13568
1	0	"Chromosome"	"S44_LN:i:12707_dp:f:1.1864289936303496"	12707
1	0	"Chromosome"	"S45_LN:i:12629_dp:f:0.9020212160855049"	12629
1	0	"Chromosome"	"S46_LN:i:10629_dp:f:0.9662881421594385"	10629
1	0	"Chromosome"	"S47_LN:i:10522_dp:f:0.9352827363971541"	10522
0	1	"Plasmid"	"S48_LN:i:10123_dp:f:1.1702050410295255"	10123
1	0	"Chromosome"	"S49_LN:i:8760_dp:f:0.9800919260273532"	8760
1	0	"Chromosome"	"S5_LN:i:300972_dp:f:0.9834467024242055"	300972
1	0	"Chromosome"	"S50_LN:i:7595_dp:f:0.8983257370986284"	7595
1	0	"Chromosome"	"S51_LN:i:7492_dp:f:0.9427230857627203"	7492
1	0	"Chromosome"	"S52_LN:i:7022_dp:f:0.8695617488106269"	7022
1	0	"Chromosome"	"S53_LN:i:5247_dp:f:0.898051629355412"	5247
1	0	"Chromosome"	"S54_LN:i:4873_dp:f:1.097507819953089"	4873
1	0	"Chromosome"	"S55_LN:i:4115_dp:f:1.0002137800357378"	4115
1	0	"Chromosome"	"S56_LN:i:3132_dp:f:0.8646729580863378"	3132
1	0	"Chromosome"	"S57_LN:i:3055_dp:f:7.274237304938943"	3055
1	0	"Chromosome"	"S58_LN:i:2934_dp:f:0.8029763131596663"	2934
1	0	"Chromosome"	"S59_LN:i:2581_dp:f:3.801453206957114"	2581
1	0	"Chromosome"	"S6_LN:i:264844_dp:f:1.0372940092337528"	264844
1	0	"Chromosome"	"S60_LN:i:2578_dp:f:0.9580080566333997"	2578
1	0	"Chromosome"	"S61_LN:i:2112_dp:f:8.847925897205606"	2112
1	0	"Chromosome"	"S62_LN:i:1991_dp:f:0.7727899662775064"	1991
1	0	"Chromosome"	"S63_LN:i:1983_dp:f:1.069262456760594"	1983
1	0	"Chromosome"	"S64_LN:i:1750_dp:f:2.0015038666359617"	1750
1	0	"Chromosome"	"S65_LN:i:1633_dp:f:1.067326804927437"	1633
1	0	"Chromosome"	"S66_LN:i:1613_dp:f:1.0921492654249183"	1613
1	0	"Chromosome"	"S67_LN:i:1577_dp:f:7.702604725369362"	1577
1	0	"Chromosome"	"S68_LN:i:1554_dp:f:1.7301462703001762"	1554
1	0	"Chromosome"	"S69_LN:i:1536_dp:f:1.6031149565771534"	1536
1	0	"Chromosome"	"S7_LN:i:242552_dp:f:1.0"	242552
1	0	"Chromosome"	"S70_LN:i:1433_dp:f:1.7374463744604116"	1433
1	0	"Chromosome"	"S71_LN:i:1348_dp:f:1.801336662186332"	1348
1	0	"Chromosome"	"S72_LN:i:1259_dp:f:0.7624386964849114"	1259
1	0	"Chromosome"	"S73_LN:i:1223_dp:f:0.9907386319781182"	1223
1	0	"Chromosome"	"S74_LN:i:1146_dp:f:2.126597352418108"	1146
1	0	"Chromosome"	"S75_LN:i:1086_dp:f:1.9253485511284234"	1086
1	0	"Chromosome"	"S76_LN:i:1080_dp:f:0.8658169214436928"	1080
1	0	"Chromosome"	"S77_LN:i:1080_dp:f:1.5102799312285335"	1080
1	0	"Chromosome"	"S78_LN:i:1030_dp:f:2.0719953073139594"	1030
1	0	"Chromosome"	"S8_LN:i:227896_dp:f:1.0433592242044611"	227896
1	0	"Chromosome"	"S9_LN:i:215875_dp:f:1.023784879828036"	215875
