"Prob_Chromosome"	"Prob_Plasmid"	"Prediction"	"Contig_name"	"Contig_length"
1	0	"Chromosome"	"S1_LN:i:350727_dp:f:0.9227452193187464"	350727
1	0	"Chromosome"	"S10_LN:i:156772_dp:f:1.0116480351250436"	156772
1	0	"Chromosome"	"S100_LN:i:1733_dp:f:1.9099423741353458"	1733
1	0	"Chromosome"	"S101_LN:i:1698_dp:f:7.1946311909033795"	1698
0.5	0.5	"Plasmid"	"S102_LN:i:1669_dp:f:2.9680530947757924"	1669
1	0	"Chromosome"	"S103_LN:i:1625_dp:f:0.9148089445808566"	1625
1	0	"Chromosome"	"S104_LN:i:1610_dp:f:2.058207181205183"	1610
1	0	"Chromosome"	"S105_LN:i:1610_dp:f:3.5578360211204925"	1610
1	0	"Chromosome"	"S106_LN:i:1610_dp:f:1.0613351897335612"	1610
1	0	"Chromosome"	"S107_LN:i:1568_dp:f:0.9858025465166069"	1568
1	0	"Chromosome"	"S108_LN:i:1539_dp:f:2.1468633946856532"	1539
0.67	0.33	"Chromosome"	"S109_LN:i:1442_dp:f:1.9609789718943365"	1442
1	0	"Chromosome"	"S11_LN:i:148772_dp:f:0.9483839033305148"	148772
1	0	"Chromosome"	"S110_LN:i:1420_dp:f:1.9970373843720042"	1420
1	0	"Chromosome"	"S111_LN:i:1418_dp:f:4.214284531422096"	1418
1	0	"Chromosome"	"S112_LN:i:1385_dp:f:0.850150462323643"	1385
0.67	0.33	"Chromosome"	"S113_LN:i:1359_dp:f:3.683845788023409"	1359
0.33	0.67	"Plasmid"	"S114_LN:i:1343_dp:f:1.7969245308225146"	1343
0.5	0.5	"Plasmid"	"S115_LN:i:1331_dp:f:2.685110534630707"	1331
1	0	"Chromosome"	"S116_LN:i:1263_dp:f:2.206634336312882"	1263
0.67	0.33	"Chromosome"	"S117_LN:i:1247_dp:f:1.9560996895427587"	1247
1	0	"Chromosome"	"S118_LN:i:1222_dp:f:4.280923300263229"	1222
1	0	"Chromosome"	"S119_LN:i:1202_dp:f:0.9469624058246625"	1202
1	0	"Chromosome"	"S12_LN:i:145281_dp:f:0.9461302106080219"	145281
1	0	"Chromosome"	"S120_LN:i:1121_dp:f:4.4193622619499475"	1121
1	0	"Chromosome"	"S121_LN:i:1097_dp:f:0.9103595299094239"	1097
1	0	"Chromosome"	"S122_LN:i:1087_dp:f:2.2411206640504835"	1087
0.33	0.67	"Plasmid"	"S123_LN:i:1073_dp:f:9.132186333345647"	1073
1	0	"Chromosome"	"S13_LN:i:137547_dp:f:1.0150323828918582"	137547
1	0	"Chromosome"	"S14_LN:i:134874_dp:f:0.9808109155499802"	134874
1	0	"Chromosome"	"S15_LN:i:118100_dp:f:0.979371533652331"	118100
1	0	"Chromosome"	"S16_LN:i:112949_dp:f:0.9437598511269255"	112949
1	0	"Chromosome"	"S17_LN:i:104564_dp:f:1.0065312139433498"	104564
1	0	"Chromosome"	"S18_LN:i:103602_dp:f:0.9209312921451391"	103602
1	0	"Chromosome"	"S19_LN:i:103372_dp:f:0.8801058613241226"	103372
1	0	"Chromosome"	"S2_LN:i:268940_dp:f:0.9554714013156622"	268940
1	0	"Chromosome"	"S20_LN:i:99148_dp:f:0.963420482745086"	99148
1	0	"Chromosome"	"S21_LN:i:96826_dp:f:0.9804692542106396"	96826
1	0	"Chromosome"	"S22_LN:i:93358_dp:f:1.0664507074256908"	93358
1	0	"Chromosome"	"S23_LN:i:91297_dp:f:1.0453283630094692"	91297
1	0	"Chromosome"	"S24_LN:i:89813_dp:f:1.0661109161613689"	89813
1	0	"Chromosome"	"S25_LN:i:88598_dp:f:0.9403738055771355"	88598
1	0	"Chromosome"	"S26_LN:i:82507_dp:f:1.001365272174829"	82507
1	0	"Chromosome"	"S27_LN:i:72730_dp:f:1.0936355511767972"	72730
1	0	"Chromosome"	"S28_LN:i:72128_dp:f:0.9820546483068051"	72128
1	0	"Chromosome"	"S29_LN:i:66988_dp:f:1.025063956563531"	66988
1	0	"Chromosome"	"S3_LN:i:238966_dp:f:0.9967982156764563"	238966
1	0	"Chromosome"	"S30_LN:i:61500_dp:f:1.019657067377955"	61500
0.67	0.33	"Chromosome"	"S31_LN:i:60805_dp:f:0.9573915427344758"	60805
1	0	"Chromosome"	"S32_LN:i:59922_dp:f:0.9643742571744556"	59922
1	0	"Chromosome"	"S33_LN:i:57342_dp:f:0.9117451232918142"	57342
1	0	"Chromosome"	"S34_LN:i:57259_dp:f:0.9435369612119304"	57259
0.33	0.67	"Plasmid"	"S35_LN:i:50500_dp:f:1.054793329122107"	50500
1	0	"Chromosome"	"S36_LN:i:50248_dp:f:0.9965416328192526"	50248
1	0	"Chromosome"	"S37_LN:i:48296_dp:f:0.8983082728080186"	48296
1	0	"Chromosome"	"S38_LN:i:47526_dp:f:0.9687679527556943"	47526
1	0	"Chromosome"	"S39_LN:i:43339_dp:f:1.0433792149929553"	43339
1	0	"Chromosome"	"S4_LN:i:203858_dp:f:1.003114326963349"	203858
0	1	"Plasmid"	"S40_LN:i:43066_dp:f:3.5842009635600967"	43066
1	0	"Chromosome"	"S41_LN:i:43041_dp:f:1.0404366446621727"	43041
1	0	"Chromosome"	"S42_LN:i:41212_dp:f:0.944453929469445"	41212
0	1	"Plasmid"	"S43_LN:i:40160_dp:f:1.1221138842170004"	40160
1	0	"Chromosome"	"S44_LN:i:40017_dp:f:1.0160157495377136"	40017
1	0	"Chromosome"	"S45_LN:i:33220_dp:f:0.9589259308625191"	33220
1	0	"Chromosome"	"S46_LN:i:31289_dp:f:0.9491562981713999"	31289
1	0	"Chromosome"	"S47_LN:i:30715_dp:f:1.0939304202940396"	30715
1	0	"Chromosome"	"S48_LN:i:26125_dp:f:1.0190188967695175"	26125
0.67	0.33	"Chromosome"	"S49_LN:i:25534_dp:f:1.9776179941195475"	25534
1	0	"Chromosome"	"S5_LN:i:175771_dp:f:1.0195895438074496"	175771
1	0	"Chromosome"	"S50_LN:i:23691_dp:f:0.9856820242299711"	23691
0.67	0.33	"Chromosome"	"S51_LN:i:23410_dp:f:0.890734854598637"	23410
1	0	"Chromosome"	"S52_LN:i:23311_dp:f:0.973035782458387"	23311
1	0	"Chromosome"	"S53_LN:i:18097_dp:f:0.9468945907855075"	18097
1	0	"Chromosome"	"S54_LN:i:17862_dp:f:0.9745908559229144"	17862
0	1	"Plasmid"	"S55_LN:i:17495_dp:f:2.406406911325466"	17495
1	0	"Chromosome"	"S56_LN:i:16031_dp:f:0.9551649651415908"	16031
1	0	"Chromosome"	"S57_LN:i:14427_dp:f:1.3165352896557703"	14427
0	1	"Plasmid"	"S58_LN:i:13672_dp:f:2.4610317808538547"	13672
1	0	"Chromosome"	"S59_LN:i:13042_dp:f:0.8558991470790573"	13042
1	0	"Chromosome"	"S6_LN:i:174417_dp:f:0.9419598843555471"	174417
1	0	"Chromosome"	"S60_LN:i:12723_dp:f:0.9617467158758506"	12723
0	1	"Plasmid"	"S61_LN:i:12643_dp:f:1.7394919456458338"	12643
0	1	"Plasmid"	"S62_LN:i:11955_dp:f:1.870223780981955"	11955
0	1	"Plasmid"	"S63_LN:i:11133_dp:f:1.9336008530054436"	11133
1	0	"Chromosome"	"S64_LN:i:11118_dp:f:1.0192840846626028"	11118
1	0	"Chromosome"	"S65_LN:i:10254_dp:f:0.9338639504431256"	10254
1	0	"Chromosome"	"S66_LN:i:9818_dp:f:1.4162996046322998"	9818
1	0	"Chromosome"	"S67_LN:i:9178_dp:f:0.9477013274296667"	9178
1	0	"Chromosome"	"S68_LN:i:6561_dp:f:1.049070674736819"	6561
1	0	"Chromosome"	"S69_LN:i:6483_dp:f:1.7860403141943608"	6483
1	0	"Chromosome"	"S7_LN:i:170687_dp:f:1.0"	170687
1	0	"Chromosome"	"S70_LN:i:5297_dp:f:2.2424429115796802"	5297
1	0	"Chromosome"	"S71_LN:i:4851_dp:f:0.9755082053442127"	4851
0	1	"Plasmid"	"S72_LN:i:4593_dp:f:1.6439762597555658"	4593
1	0	"Chromosome"	"S73_LN:i:4566_dp:f:1.0080992667004294"	4566
1	0	"Chromosome"	"S74_LN:i:4312_dp:f:0.9812799732141086"	4312
0	1	"Plasmid"	"S75_LN:i:4210_dp:f:3.622977466930198"	4210
1	0	"Chromosome"	"S76_LN:i:4094_dp:f:1.3813514933974154"	4094
0	1	"Plasmid"	"S77_LN:i:3978_dp:f:2.469254211674137"	3978
1	0	"Chromosome"	"S78_LN:i:3941_dp:f:0.9656619656686672"	3941
1	0	"Chromosome"	"S79_LN:i:3203_dp:f:0.8845215142103026"	3203
1	0	"Chromosome"	"S8_LN:i:168199_dp:f:1.0542045549538772"	168199
0	1	"Plasmid"	"S80_LN:i:3189_dp:f:1.823255322852"	3189
0	1	"Plasmid"	"S81_LN:i:3125_dp:f:40.080996572284995"	3125
1	0	"Chromosome"	"S82_LN:i:3108_dp:f:1.0253437539297428"	3108
1	0	"Chromosome"	"S83_LN:i:2973_dp:f:0.8466224286319038"	2973
0.67	0.33	"Chromosome"	"S84_LN:i:2765_dp:f:2.190079839996073"	2765
1	0	"Chromosome"	"S85_LN:i:2764_dp:f:6.9450483835868395"	2764
0.33	0.67	"Plasmid"	"S86_LN:i:2738_dp:f:1.6540481046790005"	2738
0	1	"Plasmid"	"S87_LN:i:2559_dp:f:2.2493508643110216"	2559
0.67	0.33	"Chromosome"	"S88_LN:i:2442_dp:f:5.596953511694097"	2442
0.67	0.33	"Chromosome"	"S89_LN:i:2425_dp:f:1.806127216232654"	2425
1	0	"Chromosome"	"S9_LN:i:165367_dp:f:1.0274012436651798"	165367
0	1	"Plasmid"	"S90_LN:i:2285_dp:f:1.6601436857056222"	2285
1	0	"Chromosome"	"S91_LN:i:2278_dp:f:2.0919075151508593"	2278
1	0	"Chromosome"	"S92_LN:i:2103_dp:f:0.7838938088822182"	2103
1	0	"Chromosome"	"S93_LN:i:2068_dp:f:0.9103429161963932"	2068
1	0	"Chromosome"	"S94_LN:i:2061_dp:f:1.098313720160107"	2061
0.33	0.67	"Plasmid"	"S95_LN:i:2032_dp:f:1.7043738589795705"	2032
1	0	"Chromosome"	"S96_LN:i:2019_dp:f:1.7036036530728358"	2019
0.67	0.33	"Chromosome"	"S97_LN:i:1844_dp:f:1.8424172491305872"	1844
1	0	"Chromosome"	"S98_LN:i:1793_dp:f:0.9881850112589533"	1793
1	0	"Chromosome"	"S99_LN:i:1742_dp:f:0.8584475546392787"	1742
