"Prob_Chromosome"	"Prob_Plasmid"	"Prediction"	"Contig_name"	"Contig_length"
1	0	"Chromosome"	"S1_LN:i:545619_dp:f:1.0232670008898987"	545619
1	0	"Chromosome"	"S10_LN:i:179630_dp:f:0.9991519009909148"	179630
0.5	0.5	"Plasmid"	"S100_LN:i:674_dp:f:5.429359915858192"	674
1	0	"Chromosome"	"S101_LN:i:597_dp:f:2.759579786718658"	597
1	0	"Chromosome"	"S102_LN:i:589_dp:f:1.0010615661651088"	589
1	0	"Chromosome"	"S11_LN:i:165322_dp:f:1.0216476738181084"	165322
1	0	"Chromosome"	"S12_LN:i:139554_dp:f:0.9796157625406867"	139554
1	0	"Chromosome"	"S13_LN:i:135719_dp:f:1.009313299210786"	135719
1	0	"Chromosome"	"S14_LN:i:114913_dp:f:1.048535914332038"	114913
1	0	"Chromosome"	"S15_LN:i:108197_dp:f:0.9704165614643648"	108197
1	0	"Chromosome"	"S16_LN:i:95578_dp:f:1.0349557217733127"	95578
1	0	"Chromosome"	"S17_LN:i:90230_dp:f:0.996021052254656"	90230
1	0	"Chromosome"	"S18_LN:i:72753_dp:f:0.9708944003298429"	72753
1	0	"Chromosome"	"S19_LN:i:68271_dp:f:1.0014207523925858"	68271
1	0	"Chromosome"	"S2_LN:i:348755_dp:f:1.0358867545960282"	348755
1	0	"Chromosome"	"S20_LN:i:68254_dp:f:0.9827102010395057"	68254
1	0	"Chromosome"	"S21_LN:i:66496_dp:f:0.9518611148463146"	66496
1	0	"Chromosome"	"S22_LN:i:54588_dp:f:0.9927395090203358"	54588
1	0	"Chromosome"	"S23_LN:i:52273_dp:f:1.0249952012238233"	52273
1	0	"Chromosome"	"S24_LN:i:45286_dp:f:1.0452979050638247"	45286
1	0	"Chromosome"	"S25_LN:i:45156_dp:f:1.0043765827424067"	45156
1	0	"Chromosome"	"S26_LN:i:44600_dp:f:0.978782841960409"	44600
1	0	"Chromosome"	"S27_LN:i:41191_dp:f:1.0495164828107792"	41191
1	0	"Chromosome"	"S28_LN:i:40721_dp:f:1.0063103237481905"	40721
0	1	"Plasmid"	"S29_LN:i:40573_dp:f:3.8846533746016947"	40573
1	0	"Chromosome"	"S3_LN:i:316031_dp:f:0.9712133731149705"	316031
1	0	"Chromosome"	"S30_LN:i:40573_dp:f:1.032245404992264"	40573
1	0	"Chromosome"	"S31_LN:i:38611_dp:f:1.0283636883619627"	38611
1	0	"Chromosome"	"S32_LN:i:37693_dp:f:1.00754490237675"	37693
1	0	"Chromosome"	"S33_LN:i:37329_dp:f:0.9502894270443153"	37329
1	0	"Chromosome"	"S34_LN:i:34398_dp:f:1.0204635758117608"	34398
1	0	"Chromosome"	"S35_LN:i:31928_dp:f:1.0273441749676733"	31928
1	0	"Chromosome"	"S36_LN:i:30781_dp:f:1.047592058257763"	30781
1	0	"Chromosome"	"S37_LN:i:28563_dp:f:0.9614988651889731"	28563
1	0	"Chromosome"	"S38_LN:i:28446_dp:f:0.9741369863979645"	28446
1	0	"Chromosome"	"S39_LN:i:24747_dp:f:0.9443580969157752"	24747
1	0	"Chromosome"	"S4_LN:i:308616_dp:f:1.0138059797073002"	308616
1	0	"Chromosome"	"S40_LN:i:22030_dp:f:0.9968895250354249"	22030
1	0	"Chromosome"	"S41_LN:i:19686_dp:f:0.9330389064304747"	19686
1	0	"Chromosome"	"S42_LN:i:16675_dp:f:0.9533617343788581"	16675
1	0	"Chromosome"	"S43_LN:i:15083_dp:f:0.982955529201781"	15083
0.33	0.67	"Plasmid"	"S44_LN:i:13508_dp:f:1.0143087908144108"	13508
0.67	0.33	"Chromosome"	"S45_LN:i:11561_dp:f:0.9108166852190804"	11561
1	0	"Chromosome"	"S46_LN:i:10331_dp:f:1.151268632639815"	10331
1	0	"Chromosome"	"S47_LN:i:9067_dp:f:1.0476911569441423"	9067
1	0	"Chromosome"	"S48_LN:i:7045_dp:f:1.0080535428183535"	7045
0.33	0.67	"Plasmid"	"S49_LN:i:5777_dp:f:1.0455442254532479"	5777
1	0	"Chromosome"	"S5_LN:i:307579_dp:f:0.984680011910186"	307579
1	0	"Chromosome"	"S50_LN:i:5085_dp:f:1.0156804208177497"	5085
1	0	"Chromosome"	"S51_LN:i:5021_dp:f:1.0128302483359044"	5021
1	0	"Chromosome"	"S52_LN:i:4359_dp:f:0.9975632212990104"	4359
0	1	"Plasmid"	"S53_LN:i:4326_dp:f:0.9415629133084502"	4326
1	0	"Chromosome"	"S54_LN:i:4260_dp:f:1.0689568172310127"	4260
0.33	0.67	"Plasmid"	"S55_LN:i:4233_dp:f:1.0363786512045141"	4233
0	1	"Plasmid"	"S56_LN:i:4148_dp:f:0.9626426550335154"	4148
0.67	0.33	"Chromosome"	"S57_LN:i:3880_dp:f:1.009361174170664"	3880
1	0	"Chromosome"	"S58_LN:i:3230_dp:f:2.5920398762854897"	3230
0.33	0.67	"Plasmid"	"S59_LN:i:2963_dp:f:1.0065164589381308"	2963
1	0	"Chromosome"	"S6_LN:i:287382_dp:f:0.9873632502487711"	287382
1	0	"Chromosome"	"S60_LN:i:2472_dp:f:1.9902722193345534"	2472
0.33	0.67	"Plasmid"	"S61_LN:i:2281_dp:f:1.1275355514933347"	2281
1	0	"Chromosome"	"S62_LN:i:2222_dp:f:1.0004900036998983"	2222
0.33	0.67	"Plasmid"	"S63_LN:i:2197_dp:f:1.0475883374059587"	2197
1	0	"Chromosome"	"S64_LN:i:2153_dp:f:6.914552300708846"	2153
0.33	0.67	"Plasmid"	"S65_LN:i:2095_dp:f:3.1830976814606484"	2095
1	0	"Chromosome"	"S66_LN:i:1857_dp:f:0.9842838732958006"	1857
1	0	"Chromosome"	"S67_LN:i:1819_dp:f:2.1286818290511804"	1819
1	0	"Chromosome"	"S68_LN:i:1702_dp:f:6.639102106682669"	1702
1	0	"Chromosome"	"S69_LN:i:1672_dp:f:1.0487604057242115"	1672
1	0	"Chromosome"	"S7_LN:i:240366_dp:f:0.9850172531863642"	240366
1	0	"Chromosome"	"S70_LN:i:1647_dp:f:1.0379512072052677"	1647
1	0	"Chromosome"	"S71_LN:i:1645_dp:f:1.128084377134421"	1645
1	0	"Chromosome"	"S72_LN:i:1537_dp:f:1.0783642468470052"	1537
1	0	"Chromosome"	"S73_LN:i:1537_dp:f:0.898534983047272"	1537
1	0	"Chromosome"	"S74_LN:i:1487_dp:f:1.9653028231620056"	1487
0.5	0.5	"Plasmid"	"S75_LN:i:1473_dp:f:0.9165698277127502"	1473
1	0	"Chromosome"	"S76_LN:i:1454_dp:f:2.272981547173501"	1454
1	0	"Chromosome"	"S77_LN:i:1369_dp:f:2.1934650836966325"	1369
1	0	"Chromosome"	"S78_LN:i:1246_dp:f:0.8811164354689258"	1246
1	0	"Chromosome"	"S79_LN:i:1222_dp:f:2.269436443603066"	1222
1	0	"Chromosome"	"S8_LN:i:219706_dp:f:1.0247105560608192"	219706
1	0	"Chromosome"	"S80_LN:i:1193_dp:f:1.0784258889585576"	1193
1	0	"Chromosome"	"S81_LN:i:1114_dp:f:0.9232669888747266"	1114
1	0	"Chromosome"	"S82_LN:i:1100_dp:f:1.8617005417876396"	1100
0.67	0.33	"Chromosome"	"S83_LN:i:1057_dp:f:2.9398730407383464"	1057
0.5	0.5	"Plasmid"	"S84_LN:i:1036_dp:f:10.05544163153234"	1036
0	1	"Plasmid"	"S85_LN:i:1005_dp:f:1.0130864909968047"	1005
1	0	"Chromosome"	"S86_LN:i:949_dp:f:1.2184982233179877"	949
1	0	"Chromosome"	"S87_LN:i:937_dp:f:0.9987550101318239"	937
1	0	"Chromosome"	"S88_LN:i:884_dp:f:2.2108838793317656"	884
0.67	0.33	"Chromosome"	"S89_LN:i:846_dp:f:0.8618253072060319"	846
1	0	"Chromosome"	"S9_LN:i:204725_dp:f:1.0"	204725
0.67	0.33	"Chromosome"	"S90_LN:i:846_dp:f:0.9287470594116223"	846
1	0	"Chromosome"	"S91_LN:i:835_dp:f:2.12862849684199"	835
0.67	0.33	"Chromosome"	"S92_LN:i:825_dp:f:1.7577204699267766"	825
1	0	"Chromosome"	"S93_LN:i:819_dp:f:1.1163867632330815"	819
1	0	"Chromosome"	"S94_LN:i:783_dp:f:2.0910884509064958"	783
1	0	"Chromosome"	"S95_LN:i:739_dp:f:0.8527310492835408"	739
1	0	"Chromosome"	"S96_LN:i:739_dp:f:0.9137427245120893"	739
1	0	"Chromosome"	"S97_LN:i:723_dp:f:1.0053905291822478"	723
0.5	0.5	"Plasmid"	"S98_LN:i:711_dp:f:12.493483265440053"	711
1	0	"Chromosome"	"S99_LN:i:701_dp:f:6.7353467756998535"	701
