"Prob_Chromosome"	"Prob_Plasmid"	"Prediction"	"Contig_name"	"Contig_length"
1	0	"Chromosome"	"S1_LN:i:408850_dp:f:0.9546486616357319"	408850
1	0	"Chromosome"	"S10_LN:i:165877_dp:f:1.133614971661443"	165877
1	0	"Chromosome"	"S100_LN:i:736_dp:f:1.0356341947426626"	736
1	0	"Chromosome"	"S101_LN:i:727_dp:f:1.294175122273709"	727
1	0	"Chromosome"	"S102_LN:i:706_dp:f:2.0874978468090326"	706
1	0	"Chromosome"	"S103_LN:i:694_dp:f:1.8814237022122176"	694
1	0	"Chromosome"	"S104_LN:i:675_dp:f:3.467642691276951"	675
1	0	"Chromosome"	"S105_LN:i:673_dp:f:2.7055499719776557"	673
1	0	"Chromosome"	"S106_LN:i:648_dp:f:1.0809624018197146"	648
0.67	0.33	"Chromosome"	"S107_LN:i:611_dp:f:2.4628469391262766"	611
1	0	"Chromosome"	"S108_LN:i:597_dp:f:1.3343417483929647"	597
1	0	"Chromosome"	"S109_LN:i:577_dp:f:0.5723156426973542"	577
1	0	"Chromosome"	"S11_LN:i:155814_dp:f:0.8897661183555186"	155814
1	0	"Chromosome"	"S110_LN:i:577_dp:f:0.47918108853560415"	577
1	0	"Chromosome"	"S111_LN:i:576_dp:f:1.764351551940284"	576
1	0	"Chromosome"	"S112_LN:i:575_dp:f:3.030945271250784"	575
1	0	"Chromosome"	"S113_LN:i:552_dp:f:4.642401937463548"	552
0.67	0.33	"Chromosome"	"S114_LN:i:536_dp:f:1.553224459261817"	536
0.5	0.5	"Plasmid"	"S115_LN:i:530_dp:f:13.88955179632627"	530
1	0	"Chromosome"	"S116_LN:i:517_dp:f:1.5757074763538326"	517
1	0	"Chromosome"	"S12_LN:i:155570_dp:f:1.2478108634194238"	155570
1	0	"Chromosome"	"S13_LN:i:149786_dp:f:1.310763191535144"	149786
1	0	"Chromosome"	"S14_LN:i:133909_dp:f:1.012021378313211"	133909
1	0	"Chromosome"	"S15_LN:i:123087_dp:f:0.9878420439997334"	123087
1	0	"Chromosome"	"S16_LN:i:120707_dp:f:1.0408705557616162"	120707
1	0	"Chromosome"	"S17_LN:i:105544_dp:f:1.0767762191610684"	105544
1	0	"Chromosome"	"S18_LN:i:92293_dp:f:1.4104822369104506"	92293
1	0	"Chromosome"	"S19_LN:i:91876_dp:f:1.4100233959510704"	91876
1	0	"Chromosome"	"S2_LN:i:320983_dp:f:1.263271632898365"	320983
1	0	"Chromosome"	"S20_LN:i:80954_dp:f:1.0511022491078774"	80954
1	0	"Chromosome"	"S21_LN:i:73015_dp:f:1.3264749334386237"	73015
1	0	"Chromosome"	"S22_LN:i:72915_dp:f:1.14717689363531"	72915
1	0	"Chromosome"	"S23_LN:i:67621_dp:f:0.935223108646977"	67621
1	0	"Chromosome"	"S24_LN:i:55295_dp:f:1.3771682656780315"	55295
1	0	"Chromosome"	"S25_LN:i:54224_dp:f:1.3528583833641892"	54224
1	0	"Chromosome"	"S26_LN:i:52173_dp:f:0.8732061569011978"	52173
1	0	"Chromosome"	"S27_LN:i:51115_dp:f:1.3408396574046701"	51115
1	0	"Chromosome"	"S28_LN:i:48601_dp:f:1.3922988121982565"	48601
1	0	"Chromosome"	"S29_LN:i:46625_dp:f:1.4804663559994309"	46625
1	0	"Chromosome"	"S3_LN:i:313165_dp:f:0.9523349234190308"	313165
0	1	"Plasmid"	"S30_LN:i:43955_dp:f:1.2338976450405579"	43955
1	0	"Chromosome"	"S31_LN:i:41696_dp:f:1.092757425256498"	41696
1	0	"Chromosome"	"S32_LN:i:41153_dp:f:1.3351845552917598"	41153
1	0	"Chromosome"	"S33_LN:i:39853_dp:f:1.1144600240563944"	39853
1	0	"Chromosome"	"S34_LN:i:38595_dp:f:1.2683886781752944"	38595
1	0	"Chromosome"	"S35_LN:i:38405_dp:f:0.8355533361427603"	38405
0	1	"Plasmid"	"S36_LN:i:37926_dp:f:1.3067335195665473"	37926
1	0	"Chromosome"	"S37_LN:i:37714_dp:f:1.1129497985069057"	37714
1	0	"Chromosome"	"S38_LN:i:33466_dp:f:1.5856050651907458"	33466
1	0	"Chromosome"	"S39_LN:i:30734_dp:f:1.3708502763586183"	30734
1	0	"Chromosome"	"S4_LN:i:295985_dp:f:0.9048631342548297"	295985
1	0	"Chromosome"	"S40_LN:i:27115_dp:f:0.9536110555602086"	27115
1	0	"Chromosome"	"S41_LN:i:27042_dp:f:0.8355197124039562"	27042
1	0	"Chromosome"	"S42_LN:i:26153_dp:f:1.5347591018492088"	26153
1	0	"Chromosome"	"S43_LN:i:19804_dp:f:1.080354242475282"	19804
1	0	"Chromosome"	"S44_LN:i:18266_dp:f:0.904483546582328"	18266
1	0	"Chromosome"	"S45_LN:i:18225_dp:f:0.8448472312195693"	18225
1	0	"Chromosome"	"S46_LN:i:13545_dp:f:1.1882532251334694"	13545
1	0	"Chromosome"	"S47_LN:i:13503_dp:f:1.6501722742691447"	13503
1	0	"Chromosome"	"S48_LN:i:13425_dp:f:1.2634637345665825"	13425
0	1	"Plasmid"	"S49_LN:i:11580_dp:f:1.0153493903405846"	11580
1	0	"Chromosome"	"S5_LN:i:294113_dp:f:1.2006386549578658"	294113
1	0	"Chromosome"	"S50_LN:i:11371_dp:f:1.2712198256817002"	11371
1	0	"Chromosome"	"S51_LN:i:8851_dp:f:0.9782921030565783"	8851
1	0	"Chromosome"	"S52_LN:i:8313_dp:f:1.5397109188005336"	8313
0.67	0.33	"Chromosome"	"S53_LN:i:7996_dp:f:1.3773469306749426"	7996
1	0	"Chromosome"	"S54_LN:i:7020_dp:f:0.9772285564392108"	7020
0	1	"Plasmid"	"S55_LN:i:6839_dp:f:1.0503778316004302"	6839
1	0	"Chromosome"	"S56_LN:i:5803_dp:f:1.1411230322398447"	5803
1	0	"Chromosome"	"S57_LN:i:5391_dp:f:0.8498459833312462"	5391
1	0	"Chromosome"	"S58_LN:i:5375_dp:f:0.8731550024298251"	5375
0	1	"Plasmid"	"S59_LN:i:5326_dp:f:1.0442769181156906"	5326
1	0	"Chromosome"	"S6_LN:i:233729_dp:f:0.8569744680455065"	233729
0	1	"Plasmid"	"S60_LN:i:5050_dp:f:1.0163344817651552"	5050
1	0	"Chromosome"	"S61_LN:i:4977_dp:f:2.3561403973570307"	4977
1	0	"Chromosome"	"S62_LN:i:4418_dp:f:1.6609747407672026"	4418
0	1	"Plasmid"	"S63_LN:i:3105_dp:f:1.3210751703847483"	3105
0	1	"Plasmid"	"S64_LN:i:3079_dp:f:1.0264200092641813"	3079
1	0	"Chromosome"	"S65_LN:i:3039_dp:f:11.174763614291756"	3039
0.33	0.67	"Plasmid"	"S66_LN:i:2935_dp:f:2.6095072568470523"	2935
1	0	"Chromosome"	"S67_LN:i:2437_dp:f:0.9169228180507577"	2437
0.67	0.33	"Chromosome"	"S68_LN:i:2149_dp:f:0.7501579164974026"	2149
1	0	"Chromosome"	"S69_LN:i:1962_dp:f:1.3827666096723903"	1962
1	0	"Chromosome"	"S7_LN:i:207370_dp:f:1.421850590754877"	207370
1	0	"Chromosome"	"S70_LN:i:1827_dp:f:1.8291476915228944"	1827
1	0	"Chromosome"	"S71_LN:i:1771_dp:f:0.9472616348754075"	1771
1	0	"Chromosome"	"S72_LN:i:1767_dp:f:0.8775417386691826"	1767
1	0	"Chromosome"	"S73_LN:i:1698_dp:f:0.7348250602371197"	1698
1	0	"Chromosome"	"S74_LN:i:1698_dp:f:0.8390196091837322"	1698
1	0	"Chromosome"	"S75_LN:i:1693_dp:f:11.162783801014958"	1693
1	0	"Chromosome"	"S76_LN:i:1692_dp:f:1.8803967701850612"	1692
1	0	"Chromosome"	"S77_LN:i:1673_dp:f:1.1685472783761133"	1673
1	0	"Chromosome"	"S78_LN:i:1580_dp:f:1.9937428317969947"	1580
1	0	"Chromosome"	"S79_LN:i:1564_dp:f:2.3294314284406568"	1564
1	0	"Chromosome"	"S8_LN:i:198596_dp:f:1.0"	198596
1	0	"Chromosome"	"S80_LN:i:1445_dp:f:2.998083019067159"	1445
0	1	"Plasmid"	"S81_LN:i:1340_dp:f:2.4075933051001805"	1340
1	0	"Chromosome"	"S82_LN:i:1275_dp:f:2.437165756866329"	1275
1	0	"Chromosome"	"S83_LN:i:1257_dp:f:1.0387491759949452"	1257
1	0	"Chromosome"	"S84_LN:i:1172_dp:f:0.852509314984253"	1172
1	0	"Chromosome"	"S85_LN:i:1120_dp:f:2.296989511419841"	1120
1	0	"Chromosome"	"S86_LN:i:1072_dp:f:2.7574731632165284"	1072
0.5	0.5	"Plasmid"	"S87_LN:i:1009_dp:f:2.735395050481052"	1009
1	0	"Chromosome"	"S88_LN:i:1000_dp:f:0.9206033264830049"	1000
1	0	"Chromosome"	"S89_LN:i:1000_dp:f:0.9441955574091515"	1000
1	0	"Chromosome"	"S9_LN:i:190186_dp:f:1.3534787494532747"	190186
1	0	"Chromosome"	"S90_LN:i:981_dp:f:0.6876800537694754"	981
1	0	"Chromosome"	"S91_LN:i:966_dp:f:3.2829263018994994"	966
1	0	"Chromosome"	"S92_LN:i:956_dp:f:2.7730492089836347"	956
1	0	"Chromosome"	"S93_LN:i:854_dp:f:5.6942630256421065"	854
1	0	"Chromosome"	"S94_LN:i:845_dp:f:2.109659380857178"	845
1	0	"Chromosome"	"S95_LN:i:818_dp:f:1.6415668356942268"	818
1	0	"Chromosome"	"S96_LN:i:798_dp:f:1.877240840981305"	798
1	0	"Chromosome"	"S97_LN:i:779_dp:f:1.1068570514796388"	779
1	0	"Chromosome"	"S98_LN:i:759_dp:f:5.526091784144955"	759
1	0	"Chromosome"	"S99_LN:i:736_dp:f:0.7849781243394428"	736
