"Prob_Chromosome"	"Prob_Plasmid"	"Prediction"	"Contig_name"	"Contig_length"
1	0	"Chromosome"	"S1_LN:i:395033_dp:f:1.0064337878686842"	395033
1	0	"Chromosome"	"S10_LN:i:182245_dp:f:1.0390221488684057"	182245
1	0	"Chromosome"	"S100_LN:i:514_dp:f:1.2976753856495242"	514
1	0	"Chromosome"	"S11_LN:i:161933_dp:f:1.1487157848696437"	161933
1	0	"Chromosome"	"S12_LN:i:154502_dp:f:0.9878963468173066"	154502
1	0	"Chromosome"	"S13_LN:i:144655_dp:f:1.0107720097720903"	144655
1	0	"Chromosome"	"S14_LN:i:143795_dp:f:0.9749565035763083"	143795
1	0	"Chromosome"	"S15_LN:i:133150_dp:f:0.9788201994131993"	133150
1	0	"Chromosome"	"S16_LN:i:127628_dp:f:0.9938433849961652"	127628
1	0	"Chromosome"	"S17_LN:i:121329_dp:f:0.9900497378637468"	121329
1	0	"Chromosome"	"S18_LN:i:99720_dp:f:1.012814747464654"	99720
1	0	"Chromosome"	"S19_LN:i:94854_dp:f:0.9660762763797979"	94854
1	0	"Chromosome"	"S2_LN:i:269509_dp:f:0.986287318831538"	269509
1	0	"Chromosome"	"S20_LN:i:91869_dp:f:1.0109206577179677"	91869
1	0	"Chromosome"	"S21_LN:i:87971_dp:f:1.0049761457587625"	87971
1	0	"Chromosome"	"S22_LN:i:87948_dp:f:0.9853771256648572"	87948
1	0	"Chromosome"	"S23_LN:i:87190_dp:f:0.9453509035716076"	87190
1	0	"Chromosome"	"S24_LN:i:69911_dp:f:1.0945791718920757"	69911
1	0	"Chromosome"	"S25_LN:i:66098_dp:f:0.9485372574807276"	66098
1	0	"Chromosome"	"S26_LN:i:64492_dp:f:1.0085392913819886"	64492
0	1	"Plasmid"	"S27_LN:i:59658_dp:f:5.014189892584873"	59658
1	0	"Chromosome"	"S28_LN:i:55064_dp:f:1.0311150341433233"	55064
1	0	"Chromosome"	"S29_LN:i:50700_dp:f:0.9459943037151617"	50700
1	0	"Chromosome"	"S3_LN:i:263641_dp:f:1.01155942630194"	263641
1	0	"Chromosome"	"S30_LN:i:46727_dp:f:1.1973019380337357"	46727
1	0	"Chromosome"	"S31_LN:i:46652_dp:f:1.0848357082181128"	46652
1	0	"Chromosome"	"S32_LN:i:43482_dp:f:1.002767233534016"	43482
1	0	"Chromosome"	"S33_LN:i:43480_dp:f:0.9903993682817536"	43480
0	1	"Plasmid"	"S34_LN:i:41696_dp:f:4.048931140532156"	41696
1	0	"Chromosome"	"S35_LN:i:39278_dp:f:1.0955425779490346"	39278
1	0	"Chromosome"	"S36_LN:i:34796_dp:f:0.9702716303743796"	34796
1	0	"Chromosome"	"S37_LN:i:32708_dp:f:0.9933000651777005"	32708
1	0	"Chromosome"	"S38_LN:i:30863_dp:f:1.0803454342968901"	30863
1	0	"Chromosome"	"S39_LN:i:27525_dp:f:0.9244351083848618"	27525
1	0	"Chromosome"	"S4_LN:i:244430_dp:f:1.0"	244430
1	0	"Chromosome"	"S40_LN:i:26904_dp:f:1.1773596697912392"	26904
1	0	"Chromosome"	"S41_LN:i:26078_dp:f:0.9987932909708265"	26078
1	0	"Chromosome"	"S42_LN:i:21744_dp:f:0.9849503807171611"	21744
0.67	0.33	"Chromosome"	"S43_LN:i:21305_dp:f:1.069389255905164"	21305
1	0	"Chromosome"	"S44_LN:i:20515_dp:f:0.9708797295202662"	20515
1	0	"Chromosome"	"S45_LN:i:16715_dp:f:0.9869062655444372"	16715
1	0	"Chromosome"	"S46_LN:i:15777_dp:f:0.9174908312058088"	15777
1	0	"Chromosome"	"S47_LN:i:14961_dp:f:0.993139045523843"	14961
0	1	"Plasmid"	"S48_LN:i:11828_dp:f:4.039721958079718"	11828
1	0	"Chromosome"	"S49_LN:i:11806_dp:f:1.0329968459070904"	11806
1	0	"Chromosome"	"S5_LN:i:241035_dp:f:0.9790054938577141"	241035
1	0	"Chromosome"	"S50_LN:i:11069_dp:f:1.0034712024630754"	11069
1	0	"Chromosome"	"S51_LN:i:7469_dp:f:1.071809893041473"	7469
0	1	"Plasmid"	"S52_LN:i:6930_dp:f:70.35531843734579"	6930
1	0	"Chromosome"	"S53_LN:i:6752_dp:f:0.9351387914637282"	6752
1	0	"Chromosome"	"S54_LN:i:6289_dp:f:1.175039986774796"	6289
1	0	"Chromosome"	"S55_LN:i:6018_dp:f:1.1308478956287014"	6018
1	0	"Chromosome"	"S56_LN:i:4937_dp:f:2.2584622273562234"	4937
1	0	"Chromosome"	"S57_LN:i:4448_dp:f:0.9323766202071303"	4448
1	0	"Chromosome"	"S58_LN:i:4397_dp:f:1.1703047786469076"	4397
1	0	"Chromosome"	"S59_LN:i:3179_dp:f:3.3156677877529144"	3179
1	0	"Chromosome"	"S6_LN:i:217817_dp:f:0.9977662517583871"	217817
1	0	"Chromosome"	"S60_LN:i:2938_dp:f:7.121437506746159"	2938
1	0	"Chromosome"	"S61_LN:i:2554_dp:f:0.7877310155858377"	2554
1	0	"Chromosome"	"S62_LN:i:2155_dp:f:1.001353859622391"	2155
1	0	"Chromosome"	"S63_LN:i:2105_dp:f:2.4801603288763108"	2105
1	0	"Chromosome"	"S64_LN:i:1839_dp:f:2.026859167722446"	1839
1	0	"Chromosome"	"S65_LN:i:1708_dp:f:7.179659795474485"	1708
1	0	"Chromosome"	"S66_LN:i:1588_dp:f:2.057011644370768"	1588
0	1	"Plasmid"	"S67_LN:i:1539_dp:f:96.05112797192116"	1539
1	0	"Chromosome"	"S68_LN:i:1422_dp:f:1.3790906558501037"	1422
1	0	"Chromosome"	"S69_LN:i:1379_dp:f:0.8425762966609975"	1379
1	0	"Chromosome"	"S7_LN:i:201222_dp:f:1.0129017394794855"	201222
0.67	0.33	"Chromosome"	"S70_LN:i:1331_dp:f:3.368575209478156"	1331
1	0	"Chromosome"	"S71_LN:i:1245_dp:f:10.755253981229707"	1245
1	0	"Chromosome"	"S72_LN:i:1236_dp:f:1.1949773690843908"	1236
1	0	"Chromosome"	"S73_LN:i:1151_dp:f:2.3859617694183197"	1151
1	0	"Chromosome"	"S74_LN:i:1117_dp:f:2.5895571566871722"	1117
1	0	"Chromosome"	"S75_LN:i:1095_dp:f:2.243613647203902"	1095
1	0	"Chromosome"	"S76_LN:i:1077_dp:f:1.0892034834853241"	1077
1	0	"Chromosome"	"S77_LN:i:1050_dp:f:1.0927688785100007"	1050
1	0	"Chromosome"	"S78_LN:i:990_dp:f:1.3649323953052386"	990
1	0	"Chromosome"	"S79_LN:i:956_dp:f:2.049854142679185"	956
1	0	"Chromosome"	"S8_LN:i:193173_dp:f:0.9777701038358887"	193173
1	0	"Chromosome"	"S80_LN:i:936_dp:f:2.5211944724932986"	936
1	0	"Chromosome"	"S81_LN:i:912_dp:f:1.094900936185176"	912
1	0	"Chromosome"	"S82_LN:i:884_dp:f:1.2658856259201563"	884
0.67	0.33	"Chromosome"	"S83_LN:i:856_dp:f:4.555092579705854"	856
1	0	"Chromosome"	"S84_LN:i:854_dp:f:2.64570249807587"	854
1	0	"Chromosome"	"S85_LN:i:787_dp:f:2.2459932327637326"	787
1	0	"Chromosome"	"S86_LN:i:753_dp:f:3.5260685516612287"	753
1	0	"Chromosome"	"S87_LN:i:723_dp:f:2.259626011431863"	723
1	0	"Chromosome"	"S88_LN:i:651_dp:f:2.2336613579346833"	651
1	0	"Chromosome"	"S89_LN:i:645_dp:f:1.299442384214237"	645
1	0	"Chromosome"	"S9_LN:i:184770_dp:f:0.9822762398959296"	184770
1	0	"Chromosome"	"S90_LN:i:633_dp:f:1.1792092523639688"	633
1	0	"Chromosome"	"S91_LN:i:604_dp:f:1.1527798162920049"	604
1	0	"Chromosome"	"S92_LN:i:604_dp:f:1.0302063696822357"	604
1	0	"Chromosome"	"S93_LN:i:590_dp:f:1.0874459511517174"	590
1	0	"Chromosome"	"S94_LN:i:581_dp:f:1.2640968831414188"	581
1	0	"Chromosome"	"S95_LN:i:559_dp:f:2.460624371000635"	559
0.67	0.33	"Chromosome"	"S96_LN:i:557_dp:f:9.417842825225645"	557
1	0	"Chromosome"	"S97_LN:i:544_dp:f:0.9843226102622498"	544
1	0	"Chromosome"	"S98_LN:i:539_dp:f:0.7444528128464335"	539
1	0	"Chromosome"	"S99_LN:i:519_dp:f:2.093750930817577"	519
