"Prob_Chromosome"	"Prob_Plasmid"	"Prediction"	"Contig_name"	"Contig_length"
1	0	"Chromosome"	"S1_LN:i:638435_dp:f:0.9881430049324796"	638435
1	0	"Chromosome"	"S10_LN:i:205799_dp:f:1.04187483556088"	205799
1	0	"Chromosome"	"S11_LN:i:166092_dp:f:0.9402981028432176"	166092
1	0	"Chromosome"	"S12_LN:i:165282_dp:f:1.0351457740583963"	165282
1	0	"Chromosome"	"S13_LN:i:163748_dp:f:0.9580104670248563"	163748
1	0	"Chromosome"	"S14_LN:i:135219_dp:f:1.0504122763861488"	135219
1	0	"Chromosome"	"S15_LN:i:113421_dp:f:0.9348821159104512"	113421
1	0	"Chromosome"	"S16_LN:i:80629_dp:f:1.0274009079907556"	80629
1	0	"Chromosome"	"S17_LN:i:79603_dp:f:1.040650458691084"	79603
1	0	"Chromosome"	"S18_LN:i:72945_dp:f:1.0129061826124763"	72945
0	1	"Plasmid"	"S19_LN:i:72348_dp:f:1.6494315241528088"	72348
1	0	"Chromosome"	"S2_LN:i:455403_dp:f:1.015502377271228"	455403
1	0	"Chromosome"	"S20_LN:i:62846_dp:f:1.0968475228461094"	62846
1	0	"Chromosome"	"S21_LN:i:59207_dp:f:0.9875342035691955"	59207
1	0	"Chromosome"	"S22_LN:i:33854_dp:f:1.1061340809136804"	33854
1	0	"Chromosome"	"S23_LN:i:32318_dp:f:1.0737834270551847"	32318
1	0	"Chromosome"	"S24_LN:i:29822_dp:f:1.1291568187775314"	29822
1	0	"Chromosome"	"S25_LN:i:29798_dp:f:1.0409041127208283"	29798
1	0	"Chromosome"	"S26_LN:i:26139_dp:f:1.0324616683602366"	26139
1	0	"Chromosome"	"S27_LN:i:18246_dp:f:1.0453212106390704"	18246
0	1	"Plasmid"	"S28_LN:i:14580_dp:f:1.4067815306738107"	14580
1	0	"Chromosome"	"S29_LN:i:6528_dp:f:1.004073214837045"	6528
1	0	"Chromosome"	"S3_LN:i:447969_dp:f:1.0"	447969
1	0	"Chromosome"	"S30_LN:i:4138_dp:f:0.9459455594770296"	4138
1	0	"Chromosome"	"S31_LN:i:3776_dp:f:2.157995508957188"	3776
1	0	"Chromosome"	"S32_LN:i:2832_dp:f:7.212059657665236"	2832
1	0	"Chromosome"	"S33_LN:i:2431_dp:f:0.5460717273951013"	2431
0.67	0.33	"Chromosome"	"S34_LN:i:2386_dp:f:3.9497821027068416"	2386
1	0	"Chromosome"	"S35_LN:i:1917_dp:f:2.2094033330800533"	1917
1	0	"Chromosome"	"S36_LN:i:1880_dp:f:0.6342329230959229"	1880
1	0	"Chromosome"	"S37_LN:i:1816_dp:f:0.8240908845786152"	1816
1	0	"Chromosome"	"S38_LN:i:1493_dp:f:7.631779114822404"	1493
1	0	"Chromosome"	"S39_LN:i:1409_dp:f:2.2528255119391534"	1409
1	0	"Chromosome"	"S4_LN:i:374932_dp:f:1.006253855118366"	374932
1	0	"Chromosome"	"S40_LN:i:1369_dp:f:0.8834434318017713"	1369
1	0	"Chromosome"	"S41_LN:i:1276_dp:f:2.211502842102134"	1276
1	0	"Chromosome"	"S42_LN:i:1190_dp:f:0.610535108186801"	1190
1	0	"Chromosome"	"S43_LN:i:1163_dp:f:1.1963384532876373"	1163
1	0	"Chromosome"	"S44_LN:i:1158_dp:f:1.0592739649442697"	1158
1	0	"Chromosome"	"S45_LN:i:1034_dp:f:2.026342214146993"	1034
1	0	"Chromosome"	"S46_LN:i:1003_dp:f:0.989144825447582"	1003
1	0	"Chromosome"	"S47_LN:i:919_dp:f:1.1180028948417609"	919
1	0	"Chromosome"	"S48_LN:i:917_dp:f:2.4299963350688976"	917
1	0	"Chromosome"	"S49_LN:i:592_dp:f:2.343581798719232"	592
1	0	"Chromosome"	"S5_LN:i:339906_dp:f:1.0409796186681486"	339906
1	0	"Chromosome"	"S50_LN:i:513_dp:f:3.0288002513952947"	513
1	0	"Chromosome"	"S6_LN:i:326745_dp:f:0.9496855196032074"	326745
1	0	"Chromosome"	"S7_LN:i:282489_dp:f:0.962385295873953"	282489
1	0	"Chromosome"	"S8_LN:i:223547_dp:f:0.9507700163368733"	223547
1	0	"Chromosome"	"S9_LN:i:215176_dp:f:1.0419135392914844"	215176
