"Prob_Chromosome"	"Prob_Plasmid"	"Prediction"	"Contig_name"	"Contig_length"
1	0	"Chromosome"	"S1_LN:i:584456_dp:f:1.004706810495574"	584456
1	0	"Chromosome"	"S10_LN:i:153628_dp:f:0.9888489075504228"	153628
1	0	"Chromosome"	"S100_LN:i:838_dp:f:1.014230953537222"	838
1	0	"Chromosome"	"S101_LN:i:774_dp:f:0.8538173703521694"	774
1	0	"Chromosome"	"S102_LN:i:770_dp:f:3.0292550758974963"	770
1	0	"Chromosome"	"S103_LN:i:734_dp:f:1.7723149130607028"	734
0.5	0.5	"Plasmid"	"S104_LN:i:729_dp:f:2.215778157316215"	729
1	0	"Chromosome"	"S105_LN:i:695_dp:f:1.0817863709227644"	695
1	0	"Chromosome"	"S106_LN:i:676_dp:f:1.086144647912662"	676
1	0	"Chromosome"	"S107_LN:i:604_dp:f:0.8379765859755934"	604
1	0	"Chromosome"	"S108_LN:i:604_dp:f:0.9604548410942936"	604
1	0	"Chromosome"	"S109_LN:i:565_dp:f:1.9325638507982696"	565
1	0	"Chromosome"	"S11_LN:i:145103_dp:f:1.033008000880512"	145103
1	0	"Chromosome"	"S110_LN:i:541_dp:f:0.8882357995715229"	541
1	0	"Chromosome"	"S111_LN:i:537_dp:f:1.1631951129008846"	537
1	0	"Chromosome"	"S112_LN:i:515_dp:f:3.4201844505312198"	515
1	0	"Chromosome"	"S113_LN:i:505_dp:f:2.113314622453121"	505
1	0	"Chromosome"	"S114_LN:i:504_dp:f:1.0124977995245363"	504
1	0	"Chromosome"	"S115_LN:i:504_dp:f:1.0008693125151458"	504
1	0	"Chromosome"	"S116_LN:i:500_dp:f:2.080039314088868"	500
1	0	"Chromosome"	"S12_LN:i:134050_dp:f:0.9328791745071177"	134050
1	0	"Chromosome"	"S13_LN:i:112953_dp:f:1.0112756385562565"	112953
1	0	"Chromosome"	"S14_LN:i:110789_dp:f:0.974604244286729"	110789
0	1	"Plasmid"	"S15_LN:i:110691_dp:f:0.88648658396412"	110691
1	0	"Chromosome"	"S16_LN:i:102592_dp:f:1.0116837121047553"	102592
1	0	"Chromosome"	"S17_LN:i:96352_dp:f:0.9978350861508269"	96352
1	0	"Chromosome"	"S18_LN:i:94140_dp:f:0.9732865657875386"	94140
1	0	"Chromosome"	"S19_LN:i:91330_dp:f:1.022901551115465"	91330
1	0	"Chromosome"	"S2_LN:i:252334_dp:f:0.9818462624743225"	252334
1	0	"Chromosome"	"S20_LN:i:90968_dp:f:0.9873922652040384"	90968
1	0	"Chromosome"	"S21_LN:i:89895_dp:f:1.0669193633151535"	89895
1	0	"Chromosome"	"S22_LN:i:87515_dp:f:0.9436664121034357"	87515
1	0	"Chromosome"	"S23_LN:i:86489_dp:f:1.0613582348308797"	86489
1	0	"Chromosome"	"S24_LN:i:85944_dp:f:0.9491184080452587"	85944
1	0	"Chromosome"	"S25_LN:i:85919_dp:f:0.9881915486938267"	85919
1	0	"Chromosome"	"S26_LN:i:79084_dp:f:1.019045519536519"	79084
1	0	"Chromosome"	"S27_LN:i:71417_dp:f:1.040790426877758"	71417
1	0	"Chromosome"	"S28_LN:i:64930_dp:f:1.0401212248771676"	64930
1	0	"Chromosome"	"S29_LN:i:63842_dp:f:0.9005280713119177"	63842
1	0	"Chromosome"	"S3_LN:i:241566_dp:f:0.9212893708104476"	241566
1	0	"Chromosome"	"S30_LN:i:57200_dp:f:0.8542134076619349"	57200
1	0	"Chromosome"	"S31_LN:i:51911_dp:f:1.0013395625696146"	51911
1	0	"Chromosome"	"S32_LN:i:48591_dp:f:0.9791633941818494"	48591
1	0	"Chromosome"	"S33_LN:i:41782_dp:f:1.036400482350658"	41782
1	0	"Chromosome"	"S34_LN:i:39663_dp:f:0.9457810504028501"	39663
1	0	"Chromosome"	"S35_LN:i:32901_dp:f:0.9543265933614673"	32901
1	0	"Chromosome"	"S36_LN:i:32656_dp:f:1.0037237833292902"	32656
1	0	"Chromosome"	"S37_LN:i:30804_dp:f:1.1096252256392483"	30804
1	0	"Chromosome"	"S38_LN:i:24970_dp:f:1.04075927425986"	24970
1	0	"Chromosome"	"S39_LN:i:23162_dp:f:0.9847618643039594"	23162
1	0	"Chromosome"	"S4_LN:i:194676_dp:f:1.0149843448440325"	194676
1	0	"Chromosome"	"S40_LN:i:22848_dp:f:0.9924404696965162"	22848
1	0	"Chromosome"	"S41_LN:i:20154_dp:f:0.928836993605024"	20154
1	0	"Chromosome"	"S42_LN:i:19647_dp:f:0.9833390779018197"	19647
1	0	"Chromosome"	"S43_LN:i:19418_dp:f:1.0009377967825912"	19418
1	0	"Chromosome"	"S44_LN:i:16134_dp:f:0.9934266318760163"	16134
1	0	"Chromosome"	"S45_LN:i:15282_dp:f:0.8560545659986555"	15282
1	0	"Chromosome"	"S46_LN:i:14622_dp:f:0.8797687239945637"	14622
1	0	"Chromosome"	"S47_LN:i:14156_dp:f:0.9992223431209839"	14156
1	0	"Chromosome"	"S48_LN:i:13683_dp:f:0.9040821897050904"	13683
0.67	0.33	"Chromosome"	"S49_LN:i:10419_dp:f:0.5420333142098097"	10419
1	0	"Chromosome"	"S5_LN:i:194445_dp:f:0.9575654155527306"	194445
1	0	"Chromosome"	"S50_LN:i:10143_dp:f:0.8133543677869058"	10143
1	0	"Chromosome"	"S51_LN:i:9286_dp:f:1.1236469288442668"	9286
1	0	"Chromosome"	"S52_LN:i:8894_dp:f:0.8175464545714053"	8894
1	0	"Chromosome"	"S53_LN:i:8657_dp:f:1.0710678611326159"	8657
1	0	"Chromosome"	"S54_LN:i:6567_dp:f:0.853214914766373"	6567
1	0	"Chromosome"	"S55_LN:i:6251_dp:f:1.0533474943751262"	6251
1	0	"Chromosome"	"S56_LN:i:5603_dp:f:1.0382198853467803"	5603
1	0	"Chromosome"	"S57_LN:i:4620_dp:f:0.7773604142268342"	4620
1	0	"Chromosome"	"S58_LN:i:4302_dp:f:0.9655463631732288"	4302
1	0	"Chromosome"	"S59_LN:i:4113_dp:f:0.9584755556542484"	4113
1	0	"Chromosome"	"S6_LN:i:177666_dp:f:1.0"	177666
1	0	"Chromosome"	"S60_LN:i:3589_dp:f:1.0676504199971486"	3589
1	0	"Chromosome"	"S61_LN:i:3484_dp:f:0.6015068458044508"	3484
1	0	"Chromosome"	"S62_LN:i:3476_dp:f:0.38534681263341636"	3476
1	0	"Chromosome"	"S63_LN:i:3034_dp:f:7.397669603959472"	3034
1	0	"Chromosome"	"S64_LN:i:2833_dp:f:0.906936445763067"	2833
1	0	"Chromosome"	"S65_LN:i:2693_dp:f:0.6818522162287761"	2693
1	0	"Chromosome"	"S66_LN:i:2472_dp:f:3.4781207247617933"	2472
1	0	"Chromosome"	"S67_LN:i:2275_dp:f:2.242883509484009"	2275
1	0	"Chromosome"	"S68_LN:i:2063_dp:f:2.224845049517537"	2063
1	0	"Chromosome"	"S69_LN:i:1904_dp:f:0.6209153141184759"	1904
1	0	"Chromosome"	"S7_LN:i:165436_dp:f:1.0295737465818209"	165436
1	0	"Chromosome"	"S70_LN:i:1886_dp:f:1.6454950514645752"	1886
1	0	"Chromosome"	"S71_LN:i:1867_dp:f:1.0149929053774633"	1867
1	0	"Chromosome"	"S72_LN:i:1842_dp:f:0.81414245178183"	1842
1	0	"Chromosome"	"S73_LN:i:1787_dp:f:2.3433093799309557"	1787
1	0	"Chromosome"	"S74_LN:i:1702_dp:f:7.199593535574326"	1702
1	0	"Chromosome"	"S75_LN:i:1645_dp:f:1.0105688123838683"	1645
1	0	"Chromosome"	"S76_LN:i:1605_dp:f:2.2825156897521084"	1605
1	0	"Chromosome"	"S77_LN:i:1512_dp:f:0.5691130804628995"	1512
1	0	"Chromosome"	"S78_LN:i:1426_dp:f:4.117075142495872"	1426
1	0	"Chromosome"	"S79_LN:i:1401_dp:f:2.1227285702654055"	1401
1	0	"Chromosome"	"S8_LN:i:161123_dp:f:0.9936479554646295"	161123
1	0	"Chromosome"	"S80_LN:i:1322_dp:f:0.8168657464880844"	1322
1	0	"Chromosome"	"S81_LN:i:1233_dp:f:0.4648945075166955"	1233
1	0	"Chromosome"	"S82_LN:i:1223_dp:f:2.259877906196507"	1223
1	0	"Chromosome"	"S83_LN:i:1167_dp:f:2.2683061697309195"	1167
1	0	"Chromosome"	"S84_LN:i:1162_dp:f:2.0277746185332974"	1162
1	0	"Chromosome"	"S85_LN:i:1143_dp:f:1.115910909949303"	1143
1	0	"Chromosome"	"S86_LN:i:1053_dp:f:1.13162244958055"	1053
1	0	"Chromosome"	"S87_LN:i:1031_dp:f:2.42151622494636"	1031
1	0	"Chromosome"	"S88_LN:i:1006_dp:f:0.9908106213692155"	1006
1	0	"Chromosome"	"S89_LN:i:993_dp:f:1.2099485288748684"	993
1	0	"Chromosome"	"S9_LN:i:155091_dp:f:1.0031598666745192"	155091
1	0	"Chromosome"	"S90_LN:i:984_dp:f:1.2401398263370282"	984
1	0	"Chromosome"	"S91_LN:i:937_dp:f:2.1038585799877256"	937
1	0	"Chromosome"	"S92_LN:i:931_dp:f:0.9627968871840769"	931
1	0	"Chromosome"	"S93_LN:i:903_dp:f:2.166095009691747"	903
1	0	"Chromosome"	"S94_LN:i:875_dp:f:0.8455442906230298"	875
1	0	"Chromosome"	"S95_LN:i:875_dp:f:0.9784494685550045"	875
1	0	"Chromosome"	"S96_LN:i:873_dp:f:1.0665625242374124"	873
1	0	"Chromosome"	"S97_LN:i:872_dp:f:1.1166608266045337"	872
1	0	"Chromosome"	"S98_LN:i:869_dp:f:2.0246321947502044"	869
1	0	"Chromosome"	"S99_LN:i:838_dp:f:1.0178327497044846"	838
