"Prob_Chromosome"	"Prob_Plasmid"	"Prediction"	"Contig_name"	"Contig_length"
1	0	"Chromosome"	"S1_LN:i:331617_dp:f:0.821691602686641"	331617
1	0	"Chromosome"	"S10_LN:i:108887_dp:f:1.084160199877392"	108887
1	0	"Chromosome"	"S100_LN:i:4675_dp:f:0.7942074546670439"	4675
1	0	"Chromosome"	"S101_LN:i:4549_dp:f:1.0912035688681232"	4549
1	0	"Chromosome"	"S102_LN:i:4384_dp:f:0.9030105760400131"	4384
1	0	"Chromosome"	"S103_LN:i:4226_dp:f:0.9099904134819261"	4226
1	0	"Chromosome"	"S104_LN:i:4154_dp:f:0.9784242411145091"	4154
0	1	"Plasmid"	"S105_LN:i:4072_dp:f:5.3947784849946"	4072
1	0	"Chromosome"	"S106_LN:i:4061_dp:f:1.0784202428204295"	4061
1	0	"Chromosome"	"S107_LN:i:3731_dp:f:1.0001988523021905"	3731
1	0	"Chromosome"	"S108_LN:i:3720_dp:f:0.9324363806075693"	3720
1	0	"Chromosome"	"S109_LN:i:3455_dp:f:1.1096075483511825"	3455
1	0	"Chromosome"	"S11_LN:i:106575_dp:f:0.985139009545246"	106575
1	0	"Chromosome"	"S110_LN:i:3385_dp:f:0.9994348165424983"	3385
1	0	"Chromosome"	"S111_LN:i:2634_dp:f:0.8990445573705069"	2634
1	0	"Chromosome"	"S112_LN:i:2581_dp:f:3.0278148275282386"	2581
1	0	"Chromosome"	"S113_LN:i:2270_dp:f:5.534146979407945"	2270
1	0	"Chromosome"	"S114_LN:i:2170_dp:f:1.5716070453693627"	2170
1	0	"Chromosome"	"S115_LN:i:2006_dp:f:0.8824678875132665"	2006
1	0	"Chromosome"	"S116_LN:i:1947_dp:f:0.967240540737333"	1947
1	0	"Chromosome"	"S117_LN:i:1912_dp:f:1.030111129118688"	1912
1	0	"Chromosome"	"S118_LN:i:1834_dp:f:6.274281204082777"	1834
0.33	0.67	"Plasmid"	"S119_LN:i:1799_dp:f:1.6620200407552848"	1799
1	0	"Chromosome"	"S12_LN:i:103942_dp:f:0.9371508864928745"	103942
1	0	"Chromosome"	"S120_LN:i:1773_dp:f:1.1735512093541867"	1773
1	0	"Chromosome"	"S121_LN:i:1698_dp:f:6.708526019997805"	1698
0.33	0.67	"Plasmid"	"S122_LN:i:1558_dp:f:1.947171222192135"	1558
0.33	0.67	"Plasmid"	"S123_LN:i:1511_dp:f:1.5225874572641616"	1511
1	0	"Chromosome"	"S124_LN:i:1426_dp:f:5.155112974615692"	1426
1	0	"Chromosome"	"S125_LN:i:1260_dp:f:0.8786911198375157"	1260
1	0	"Chromosome"	"S126_LN:i:1237_dp:f:0.8541718466412123"	1237
1	0	"Chromosome"	"S127_LN:i:1230_dp:f:6.396821114633214"	1230
0.33	0.67	"Plasmid"	"S128_LN:i:1225_dp:f:1.2891283113668857"	1225
1	0	"Chromosome"	"S129_LN:i:1194_dp:f:0.8441338109479579"	1194
1	0	"Chromosome"	"S13_LN:i:96444_dp:f:0.9129887589099756"	96444
1	0	"Chromosome"	"S130_LN:i:1151_dp:f:1.944154170135362"	1151
1	0	"Chromosome"	"S131_LN:i:1120_dp:f:1.1128555103411053"	1120
1	0	"Chromosome"	"S132_LN:i:1115_dp:f:18.458383119809326"	1115
1	0	"Chromosome"	"S133_LN:i:1106_dp:f:2.3163568999945308"	1106
1	0	"Chromosome"	"S134_LN:i:1067_dp:f:0.8806897511498286"	1067
1	0	"Chromosome"	"S135_LN:i:1064_dp:f:1.0155549392714045"	1064
0.33	0.67	"Plasmid"	"S136_LN:i:1062_dp:f:1.214208514988959"	1062
1	0	"Chromosome"	"S137_LN:i:962_dp:f:1.2303180261100917"	962
1	0	"Chromosome"	"S138_LN:i:957_dp:f:0.9488851436484537"	957
1	0	"Chromosome"	"S139_LN:i:956_dp:f:1.745356016504783"	956
1	0	"Chromosome"	"S14_LN:i:94951_dp:f:0.9021350974271423"	94951
1	0	"Chromosome"	"S140_LN:i:920_dp:f:5.527281772495854"	920
1	0	"Chromosome"	"S141_LN:i:920_dp:f:2.085092637238707"	920
1	0	"Chromosome"	"S142_LN:i:908_dp:f:1.688210327602562"	908
0.67	0.33	"Chromosome"	"S143_LN:i:850_dp:f:1.4051166236665866"	850
1	0	"Chromosome"	"S144_LN:i:815_dp:f:1.2648768868948574"	815
1	0	"Chromosome"	"S145_LN:i:795_dp:f:5.609683507330146"	795
0.67	0.33	"Chromosome"	"S146_LN:i:771_dp:f:3.231096238642224"	771
1	0	"Chromosome"	"S147_LN:i:751_dp:f:0.9615458822431983"	751
1	0	"Chromosome"	"S148_LN:i:751_dp:f:0.9726308599982484"	751
1	0	"Chromosome"	"S149_LN:i:715_dp:f:1.0140425964196687"	715
1	0	"Chromosome"	"S15_LN:i:92884_dp:f:1.0042101658699152"	92884
0.5	0.5	"Plasmid"	"S150_LN:i:694_dp:f:4.717448620524544"	694
1	0	"Chromosome"	"S151_LN:i:682_dp:f:1.7488085639114068"	682
1	0	"Chromosome"	"S152_LN:i:643_dp:f:0.8764506445314401"	643
1	0	"Chromosome"	"S153_LN:i:643_dp:f:0.7518819036268043"	643
0.67	0.33	"Chromosome"	"S154_LN:i:625_dp:f:1.0882792653042872"	625
1	0	"Chromosome"	"S155_LN:i:624_dp:f:0.8595093595219424"	624
1	0	"Chromosome"	"S156_LN:i:613_dp:f:8.735213752173912"	613
1	0	"Chromosome"	"S157_LN:i:611_dp:f:0.9772146131821502"	611
1	0	"Chromosome"	"S158_LN:i:596_dp:f:2.8364961377103155"	596
0.33	0.67	"Plasmid"	"S159_LN:i:586_dp:f:2.1803667556196222"	586
1	0	"Chromosome"	"S16_LN:i:92170_dp:f:0.9689701252760368"	92170
1	0	"Chromosome"	"S160_LN:i:543_dp:f:0.8310871118206767"	543
1	0	"Chromosome"	"S161_LN:i:512_dp:f:2.2208036082486338"	512
1	0	"Chromosome"	"S162_LN:i:511_dp:f:1.0742330617768379"	511
1	0	"Chromosome"	"S17_LN:i:88218_dp:f:0.9476531599592961"	88218
1	0	"Chromosome"	"S18_LN:i:88008_dp:f:0.9587167896431505"	88008
1	0	"Chromosome"	"S19_LN:i:84690_dp:f:0.8982613218443665"	84690
1	0	"Chromosome"	"S2_LN:i:210627_dp:f:1.026469821874888"	210627
1	0	"Chromosome"	"S20_LN:i:80729_dp:f:1.012905415317243"	80729
1	0	"Chromosome"	"S21_LN:i:80445_dp:f:0.8631600307275851"	80445
1	0	"Chromosome"	"S22_LN:i:75472_dp:f:0.9147295659021948"	75472
1	0	"Chromosome"	"S23_LN:i:75279_dp:f:1.0659349942135279"	75279
1	0	"Chromosome"	"S24_LN:i:73874_dp:f:1.0904534704906705"	73874
1	0	"Chromosome"	"S25_LN:i:72059_dp:f:0.9264128621745926"	72059
1	0	"Chromosome"	"S26_LN:i:71664_dp:f:0.992852222330715"	71664
1	0	"Chromosome"	"S27_LN:i:71193_dp:f:1.0963779296107623"	71193
1	0	"Chromosome"	"S28_LN:i:68512_dp:f:1.0309313686507773"	68512
1	0	"Chromosome"	"S29_LN:i:68321_dp:f:0.8084431312773417"	68321
1	0	"Chromosome"	"S3_LN:i:196717_dp:f:0.9964769803779884"	196717
1	0	"Chromosome"	"S30_LN:i:67147_dp:f:1.019344415710615"	67147
1	0	"Chromosome"	"S31_LN:i:65923_dp:f:0.9107527684032101"	65923
1	0	"Chromosome"	"S32_LN:i:61715_dp:f:0.9362574142842139"	61715
1	0	"Chromosome"	"S33_LN:i:58993_dp:f:0.9555514563152404"	58993
1	0	"Chromosome"	"S34_LN:i:58539_dp:f:0.8831416599982753"	58539
1	0	"Chromosome"	"S35_LN:i:57397_dp:f:0.8576496857454147"	57397
1	0	"Chromosome"	"S36_LN:i:51922_dp:f:1.0216875258159863"	51922
1	0	"Chromosome"	"S37_LN:i:50739_dp:f:0.8721495459909597"	50739
1	0	"Chromosome"	"S38_LN:i:50687_dp:f:0.9349097400969792"	50687
1	0	"Chromosome"	"S39_LN:i:48585_dp:f:1.0468852288768606"	48585
1	0	"Chromosome"	"S4_LN:i:184670_dp:f:1.0183689875851307"	184670
1	0	"Chromosome"	"S40_LN:i:44797_dp:f:0.892607844972883"	44797
1	0	"Chromosome"	"S41_LN:i:43933_dp:f:0.9733504360573875"	43933
1	0	"Chromosome"	"S42_LN:i:43617_dp:f:1.1155616669468467"	43617
0	1	"Plasmid"	"S43_LN:i:41299_dp:f:1.510376726336618"	41299
1	0	"Chromosome"	"S44_LN:i:41128_dp:f:0.8313815944221697"	41128
1	0	"Chromosome"	"S45_LN:i:40620_dp:f:0.8777471900630388"	40620
1	0	"Chromosome"	"S46_LN:i:38089_dp:f:0.837242892907151"	38089
1	0	"Chromosome"	"S47_LN:i:36686_dp:f:0.9685726739019317"	36686
1	0	"Chromosome"	"S48_LN:i:36435_dp:f:0.9193470413495348"	36435
1	0	"Chromosome"	"S49_LN:i:34242_dp:f:0.9634698967561868"	34242
1	0	"Chromosome"	"S5_LN:i:152110_dp:f:0.8565982555953988"	152110
1	0	"Chromosome"	"S50_LN:i:32758_dp:f:0.9731448728570005"	32758
1	0	"Chromosome"	"S51_LN:i:31369_dp:f:0.8777260569909106"	31369
1	0	"Chromosome"	"S52_LN:i:30654_dp:f:0.9021658202987479"	30654
1	0	"Chromosome"	"S53_LN:i:30644_dp:f:0.9262436636538091"	30644
1	0	"Chromosome"	"S54_LN:i:29690_dp:f:0.806892162158266"	29690
0	1	"Plasmid"	"S55_LN:i:29636_dp:f:1.6171356661757645"	29636
1	0	"Chromosome"	"S56_LN:i:28284_dp:f:0.8571415868656984"	28284
1	0	"Chromosome"	"S57_LN:i:27424_dp:f:1.03541966266315"	27424
1	0	"Chromosome"	"S58_LN:i:26062_dp:f:1.0124327777716262"	26062
0	1	"Plasmid"	"S59_LN:i:25565_dp:f:1.1357430155488155"	25565
1	0	"Chromosome"	"S6_LN:i:141007_dp:f:1.037670129584366"	141007
1	0	"Chromosome"	"S60_LN:i:22508_dp:f:1.1508804111230453"	22508
1	0	"Chromosome"	"S61_LN:i:21513_dp:f:0.9058306632347133"	21513
1	0	"Chromosome"	"S62_LN:i:20491_dp:f:0.9390223462843602"	20491
1	0	"Chromosome"	"S63_LN:i:20085_dp:f:0.9815815624111854"	20085
1	0	"Chromosome"	"S64_LN:i:19492_dp:f:0.9711138923766741"	19492
1	0	"Chromosome"	"S65_LN:i:18956_dp:f:0.8000971558155537"	18956
1	0	"Chromosome"	"S66_LN:i:18404_dp:f:1.0178502210315894"	18404
1	0	"Chromosome"	"S67_LN:i:18290_dp:f:0.988916699969499"	18290
0.67	0.33	"Chromosome"	"S68_LN:i:18009_dp:f:0.879385782967054"	18009
1	0	"Chromosome"	"S69_LN:i:17964_dp:f:0.8828594264799291"	17964
1	0	"Chromosome"	"S7_LN:i:136253_dp:f:1.0"	136253
0	1	"Plasmid"	"S70_LN:i:17619_dp:f:1.1654495613924711"	17619
1	0	"Chromosome"	"S71_LN:i:17239_dp:f:1.0221204970091429"	17239
1	0	"Chromosome"	"S72_LN:i:17098_dp:f:1.0809979827040022"	17098
0.67	0.33	"Chromosome"	"S73_LN:i:15922_dp:f:1.0032395594377281"	15922
1	0	"Chromosome"	"S74_LN:i:15866_dp:f:0.8177329277266464"	15866
1	0	"Chromosome"	"S75_LN:i:14420_dp:f:0.8977688192879266"	14420
1	0	"Chromosome"	"S76_LN:i:14255_dp:f:0.9454536555410123"	14255
1	0	"Chromosome"	"S77_LN:i:14237_dp:f:1.1459420026072424"	14237
0.67	0.33	"Chromosome"	"S78_LN:i:13741_dp:f:1.0873694772243858"	13741
1	0	"Chromosome"	"S79_LN:i:12011_dp:f:1.1187280364884957"	12011
1	0	"Chromosome"	"S8_LN:i:131307_dp:f:0.920425231031059"	131307
1	0	"Chromosome"	"S80_LN:i:11669_dp:f:0.8591149684235463"	11669
0	1	"Plasmid"	"S81_LN:i:11335_dp:f:1.1020783903526428"	11335
1	0	"Chromosome"	"S82_LN:i:11284_dp:f:0.9382212328121315"	11284
1	0	"Chromosome"	"S83_LN:i:11061_dp:f:0.9300393476738517"	11061
1	0	"Chromosome"	"S84_LN:i:10197_dp:f:0.8607922735415792"	10197
1	0	"Chromosome"	"S85_LN:i:10171_dp:f:0.9210109246711744"	10171
1	0	"Chromosome"	"S86_LN:i:9788_dp:f:0.954262124999203"	9788
1	0	"Chromosome"	"S87_LN:i:9726_dp:f:1.0422354991750629"	9726
0	1	"Plasmid"	"S88_LN:i:9143_dp:f:1.6257079578166362"	9143
1	0	"Chromosome"	"S89_LN:i:9070_dp:f:1.18248253151285"	9070
1	0	"Chromosome"	"S9_LN:i:114082_dp:f:1.0327201166219888"	114082
1	0	"Chromosome"	"S90_LN:i:8717_dp:f:0.8601529346590042"	8717
1	0	"Chromosome"	"S91_LN:i:8098_dp:f:1.0366277887556887"	8098
1	0	"Chromosome"	"S92_LN:i:7855_dp:f:1.0469831241043048"	7855
1	0	"Chromosome"	"S93_LN:i:6159_dp:f:0.8530604799567282"	6159
1	0	"Chromosome"	"S94_LN:i:5901_dp:f:0.9501130702459913"	5901
0	1	"Plasmid"	"S95_LN:i:5577_dp:f:1.2684334202917606"	5577
1	0	"Chromosome"	"S96_LN:i:5384_dp:f:1.0981769173958895"	5384
0	1	"Plasmid"	"S97_LN:i:4890_dp:f:1.129409619372605"	4890
1	0	"Chromosome"	"S98_LN:i:4811_dp:f:0.8606898065147386"	4811
1	0	"Chromosome"	"S99_LN:i:4705_dp:f:0.8793792805044717"	4705
