"Prob_Chromosome"	"Prob_Plasmid"	"Prediction"	"Contig_name"	"Contig_length"
1	0	"Chromosome"	"S1_LN:i:291688_dp:f:0.9918666696965387"	291688
1	0	"Chromosome"	"S10_LN:i:138961_dp:f:1.0"	138961
0.5	0.5	"Plasmid"	"S100_LN:i:642_dp:f:21.564406716066465"	642
1	0	"Chromosome"	"S101_LN:i:581_dp:f:2.1557225535328914"	581
1	0	"Chromosome"	"S11_LN:i:137970_dp:f:1.0237649550238677"	137970
1	0	"Chromosome"	"S12_LN:i:132341_dp:f:1.015702002111602"	132341
1	0	"Chromosome"	"S13_LN:i:125542_dp:f:1.0335405651365546"	125542
1	0	"Chromosome"	"S14_LN:i:125275_dp:f:1.0566063882594667"	125275
1	0	"Chromosome"	"S15_LN:i:124115_dp:f:0.960129771291797"	124115
1	0	"Chromosome"	"S16_LN:i:117896_dp:f:0.9847424065389272"	117896
1	0	"Chromosome"	"S17_LN:i:114027_dp:f:0.9833633476382672"	114027
1	0	"Chromosome"	"S18_LN:i:106774_dp:f:1.0484208942868642"	106774
1	0	"Chromosome"	"S19_LN:i:105382_dp:f:0.9659272908062485"	105382
1	0	"Chromosome"	"S2_LN:i:215259_dp:f:1.022706064677911"	215259
1	0	"Chromosome"	"S20_LN:i:99311_dp:f:1.0166720759327346"	99311
1	0	"Chromosome"	"S21_LN:i:98446_dp:f:0.9545646109173717"	98446
1	0	"Chromosome"	"S22_LN:i:97062_dp:f:1.0205525759019303"	97062
1	0	"Chromosome"	"S23_LN:i:94775_dp:f:1.0225987983435827"	94775
1	0	"Chromosome"	"S24_LN:i:88125_dp:f:1.089300008486361"	88125
1	0	"Chromosome"	"S25_LN:i:82901_dp:f:1.0030967490058647"	82901
1	0	"Chromosome"	"S26_LN:i:81288_dp:f:1.011905674913584"	81288
1	0	"Chromosome"	"S27_LN:i:74711_dp:f:0.9491340966490333"	74711
1	0	"Chromosome"	"S28_LN:i:71047_dp:f:0.9943757129987378"	71047
1	0	"Chromosome"	"S29_LN:i:62526_dp:f:1.0461105919780984"	62526
1	0	"Chromosome"	"S3_LN:i:210140_dp:f:1.0372866058770396"	210140
1	0	"Chromosome"	"S30_LN:i:60225_dp:f:1.0320816571766207"	60225
1	0	"Chromosome"	"S31_LN:i:56675_dp:f:1.0066520219201114"	56675
1	0	"Chromosome"	"S32_LN:i:42282_dp:f:0.9573818518119821"	42282
1	0	"Chromosome"	"S33_LN:i:41299_dp:f:1.0463378945672932"	41299
1	0	"Chromosome"	"S34_LN:i:40171_dp:f:0.9153695352602974"	40171
1	0	"Chromosome"	"S35_LN:i:39876_dp:f:1.0160456834467901"	39876
1	0	"Chromosome"	"S36_LN:i:36731_dp:f:0.9741821646438946"	36731
1	0	"Chromosome"	"S37_LN:i:35959_dp:f:1.0467191782525442"	35959
1	0	"Chromosome"	"S38_LN:i:34234_dp:f:0.9260124151392966"	34234
1	0	"Chromosome"	"S39_LN:i:33162_dp:f:0.9204655442715723"	33162
1	0	"Chromosome"	"S4_LN:i:178109_dp:f:0.966425364566206"	178109
1	0	"Chromosome"	"S40_LN:i:30732_dp:f:1.1001447207000328"	30732
1	0	"Chromosome"	"S41_LN:i:30286_dp:f:1.0507500754704717"	30286
1	0	"Chromosome"	"S42_LN:i:29885_dp:f:0.9901704415837784"	29885
1	0	"Chromosome"	"S43_LN:i:28963_dp:f:1.0754881807455638"	28963
0	1	"Plasmid"	"S44_LN:i:27840_dp:f:1.596685688124854"	27840
0.67	0.33	"Chromosome"	"S45_LN:i:27255_dp:f:1.463273141956328"	27255
1	0	"Chromosome"	"S46_LN:i:26438_dp:f:1.031922817188747"	26438
1	0	"Chromosome"	"S47_LN:i:25813_dp:f:0.9984090385695773"	25813
1	0	"Chromosome"	"S48_LN:i:24061_dp:f:0.9986134023897398"	24061
0.33	0.67	"Plasmid"	"S49_LN:i:23567_dp:f:1.436429055286099"	23567
1	0	"Chromosome"	"S5_LN:i:176995_dp:f:0.9694202259042519"	176995
1	0	"Chromosome"	"S50_LN:i:16152_dp:f:1.0727450373245162"	16152
1	0	"Chromosome"	"S51_LN:i:14738_dp:f:0.9418711419782827"	14738
1	0	"Chromosome"	"S52_LN:i:11698_dp:f:1.0032672166643795"	11698
1	0	"Chromosome"	"S53_LN:i:11045_dp:f:0.8328012201210891"	11045
1	0	"Chromosome"	"S54_LN:i:10521_dp:f:1.1059889767530493"	10521
1	0	"Chromosome"	"S55_LN:i:9652_dp:f:1.0377167867842303"	9652
1	0	"Chromosome"	"S56_LN:i:9610_dp:f:0.9221951924593514"	9610
1	0	"Chromosome"	"S57_LN:i:9344_dp:f:0.9322019829757833"	9344
1	0	"Chromosome"	"S58_LN:i:9064_dp:f:0.9269501803405297"	9064
1	0	"Chromosome"	"S59_LN:i:8468_dp:f:0.9396420943910047"	8468
1	0	"Chromosome"	"S6_LN:i:163553_dp:f:0.9673114126778888"	163553
1	0	"Chromosome"	"S60_LN:i:8283_dp:f:0.9380708244726278"	8283
1	0	"Chromosome"	"S61_LN:i:8121_dp:f:0.8484525052528502"	8121
0.33	0.67	"Plasmid"	"S62_LN:i:6215_dp:f:1.559122348004575"	6215
1	0	"Chromosome"	"S63_LN:i:5776_dp:f:0.9315257330976431"	5776
1	0	"Chromosome"	"S64_LN:i:5020_dp:f:1.0167995941509842"	5020
1	0	"Chromosome"	"S65_LN:i:4834_dp:f:2.156693700017367"	4834
0	1	"Plasmid"	"S66_LN:i:4569_dp:f:1.4475083375196798"	4569
1	0	"Chromosome"	"S67_LN:i:4113_dp:f:0.9607521621467728"	4113
1	0	"Chromosome"	"S68_LN:i:4067_dp:f:1.0833303795417817"	4067
1	0	"Chromosome"	"S69_LN:i:4055_dp:f:0.7616449072447473"	4055
1	0	"Chromosome"	"S7_LN:i:148292_dp:f:1.052716396098313"	148292
1	0	"Chromosome"	"S70_LN:i:3889_dp:f:0.8186143148457785"	3889
1	0	"Chromosome"	"S71_LN:i:3322_dp:f:2.069706452352531"	3322
1	0	"Chromosome"	"S72_LN:i:2974_dp:f:0.762030551169925"	2974
1	0	"Chromosome"	"S73_LN:i:2813_dp:f:7.384364628037123"	2813
1	0	"Chromosome"	"S74_LN:i:2413_dp:f:3.55382843683387"	2413
1	0	"Chromosome"	"S75_LN:i:1702_dp:f:7.435688694275516"	1702
1	0	"Chromosome"	"S76_LN:i:1593_dp:f:1.039833323186665"	1593
1	0	"Chromosome"	"S77_LN:i:1560_dp:f:0.7904795138278423"	1560
1	0	"Chromosome"	"S78_LN:i:1455_dp:f:0.7990391527745823"	1455
1	0	"Chromosome"	"S79_LN:i:1385_dp:f:0.7856283294980385"	1385
1	0	"Chromosome"	"S8_LN:i:147346_dp:f:1.0632012083070461"	147346
1	0	"Chromosome"	"S80_LN:i:1343_dp:f:4.0527973134354065"	1343
1	0	"Chromosome"	"S81_LN:i:1324_dp:f:1.3118872203748737"	1324
1	0	"Chromosome"	"S82_LN:i:1315_dp:f:8.204502124830364"	1315
0.67	0.33	"Chromosome"	"S83_LN:i:1220_dp:f:3.4159327156163637"	1220
1	0	"Chromosome"	"S84_LN:i:1133_dp:f:2.287737119078373"	1133
1	0	"Chromosome"	"S85_LN:i:1131_dp:f:4.735744558238753"	1131
0.5	0.5	"Plasmid"	"S86_LN:i:1080_dp:f:13.94901614780614"	1080
1	0	"Chromosome"	"S87_LN:i:1035_dp:f:2.413208996014759"	1035
1	0	"Chromosome"	"S88_LN:i:1031_dp:f:2.1217375753602834"	1031
1	0	"Chromosome"	"S89_LN:i:1000_dp:f:0.8666039856283057"	1000
1	0	"Chromosome"	"S9_LN:i:139614_dp:f:1.0436147889785121"	139614
1	0	"Chromosome"	"S90_LN:i:923_dp:f:2.331776042047983"	923
1	0	"Chromosome"	"S91_LN:i:915_dp:f:1.0925107044054796"	915
1	0	"Chromosome"	"S92_LN:i:915_dp:f:0.9866444102727051"	915
1	0	"Chromosome"	"S93_LN:i:867_dp:f:0.7734410289373784"	867
1	0	"Chromosome"	"S94_LN:i:786_dp:f:2.5117575808196477"	786
1	0	"Chromosome"	"S95_LN:i:781_dp:f:1.0961012947742559"	781
1	0	"Chromosome"	"S96_LN:i:781_dp:f:1.0762546201576075"	781
1	0	"Chromosome"	"S97_LN:i:726_dp:f:2.047981158062988"	726
1	0	"Chromosome"	"S98_LN:i:682_dp:f:1.0227560078831743"	682
1	0	"Chromosome"	"S99_LN:i:682_dp:f:1.0802475450931825"	682
