"Prob_Chromosome"	"Prob_Plasmid"	"Prediction"	"Contig_name"	"Contig_length"
1	0	"Chromosome"	"S1_LN:i:746305_dp:f:0.974201980069583"	746305
1	0	"Chromosome"	"S10_LN:i:193111_dp:f:1.024975729376664"	193111
1	0	"Chromosome"	"S11_LN:i:183010_dp:f:1.0207778694385878"	183010
1	0	"Chromosome"	"S12_LN:i:160712_dp:f:1.037447870413001"	160712
0	1	"Plasmid"	"S13_LN:i:88437_dp:f:1.3095967986867587"	88437
1	0	"Chromosome"	"S14_LN:i:88294_dp:f:1.0557056392325912"	88294
1	0	"Chromosome"	"S15_LN:i:79771_dp:f:0.9453843344955841"	79771
1	0	"Chromosome"	"S16_LN:i:77322_dp:f:1.0076435267489274"	77322
1	0	"Chromosome"	"S17_LN:i:72709_dp:f:1.0188121220626545"	72709
1	0	"Chromosome"	"S18_LN:i:68801_dp:f:1.0129304371389702"	68801
1	0	"Chromosome"	"S19_LN:i:38850_dp:f:1.1102433802249931"	38850
1	0	"Chromosome"	"S2_LN:i:488758_dp:f:1.0"	488758
1	0	"Chromosome"	"S20_LN:i:34296_dp:f:1.0007648420112834"	34296
1	0	"Chromosome"	"S21_LN:i:32911_dp:f:1.0387095091448202"	32911
1	0	"Chromosome"	"S22_LN:i:30712_dp:f:1.1035514281005578"	30712
1	0	"Chromosome"	"S23_LN:i:26140_dp:f:1.0068708830536806"	26140
1	0	"Chromosome"	"S24_LN:i:25301_dp:f:1.0949907649297224"	25301
1	0	"Chromosome"	"S25_LN:i:4559_dp:f:2.223654105647727"	4559
1	0	"Chromosome"	"S26_LN:i:4392_dp:f:0.9491724906160514"	4392
0.67	0.33	"Chromosome"	"S27_LN:i:3901_dp:f:1.0736638692936338"	3901
0.67	0.33	"Chromosome"	"S28_LN:i:3898_dp:f:2.2571422570133217"	3898
1	0	"Chromosome"	"S29_LN:i:3414_dp:f:1.0980494405176993"	3414
1	0	"Chromosome"	"S3_LN:i:438180_dp:f:0.9804809592835368"	438180
1	0	"Chromosome"	"S30_LN:i:3384_dp:f:1.1020278377009682"	3384
0.33	0.67	"Plasmid"	"S31_LN:i:3065_dp:f:1.0913142329028866"	3065
1	0	"Chromosome"	"S32_LN:i:2938_dp:f:7.236288124959895"	2938
1	0	"Chromosome"	"S33_LN:i:2749_dp:f:0.9615106460671433"	2749
1	0	"Chromosome"	"S34_LN:i:2149_dp:f:0.7592689314324307"	2149
0.67	0.33	"Chromosome"	"S35_LN:i:1531_dp:f:0.6329286921469357"	1531
1	0	"Chromosome"	"S36_LN:i:1463_dp:f:7.175431804741855"	1463
0.67	0.33	"Chromosome"	"S37_LN:i:1310_dp:f:2.5666766534376575"	1310
1	0	"Chromosome"	"S38_LN:i:1291_dp:f:1.622594461543007"	1291
1	0	"Chromosome"	"S39_LN:i:1100_dp:f:2.3775548322199396"	1100
1	0	"Chromosome"	"S4_LN:i:390648_dp:f:1.012548013804279"	390648
1	0	"Chromosome"	"S40_LN:i:956_dp:f:1.9220071193828452"	956
0.67	0.33	"Chromosome"	"S41_LN:i:951_dp:f:1.176668533223402"	951
1	0	"Chromosome"	"S42_LN:i:751_dp:f:1.2073045920527152"	751
1	0	"Chromosome"	"S43_LN:i:751_dp:f:1.1669769490245356"	751
1	0	"Chromosome"	"S44_LN:i:715_dp:f:1.308705663699411"	715
1	0	"Chromosome"	"S45_LN:i:715_dp:f:1.173668254855625"	715
1	0	"Chromosome"	"S46_LN:i:711_dp:f:2.9441286326879483"	711
1	0	"Chromosome"	"S47_LN:i:673_dp:f:1.0459565349259232"	673
1	0	"Chromosome"	"S48_LN:i:670_dp:f:1.0371507880854898"	670
1	0	"Chromosome"	"S49_LN:i:670_dp:f:1.087195405408275"	670
1	0	"Chromosome"	"S5_LN:i:382687_dp:f:0.992083581280116"	382687
1	0	"Chromosome"	"S50_LN:i:545_dp:f:2.5274134093866722"	545
1	0	"Chromosome"	"S6_LN:i:372699_dp:f:1.0065269626659417"	372699
1	0	"Chromosome"	"S7_LN:i:354245_dp:f:1.0323118051480957"	354245
1	0	"Chromosome"	"S8_LN:i:264799_dp:f:1.0240947853821372"	264799
1	0	"Chromosome"	"S9_LN:i:249430_dp:f:1.0240697645968815"	249430
