"Prob_Chromosome"	"Prob_Plasmid"	"Prediction"	"Contig_name"	"Contig_length"
1	0	"Chromosome"	"S1_LN:i:573561_dp:f:1.0"	573561
1	0	"Chromosome"	"S10_LN:i:187733_dp:f:1.0255228385665374"	187733
1	0	"Chromosome"	"S100_LN:i:899_dp:f:1.0363908141393223"	899
1	0	"Chromosome"	"S101_LN:i:889_dp:f:1.1324918623054623"	889
1	0	"Chromosome"	"S102_LN:i:883_dp:f:0.8599028943027643"	883
1	0	"Chromosome"	"S103_LN:i:883_dp:f:2.1840533231835138"	883
1	0	"Chromosome"	"S104_LN:i:882_dp:f:0.9462495208982143"	882
1	0	"Chromosome"	"S105_LN:i:879_dp:f:1.8891729631731349"	879
1	0	"Chromosome"	"S106_LN:i:877_dp:f:1.0983687743687789"	877
1	0	"Chromosome"	"S107_LN:i:877_dp:f:0.8668541445514016"	877
0.5	0.5	"Plasmid"	"S108_LN:i:867_dp:f:2.207688342316448"	867
1	0	"Chromosome"	"S109_LN:i:835_dp:f:0.9882766704541939"	835
1	0	"Chromosome"	"S11_LN:i:186450_dp:f:1.0267665296995376"	186450
1	0	"Chromosome"	"S110_LN:i:835_dp:f:1.0235848082665078"	835
1	0	"Chromosome"	"S111_LN:i:816_dp:f:1.1014235935659227"	816
1	0	"Chromosome"	"S112_LN:i:803_dp:f:1.002608940233594"	803
1	0	"Chromosome"	"S113_LN:i:800_dp:f:0.9969461217139322"	800
1	0	"Chromosome"	"S114_LN:i:790_dp:f:2.071312716365016"	790
1	0	"Chromosome"	"S115_LN:i:782_dp:f:1.7715783289836013"	782
1	0	"Chromosome"	"S116_LN:i:778_dp:f:1.6496717145198072"	778
1	0	"Chromosome"	"S117_LN:i:758_dp:f:6.4467202512174175"	758
1	0	"Chromosome"	"S118_LN:i:750_dp:f:2.582269237103852"	750
1	0	"Chromosome"	"S119_LN:i:715_dp:f:0.8489838431312569"	715
1	0	"Chromosome"	"S12_LN:i:185309_dp:f:1.035312305172594"	185309
1	0	"Chromosome"	"S120_LN:i:713_dp:f:0.9227313623478748"	713
1	0	"Chromosome"	"S121_LN:i:706_dp:f:0.8607455170618072"	706
1	0	"Chromosome"	"S122_LN:i:706_dp:f:0.804840330902141"	706
1	0	"Chromosome"	"S123_LN:i:682_dp:f:2.390956534721111"	682
1	0	"Chromosome"	"S124_LN:i:673_dp:f:0.843599966913417"	673
1	0	"Chromosome"	"S125_LN:i:672_dp:f:1.0834435078960396"	672
1	0	"Chromosome"	"S126_LN:i:672_dp:f:1.1551388905843958"	672
1	0	"Chromosome"	"S127_LN:i:670_dp:f:0.9534890137718556"	670
1	0	"Chromosome"	"S128_LN:i:670_dp:f:0.9457941420305144"	670
1	0	"Chromosome"	"S129_LN:i:660_dp:f:1.869825999570043"	660
1	0	"Chromosome"	"S13_LN:i:153093_dp:f:0.992496080130875"	153093
1	0	"Chromosome"	"S130_LN:i:648_dp:f:1.9804160077431103"	648
1	0	"Chromosome"	"S131_LN:i:639_dp:f:1.8351605949619991"	639
1	0	"Chromosome"	"S132_LN:i:615_dp:f:2.074840436777885"	615
1	0	"Chromosome"	"S133_LN:i:596_dp:f:2.05514700243943"	596
1	0	"Chromosome"	"S134_LN:i:593_dp:f:1.845081815807154"	593
1	0	"Chromosome"	"S135_LN:i:582_dp:f:1.0532039788244159"	582
1	0	"Chromosome"	"S136_LN:i:552_dp:f:0.9722948063955734"	552
1	0	"Chromosome"	"S137_LN:i:552_dp:f:0.9912523695106424"	552
1	0	"Chromosome"	"S138_LN:i:547_dp:f:0.8809169745331011"	547
1	0	"Chromosome"	"S139_LN:i:526_dp:f:0.8325643921275461"	526
1	0	"Chromosome"	"S14_LN:i:130451_dp:f:0.9350710041886506"	130451
1	0	"Chromosome"	"S140_LN:i:526_dp:f:2.142663852308336"	526
1	0	"Chromosome"	"S141_LN:i:516_dp:f:1.0702278834413277"	516
1	0	"Chromosome"	"S142_LN:i:516_dp:f:1.1018808594557177"	516
1	0	"Chromosome"	"S143_LN:i:514_dp:f:1.019105489568613"	514
1	0	"Chromosome"	"S144_LN:i:514_dp:f:0.9800991928120683"	514
1	0	"Chromosome"	"S15_LN:i:126279_dp:f:1.0475040264056712"	126279
1	0	"Chromosome"	"S16_LN:i:123160_dp:f:0.9653737856905327"	123160
1	0	"Chromosome"	"S17_LN:i:119055_dp:f:1.0189074870359354"	119055
1	0	"Chromosome"	"S18_LN:i:104150_dp:f:1.042057406703174"	104150
1	0	"Chromosome"	"S19_LN:i:98470_dp:f:1.043095702352077"	98470
1	0	"Chromosome"	"S2_LN:i:347722_dp:f:0.9775874556029523"	347722
1	0	"Chromosome"	"S20_LN:i:88311_dp:f:0.9970201199375128"	88311
1	0	"Chromosome"	"S21_LN:i:86163_dp:f:0.9502559269623674"	86163
1	0	"Chromosome"	"S22_LN:i:69055_dp:f:1.0528093216319856"	69055
1	0	"Chromosome"	"S23_LN:i:65902_dp:f:0.9500042078276524"	65902
0	1	"Plasmid"	"S24_LN:i:65269_dp:f:6.127715671972076"	65269
1	0	"Chromosome"	"S25_LN:i:62468_dp:f:0.9544068478401115"	62468
0.67	0.33	"Chromosome"	"S26_LN:i:58457_dp:f:1.019442862161732"	58457
1	0	"Chromosome"	"S27_LN:i:57699_dp:f:0.9635994085820295"	57699
1	0	"Chromosome"	"S28_LN:i:54259_dp:f:0.9335216916550478"	54259
0	1	"Plasmid"	"S29_LN:i:51413_dp:f:3.6020347350566597"	51413
1	0	"Chromosome"	"S3_LN:i:262445_dp:f:0.9204959445652167"	262445
1	0	"Chromosome"	"S30_LN:i:40985_dp:f:0.9906925304912575"	40985
1	0	"Chromosome"	"S31_LN:i:40600_dp:f:1.01288546038177"	40600
1	0	"Chromosome"	"S32_LN:i:39822_dp:f:0.9388912051028908"	39822
1	0	"Chromosome"	"S33_LN:i:39404_dp:f:1.0298071962309696"	39404
1	0	"Chromosome"	"S34_LN:i:30786_dp:f:1.042662332071899"	30786
1	0	"Chromosome"	"S35_LN:i:28163_dp:f:0.9652148342826018"	28163
1	0	"Chromosome"	"S36_LN:i:26950_dp:f:1.9751566749835374"	26950
1	0	"Chromosome"	"S37_LN:i:26566_dp:f:1.0218621592747543"	26566
1	0	"Chromosome"	"S38_LN:i:26140_dp:f:1.0389684863210282"	26140
1	0	"Chromosome"	"S39_LN:i:22804_dp:f:1.0240041989271111"	22804
1	0	"Chromosome"	"S4_LN:i:253778_dp:f:1.0066297125624153"	253778
1	0	"Chromosome"	"S40_LN:i:21460_dp:f:1.039252078784441"	21460
0	1	"Plasmid"	"S41_LN:i:20805_dp:f:3.651931898332542"	20805
1	0	"Chromosome"	"S42_LN:i:19866_dp:f:1.0008022513649688"	19866
0.67	0.33	"Chromosome"	"S43_LN:i:17423_dp:f:1.0268562306426943"	17423
0	1	"Plasmid"	"S44_LN:i:12181_dp:f:3.8210042173993646"	12181
1	0	"Chromosome"	"S45_LN:i:10510_dp:f:0.9384749898670074"	10510
1	0	"Chromosome"	"S46_LN:i:8605_dp:f:2.0733602027316866"	8605
1	0	"Chromosome"	"S47_LN:i:7805_dp:f:0.9837416172108516"	7805
1	0	"Chromosome"	"S48_LN:i:7454_dp:f:1.0406311549676206"	7454
0.67	0.33	"Chromosome"	"S49_LN:i:6549_dp:f:1.0521020253146094"	6549
1	0	"Chromosome"	"S5_LN:i:211075_dp:f:1.005238977278435"	211075
1	0	"Chromosome"	"S50_LN:i:6265_dp:f:1.0237360396086892"	6265
1	0	"Chromosome"	"S51_LN:i:5436_dp:f:0.9912426648255827"	5436
1	0	"Chromosome"	"S52_LN:i:5396_dp:f:0.982363349751427"	5396
1	0	"Chromosome"	"S53_LN:i:4492_dp:f:0.9328162149661204"	4492
1	0	"Chromosome"	"S54_LN:i:4441_dp:f:1.0988191661066564"	4441
1	0	"Chromosome"	"S55_LN:i:4388_dp:f:2.117403635396123"	4388
1	0	"Chromosome"	"S56_LN:i:4235_dp:f:1.0736942082424643"	4235
1	0	"Chromosome"	"S57_LN:i:4106_dp:f:1.0870867410185776"	4106
1	0	"Chromosome"	"S58_LN:i:4060_dp:f:1.0638605991374321"	4060
0	1	"Plasmid"	"S59_LN:i:3904_dp:f:6.2580292290673825"	3904
1	0	"Chromosome"	"S6_LN:i:209356_dp:f:0.9562843234911548"	209356
1	0	"Chromosome"	"S60_LN:i:3668_dp:f:1.067394587159402"	3668
1	0	"Chromosome"	"S61_LN:i:3594_dp:f:0.9644844219445624"	3594
0.33	0.67	"Plasmid"	"S62_LN:i:3480_dp:f:9.29557968047776"	3480
1	0	"Chromosome"	"S63_LN:i:3387_dp:f:0.9890782504826714"	3387
1	0	"Chromosome"	"S64_LN:i:3372_dp:f:0.8871345775486791"	3372
1	0	"Chromosome"	"S65_LN:i:3336_dp:f:0.9626996360109681"	3336
1	0	"Chromosome"	"S66_LN:i:3303_dp:f:0.971057930805978"	3303
1	0	"Chromosome"	"S67_LN:i:3014_dp:f:1.0257308915376395"	3014
1	0	"Chromosome"	"S68_LN:i:2936_dp:f:7.1339857616620215"	2936
1	0	"Chromosome"	"S69_LN:i:2790_dp:f:1.0784832007448704"	2790
1	0	"Chromosome"	"S7_LN:i:203817_dp:f:1.0203521487491876"	203817
1	0	"Chromosome"	"S70_LN:i:2520_dp:f:0.9918498815782801"	2520
1	0	"Chromosome"	"S71_LN:i:2456_dp:f:1.1768970640629604"	2456
1	0	"Chromosome"	"S72_LN:i:2208_dp:f:2.2668036226342143"	2208
1	0	"Chromosome"	"S73_LN:i:2115_dp:f:1.8348157416741464"	2115
0.33	0.67	"Plasmid"	"S74_LN:i:1954_dp:f:1.9657033682242846"	1954
1	0	"Chromosome"	"S75_LN:i:1783_dp:f:0.8670502212451491"	1783
1	0	"Chromosome"	"S76_LN:i:1757_dp:f:1.8480329835763682"	1757
1	0	"Chromosome"	"S77_LN:i:1742_dp:f:1.005516099951808"	1742
1	0	"Chromosome"	"S78_LN:i:1713_dp:f:0.9046498492403877"	1713
1	0	"Chromosome"	"S79_LN:i:1681_dp:f:1.949688616066295"	1681
1	0	"Chromosome"	"S8_LN:i:201661_dp:f:0.9404553005360192"	201661
1	0	"Chromosome"	"S80_LN:i:1637_dp:f:7.391208439170931"	1637
1	0	"Chromosome"	"S81_LN:i:1463_dp:f:6.821790693451169"	1463
1	0	"Chromosome"	"S82_LN:i:1377_dp:f:1.0853334279177813"	1377
1	0	"Chromosome"	"S83_LN:i:1207_dp:f:9.055522029881002"	1207
1	0	"Chromosome"	"S84_LN:i:1151_dp:f:1.90143537189531"	1151
1	0	"Chromosome"	"S85_LN:i:1114_dp:f:0.9687089926596386"	1114
1	0	"Chromosome"	"S86_LN:i:1114_dp:f:0.8849149678094905"	1114
0.67	0.33	"Chromosome"	"S87_LN:i:1068_dp:f:2.1924062938804703"	1068
0.67	0.33	"Chromosome"	"S88_LN:i:1055_dp:f:1.0171871294281543"	1055
1	0	"Chromosome"	"S89_LN:i:1013_dp:f:0.9682811777932544"	1013
1	0	"Chromosome"	"S9_LN:i:194574_dp:f:1.020919482668338"	194574
1	0	"Chromosome"	"S90_LN:i:970_dp:f:0.9791430791527432"	970
1	0	"Chromosome"	"S91_LN:i:970_dp:f:1.8543389396621777"	970
1	0	"Chromosome"	"S92_LN:i:966_dp:f:1.918429623307873"	966
1	0	"Chromosome"	"S93_LN:i:963_dp:f:2.174582291895298"	963
1	0	"Chromosome"	"S94_LN:i:956_dp:f:1.9583179007128697"	956
1	0	"Chromosome"	"S95_LN:i:942_dp:f:2.148575622957239"	942
1	0	"Chromosome"	"S96_LN:i:941_dp:f:1.0152587950280512"	941
1	0	"Chromosome"	"S97_LN:i:937_dp:f:0.8893554677671464"	937
1	0	"Chromosome"	"S98_LN:i:935_dp:f:2.0291492968563225"	935
1	0	"Chromosome"	"S99_LN:i:899_dp:f:0.9466639918226414"	899
