"Prob_Chromosome"	"Prob_Plasmid"	"Prediction"	"Contig_name"	"Contig_length"
1	0	"Chromosome"	"S1_LN:i:288373_dp:f:1.1040002981148145"	288373
1	0	"Chromosome"	"S10_LN:i:116703_dp:f:0.8907760140329388"	116703
0	1	"Plasmid"	"S100_LN:i:2726_dp:f:0.6091561259997031"	2726
0	1	"Plasmid"	"S101_LN:i:2695_dp:f:0.6059426080040479"	2695
0	1	"Plasmid"	"S102_LN:i:2609_dp:f:0.8187014498194074"	2609
0	1	"Plasmid"	"S103_LN:i:2514_dp:f:0.730262238430975"	2514
0	1	"Plasmid"	"S104_LN:i:2498_dp:f:0.37637748341897337"	2498
0	1	"Plasmid"	"S105_LN:i:2457_dp:f:1.446247739507069"	2457
1	0	"Chromosome"	"S106_LN:i:2250_dp:f:1.4141538250977042"	2250
0	1	"Plasmid"	"S107_LN:i:2228_dp:f:0.957075167392284"	2228
0	1	"Plasmid"	"S108_LN:i:2215_dp:f:1.1012820868929984"	2215
0.33	0.67	"Plasmid"	"S109_LN:i:2015_dp:f:1.2307116559586748"	2015
1	0	"Chromosome"	"S11_LN:i:111787_dp:f:1.120448027412825"	111787
0	1	"Plasmid"	"S110_LN:i:2003_dp:f:0.4111549205751985"	2003
0.33	0.67	"Plasmid"	"S111_LN:i:1968_dp:f:0.6644482843136098"	1968
1	0	"Chromosome"	"S112_LN:i:1845_dp:f:1.1196603757886638"	1845
0.5	0.5	"Plasmid"	"S113_LN:i:1724_dp:f:0.45050702916008517"	1724
1	0	"Chromosome"	"S114_LN:i:1718_dp:f:1.275763527464149"	1718
1	0	"Chromosome"	"S115_LN:i:1702_dp:f:9.053722384614563"	1702
0.33	0.67	"Plasmid"	"S116_LN:i:1664_dp:f:0.5464131751979637"	1664
1	0	"Chromosome"	"S117_LN:i:1660_dp:f:0.8847566348040716"	1660
0.33	0.67	"Plasmid"	"S118_LN:i:1596_dp:f:0.757667455929645"	1596
0.33	0.67	"Plasmid"	"S119_LN:i:1569_dp:f:0.6394238553415036"	1569
1	0	"Chromosome"	"S12_LN:i:111291_dp:f:1.0333932798752243"	111291
0	1	"Plasmid"	"S120_LN:i:1549_dp:f:0.8400490292400231"	1549
1	0	"Chromosome"	"S121_LN:i:1546_dp:f:1.3283769198171178"	1546
1	0	"Chromosome"	"S122_LN:i:1528_dp:f:0.863881866166111"	1528
0	1	"Plasmid"	"S123_LN:i:1526_dp:f:2.1765401328697385"	1526
0.33	0.67	"Plasmid"	"S124_LN:i:1479_dp:f:1.1884685119876373"	1479
0	1	"Plasmid"	"S125_LN:i:1476_dp:f:0.6046905000244923"	1476
1	0	"Chromosome"	"S126_LN:i:1443_dp:f:2.8513909069572247"	1443
0.33	0.67	"Plasmid"	"S127_LN:i:1372_dp:f:0.5471330555021181"	1372
0.33	0.67	"Plasmid"	"S128_LN:i:1353_dp:f:0.5934687783762351"	1353
1	0	"Chromosome"	"S129_LN:i:1348_dp:f:1.286021802479273"	1348
1	0	"Chromosome"	"S13_LN:i:103959_dp:f:1.1259787956393323"	103959
0.5	0.5	"Plasmid"	"S130_LN:i:1322_dp:f:1.6811721132652548"	1322
0.33	0.67	"Plasmid"	"S131_LN:i:1305_dp:f:1.2307865452850528"	1305
0	1	"Plasmid"	"S132_LN:i:1268_dp:f:1.2403798233455068"	1268
1	0	"Chromosome"	"S133_LN:i:1221_dp:f:5.183213688862153"	1221
1	0	"Chromosome"	"S134_LN:i:1195_dp:f:1.1382743402438813"	1195
0.67	0.33	"Chromosome"	"S135_LN:i:1186_dp:f:0.6862189429211019"	1186
0.67	0.33	"Chromosome"	"S136_LN:i:1186_dp:f:0.5691050789894784"	1186
1	0	"Chromosome"	"S137_LN:i:1133_dp:f:1.8850984279037184"	1133
0.67	0.33	"Chromosome"	"S138_LN:i:1098_dp:f:0.6673321501758529"	1098
0.67	0.33	"Chromosome"	"S139_LN:i:1098_dp:f:0.6071207625591492"	1098
1	0	"Chromosome"	"S14_LN:i:101483_dp:f:1.1809361586523768"	101483
0.33	0.67	"Plasmid"	"S140_LN:i:1091_dp:f:0.48919293012818127"	1091
0.33	0.67	"Plasmid"	"S141_LN:i:1089_dp:f:0.5633393564489373"	1089
1	0	"Chromosome"	"S142_LN:i:1050_dp:f:0.9016918831415686"	1050
0.33	0.67	"Plasmid"	"S143_LN:i:1046_dp:f:0.543738736710139"	1046
0.67	0.33	"Chromosome"	"S144_LN:i:1040_dp:f:0.6669990721262262"	1040
0.5	0.5	"Plasmid"	"S145_LN:i:1018_dp:f:0.4961349440062329"	1018
0.67	0.33	"Chromosome"	"S146_LN:i:985_dp:f:0.5883961727793441"	985
1	0	"Chromosome"	"S147_LN:i:915_dp:f:1.3682461700253026"	915
1	0	"Chromosome"	"S148_LN:i:875_dp:f:2.0728505885384902"	875
0.67	0.33	"Chromosome"	"S149_LN:i:866_dp:f:1.2103262867503035"	866
1	0	"Chromosome"	"S15_LN:i:98456_dp:f:1.1163625493436042"	98456
0.5	0.5	"Plasmid"	"S150_LN:i:821_dp:f:1.833546245296717"	821
1	0	"Chromosome"	"S151_LN:i:797_dp:f:1.2385867039504805"	797
1	0	"Chromosome"	"S152_LN:i:795_dp:f:3.875814435377024"	795
1	0	"Chromosome"	"S153_LN:i:791_dp:f:1.2370536880138312"	791
0.33	0.67	"Plasmid"	"S154_LN:i:764_dp:f:1.1166393874152702"	764
1	0	"Chromosome"	"S155_LN:i:756_dp:f:1.277205606361626"	756
0.5	0.5	"Plasmid"	"S156_LN:i:749_dp:f:2.5003756530008814"	749
0.67	0.33	"Chromosome"	"S157_LN:i:733_dp:f:1.2632901872529385"	733
1	0	"Chromosome"	"S158_LN:i:716_dp:f:3.8075940885171744"	716
0.5	0.5	"Plasmid"	"S159_LN:i:701_dp:f:1.8284806117398422"	701
1	0	"Chromosome"	"S16_LN:i:94547_dp:f:0.9974385566434677"	94547
1	0	"Chromosome"	"S160_LN:i:693_dp:f:1.0650925626321237"	693
1	0	"Chromosome"	"S161_LN:i:693_dp:f:3.893291038580239"	693
0.67	0.33	"Chromosome"	"S162_LN:i:691_dp:f:0.6395565301719539"	691
0.67	0.33	"Chromosome"	"S163_LN:i:691_dp:f:0.55488951870986"	691
0.67	0.33	"Chromosome"	"S164_LN:i:690_dp:f:0.5975120206513199"	690
0.67	0.33	"Chromosome"	"S165_LN:i:686_dp:f:1.0250263866385145"	686
1	0	"Chromosome"	"S166_LN:i:686_dp:f:0.7528123144429545"	686
1	0	"Chromosome"	"S167_LN:i:673_dp:f:0.6205744557419064"	673
0.67	0.33	"Chromosome"	"S168_LN:i:663_dp:f:0.6060972894090806"	663
0.67	0.33	"Chromosome"	"S169_LN:i:661_dp:f:0.6503863063982334"	661
1	0	"Chromosome"	"S17_LN:i:88224_dp:f:1.1680074119997823"	88224
0.67	0.33	"Chromosome"	"S170_LN:i:661_dp:f:0.5053124755425858"	661
0.67	0.33	"Chromosome"	"S171_LN:i:646_dp:f:0.6823249984684265"	646
0.67	0.33	"Chromosome"	"S172_LN:i:646_dp:f:0.5290055797356454"	646
0.67	0.33	"Chromosome"	"S173_LN:i:630_dp:f:0.7558143271901961"	630
0.67	0.33	"Chromosome"	"S174_LN:i:630_dp:f:0.5721815174052645"	630
0.67	0.33	"Chromosome"	"S175_LN:i:629_dp:f:1.2684330455978716"	629
0.67	0.33	"Chromosome"	"S176_LN:i:626_dp:f:0.5769727256284594"	626
0.67	0.33	"Chromosome"	"S177_LN:i:624_dp:f:0.5462189025656978"	624
0.67	0.33	"Chromosome"	"S178_LN:i:610_dp:f:0.4991670945126568"	610
0.67	0.33	"Chromosome"	"S179_LN:i:603_dp:f:0.5632681935577406"	603
1	0	"Chromosome"	"S18_LN:i:88173_dp:f:1.129419633735018"	88173
0.67	0.33	"Chromosome"	"S180_LN:i:583_dp:f:0.653424166765015"	583
1	0	"Chromosome"	"S181_LN:i:579_dp:f:1.734512813033971"	579
0.67	0.33	"Chromosome"	"S182_LN:i:549_dp:f:0.44502777847064096"	549
0.67	0.33	"Chromosome"	"S183_LN:i:547_dp:f:0.5621073660676049"	547
0.67	0.33	"Chromosome"	"S184_LN:i:547_dp:f:0.5074397634417733"	547
0.67	0.33	"Chromosome"	"S185_LN:i:539_dp:f:1.1166035913132675"	539
0.67	0.33	"Chromosome"	"S186_LN:i:531_dp:f:0.4706903895193753"	531
1	0	"Chromosome"	"S187_LN:i:521_dp:f:1.9875351859411732"	521
0.67	0.33	"Chromosome"	"S188_LN:i:509_dp:f:0.6007554875085214"	509
0.67	0.33	"Chromosome"	"S189_LN:i:502_dp:f:0.7485615251835538"	502
1	0	"Chromosome"	"S19_LN:i:87788_dp:f:0.8767014945308151"	87788
1	0	"Chromosome"	"S190_LN:i:500_dp:f:1.0135222544383324"	500
1	0	"Chromosome"	"S2_LN:i:279701_dp:f:0.9314904934966252"	279701
1	0	"Chromosome"	"S20_LN:i:87635_dp:f:1.0186859510354542"	87635
1	0	"Chromosome"	"S21_LN:i:85495_dp:f:1.037270775371383"	85495
1	0	"Chromosome"	"S22_LN:i:81062_dp:f:0.8568778267134293"	81062
1	0	"Chromosome"	"S23_LN:i:79642_dp:f:0.9707661886783311"	79642
1	0	"Chromosome"	"S24_LN:i:66226_dp:f:0.8494242507386004"	66226
1	0	"Chromosome"	"S25_LN:i:59666_dp:f:0.8833565598718142"	59666
1	0	"Chromosome"	"S26_LN:i:57862_dp:f:0.8519498550618492"	57862
1	0	"Chromosome"	"S27_LN:i:57438_dp:f:1.02662023620018"	57438
1	0	"Chromosome"	"S28_LN:i:56722_dp:f:1.0379506083341037"	56722
1	0	"Chromosome"	"S29_LN:i:53341_dp:f:1.180670319574874"	53341
1	0	"Chromosome"	"S3_LN:i:171549_dp:f:1.0"	171549
1	0	"Chromosome"	"S30_LN:i:52798_dp:f:0.9249485221743716"	52798
1	0	"Chromosome"	"S31_LN:i:51289_dp:f:0.836399810260911"	51289
1	0	"Chromosome"	"S32_LN:i:50353_dp:f:1.0442772795769586"	50353
1	0	"Chromosome"	"S33_LN:i:48311_dp:f:1.2139604951084135"	48311
1	0	"Chromosome"	"S34_LN:i:47072_dp:f:1.1814748947099605"	47072
1	0	"Chromosome"	"S35_LN:i:47040_dp:f:1.0070779772446181"	47040
1	0	"Chromosome"	"S36_LN:i:46887_dp:f:1.2257217875263078"	46887
1	0	"Chromosome"	"S37_LN:i:41433_dp:f:1.1575537481390898"	41433
1	0	"Chromosome"	"S38_LN:i:41168_dp:f:1.1856039308567679"	41168
1	0	"Chromosome"	"S39_LN:i:41020_dp:f:1.2390191679153586"	41020
1	0	"Chromosome"	"S4_LN:i:149480_dp:f:1.106741340191806"	149480
1	0	"Chromosome"	"S40_LN:i:40274_dp:f:1.195117983531475"	40274
1	0	"Chromosome"	"S41_LN:i:40095_dp:f:0.9034892543072274"	40095
1	0	"Chromosome"	"S42_LN:i:39810_dp:f:0.9686627236574842"	39810
0	1	"Plasmid"	"S43_LN:i:39499_dp:f:0.6990765724908632"	39499
1	0	"Chromosome"	"S44_LN:i:39119_dp:f:1.0806832930854753"	39119
1	0	"Chromosome"	"S45_LN:i:37151_dp:f:1.137273208532386"	37151
1	0	"Chromosome"	"S46_LN:i:36534_dp:f:0.8417671906186223"	36534
1	0	"Chromosome"	"S47_LN:i:35638_dp:f:1.1795991497717409"	35638
1	0	"Chromosome"	"S48_LN:i:34468_dp:f:1.1643312665212986"	34468
0.67	0.33	"Chromosome"	"S49_LN:i:34236_dp:f:0.872298801371517"	34236
1	0	"Chromosome"	"S5_LN:i:136805_dp:f:0.8367228078406092"	136805
0	1	"Plasmid"	"S50_LN:i:34122_dp:f:0.43818613206012713"	34122
1	0	"Chromosome"	"S51_LN:i:30908_dp:f:1.121303836738521"	30908
1	0	"Chromosome"	"S52_LN:i:30781_dp:f:1.152362334515475"	30781
1	0	"Chromosome"	"S53_LN:i:30182_dp:f:1.1813222740064104"	30182
1	0	"Chromosome"	"S54_LN:i:29488_dp:f:1.1182996688409788"	29488
1	0	"Chromosome"	"S55_LN:i:28444_dp:f:1.125006539507361"	28444
1	0	"Chromosome"	"S56_LN:i:28032_dp:f:1.135642154722705"	28032
1	0	"Chromosome"	"S57_LN:i:25206_dp:f:0.9594270081956152"	25206
1	0	"Chromosome"	"S58_LN:i:24322_dp:f:0.8498491158667617"	24322
1	0	"Chromosome"	"S59_LN:i:22280_dp:f:1.0234096718766494"	22280
1	0	"Chromosome"	"S6_LN:i:133326_dp:f:1.1245900803239972"	133326
1	0	"Chromosome"	"S60_LN:i:21045_dp:f:1.0260502976876484"	21045
1	0	"Chromosome"	"S61_LN:i:20514_dp:f:1.2046082952078514"	20514
0.33	0.67	"Plasmid"	"S62_LN:i:19318_dp:f:0.42420598893067796"	19318
1	0	"Chromosome"	"S63_LN:i:18809_dp:f:1.1783707827905152"	18809
1	0	"Chromosome"	"S64_LN:i:16985_dp:f:1.0567529724223619"	16985
1	0	"Chromosome"	"S65_LN:i:16355_dp:f:0.9642922162282046"	16355
1	0	"Chromosome"	"S66_LN:i:15926_dp:f:1.1418900814101587"	15926
1	0	"Chromosome"	"S67_LN:i:15892_dp:f:0.9010713544076409"	15892
1	0	"Chromosome"	"S68_LN:i:14779_dp:f:1.001682516384874"	14779
1	0	"Chromosome"	"S69_LN:i:14411_dp:f:0.9414762102574078"	14411
1	0	"Chromosome"	"S7_LN:i:130275_dp:f:0.833413767950159"	130275
1	0	"Chromosome"	"S70_LN:i:14350_dp:f:0.881487426350851"	14350
0	1	"Plasmid"	"S71_LN:i:12910_dp:f:0.7104171336337866"	12910
1	0	"Chromosome"	"S72_LN:i:11438_dp:f:0.7949317476349909"	11438
1	0	"Chromosome"	"S73_LN:i:10647_dp:f:1.1083035837444826"	10647
0	1	"Plasmid"	"S74_LN:i:10010_dp:f:0.44780975123082906"	10010
1	0	"Chromosome"	"S75_LN:i:9955_dp:f:1.0510003095774665"	9955
0	1	"Plasmid"	"S76_LN:i:9467_dp:f:0.5746919935012551"	9467
1	0	"Chromosome"	"S77_LN:i:9262_dp:f:0.917669549258901"	9262
1	0	"Chromosome"	"S78_LN:i:9193_dp:f:1.1777464417588448"	9193
1	0	"Chromosome"	"S79_LN:i:8473_dp:f:1.1526470118390306"	8473
1	0	"Chromosome"	"S8_LN:i:127748_dp:f:1.0536389176182634"	127748
1	0	"Chromosome"	"S80_LN:i:7533_dp:f:1.1310517876177515"	7533
1	0	"Chromosome"	"S81_LN:i:6771_dp:f:1.2069454913118034"	6771
0	1	"Plasmid"	"S82_LN:i:5578_dp:f:1.2883270748827578"	5578
0	1	"Plasmid"	"S83_LN:i:5269_dp:f:0.6299809483854811"	5269
1	0	"Chromosome"	"S84_LN:i:5107_dp:f:0.8589788391287201"	5107
1	0	"Chromosome"	"S85_LN:i:4986_dp:f:1.232319638498008"	4986
0	1	"Plasmid"	"S86_LN:i:4674_dp:f:0.6254691573224745"	4674
0.33	0.67	"Plasmid"	"S87_LN:i:4489_dp:f:0.5514484477728564"	4489
0.33	0.67	"Plasmid"	"S88_LN:i:4413_dp:f:0.6761048225609376"	4413
0	1	"Plasmid"	"S89_LN:i:4343_dp:f:0.43888101505346727"	4343
1	0	"Chromosome"	"S9_LN:i:121355_dp:f:1.132114079231997"	121355
1	0	"Chromosome"	"S90_LN:i:4305_dp:f:1.3442559985410234"	4305
1	0	"Chromosome"	"S91_LN:i:4018_dp:f:1.5363423725002137"	4018
0	1	"Plasmid"	"S92_LN:i:3928_dp:f:0.6899924891813775"	3928
1	0	"Chromosome"	"S93_LN:i:3492_dp:f:1.19922016186896"	3492
0.33	0.67	"Plasmid"	"S94_LN:i:3274_dp:f:22.003209843078015"	3274
0	1	"Plasmid"	"S95_LN:i:3167_dp:f:0.35317554742427554"	3167
0	1	"Plasmid"	"S96_LN:i:3086_dp:f:0.6185661137429055"	3086
0.33	0.67	"Plasmid"	"S97_LN:i:3067_dp:f:8.928186261998702"	3067
1	0	"Chromosome"	"S98_LN:i:3038_dp:f:9.418541651005693"	3038
0	1	"Plasmid"	"S99_LN:i:2729_dp:f:0.566629146158215"	2729
