"Prob_Chromosome"	"Prob_Plasmid"	"Prediction"	"Contig_name"	"Contig_length"
1	0	"Chromosome"	"S1_LN:i:573045_dp:f:1.0007275364517345"	573045
1	0	"Chromosome"	"S10_LN:i:163997_dp:f:1.0510184761203798"	163997
1	0	"Chromosome"	"S11_LN:i:135300_dp:f:0.9925392281624354"	135300
1	0	"Chromosome"	"S12_LN:i:129909_dp:f:0.9810408841869093"	129909
1	0	"Chromosome"	"S13_LN:i:110763_dp:f:1.0229258492451205"	110763
1	0	"Chromosome"	"S14_LN:i:106301_dp:f:1.0476214956377778"	106301
1	0	"Chromosome"	"S15_LN:i:103336_dp:f:1.0388692400828152"	103336
1	0	"Chromosome"	"S16_LN:i:96212_dp:f:1.0221268654270597"	96212
1	0	"Chromosome"	"S17_LN:i:92123_dp:f:1.0623899846336662"	92123
0	1	"Plasmid"	"S18_LN:i:85063_dp:f:1.5819108939910236"	85063
1	0	"Chromosome"	"S19_LN:i:76994_dp:f:0.9647621271541332"	76994
1	0	"Chromosome"	"S2_LN:i:388504_dp:f:1.0"	388504
1	0	"Chromosome"	"S20_LN:i:75327_dp:f:0.9740506068344134"	75327
1	0	"Chromosome"	"S21_LN:i:73306_dp:f:0.9831214278426363"	73306
1	0	"Chromosome"	"S22_LN:i:72880_dp:f:1.0003224511049684"	72880
1	0	"Chromosome"	"S23_LN:i:72594_dp:f:0.8729729501956608"	72594
1	0	"Chromosome"	"S24_LN:i:71673_dp:f:1.0190360267853507"	71673
1	0	"Chromosome"	"S25_LN:i:69914_dp:f:0.9095580808330562"	69914
1	0	"Chromosome"	"S26_LN:i:63376_dp:f:1.0437424561226085"	63376
1	0	"Chromosome"	"S27_LN:i:54994_dp:f:0.9321213032074529"	54994
1	0	"Chromosome"	"S28_LN:i:47199_dp:f:1.0879923945542687"	47199
1	0	"Chromosome"	"S29_LN:i:40654_dp:f:1.0390956149295967"	40654
1	0	"Chromosome"	"S3_LN:i:357598_dp:f:0.9435648723183793"	357598
1	0	"Chromosome"	"S30_LN:i:40516_dp:f:1.0411583197171275"	40516
1	0	"Chromosome"	"S31_LN:i:37562_dp:f:0.9930641743428106"	37562
1	0	"Chromosome"	"S32_LN:i:36534_dp:f:0.9861417423538316"	36534
1	0	"Chromosome"	"S33_LN:i:30712_dp:f:1.137267199104052"	30712
1	0	"Chromosome"	"S34_LN:i:29946_dp:f:0.9390998287323289"	29946
1	0	"Chromosome"	"S35_LN:i:28380_dp:f:0.9177188177523825"	28380
1	0	"Chromosome"	"S36_LN:i:26062_dp:f:0.9917071894029416"	26062
0.67	0.33	"Chromosome"	"S37_LN:i:25935_dp:f:0.9775922612108221"	25935
1	0	"Chromosome"	"S38_LN:i:25587_dp:f:1.0362953557339087"	25587
1	0	"Chromosome"	"S39_LN:i:24806_dp:f:1.006680422391586"	24806
1	0	"Chromosome"	"S4_LN:i:283339_dp:f:0.9877828355489665"	283339
1	0	"Chromosome"	"S40_LN:i:20980_dp:f:0.9558532531095038"	20980
1	0	"Chromosome"	"S41_LN:i:19885_dp:f:0.9130649573342954"	19885
1	0	"Chromosome"	"S42_LN:i:7379_dp:f:1.109577318129933"	7379
1	0	"Chromosome"	"S43_LN:i:5739_dp:f:0.6105683108924926"	5739
1	0	"Chromosome"	"S44_LN:i:4449_dp:f:0.9443783657749324"	4449
1	0	"Chromosome"	"S45_LN:i:3715_dp:f:2.130350522839279"	3715
1	0	"Chromosome"	"S46_LN:i:3694_dp:f:3.6716643303471512"	3694
1	0	"Chromosome"	"S47_LN:i:3084_dp:f:7.268817485221257"	3084
1	0	"Chromosome"	"S48_LN:i:3083_dp:f:2.331244691779058"	3083
1	0	"Chromosome"	"S49_LN:i:2784_dp:f:1.045304231875264"	2784
1	0	"Chromosome"	"S5_LN:i:280871_dp:f:1.011791417474084"	280871
1	0	"Chromosome"	"S50_LN:i:2559_dp:f:0.5950091720439471"	2559
1	0	"Chromosome"	"S51_LN:i:1702_dp:f:7.336356877253799"	1702
1	0	"Chromosome"	"S52_LN:i:1683_dp:f:3.0558495073128205"	1683
1	0	"Chromosome"	"S53_LN:i:1444_dp:f:1.0251318686155035"	1444
1	0	"Chromosome"	"S54_LN:i:1402_dp:f:1.8861678647912437"	1402
1	0	"Chromosome"	"S55_LN:i:1360_dp:f:1.3176989078759718"	1360
1	0	"Chromosome"	"S56_LN:i:1360_dp:f:2.7408137227636176"	1360
1	0	"Chromosome"	"S57_LN:i:1332_dp:f:3.579447551733792"	1332
1	0	"Chromosome"	"S58_LN:i:1329_dp:f:3.649858978068561"	1329
1	0	"Chromosome"	"S59_LN:i:1269_dp:f:2.1902918667052464"	1269
1	0	"Chromosome"	"S6_LN:i:247921_dp:f:0.923358651571267"	247921
1	0	"Chromosome"	"S60_LN:i:1258_dp:f:5.253364721481685"	1258
1	0	"Chromosome"	"S61_LN:i:1174_dp:f:0.9878752508383126"	1174
1	0	"Chromosome"	"S62_LN:i:1171_dp:f:12.098513979056463"	1171
1	0	"Chromosome"	"S63_LN:i:1150_dp:f:2.7902541297607777"	1150
1	0	"Chromosome"	"S64_LN:i:1100_dp:f:2.214495996419204"	1100
1	0	"Chromosome"	"S65_LN:i:980_dp:f:2.8847286170580353"	980
1	0	"Chromosome"	"S66_LN:i:956_dp:f:2.1404491351872195"	956
1	0	"Chromosome"	"S67_LN:i:913_dp:f:1.012798302118419"	913
1	0	"Chromosome"	"S68_LN:i:913_dp:f:1.1246261186475754"	913
1	0	"Chromosome"	"S69_LN:i:884_dp:f:2.9160776706847615"	884
1	0	"Chromosome"	"S7_LN:i:197505_dp:f:0.9350875862307908"	197505
1	0	"Chromosome"	"S70_LN:i:861_dp:f:1.9439243051205195"	861
1	0	"Chromosome"	"S71_LN:i:814_dp:f:1.0684520080642819"	814
1	0	"Chromosome"	"S72_LN:i:814_dp:f:2.073366097990578"	814
1	0	"Chromosome"	"S73_LN:i:812_dp:f:1.0710767389661573"	812
1	0	"Chromosome"	"S74_LN:i:803_dp:f:2.162380573807564"	803
1	0	"Chromosome"	"S75_LN:i:775_dp:f:4.530199200501162"	775
1	0	"Chromosome"	"S76_LN:i:746_dp:f:2.7540615908135355"	746
1	0	"Chromosome"	"S77_LN:i:720_dp:f:2.125297751983062"	720
1	0	"Chromosome"	"S78_LN:i:619_dp:f:1.1807308887659083"	619
1	0	"Chromosome"	"S79_LN:i:615_dp:f:0.9508504390314246"	615
1	0	"Chromosome"	"S8_LN:i:195080_dp:f:1.0203901232209558"	195080
1	0	"Chromosome"	"S80_LN:i:615_dp:f:1.0120572346779109"	615
1	0	"Chromosome"	"S81_LN:i:610_dp:f:1.3877024849262911"	610
1	0	"Chromosome"	"S82_LN:i:608_dp:f:1.2594269790124533"	608
1	0	"Chromosome"	"S83_LN:i:589_dp:f:2.1718264212922516"	589
1	0	"Chromosome"	"S84_LN:i:572_dp:f:1.036527770364606"	572
1	0	"Chromosome"	"S85_LN:i:572_dp:f:1.418438430255478"	572
1	0	"Chromosome"	"S86_LN:i:547_dp:f:0.9858603508318515"	547
1	0	"Chromosome"	"S87_LN:i:547_dp:f:1.06699656060057"	547
1	0	"Chromosome"	"S88_LN:i:546_dp:f:1.093835581162991"	546
1	0	"Chromosome"	"S89_LN:i:546_dp:f:2.13215496680928"	546
1	0	"Chromosome"	"S9_LN:i:185806_dp:f:1.0288078028389793"	185806
1	0	"Chromosome"	"S90_LN:i:542_dp:f:2.2426103477885495"	542
1	0	"Chromosome"	"S91_LN:i:511_dp:f:0.9652411372023533"	511
