"Prob_Chromosome"	"Prob_Plasmid"	"Prediction"	"Contig_name"	"Contig_length"
1	0	"Chromosome"	"S1_LN:i:346703_dp:f:0.9418220540446369"	346703
1	0	"Chromosome"	"S10_LN:i:175297_dp:f:0.8672610370478401"	175297
0.67	0.33	"Chromosome"	"S100_LN:i:979_dp:f:2.864203962816999"	979
1	0	"Chromosome"	"S101_LN:i:944_dp:f:1.9283326395128928"	944
0.67	0.33	"Chromosome"	"S102_LN:i:937_dp:f:1.3762413171289756"	937
1	0	"Chromosome"	"S103_LN:i:905_dp:f:2.0958253557009323"	905
0.5	0.5	"Plasmid"	"S104_LN:i:901_dp:f:0.9819596575037502"	901
1	0	"Chromosome"	"S105_LN:i:882_dp:f:0.5865009849265024"	882
0.67	0.33	"Chromosome"	"S106_LN:i:878_dp:f:1.485059872604967"	878
0.67	0.33	"Chromosome"	"S107_LN:i:829_dp:f:1.5276333931092057"	829
0.67	0.33	"Chromosome"	"S108_LN:i:825_dp:f:4.214182178731506"	825
0.5	0.5	"Plasmid"	"S109_LN:i:820_dp:f:9.688314743826918"	820
1	0	"Chromosome"	"S11_LN:i:158989_dp:f:1.0305884309087627"	158989
0.67	0.33	"Chromosome"	"S110_LN:i:819_dp:f:4.205486793690603"	819
1	0	"Chromosome"	"S111_LN:i:768_dp:f:0.9522683022953359"	768
1	0	"Chromosome"	"S112_LN:i:768_dp:f:1.0695061089458624"	768
1	0	"Chromosome"	"S113_LN:i:762_dp:f:3.28974714461362"	762
0.67	0.33	"Chromosome"	"S114_LN:i:738_dp:f:2.799543636225803"	738
1	0	"Chromosome"	"S115_LN:i:724_dp:f:1.6655610348204017"	724
1	0	"Chromosome"	"S116_LN:i:716_dp:f:1.5535447450859141"	716
0.67	0.33	"Chromosome"	"S117_LN:i:714_dp:f:1.5431526827491258"	714
0.67	0.33	"Chromosome"	"S118_LN:i:707_dp:f:4.31465763414079"	707
0.67	0.33	"Chromosome"	"S119_LN:i:665_dp:f:1.381183409226246"	665
1	0	"Chromosome"	"S12_LN:i:158765_dp:f:1.0345512963117722"	158765
0.67	0.33	"Chromosome"	"S120_LN:i:657_dp:f:4.31867106539146"	657
0.67	0.33	"Chromosome"	"S121_LN:i:655_dp:f:2.588936076130855"	655
0.67	0.33	"Chromosome"	"S122_LN:i:651_dp:f:1.3849859133883047"	651
0.67	0.33	"Chromosome"	"S123_LN:i:647_dp:f:2.4003641975600223"	647
0.67	0.33	"Chromosome"	"S124_LN:i:630_dp:f:2.8928149672333747"	630
1	0	"Chromosome"	"S125_LN:i:630_dp:f:1.5679819236569317"	630
1	0	"Chromosome"	"S126_LN:i:612_dp:f:2.196913923195439"	612
1	0	"Chromosome"	"S127_LN:i:595_dp:f:2.0546375557578043"	595
0.67	0.33	"Chromosome"	"S128_LN:i:589_dp:f:1.6088126935317073"	589
0.67	0.33	"Chromosome"	"S129_LN:i:589_dp:f:2.963759788365334"	589
1	0	"Chromosome"	"S13_LN:i:154046_dp:f:0.9854297754735576"	154046
0.67	0.33	"Chromosome"	"S130_LN:i:574_dp:f:4.512068475117635"	574
0.67	0.33	"Chromosome"	"S131_LN:i:569_dp:f:1.4348983342750403"	569
0.67	0.33	"Chromosome"	"S132_LN:i:569_dp:f:2.695176514804594"	569
1	0	"Chromosome"	"S133_LN:i:547_dp:f:1.3372971813838777"	547
0.67	0.33	"Chromosome"	"S134_LN:i:547_dp:f:2.8275483400630823"	547
1	0	"Chromosome"	"S135_LN:i:540_dp:f:1.6787396919672009"	540
0.67	0.33	"Chromosome"	"S136_LN:i:532_dp:f:3.9884490952778116"	532
1	0	"Chromosome"	"S137_LN:i:528_dp:f:2.4357297669737146"	528
1	0	"Chromosome"	"S138_LN:i:511_dp:f:0.8524279241651925"	511
1	0	"Chromosome"	"S139_LN:i:505_dp:f:1.7419340905992935"	505
1	0	"Chromosome"	"S14_LN:i:147668_dp:f:0.8919075667459302"	147668
1	0	"Chromosome"	"S15_LN:i:137539_dp:f:1.02696969231245"	137539
1	0	"Chromosome"	"S16_LN:i:124523_dp:f:0.9160206498749389"	124523
1	0	"Chromosome"	"S17_LN:i:114505_dp:f:0.9479372558713179"	114505
1	0	"Chromosome"	"S18_LN:i:111554_dp:f:0.8603045787428482"	111554
1	0	"Chromosome"	"S19_LN:i:108994_dp:f:1.0558983269130506"	108994
1	0	"Chromosome"	"S2_LN:i:319573_dp:f:0.8657280404156299"	319573
1	0	"Chromosome"	"S20_LN:i:106701_dp:f:1.0564424055316821"	106701
1	0	"Chromosome"	"S21_LN:i:104212_dp:f:1.0300357269521065"	104212
1	0	"Chromosome"	"S22_LN:i:104012_dp:f:0.9417044216298338"	104012
1	0	"Chromosome"	"S23_LN:i:99181_dp:f:1.0108274327409885"	99181
1	0	"Chromosome"	"S24_LN:i:98279_dp:f:0.961562870274103"	98279
1	0	"Chromosome"	"S25_LN:i:87678_dp:f:1.0644257968478537"	87678
1	0	"Chromosome"	"S26_LN:i:86594_dp:f:1.0330519996260237"	86594
1	0	"Chromosome"	"S27_LN:i:82121_dp:f:0.9136832042054751"	82121
1	0	"Chromosome"	"S28_LN:i:54247_dp:f:1.061400802382147"	54247
1	0	"Chromosome"	"S29_LN:i:53453_dp:f:0.8801463151438003"	53453
1	0	"Chromosome"	"S3_LN:i:303968_dp:f:0.9463047104594307"	303968
1	0	"Chromosome"	"S30_LN:i:53369_dp:f:0.9602324862481822"	53369
1	0	"Chromosome"	"S31_LN:i:51185_dp:f:0.9602105184396376"	51185
1	0	"Chromosome"	"S32_LN:i:50972_dp:f:0.9953240621266242"	50972
1	0	"Chromosome"	"S33_LN:i:41392_dp:f:1.0404644833631405"	41392
0.67	0.33	"Chromosome"	"S34_LN:i:40640_dp:f:0.9598514249023373"	40640
0	1	"Plasmid"	"S35_LN:i:39167_dp:f:2.752062619517596"	39167
1	0	"Chromosome"	"S36_LN:i:35860_dp:f:1.0234855836723828"	35860
1	0	"Chromosome"	"S37_LN:i:31727_dp:f:0.9034352340958868"	31727
1	0	"Chromosome"	"S38_LN:i:29791_dp:f:1.0898964673382658"	29791
0.67	0.33	"Chromosome"	"S39_LN:i:28082_dp:f:0.9456285379630848"	28082
1	0	"Chromosome"	"S4_LN:i:265339_dp:f:1.003508507674213"	265339
1	0	"Chromosome"	"S40_LN:i:20684_dp:f:1.0109279427608844"	20684
1	0	"Chromosome"	"S41_LN:i:18389_dp:f:1.0345042752479645"	18389
1	0	"Chromosome"	"S42_LN:i:15802_dp:f:0.9241183056294605"	15802
0	1	"Plasmid"	"S43_LN:i:13849_dp:f:1.4838248561357443"	13849
1	0	"Chromosome"	"S44_LN:i:13126_dp:f:0.9030558593303898"	13126
0.67	0.33	"Chromosome"	"S45_LN:i:12430_dp:f:0.9693759835373245"	12430
1	0	"Chromosome"	"S46_LN:i:11809_dp:f:1.0648134417551565"	11809
1	0	"Chromosome"	"S47_LN:i:11566_dp:f:0.9349924094123683"	11566
1	0	"Chromosome"	"S48_LN:i:11532_dp:f:0.9551853871946369"	11532
0	1	"Plasmid"	"S49_LN:i:10551_dp:f:1.4806877275428556"	10551
1	0	"Chromosome"	"S5_LN:i:242555_dp:f:1.0139849496547437"	242555
0	1	"Plasmid"	"S50_LN:i:9919_dp:f:2.701158397451547"	9919
0.33	0.67	"Plasmid"	"S51_LN:i:9676_dp:f:1.4032769963168548"	9676
1	0	"Chromosome"	"S52_LN:i:8654_dp:f:0.8466706612387138"	8654
0	1	"Plasmid"	"S53_LN:i:7604_dp:f:1.4676227245608773"	7604
1	0	"Chromosome"	"S54_LN:i:7449_dp:f:0.8570651822298271"	7449
1	0	"Chromosome"	"S55_LN:i:6457_dp:f:0.9711038004800996"	6457
0	1	"Plasmid"	"S56_LN:i:5607_dp:f:1.453406109808756"	5607
1	0	"Chromosome"	"S57_LN:i:5262_dp:f:0.946936806342165"	5262
0	1	"Plasmid"	"S58_LN:i:5200_dp:f:1.2967759906358938"	5200
1	0	"Chromosome"	"S59_LN:i:4902_dp:f:0.8726632941066435"	4902
1	0	"Chromosome"	"S6_LN:i:209196_dp:f:1.0"	209196
1	0	"Chromosome"	"S6_LN:i:209196_dp:f:1.0"	209196
1	0	"Chromosome"	"S6_LN:i:209196_dp:f:1.0"	209196
1	0	"Chromosome"	"S6_LN:i:209196_dp:f:1.0"	209196
1	0	"Chromosome"	"S60_LN:i:4887_dp:f:1.0023375408905504"	4887
1	0	"Chromosome"	"S61_LN:i:4526_dp:f:0.9500353528260455"	4526
1	0	"Chromosome"	"S62_LN:i:4521_dp:f:1.0282146822690694"	4521
1	0	"Chromosome"	"S63_LN:i:4131_dp:f:1.7348356593432193"	4131
1	0	"Chromosome"	"S64_LN:i:4115_dp:f:1.0441754952668294"	4115
1	0	"Chromosome"	"S65_LN:i:3178_dp:f:7.201251017597857"	3178
0	1	"Plasmid"	"S66_LN:i:3023_dp:f:2.6365776054703414"	3023
1	0	"Chromosome"	"S67_LN:i:2963_dp:f:0.853834614981122"	2963
1	0	"Chromosome"	"S68_LN:i:2910_dp:f:0.7815416513724163"	2910
0.33	0.67	"Plasmid"	"S69_LN:i:2870_dp:f:2.522238573471193"	2870
1	0	"Chromosome"	"S7_LN:i:204587_dp:f:1.0027032189868297"	204587
0	1	"Plasmid"	"S70_LN:i:2817_dp:f:0.9359046920307513"	2817
1	0	"Chromosome"	"S71_LN:i:2627_dp:f:0.8984242647652317"	2627
0	1	"Plasmid"	"S72_LN:i:2600_dp:f:0.9460800107118968"	2600
1	0	"Chromosome"	"S73_LN:i:2583_dp:f:2.7741312844732433"	2583
0	1	"Plasmid"	"S74_LN:i:2345_dp:f:8.73209676291691"	2345
1	0	"Chromosome"	"S75_LN:i:2314_dp:f:5.039156059582848"	2314
0	1	"Plasmid"	"S76_LN:i:2186_dp:f:0.8181059693307173"	2186
1	0	"Chromosome"	"S77_LN:i:2064_dp:f:2.1585132537987586"	2064
1	0	"Chromosome"	"S78_LN:i:1996_dp:f:1.0374097563381133"	1996
0.33	0.67	"Plasmid"	"S79_LN:i:1893_dp:f:1.4414256661042912"	1893
1	0	"Chromosome"	"S8_LN:i:197587_dp:f:1.0278694701548627"	197587
0	1	"Plasmid"	"S80_LN:i:1690_dp:f:4.236529505794384"	1690
1	0	"Chromosome"	"S81_LN:i:1578_dp:f:1.8794929160405245"	1578
1	0	"Chromosome"	"S82_LN:i:1577_dp:f:7.231333460405259"	1577
1	0	"Chromosome"	"S83_LN:i:1562_dp:f:0.9430071030432143"	1562
1	0	"Chromosome"	"S84_LN:i:1535_dp:f:1.8574660359007313"	1535
1	0	"Chromosome"	"S85_LN:i:1494_dp:f:1.9777290696770498"	1494
0	1	"Plasmid"	"S86_LN:i:1457_dp:f:2.3616136922700006"	1457
1	0	"Chromosome"	"S87_LN:i:1447_dp:f:4.922379062801893"	1447
1	0	"Chromosome"	"S88_LN:i:1441_dp:f:3.5281722069280153"	1441
1	0	"Chromosome"	"S89_LN:i:1433_dp:f:2.654128082868855"	1433
1	0	"Chromosome"	"S9_LN:i:196214_dp:f:1.0087163240925363"	196214
0.33	0.67	"Plasmid"	"S90_LN:i:1316_dp:f:4.612495714247591"	1316
1	0	"Chromosome"	"S91_LN:i:1259_dp:f:0.9296331937109543"	1259
0.33	0.67	"Plasmid"	"S92_LN:i:1240_dp:f:1.5216338338191333"	1240
1	0	"Chromosome"	"S93_LN:i:1184_dp:f:2.1139106698063848"	1184
0.33	0.67	"Plasmid"	"S94_LN:i:1164_dp:f:2.8998060981345013"	1164
0.33	0.67	"Plasmid"	"S95_LN:i:1076_dp:f:1.4076361611394006"	1076
0.33	0.67	"Plasmid"	"S96_LN:i:1076_dp:f:2.532549127335785"	1076
1	0	"Chromosome"	"S97_LN:i:1066_dp:f:1.7565379597359856"	1066
1	0	"Chromosome"	"S98_LN:i:1030_dp:f:1.7870594768203734"	1030
0.67	0.33	"Chromosome"	"S99_LN:i:991_dp:f:2.7038439650169996"	991
