"Prob_Chromosome"	"Prob_Plasmid"	"Prediction"	"Contig_name"	"Contig_length"
1	0	"Chromosome"	"S1_LN:i:491303_dp:f:1.0044682273853383"	491303
1	0	"Chromosome"	"S10_LN:i:131044_dp:f:1.0057479906132638"	131044
1	0	"Chromosome"	"S100_LN:i:1133_dp:f:2.0246295526811466"	1133
1	0	"Chromosome"	"S101_LN:i:1087_dp:f:0.7549094399507633"	1087
0.5	0.5	"Plasmid"	"S102_LN:i:1084_dp:f:2.5309502003494746"	1084
1	0	"Chromosome"	"S103_LN:i:1063_dp:f:6.953027314285931"	1063
1	0	"Chromosome"	"S104_LN:i:1054_dp:f:0.8590123015547187"	1054
0	1	"Plasmid"	"S105_LN:i:1047_dp:f:1.880847656454092"	1047
0	1	"Plasmid"	"S106_LN:i:1040_dp:f:0.7240170598436406"	1040
1	0	"Chromosome"	"S107_LN:i:1031_dp:f:1.9030827501463983"	1031
1	0	"Chromosome"	"S108_LN:i:1018_dp:f:1.1729062033795652"	1018
1	0	"Chromosome"	"S109_LN:i:911_dp:f:2.981885328913679"	911
1	0	"Chromosome"	"S11_LN:i:127934_dp:f:1.0317226475801307"	127934
1	0	"Chromosome"	"S110_LN:i:884_dp:f:1.6036975534657503"	884
1	0	"Chromosome"	"S111_LN:i:848_dp:f:2.0892417832475956"	848
0.33	0.67	"Plasmid"	"S112_LN:i:820_dp:f:5.989498159037862"	820
0.67	0.33	"Chromosome"	"S113_LN:i:785_dp:f:1.7120530593871357"	785
1	0	"Chromosome"	"S114_LN:i:779_dp:f:1.1050327492435559"	779
1	0	"Chromosome"	"S115_LN:i:779_dp:f:2.3004381300631276"	779
1	0	"Chromosome"	"S116_LN:i:768_dp:f:1.8739696152542686"	768
1	0	"Chromosome"	"S117_LN:i:702_dp:f:2.044785549060863"	702
1	0	"Chromosome"	"S118_LN:i:680_dp:f:2.1200494525696167"	680
1	0	"Chromosome"	"S119_LN:i:673_dp:f:1.7481386851713399"	673
1	0	"Chromosome"	"S12_LN:i:127677_dp:f:0.8947507972738888"	127677
0.5	0.5	"Plasmid"	"S120_LN:i:673_dp:f:6.195086488974347"	673
1	0	"Chromosome"	"S121_LN:i:666_dp:f:1.1274937147533264"	666
1	0	"Chromosome"	"S122_LN:i:639_dp:f:0.9118578428457073"	639
1	0	"Chromosome"	"S123_LN:i:634_dp:f:0.811083102249881"	634
1	0	"Chromosome"	"S124_LN:i:630_dp:f:2.4673050963843326"	630
1	0	"Chromosome"	"S125_LN:i:611_dp:f:0.8762377014090653"	611
0.67	0.33	"Chromosome"	"S126_LN:i:530_dp:f:1.365342086088664"	530
1	0	"Chromosome"	"S13_LN:i:123511_dp:f:1.031692226775615"	123511
1	0	"Chromosome"	"S14_LN:i:119050_dp:f:0.9732093102272973"	119050
1	0	"Chromosome"	"S15_LN:i:96578_dp:f:1.0164733251078306"	96578
0	1	"Plasmid"	"S16_LN:i:90887_dp:f:0.7196237722528218"	90887
1	0	"Chromosome"	"S17_LN:i:89933_dp:f:1.0457839650369622"	89933
1	0	"Chromosome"	"S18_LN:i:89010_dp:f:0.9924293799227951"	89010
1	0	"Chromosome"	"S19_LN:i:78409_dp:f:0.9932117506019145"	78409
1	0	"Chromosome"	"S2_LN:i:255288_dp:f:0.9740111004788795"	255288
1	0	"Chromosome"	"S20_LN:i:72295_dp:f:1.008873117382179"	72295
1	0	"Chromosome"	"S21_LN:i:69675_dp:f:1.0123231695078259"	69675
1	0	"Chromosome"	"S22_LN:i:68342_dp:f:1.0195421787005228"	68342
1	0	"Chromosome"	"S23_LN:i:67692_dp:f:1.0048752074615848"	67692
1	0	"Chromosome"	"S24_LN:i:67316_dp:f:0.9019986336317496"	67316
1	0	"Chromosome"	"S25_LN:i:62264_dp:f:0.9859783278266356"	62264
1	0	"Chromosome"	"S26_LN:i:60956_dp:f:0.9129359453086093"	60956
1	0	"Chromosome"	"S27_LN:i:60637_dp:f:0.9406125859547169"	60637
1	0	"Chromosome"	"S28_LN:i:59745_dp:f:0.8485024965088327"	59745
1	0	"Chromosome"	"S29_LN:i:57439_dp:f:1.0363167202751362"	57439
1	0	"Chromosome"	"S3_LN:i:225715_dp:f:0.9081757847118448"	225715
0	1	"Plasmid"	"S30_LN:i:50573_dp:f:0.6910313459123852"	50573
1	0	"Chromosome"	"S31_LN:i:49139_dp:f:0.8975282273504452"	49139
1	0	"Chromosome"	"S32_LN:i:48947_dp:f:0.9134553423461775"	48947
1	0	"Chromosome"	"S33_LN:i:48176_dp:f:0.9877910394680169"	48176
1	0	"Chromosome"	"S34_LN:i:46784_dp:f:0.9365703728601422"	46784
0.33	0.67	"Plasmid"	"S35_LN:i:46016_dp:f:0.6986409754048333"	46016
1	0	"Chromosome"	"S36_LN:i:41169_dp:f:1.005390130043261"	41169
1	0	"Chromosome"	"S37_LN:i:40125_dp:f:1.004072686098217"	40125
1	0	"Chromosome"	"S38_LN:i:39529_dp:f:0.929427397971631"	39529
1	0	"Chromosome"	"S39_LN:i:35284_dp:f:0.8927610854218323"	35284
1	0	"Chromosome"	"S4_LN:i:221724_dp:f:1.02799201117336"	221724
1	0	"Chromosome"	"S40_LN:i:33975_dp:f:1.0583238172975091"	33975
1	0	"Chromosome"	"S41_LN:i:32231_dp:f:1.0679641667071504"	32231
1	0	"Chromosome"	"S42_LN:i:30733_dp:f:1.0765483227828223"	30733
1	0	"Chromosome"	"S43_LN:i:30497_dp:f:0.9890685823512315"	30497
1	0	"Chromosome"	"S44_LN:i:27811_dp:f:0.8892429317745509"	27811
1	0	"Chromosome"	"S45_LN:i:26415_dp:f:0.969115002833022"	26415
1	0	"Chromosome"	"S46_LN:i:26157_dp:f:1.0280089012630695"	26157
1	0	"Chromosome"	"S47_LN:i:25179_dp:f:0.7714511331089723"	25179
1	0	"Chromosome"	"S48_LN:i:24892_dp:f:1.025552536394593"	24892
1	0	"Chromosome"	"S49_LN:i:22751_dp:f:0.9877061870260847"	22751
1	0	"Chromosome"	"S5_LN:i:203566_dp:f:1.009299361275039"	203566
1	0	"Chromosome"	"S50_LN:i:22662_dp:f:1.0233458062770264"	22662
1	0	"Chromosome"	"S51_LN:i:22029_dp:f:1.010352829227446"	22029
1	0	"Chromosome"	"S52_LN:i:21865_dp:f:1.09664684190325"	21865
0.33	0.67	"Plasmid"	"S53_LN:i:20975_dp:f:1.7450009279208085"	20975
1	0	"Chromosome"	"S54_LN:i:17660_dp:f:1.1268578641265228"	17660
0.67	0.33	"Chromosome"	"S55_LN:i:16102_dp:f:1.535073990993944"	16102
0.67	0.33	"Chromosome"	"S56_LN:i:15220_dp:f:1.129290242101735"	15220
1	0	"Chromosome"	"S57_LN:i:14101_dp:f:0.9149450409980492"	14101
1	0	"Chromosome"	"S58_LN:i:13750_dp:f:0.8478834929904792"	13750
1	0	"Chromosome"	"S59_LN:i:11463_dp:f:0.9013203098952002"	11463
1	0	"Chromosome"	"S6_LN:i:190579_dp:f:0.9509585912182738"	190579
1	0	"Chromosome"	"S60_LN:i:10631_dp:f:1.0395376778904075"	10631
1	0	"Chromosome"	"S61_LN:i:10480_dp:f:0.8920633901136064"	10480
0	1	"Plasmid"	"S62_LN:i:9896_dp:f:1.612677504961258"	9896
1	0	"Chromosome"	"S63_LN:i:9729_dp:f:0.8609145048992565"	9729
1	0	"Chromosome"	"S64_LN:i:9164_dp:f:1.0869504730823563"	9164
1	0	"Chromosome"	"S65_LN:i:8743_dp:f:0.8799440107424847"	8743
0	1	"Plasmid"	"S66_LN:i:6084_dp:f:0.88504142557321"	6084
1	0	"Chromosome"	"S67_LN:i:5412_dp:f:1.5086170633450091"	5412
0	1	"Plasmid"	"S68_LN:i:5397_dp:f:1.4891084740984166"	5397
0	1	"Plasmid"	"S69_LN:i:4815_dp:f:0.695953389585995"	4815
1	0	"Chromosome"	"S7_LN:i:185300_dp:f:0.9508848374570383"	185300
0	1	"Plasmid"	"S70_LN:i:4386_dp:f:0.8669809232843028"	4386
1	0	"Chromosome"	"S71_LN:i:4298_dp:f:0.8253840322368102"	4298
0.67	0.33	"Chromosome"	"S72_LN:i:4273_dp:f:0.8535670129605953"	4273
1	0	"Chromosome"	"S73_LN:i:4113_dp:f:0.9008238381157971"	4113
1	0	"Chromosome"	"S74_LN:i:3597_dp:f:1.4271380017783724"	3597
1	0	"Chromosome"	"S75_LN:i:3065_dp:f:0.9574940076085257"	3065
0	1	"Plasmid"	"S76_LN:i:2903_dp:f:9.212112025980316"	2903
1	0	"Chromosome"	"S77_LN:i:2857_dp:f:0.6024868909334763"	2857
0	1	"Plasmid"	"S78_LN:i:2540_dp:f:1.5290917521808813"	2540
1	0	"Chromosome"	"S79_LN:i:2494_dp:f:1.3376157361604863"	2494
1	0	"Chromosome"	"S8_LN:i:182511_dp:f:1.0"	182511
1	0	"Chromosome"	"S80_LN:i:2445_dp:f:0.7779233274871992"	2445
0	1	"Plasmid"	"S81_LN:i:2445_dp:f:0.8588806315300507"	2445
1	0	"Chromosome"	"S82_LN:i:2437_dp:f:3.3739928190306636"	2437
0.33	0.67	"Plasmid"	"S83_LN:i:2198_dp:f:22.434892117992415"	2198
1	0	"Chromosome"	"S84_LN:i:2066_dp:f:0.688586207347787"	2066
1	0	"Chromosome"	"S85_LN:i:1950_dp:f:0.6988321042969112"	1950
1	0	"Chromosome"	"S86_LN:i:1865_dp:f:0.7054175533117407"	1865
0.33	0.67	"Plasmid"	"S87_LN:i:1846_dp:f:8.32750828460153"	1846
1	0	"Chromosome"	"S88_LN:i:1767_dp:f:0.9454238894004791"	1767
1	0	"Chromosome"	"S89_LN:i:1741_dp:f:7.187679907507756"	1741
1	0	"Chromosome"	"S9_LN:i:156722_dp:f:0.9188706351062786"	156722
0.33	0.67	"Plasmid"	"S90_LN:i:1618_dp:f:1.418052380519995"	1618
0	1	"Plasmid"	"S91_LN:i:1560_dp:f:1.7700802304950412"	1560
0	1	"Plasmid"	"S92_LN:i:1524_dp:f:1.236385108467417"	1524
1	0	"Chromosome"	"S93_LN:i:1474_dp:f:0.7947975954710288"	1474
1	0	"Chromosome"	"S94_LN:i:1443_dp:f:2.6668028554460386"	1443
1	0	"Chromosome"	"S95_LN:i:1343_dp:f:5.078007136556735"	1343
1	0	"Chromosome"	"S96_LN:i:1334_dp:f:0.7792341843895891"	1334
1	0	"Chromosome"	"S97_LN:i:1283_dp:f:7.245942972653938"	1283
1	0	"Chromosome"	"S98_LN:i:1213_dp:f:3.255302668155361"	1213
0	1	"Plasmid"	"S99_LN:i:1192_dp:f:2.1299733989554666"	1192
