"Prob_Chromosome"	"Prob_Plasmid"	"Prediction"	"Contig_name"	"Contig_length"
1	0	"Chromosome"	"S1_LN:i:659700_dp:f:0.9988160880608847"	659700
1	0	"Chromosome"	"S10_LN:i:143063_dp:f:1.0061605786186563"	143063
1	0	"Chromosome"	"S100_LN:i:774_dp:f:2.1542838419741988"	774
1	0	"Chromosome"	"S101_LN:i:748_dp:f:2.140081115325569"	748
1	0	"Chromosome"	"S102_LN:i:747_dp:f:2.8725701418447267"	747
1	0	"Chromosome"	"S103_LN:i:739_dp:f:1.1159419689354817"	739
1	0	"Chromosome"	"S104_LN:i:736_dp:f:1.1830896805300404"	736
1	0	"Chromosome"	"S105_LN:i:731_dp:f:1.1120857832891031"	731
1	0	"Chromosome"	"S106_LN:i:727_dp:f:1.3673186155274804"	727
1	0	"Chromosome"	"S107_LN:i:727_dp:f:2.586655232230661"	727
1	0	"Chromosome"	"S108_LN:i:678_dp:f:3.4002437901180467"	678
1	0	"Chromosome"	"S109_LN:i:651_dp:f:1.4116115197314207"	651
1	0	"Chromosome"	"S11_LN:i:119942_dp:f:1.0099215775776191"	119942
1	0	"Chromosome"	"S110_LN:i:644_dp:f:2.690718691907516"	644
1	0	"Chromosome"	"S111_LN:i:643_dp:f:1.1834611997336661"	643
1	0	"Chromosome"	"S112_LN:i:643_dp:f:1.1841525052096542"	643
1	0	"Chromosome"	"S113_LN:i:639_dp:f:1.9217736385650157"	639
1	0	"Chromosome"	"S114_LN:i:633_dp:f:1.0375393149426444"	633
1	0	"Chromosome"	"S115_LN:i:620_dp:f:0.917711900646328"	620
1	0	"Chromosome"	"S116_LN:i:597_dp:f:1.7164392513794478"	597
1	0	"Chromosome"	"S117_LN:i:571_dp:f:0.7937377162854208"	571
1	0	"Chromosome"	"S118_LN:i:568_dp:f:1.2552977411950035"	568
1	0	"Chromosome"	"S119_LN:i:568_dp:f:1.21526723451917"	568
1	0	"Chromosome"	"S12_LN:i:110083_dp:f:1.026825644729855"	110083
1	0	"Chromosome"	"S120_LN:i:564_dp:f:1.7549725476332274"	564
1	0	"Chromosome"	"S121_LN:i:554_dp:f:0.8464702048856579"	554
1	0	"Chromosome"	"S122_LN:i:554_dp:f:0.6937255338295621"	554
1	0	"Chromosome"	"S123_LN:i:541_dp:f:0.9063287802541782"	541
1	0	"Chromosome"	"S124_LN:i:516_dp:f:0.7204299208228763"	516
1	0	"Chromosome"	"S125_LN:i:507_dp:f:0.9677893947808764"	507
1	0	"Chromosome"	"S126_LN:i:507_dp:f:0.972453073209379"	507
1	0	"Chromosome"	"S13_LN:i:100116_dp:f:1.0174076630303603"	100116
1	0	"Chromosome"	"S14_LN:i:95519_dp:f:0.9159848938981388"	95519
1	0	"Chromosome"	"S15_LN:i:92138_dp:f:0.9779415467709617"	92138
1	0	"Chromosome"	"S16_LN:i:89716_dp:f:0.9909739477197357"	89716
1	0	"Chromosome"	"S17_LN:i:87530_dp:f:0.9727759005998"	87530
1	0	"Chromosome"	"S18_LN:i:84781_dp:f:1.0352362169403968"	84781
1	0	"Chromosome"	"S19_LN:i:80315_dp:f:0.9708791417562115"	80315
1	0	"Chromosome"	"S2_LN:i:363426_dp:f:1.011981978426057"	363426
1	0	"Chromosome"	"S20_LN:i:80103_dp:f:1.0368624293917335"	80103
1	0	"Chromosome"	"S21_LN:i:77869_dp:f:0.9467151511477779"	77869
1	0	"Chromosome"	"S22_LN:i:77850_dp:f:0.9618599010333296"	77850
1	0	"Chromosome"	"S23_LN:i:75214_dp:f:1.0453420538645253"	75214
1	0	"Chromosome"	"S24_LN:i:72481_dp:f:0.8699961756685701"	72481
1	0	"Chromosome"	"S25_LN:i:68769_dp:f:1.0617223119444574"	68769
1	0	"Chromosome"	"S26_LN:i:65677_dp:f:1.0202924538221847"	65677
1	0	"Chromosome"	"S27_LN:i:63496_dp:f:0.9517988447127185"	63496
1	0	"Chromosome"	"S28_LN:i:59757_dp:f:0.9892215386409191"	59757
1	0	"Chromosome"	"S29_LN:i:57733_dp:f:1.0627779334662475"	57733
1	0	"Chromosome"	"S3_LN:i:269076_dp:f:0.9597903215110386"	269076
1	0	"Chromosome"	"S30_LN:i:56247_dp:f:0.9825612107641668"	56247
1	0	"Chromosome"	"S31_LN:i:55468_dp:f:1.011784892703043"	55468
1	0	"Chromosome"	"S32_LN:i:46656_dp:f:0.9282463385248478"	46656
1	0	"Chromosome"	"S33_LN:i:45441_dp:f:1.0048610236891642"	45441
1	0	"Chromosome"	"S34_LN:i:45282_dp:f:1.0264362046414532"	45282
1	0	"Chromosome"	"S35_LN:i:43464_dp:f:1.0298286345896057"	43464
1	0	"Chromosome"	"S36_LN:i:39512_dp:f:0.9919767392985714"	39512
1	0	"Chromosome"	"S37_LN:i:30791_dp:f:1.111103980819662"	30791
1	0	"Chromosome"	"S38_LN:i:29576_dp:f:0.9354006162232515"	29576
1	0	"Chromosome"	"S39_LN:i:26140_dp:f:1.029724272648108"	26140
1	0	"Chromosome"	"S4_LN:i:213434_dp:f:1.0"	213434
1	0	"Chromosome"	"S40_LN:i:25805_dp:f:1.0619430379342634"	25805
1	0	"Chromosome"	"S41_LN:i:25018_dp:f:0.9268974186218211"	25018
1	0	"Chromosome"	"S42_LN:i:24494_dp:f:0.981942541171676"	24494
1	0	"Chromosome"	"S43_LN:i:24254_dp:f:0.8975506917495224"	24254
1	0	"Chromosome"	"S44_LN:i:21160_dp:f:1.0575997473319125"	21160
1	0	"Chromosome"	"S45_LN:i:16843_dp:f:0.9694965294149658"	16843
1	0	"Chromosome"	"S46_LN:i:15324_dp:f:0.9392197631449799"	15324
1	0	"Chromosome"	"S47_LN:i:14687_dp:f:0.9073786347116697"	14687
1	0	"Chromosome"	"S48_LN:i:14036_dp:f:1.0339088530774456"	14036
1	0	"Chromosome"	"S49_LN:i:12674_dp:f:0.9016050663018544"	12674
1	0	"Chromosome"	"S5_LN:i:213386_dp:f:1.0228281822608003"	213386
1	0	"Chromosome"	"S50_LN:i:11994_dp:f:1.1061444503040603"	11994
1	0	"Chromosome"	"S51_LN:i:11818_dp:f:0.887181778844578"	11818
1	0	"Chromosome"	"S52_LN:i:11748_dp:f:1.0571897349374713"	11748
1	0	"Chromosome"	"S53_LN:i:7996_dp:f:0.9026389201224738"	7996
1	0	"Chromosome"	"S54_LN:i:7675_dp:f:1.004139192484215"	7675
1	0	"Chromosome"	"S55_LN:i:7410_dp:f:1.1090039051374725"	7410
1	0	"Chromosome"	"S56_LN:i:7365_dp:f:0.9917383042280623"	7365
1	0	"Chromosome"	"S57_LN:i:6958_dp:f:0.9579723199050467"	6958
1	0	"Chromosome"	"S58_LN:i:6936_dp:f:0.7991363295108881"	6936
1	0	"Chromosome"	"S59_LN:i:6357_dp:f:0.7093284338709649"	6357
1	0	"Chromosome"	"S6_LN:i:209674_dp:f:1.0373547310103335"	209674
1	0	"Chromosome"	"S60_LN:i:5774_dp:f:0.9518995723246244"	5774
1	0	"Chromosome"	"S61_LN:i:5672_dp:f:0.6404614995196246"	5672
1	0	"Chromosome"	"S62_LN:i:4661_dp:f:1.0811290960159599"	4661
1	0	"Chromosome"	"S63_LN:i:4587_dp:f:2.0360133878121287"	4587
1	0	"Chromosome"	"S64_LN:i:4221_dp:f:0.9047294084938658"	4221
1	0	"Chromosome"	"S65_LN:i:3791_dp:f:0.8249860488855381"	3791
1	0	"Chromosome"	"S66_LN:i:3114_dp:f:2.2373326076753086"	3114
1	0	"Chromosome"	"S67_LN:i:3077_dp:f:7.310962013783332"	3077
1	0	"Chromosome"	"S68_LN:i:3054_dp:f:0.9334449201284137"	3054
1	0	"Chromosome"	"S69_LN:i:2859_dp:f:2.4808362913333992"	2859
1	0	"Chromosome"	"S7_LN:i:189959_dp:f:0.9312968590671264"	189959
1	0	"Chromosome"	"S70_LN:i:2349_dp:f:3.5276903930206065"	2349
1	0	"Chromosome"	"S71_LN:i:1977_dp:f:2.1647359071413033"	1977
1	0	"Chromosome"	"S72_LN:i:1773_dp:f:2.3939815489875236"	1773
1	0	"Chromosome"	"S73_LN:i:1689_dp:f:0.7694103809001825"	1689
1	0	"Chromosome"	"S74_LN:i:1561_dp:f:0.9064736199582892"	1561
0	1	"Plasmid"	"S75_LN:i:1551_dp:f:22.703085705278657"	1551
1	0	"Chromosome"	"S76_LN:i:1543_dp:f:1.3457078496961263"	1543
1	0	"Chromosome"	"S77_LN:i:1485_dp:f:2.3768315810945375"	1485
1	0	"Chromosome"	"S78_LN:i:1463_dp:f:7.343481861603586"	1463
1	0	"Chromosome"	"S79_LN:i:1391_dp:f:3.4964391262828367"	1391
1	0	"Chromosome"	"S8_LN:i:176896_dp:f:1.015409786712629"	176896
1	0	"Chromosome"	"S80_LN:i:1356_dp:f:3.0189043889799243"	1356
1	0	"Chromosome"	"S81_LN:i:1284_dp:f:2.421650433706625"	1284
1	0	"Chromosome"	"S82_LN:i:1258_dp:f:4.336155113005172"	1258
1	0	"Chromosome"	"S83_LN:i:1236_dp:f:1.031124023020641"	1236
1	0	"Chromosome"	"S84_LN:i:1220_dp:f:0.9481750179997109"	1220
1	0	"Chromosome"	"S85_LN:i:1151_dp:f:2.0661390793354926"	1151
1	0	"Chromosome"	"S86_LN:i:1104_dp:f:1.837611934446889"	1104
1	0	"Chromosome"	"S87_LN:i:1094_dp:f:15.278124441508286"	1094
1	0	"Chromosome"	"S88_LN:i:1087_dp:f:2.276613042071289"	1087
1	0	"Chromosome"	"S89_LN:i:997_dp:f:1.8630957535193027"	997
1	0	"Chromosome"	"S9_LN:i:154402_dp:f:1.0159311916267133"	154402
1	0	"Chromosome"	"S90_LN:i:956_dp:f:1.979892703757851"	956
1	0	"Chromosome"	"S91_LN:i:940_dp:f:1.9023396445645224"	940
1	0	"Chromosome"	"S92_LN:i:902_dp:f:2.26245839526919"	902
1	0	"Chromosome"	"S93_LN:i:882_dp:f:0.9086799914454295"	882
1	0	"Chromosome"	"S94_LN:i:843_dp:f:1.1370548946008445"	843
1	0	"Chromosome"	"S95_LN:i:843_dp:f:1.315424690131293"	843
1	0	"Chromosome"	"S96_LN:i:835_dp:f:1.1786865735305496"	835
1	0	"Chromosome"	"S97_LN:i:803_dp:f:2.0648102150612417"	803
1	0	"Chromosome"	"S98_LN:i:785_dp:f:2.5579151205286683"	785
1	0	"Chromosome"	"S99_LN:i:776_dp:f:1.78995106943625"	776
