"Prob_Chromosome"	"Prob_Plasmid"	"Prediction"	"Contig_name"	"Contig_length"
1	0	"Chromosome"	"S1_LN:i:594714_dp:f:1.0"	594714
1	0	"Chromosome"	"S10_LN:i:125514_dp:f:1.0573741710965787"	125514
1	0	"Chromosome"	"S11_LN:i:119021_dp:f:0.9980266416370249"	119021
1	0	"Chromosome"	"S12_LN:i:114981_dp:f:1.028062338746521"	114981
1	0	"Chromosome"	"S13_LN:i:108745_dp:f:1.0221600074371369"	108745
1	0	"Chromosome"	"S14_LN:i:108505_dp:f:1.0412772076266195"	108505
1	0	"Chromosome"	"S15_LN:i:107645_dp:f:0.9884083678443469"	107645
1	0	"Chromosome"	"S16_LN:i:101275_dp:f:0.9376016486797029"	101275
1	0	"Chromosome"	"S17_LN:i:95175_dp:f:1.0249877447052782"	95175
1	0	"Chromosome"	"S18_LN:i:94926_dp:f:1.0389525647190683"	94926
1	0	"Chromosome"	"S19_LN:i:88119_dp:f:1.0508298322711014"	88119
1	0	"Chromosome"	"S2_LN:i:411617_dp:f:0.9284486596912386"	411617
1	0	"Chromosome"	"S20_LN:i:79771_dp:f:0.9813555086430752"	79771
1	0	"Chromosome"	"S21_LN:i:78052_dp:f:1.0072849914192459"	78052
1	0	"Chromosome"	"S22_LN:i:75085_dp:f:0.9531858348524632"	75085
1	0	"Chromosome"	"S23_LN:i:69825_dp:f:1.0138020873317106"	69825
1	0	"Chromosome"	"S24_LN:i:68739_dp:f:1.0463716323600074"	68739
1	0	"Chromosome"	"S25_LN:i:64448_dp:f:1.0160802805745817"	64448
1	0	"Chromosome"	"S26_LN:i:64035_dp:f:0.896884371478073"	64035
0	1	"Plasmid"	"S27_LN:i:61939_dp:f:1.5448745129410322"	61939
1	0	"Chromosome"	"S28_LN:i:59507_dp:f:0.9298040907420291"	59507
1	0	"Chromosome"	"S29_LN:i:54256_dp:f:0.9014263111508067"	54256
1	0	"Chromosome"	"S3_LN:i:283561_dp:f:0.97299898166513"	283561
1	0	"Chromosome"	"S30_LN:i:46804_dp:f:1.012145152801585"	46804
1	0	"Chromosome"	"S31_LN:i:43164_dp:f:1.0368268464782324"	43164
1	0	"Chromosome"	"S32_LN:i:42246_dp:f:1.0028387208318372"	42246
1	0	"Chromosome"	"S33_LN:i:41708_dp:f:1.0082650937661721"	41708
1	0	"Chromosome"	"S34_LN:i:41511_dp:f:0.9230047188029095"	41511
1	0	"Chromosome"	"S35_LN:i:40866_dp:f:1.0467146103544933"	40866
1	0	"Chromosome"	"S36_LN:i:36927_dp:f:1.0507430918641032"	36927
1	0	"Chromosome"	"S37_LN:i:35303_dp:f:0.9526447032171012"	35303
1	0	"Chromosome"	"S38_LN:i:34705_dp:f:0.901670000362547"	34705
1	0	"Chromosome"	"S39_LN:i:32256_dp:f:0.9054389031726953"	32256
1	0	"Chromosome"	"S4_LN:i:279570_dp:f:0.9855414231575025"	279570
1	0	"Chromosome"	"S40_LN:i:30733_dp:f:1.0907167980337658"	30733
1	0	"Chromosome"	"S41_LN:i:30293_dp:f:1.026759428934415"	30293
1	0	"Chromosome"	"S42_LN:i:27392_dp:f:0.9495842446495915"	27392
0	1	"Plasmid"	"S43_LN:i:23048_dp:f:1.6031401857741998"	23048
1	0	"Chromosome"	"S44_LN:i:21201_dp:f:1.0373532001183279"	21201
1	0	"Chromosome"	"S45_LN:i:20333_dp:f:1.036338530112909"	20333
1	0	"Chromosome"	"S46_LN:i:17931_dp:f:1.0677427980883765"	17931
1	0	"Chromosome"	"S47_LN:i:15117_dp:f:1.0361696754539524"	15117
1	0	"Chromosome"	"S48_LN:i:14654_dp:f:0.9316802536193235"	14654
1	0	"Chromosome"	"S49_LN:i:14168_dp:f:1.0499048582717339"	14168
1	0	"Chromosome"	"S5_LN:i:214827_dp:f:1.0129917391738872"	214827
1	0	"Chromosome"	"S50_LN:i:12871_dp:f:0.8887628992969083"	12871
0	1	"Plasmid"	"S51_LN:i:12229_dp:f:1.6529858497904042"	12229
0	1	"Plasmid"	"S52_LN:i:11310_dp:f:1.610393996876769"	11310
1	0	"Chromosome"	"S53_LN:i:10999_dp:f:1.0319729818069197"	10999
1	0	"Chromosome"	"S54_LN:i:10335_dp:f:1.0043897893901061"	10335
1	0	"Chromosome"	"S55_LN:i:5779_dp:f:0.91096280247122"	5779
1	0	"Chromosome"	"S56_LN:i:4173_dp:f:1.015452982159423"	4173
0	1	"Plasmid"	"S57_LN:i:4143_dp:f:1.7094984457406435"	4143
1	0	"Chromosome"	"S58_LN:i:2916_dp:f:7.1410427907778375"	2916
0	1	"Plasmid"	"S59_LN:i:2601_dp:f:1.867463778254735"	2601
1	0	"Chromosome"	"S6_LN:i:188163_dp:f:0.9433410444248462"	188163
1	0	"Chromosome"	"S60_LN:i:2475_dp:f:3.14495464679206"	2475
0.5	0.5	"Plasmid"	"S61_LN:i:2455_dp:f:2.1369912811379352"	2455
1	0	"Chromosome"	"S62_LN:i:2135_dp:f:1.816979190825797"	2135
1	0	"Chromosome"	"S63_LN:i:2106_dp:f:1.128154471711415"	2106
0.67	0.33	"Chromosome"	"S64_LN:i:2033_dp:f:1.0175637939006856"	2033
1	0	"Chromosome"	"S65_LN:i:1845_dp:f:0.9805054649363091"	1845
0.67	0.33	"Chromosome"	"S66_LN:i:1647_dp:f:1.6895346591788583"	1647
0.67	0.33	"Chromosome"	"S67_LN:i:1602_dp:f:2.7918976740212758"	1602
1	0	"Chromosome"	"S68_LN:i:1590_dp:f:0.887623323105412"	1590
1	0	"Chromosome"	"S69_LN:i:1424_dp:f:0.9543089624927067"	1424
1	0	"Chromosome"	"S7_LN:i:166037_dp:f:1.0339558032587453"	166037
0.5	0.5	"Plasmid"	"S70_LN:i:1345_dp:f:3.39702933726569"	1345
1	0	"Chromosome"	"S71_LN:i:1344_dp:f:2.0466712581733053"	1344
1	0	"Chromosome"	"S72_LN:i:1283_dp:f:7.15711186881325"	1283
1	0	"Chromosome"	"S73_LN:i:1259_dp:f:2.044149361155024"	1259
1	0	"Chromosome"	"S74_LN:i:1238_dp:f:1.932885192273069"	1238
1	0	"Chromosome"	"S75_LN:i:1197_dp:f:3.000939741809413"	1197
1	0	"Chromosome"	"S76_LN:i:1133_dp:f:1.9197726128210748"	1133
0.67	0.33	"Chromosome"	"S77_LN:i:1057_dp:f:2.0074306690731603"	1057
0	1	"Plasmid"	"S78_LN:i:1041_dp:f:1.6488991558298758"	1041
1	0	"Chromosome"	"S79_LN:i:1031_dp:f:2.046402684172377"	1031
1	0	"Chromosome"	"S8_LN:i:136584_dp:f:1.0160309945307977"	136584
1	0	"Chromosome"	"S80_LN:i:993_dp:f:0.89430246294858"	993
1	0	"Chromosome"	"S81_LN:i:951_dp:f:1.7837770190957938"	951
1	0	"Chromosome"	"S82_LN:i:920_dp:f:0.8344786965285296"	920
1	0	"Chromosome"	"S83_LN:i:848_dp:f:1.8937007595549364"	848
0.67	0.33	"Chromosome"	"S84_LN:i:643_dp:f:1.805153967517963"	643
1	0	"Chromosome"	"S85_LN:i:605_dp:f:2.1122558726611023"	605
1	0	"Chromosome"	"S86_LN:i:605_dp:f:2.1907564550116985"	605
1	0	"Chromosome"	"S87_LN:i:519_dp:f:1.128154471711415"	519
1	0	"Chromosome"	"S9_LN:i:132865_dp:f:1.033583783290953"	132865
