"Prob_Chromosome"	"Prob_Plasmid"	"Prediction"	"Contig_name"	"Contig_length"
1	0	"Chromosome"	"S1_LN:i:604605_dp:f:1.0024032356525558"	604605
1	0	"Chromosome"	"S10_LN:i:132865_dp:f:1.0040737936192503"	132865
1	0	"Chromosome"	"S11_LN:i:126757_dp:f:1.030200558720694"	126757
1	0	"Chromosome"	"S12_LN:i:126565_dp:f:0.9737918826368447"	126565
1	0	"Chromosome"	"S13_LN:i:125514_dp:f:1.0313936464446534"	125514
1	0	"Chromosome"	"S14_LN:i:123733_dp:f:0.9957169659187606"	123733
1	0	"Chromosome"	"S15_LN:i:119021_dp:f:0.9847850207186291"	119021
1	0	"Chromosome"	"S16_LN:i:94926_dp:f:1.0185970281041916"	94926
1	0	"Chromosome"	"S17_LN:i:90142_dp:f:0.9513378981121295"	90142
1	0	"Chromosome"	"S18_LN:i:88119_dp:f:1.0186499986131738"	88119
1	0	"Chromosome"	"S19_LN:i:78051_dp:f:0.9920432317210207"	78051
1	0	"Chromosome"	"S2_LN:i:394052_dp:f:0.9424136186205381"	394052
1	0	"Chromosome"	"S20_LN:i:75085_dp:f:0.9295745960668493"	75085
1	0	"Chromosome"	"S21_LN:i:69825_dp:f:1.0058571340883091"	69825
1	0	"Chromosome"	"S22_LN:i:68739_dp:f:1.0188869756015193"	68739
1	0	"Chromosome"	"S23_LN:i:64035_dp:f:0.9369219254321215"	64035
1	0	"Chromosome"	"S24_LN:i:60794_dp:f:0.9731988688780394"	60794
0	1	"Plasmid"	"S25_LN:i:49491_dp:f:1.5295155133017966"	49491
1	0	"Chromosome"	"S26_LN:i:45538_dp:f:0.9863209569337944"	45538
1	0	"Chromosome"	"S27_LN:i:43164_dp:f:1.0363082947576645"	43164
1	0	"Chromosome"	"S28_LN:i:41761_dp:f:0.9881692245096629"	41761
1	0	"Chromosome"	"S29_LN:i:41632_dp:f:0.8455129706014627"	41632
1	0	"Chromosome"	"S3_LN:i:392444_dp:f:0.9853291406136662"	392444
1	0	"Chromosome"	"S30_LN:i:41455_dp:f:0.9525705675785656"	41455
1	0	"Chromosome"	"S31_LN:i:40866_dp:f:1.0159129109220255"	40866
1	0	"Chromosome"	"S32_LN:i:39529_dp:f:0.9759162837948544"	39529
1	0	"Chromosome"	"S33_LN:i:37770_dp:f:0.9700480915687321"	37770
1	0	"Chromosome"	"S34_LN:i:36927_dp:f:0.9863512655189861"	36927
1	0	"Chromosome"	"S35_LN:i:34706_dp:f:0.9548360371580474"	34706
1	0	"Chromosome"	"S36_LN:i:32256_dp:f:0.9648738790950216"	32256
1	0	"Chromosome"	"S37_LN:i:30733_dp:f:1.048862652961903"	30733
1	0	"Chromosome"	"S38_LN:i:30293_dp:f:1.0165412700029266"	30293
1	0	"Chromosome"	"S39_LN:i:29901_dp:f:1.0513637368761568"	29901
1	0	"Chromosome"	"S4_LN:i:279570_dp:f:0.9829081876282217"	279570
1	0	"Chromosome"	"S40_LN:i:27392_dp:f:0.9780034052668675"	27392
0	1	"Plasmid"	"S41_LN:i:23048_dp:f:1.4594151708232874"	23048
1	0	"Chromosome"	"S42_LN:i:17931_dp:f:1.0548333747295775"	17931
1	0	"Chromosome"	"S43_LN:i:16535_dp:f:0.9826871081883459"	16535
1	0	"Chromosome"	"S44_LN:i:14655_dp:f:0.9762720620953396"	14655
1	0	"Chromosome"	"S45_LN:i:14167_dp:f:0.9806807794839797"	14167
1	0	"Chromosome"	"S46_LN:i:12871_dp:f:0.8938068507551737"	12871
0	1	"Plasmid"	"S47_LN:i:12229_dp:f:1.5236767400308215"	12229
1	0	"Chromosome"	"S48_LN:i:11702_dp:f:1.034992165300243"	11702
0	1	"Plasmid"	"S49_LN:i:11310_dp:f:1.4251568764722864"	11310
1	0	"Chromosome"	"S5_LN:i:214846_dp:f:1.0315244043546208"	214846
1	0	"Chromosome"	"S50_LN:i:10827_dp:f:1.0080137706639727"	10827
1	0	"Chromosome"	"S51_LN:i:10544_dp:f:0.9046268280503441"	10544
1	0	"Chromosome"	"S52_LN:i:10335_dp:f:1.0446534439207407"	10335
1	0	"Chromosome"	"S53_LN:i:9056_dp:f:0.9818790808407128"	9056
1	0	"Chromosome"	"S54_LN:i:8786_dp:f:0.9951114198508582"	8786
1	0	"Chromosome"	"S55_LN:i:4173_dp:f:1.048643402324988"	4173
0	1	"Plasmid"	"S56_LN:i:4143_dp:f:1.3997281125266008"	4143
1	0	"Chromosome"	"S57_LN:i:2916_dp:f:7.244700116361332"	2916
1	0	"Chromosome"	"S58_LN:i:2857_dp:f:0.7032254786602548"	2857
0	1	"Plasmid"	"S59_LN:i:2601_dp:f:1.5327773793403754"	2601
1	0	"Chromosome"	"S6_LN:i:203941_dp:f:1.023891854519069"	203941
1	0	"Chromosome"	"S60_LN:i:2475_dp:f:2.9253921503405924"	2475
0.5	0.5	"Plasmid"	"S61_LN:i:2455_dp:f:1.848002862353908"	2455
1	0	"Chromosome"	"S62_LN:i:2135_dp:f:1.6111025491675113"	2135
0.67	0.33	"Chromosome"	"S63_LN:i:2033_dp:f:1.0451402581916076"	2033
1	0	"Chromosome"	"S64_LN:i:2028_dp:f:1.0538231812433234"	2028
1	0	"Chromosome"	"S65_LN:i:1845_dp:f:1.0135591295124078"	1845
1	0	"Chromosome"	"S66_LN:i:1833_dp:f:0.8551066803110912"	1833
1	0	"Chromosome"	"S67_LN:i:1734_dp:f:0.989721774834601"	1734
0.67	0.33	"Chromosome"	"S68_LN:i:1647_dp:f:1.4595820765871532"	1647
0.67	0.33	"Chromosome"	"S69_LN:i:1602_dp:f:2.5454781363529024"	1602
1	0	"Chromosome"	"S7_LN:i:186548_dp:f:0.9590218020573253"	186548
1	0	"Chromosome"	"S70_LN:i:1590_dp:f:0.8855479003206245"	1590
1	0	"Chromosome"	"S71_LN:i:1458_dp:f:0.9391336874849804"	1458
1	0	"Chromosome"	"S72_LN:i:1424_dp:f:0.9948784747385242"	1424
0.5	0.5	"Plasmid"	"S73_LN:i:1345_dp:f:3.072704526121447"	1345
1	0	"Chromosome"	"S74_LN:i:1344_dp:f:2.0652326256904323"	1344
1	0	"Chromosome"	"S75_LN:i:1283_dp:f:6.4201046577691505"	1283
1	0	"Chromosome"	"S76_LN:i:1259_dp:f:1.9792767829355435"	1259
1	0	"Chromosome"	"S77_LN:i:1197_dp:f:3.123032766013621"	1197
1	0	"Chromosome"	"S78_LN:i:1133_dp:f:2.0180110157804148"	1133
0.67	0.33	"Chromosome"	"S79_LN:i:1057_dp:f:2.019750144643552"	1057
1	0	"Chromosome"	"S8_LN:i:166037_dp:f:1.0192283642755486"	166037
0	1	"Plasmid"	"S80_LN:i:1041_dp:f:1.6810341873194299"	1041
1	0	"Chromosome"	"S81_LN:i:1031_dp:f:2.044236214268629"	1031
1	0	"Chromosome"	"S82_LN:i:951_dp:f:1.9611864504218628"	951
1	0	"Chromosome"	"S83_LN:i:920_dp:f:0.7663956759381045"	920
1	0	"Chromosome"	"S84_LN:i:848_dp:f:1.7519541912150567"	848
0.67	0.33	"Chromosome"	"S85_LN:i:644_dp:f:1.7115064805802953"	644
1	0	"Chromosome"	"S86_LN:i:605_dp:f:2.0064851335346905"	605
1	0	"Chromosome"	"S87_LN:i:605_dp:f:1.667053657248691"	605
1	0	"Chromosome"	"S88_LN:i:519_dp:f:2.6828595844261973"	519
1	0	"Chromosome"	"S9_LN:i:136584_dp:f:1.0"	136584
