"Prob_Chromosome"	"Prob_Plasmid"	"Prediction"	"Contig_name"	"Contig_length"
1	0	"Chromosome"	"S1_LN:i:431131_dp:f:0.8723875726811522"	431131
1	0	"Chromosome"	"S10_LN:i:113100_dp:f:0.900961450190587"	113100
1	0	"Chromosome"	"S100_LN:i:3193_dp:f:1.087786719275133"	3193
1	0	"Chromosome"	"S101_LN:i:3176_dp:f:0.9520011146898854"	3176
1	0	"Chromosome"	"S102_LN:i:3131_dp:f:9.333236440438784"	3131
1	0	"Chromosome"	"S103_LN:i:3019_dp:f:1.0010550732189214"	3019
1	0	"Chromosome"	"S104_LN:i:2924_dp:f:1.3352945640184197"	2924
0.33	0.67	"Plasmid"	"S105_LN:i:2651_dp:f:1.2330302445740795"	2651
1	0	"Chromosome"	"S106_LN:i:2641_dp:f:1.3264566554117505"	2641
1	0	"Chromosome"	"S107_LN:i:2441_dp:f:3.1738258257092413"	2441
1	0	"Chromosome"	"S108_LN:i:2354_dp:f:1.3517742579909835"	2354
1	0	"Chromosome"	"S109_LN:i:2308_dp:f:1.0668421101640513"	2308
1	0	"Chromosome"	"S11_LN:i:110371_dp:f:1.10641973758782"	110371
0.33	0.67	"Plasmid"	"S110_LN:i:2307_dp:f:0.5947819626600926"	2307
0.33	0.67	"Plasmid"	"S111_LN:i:2306_dp:f:0.5053195146749528"	2306
1	0	"Chromosome"	"S112_LN:i:2228_dp:f:0.9848074968884172"	2228
1	0	"Chromosome"	"S113_LN:i:2220_dp:f:0.8207398485662322"	2220
1	0	"Chromosome"	"S114_LN:i:2180_dp:f:1.0767941871007227"	2180
0	1	"Plasmid"	"S115_LN:i:2089_dp:f:38.48981426915812"	2089
1	0	"Chromosome"	"S116_LN:i:2049_dp:f:1.3062121682412768"	2049
0.33	0.67	"Plasmid"	"S117_LN:i:2017_dp:f:1.6118947523562794"	2017
1	0	"Chromosome"	"S118_LN:i:1992_dp:f:1.6055066634669273"	1992
1	0	"Chromosome"	"S119_LN:i:1882_dp:f:1.558670826474163"	1882
1	0	"Chromosome"	"S12_LN:i:107642_dp:f:1.1652647951786332"	107642
0.67	0.33	"Chromosome"	"S120_LN:i:1870_dp:f:1.9434899852993421"	1870
0	1	"Plasmid"	"S121_LN:i:1821_dp:f:0.6467101707783955"	1821
0	1	"Plasmid"	"S122_LN:i:1797_dp:f:0.582154982751377"	1797
1	0	"Chromosome"	"S123_LN:i:1698_dp:f:9.16343359609427"	1698
1	0	"Chromosome"	"S124_LN:i:1684_dp:f:0.8774716308413001"	1684
0.33	0.67	"Plasmid"	"S125_LN:i:1634_dp:f:1.2507426922496496"	1634
0.33	0.67	"Plasmid"	"S126_LN:i:1625_dp:f:0.6815813624669853"	1625
0	1	"Plasmid"	"S127_LN:i:1624_dp:f:0.7709943622368314"	1624
1	0	"Chromosome"	"S128_LN:i:1611_dp:f:1.2237264174305997"	1611
1	0	"Chromosome"	"S129_LN:i:1604_dp:f:1.9766572302718173"	1604
1	0	"Chromosome"	"S13_LN:i:103994_dp:f:1.179320272494698"	103994
1	0	"Chromosome"	"S130_LN:i:1555_dp:f:1.2394490883141989"	1555
0	1	"Plasmid"	"S131_LN:i:1549_dp:f:113.90797209405905"	1549
1	0	"Chromosome"	"S132_LN:i:1483_dp:f:1.534897966749255"	1483
1	0	"Chromosome"	"S133_LN:i:1465_dp:f:2.08992273048038"	1465
0	1	"Plasmid"	"S134_LN:i:1459_dp:f:64.46480539622539"	1459
1	0	"Chromosome"	"S135_LN:i:1446_dp:f:1.7693096940651574"	1446
1	0	"Chromosome"	"S136_LN:i:1446_dp:f:1.7362863918778304"	1446
1	0	"Chromosome"	"S137_LN:i:1423_dp:f:1.1857814665049686"	1423
1	0	"Chromosome"	"S138_LN:i:1371_dp:f:1.4153971954586042"	1371
0.33	0.67	"Plasmid"	"S139_LN:i:1348_dp:f:1.2919423440973843"	1348
1	0	"Chromosome"	"S14_LN:i:102322_dp:f:0.8953670175220005"	102322
1	0	"Chromosome"	"S140_LN:i:1285_dp:f:3.8219376109980074"	1285
1	0	"Chromosome"	"S141_LN:i:1265_dp:f:1.9120537187340094"	1265
0.67	0.33	"Chromosome"	"S142_LN:i:1263_dp:f:1.5641010355631721"	1263
1	0	"Chromosome"	"S143_LN:i:1259_dp:f:1.3188348626380002"	1259
1	0	"Chromosome"	"S144_LN:i:1223_dp:f:1.251260056321823"	1223
0.33	0.67	"Plasmid"	"S145_LN:i:1216_dp:f:0.6196350622788744"	1216
0.33	0.67	"Plasmid"	"S146_LN:i:1213_dp:f:0.6918222429860136"	1213
0.33	0.67	"Plasmid"	"S147_LN:i:1177_dp:f:0.7122454612154536"	1177
1	0	"Chromosome"	"S148_LN:i:1175_dp:f:0.7962508268977035"	1175
1	0	"Chromosome"	"S149_LN:i:1171_dp:f:1.677898676134125"	1171
1	0	"Chromosome"	"S15_LN:i:98793_dp:f:0.9930467665409584"	98793
1	0	"Chromosome"	"S150_LN:i:1159_dp:f:1.2368890475554188"	1159
1	0	"Chromosome"	"S151_LN:i:1127_dp:f:0.7662202824861298"	1127
1	0	"Chromosome"	"S152_LN:i:1116_dp:f:0.7351373670498503"	1116
1	0	"Chromosome"	"S153_LN:i:1116_dp:f:0.7841551113903236"	1116
0.67	0.33	"Chromosome"	"S154_LN:i:1101_dp:f:0.8171788014067903"	1101
0.67	0.33	"Chromosome"	"S155_LN:i:1101_dp:f:0.7134915562408607"	1101
1	0	"Chromosome"	"S156_LN:i:1074_dp:f:2.6931194801558815"	1074
0.67	0.33	"Chromosome"	"S157_LN:i:1066_dp:f:0.7117923992146195"	1066
1	0	"Chromosome"	"S158_LN:i:1057_dp:f:1.2996482957944189"	1057
1	0	"Chromosome"	"S159_LN:i:1047_dp:f:1.5105706083120611"	1047
1	0	"Chromosome"	"S16_LN:i:90767_dp:f:1.026632634221789"	90767
1	0	"Chromosome"	"S160_LN:i:1042_dp:f:1.5082815825560059"	1042
0	1	"Plasmid"	"S161_LN:i:1016_dp:f:0.5570332532790789"	1016
0.5	0.5	"Plasmid"	"S162_LN:i:1009_dp:f:3.5383717980076197"	1009
1	0	"Chromosome"	"S163_LN:i:982_dp:f:1.2872997870625824"	982
0.67	0.33	"Chromosome"	"S164_LN:i:967_dp:f:1.1003878891546108"	967
0.67	0.33	"Chromosome"	"S165_LN:i:962_dp:f:0.5255435438583147"	962
0.67	0.33	"Chromosome"	"S166_LN:i:959_dp:f:1.6491866377938054"	959
1	0	"Chromosome"	"S167_LN:i:956_dp:f:2.3815482535174524"	956
0.67	0.33	"Chromosome"	"S168_LN:i:952_dp:f:1.6741141424330115"	952
0.67	0.33	"Chromosome"	"S169_LN:i:944_dp:f:0.6166595983372546"	944
1	0	"Chromosome"	"S17_LN:i:89687_dp:f:1.1236724049219788"	89687
0.67	0.33	"Chromosome"	"S170_LN:i:932_dp:f:0.630554721357961"	932
1	0	"Chromosome"	"S171_LN:i:928_dp:f:1.2135311262269266"	928
1	0	"Chromosome"	"S172_LN:i:921_dp:f:0.737970206825397"	921
1	0	"Chromosome"	"S173_LN:i:905_dp:f:2.689471501094807"	905
1	0	"Chromosome"	"S174_LN:i:878_dp:f:1.5558633507243433"	878
1	0	"Chromosome"	"S175_LN:i:859_dp:f:0.6964560449369362"	859
1	0	"Chromosome"	"S176_LN:i:840_dp:f:1.2080731679629817"	840
0.67	0.33	"Chromosome"	"S177_LN:i:837_dp:f:1.210177276785295"	837
0.67	0.33	"Chromosome"	"S178_LN:i:829_dp:f:0.5406794486452163"	829
0.67	0.33	"Chromosome"	"S179_LN:i:825_dp:f:0.6466859896315441"	825
1	0	"Chromosome"	"S18_LN:i:89045_dp:f:1.1121186540961736"	89045
0.67	0.33	"Chromosome"	"S180_LN:i:804_dp:f:0.6392449252368289"	804
0.67	0.33	"Chromosome"	"S181_LN:i:784_dp:f:1.012687193818837"	784
0.67	0.33	"Chromosome"	"S182_LN:i:784_dp:f:0.6542228866066445"	784
0.67	0.33	"Chromosome"	"S183_LN:i:777_dp:f:1.1725716957482357"	777
0.67	0.33	"Chromosome"	"S184_LN:i:766_dp:f:0.6061474701180177"	766
1	0	"Chromosome"	"S185_LN:i:766_dp:f:1.0325327211534452"	766
1	0	"Chromosome"	"S186_LN:i:766_dp:f:0.8603229703859089"	766
0.67	0.33	"Chromosome"	"S187_LN:i:765_dp:f:0.5733876784395647"	765
0.67	0.33	"Chromosome"	"S188_LN:i:757_dp:f:0.6913306501601642"	757
1	0	"Chromosome"	"S189_LN:i:756_dp:f:0.7145694497684405"	756
1	0	"Chromosome"	"S19_LN:i:88236_dp:f:0.8610758388124848"	88236
1	0	"Chromosome"	"S190_LN:i:752_dp:f:1.3610287532679113"	752
1	0	"Chromosome"	"S191_LN:i:727_dp:f:3.02017383500986"	727
1	0	"Chromosome"	"S192_LN:i:709_dp:f:0.6429312799912626"	709
1	0	"Chromosome"	"S193_LN:i:705_dp:f:0.6346672421624007"	705
1	0	"Chromosome"	"S194_LN:i:702_dp:f:1.1433059929110057"	702
0.67	0.33	"Chromosome"	"S195_LN:i:697_dp:f:0.6820935017599042"	697
1	0	"Chromosome"	"S196_LN:i:693_dp:f:2.119351399504779"	693
1	0	"Chromosome"	"S197_LN:i:689_dp:f:2.959524163984041"	689
1	0	"Chromosome"	"S198_LN:i:685_dp:f:1.9922474768957135"	685
1	0	"Chromosome"	"S199_LN:i:683_dp:f:1.1755945136277959"	683
1	0	"Chromosome"	"S2_LN:i:346344_dp:f:1.0"	346344
1	0	"Chromosome"	"S20_LN:i:88205_dp:f:0.9788820474776135"	88205
1	0	"Chromosome"	"S200_LN:i:681_dp:f:1.1825253887894198"	681
1	0	"Chromosome"	"S201_LN:i:681_dp:f:1.404722185265932"	681
1	0	"Chromosome"	"S202_LN:i:676_dp:f:7.50974639505044"	676
0.5	0.5	"Plasmid"	"S203_LN:i:671_dp:f:4.569679192386081"	671
1	0	"Chromosome"	"S204_LN:i:660_dp:f:0.8698971338311193"	660
1	0	"Chromosome"	"S205_LN:i:659_dp:f:1.2432308878198786"	659
1	0	"Chromosome"	"S206_LN:i:658_dp:f:1.6064017925124892"	658
1	0	"Chromosome"	"S207_LN:i:658_dp:f:23.58369231953602"	658
0.67	0.33	"Chromosome"	"S208_LN:i:646_dp:f:0.6044594243966249"	646
0.5	0.5	"Plasmid"	"S209_LN:i:641_dp:f:0.8301313832696237"	641
1	0	"Chromosome"	"S21_LN:i:80613_dp:f:0.9269203797929795"	80613
1	0	"Chromosome"	"S210_LN:i:641_dp:f:3.5094906855539083"	641
0.67	0.33	"Chromosome"	"S211_LN:i:641_dp:f:1.6867054614523445"	641
1	0	"Chromosome"	"S212_LN:i:640_dp:f:1.2727271360718462"	640
1	0	"Chromosome"	"S213_LN:i:634_dp:f:1.6226865053851394"	634
0.67	0.33	"Chromosome"	"S214_LN:i:624_dp:f:0.8431612206970575"	624
1	0	"Chromosome"	"S215_LN:i:622_dp:f:1.0070466262045303"	622
1	0	"Chromosome"	"S216_LN:i:619_dp:f:2.4959530599978437"	619
1	0	"Chromosome"	"S217_LN:i:586_dp:f:2.146794247594431"	586
1	0	"Chromosome"	"S218_LN:i:579_dp:f:3.501346932932681"	579
1	0	"Chromosome"	"S219_LN:i:575_dp:f:2.719323020230069"	575
1	0	"Chromosome"	"S22_LN:i:73669_dp:f:1.2344695366853586"	73669
1	0	"Chromosome"	"S220_LN:i:574_dp:f:1.7148045358375896"	574
1	0	"Chromosome"	"S221_LN:i:574_dp:f:1.4046611603508223"	574
1	0	"Chromosome"	"S222_LN:i:558_dp:f:1.8504990290195695"	558
0.67	0.33	"Chromosome"	"S223_LN:i:553_dp:f:1.4265258425347231"	553
1	0	"Chromosome"	"S224_LN:i:550_dp:f:0.834834083067189"	550
1	0	"Chromosome"	"S225_LN:i:550_dp:f:1.32311036863834"	550
0.67	0.33	"Chromosome"	"S226_LN:i:549_dp:f:1.168166654815283"	549
1	0	"Chromosome"	"S227_LN:i:548_dp:f:1.4349678163728152"	548
1	0	"Chromosome"	"S228_LN:i:548_dp:f:1.4508105009836512"	548
1	0	"Chromosome"	"S229_LN:i:543_dp:f:1.0679749912500374"	543
1	0	"Chromosome"	"S23_LN:i:70665_dp:f:1.0329205502930054"	70665
1	0	"Chromosome"	"S230_LN:i:535_dp:f:0.6837663918392676"	535
1	0	"Chromosome"	"S231_LN:i:535_dp:f:0.6017877664114794"	535
1	0	"Chromosome"	"S232_LN:i:524_dp:f:0.8189015384447168"	524
1	0	"Chromosome"	"S233_LN:i:524_dp:f:0.9020349057440885"	524
1	0	"Chromosome"	"S234_LN:i:513_dp:f:0.9322716749551324"	513
1	0	"Chromosome"	"S235_LN:i:512_dp:f:1.299776124278818"	512
0.67	0.33	"Chromosome"	"S236_LN:i:508_dp:f:1.1106075360282481"	508
0.67	0.33	"Chromosome"	"S237_LN:i:508_dp:f:0.7507449690277421"	508
1	0	"Chromosome"	"S238_LN:i:505_dp:f:8.54932824047016"	505
0.67	0.33	"Chromosome"	"S239_LN:i:501_dp:f:1.549669234579142"	501
1	0	"Chromosome"	"S24_LN:i:67995_dp:f:1.2304352798012823"	67995
1	0	"Chromosome"	"S25_LN:i:58985_dp:f:0.8239348819752143"	58985
1	0	"Chromosome"	"S26_LN:i:58376_dp:f:0.9672238327417569"	58376
1	0	"Chromosome"	"S27_LN:i:56663_dp:f:0.900652210543496"	56663
1	0	"Chromosome"	"S28_LN:i:53073_dp:f:0.820616693422965"	53073
1	0	"Chromosome"	"S29_LN:i:51767_dp:f:1.1156559079379034"	51767
1	0	"Chromosome"	"S3_LN:i:322591_dp:f:1.076099003368061"	322591
1	0	"Chromosome"	"S30_LN:i:50723_dp:f:1.0809261187535975"	50723
1	0	"Chromosome"	"S31_LN:i:50411_dp:f:1.2078069477642805"	50411
1	0	"Chromosome"	"S32_LN:i:50118_dp:f:1.145857992933658"	50118
1	0	"Chromosome"	"S33_LN:i:49781_dp:f:0.9514566514836466"	49781
1	0	"Chromosome"	"S34_LN:i:43947_dp:f:1.0709185756363855"	43947
1	0	"Chromosome"	"S35_LN:i:43604_dp:f:0.8135510088524299"	43604
1	0	"Chromosome"	"S36_LN:i:43583_dp:f:0.7865003917630722"	43583
1	0	"Chromosome"	"S37_LN:i:43316_dp:f:1.1036287833593459"	43316
1	0	"Chromosome"	"S38_LN:i:34989_dp:f:1.0143140238448543"	34989
1	0	"Chromosome"	"S39_LN:i:33898_dp:f:0.906414980273435"	33898
1	0	"Chromosome"	"S4_LN:i:242621_dp:f:1.155931304771695"	242621
1	0	"Chromosome"	"S40_LN:i:32715_dp:f:0.9682904738012021"	32715
1	0	"Chromosome"	"S41_LN:i:31992_dp:f:0.8530838680156196"	31992
1	0	"Chromosome"	"S42_LN:i:31417_dp:f:0.8545777510883472"	31417
1	0	"Chromosome"	"S43_LN:i:31022_dp:f:1.1000380672707273"	31022
1	0	"Chromosome"	"S44_LN:i:30189_dp:f:0.8395784801755369"	30189
1	0	"Chromosome"	"S45_LN:i:27401_dp:f:1.25405118507341"	27401
1	0	"Chromosome"	"S46_LN:i:27398_dp:f:0.8809966578406144"	27398
1	0	"Chromosome"	"S47_LN:i:26313_dp:f:1.020566699055825"	26313
1	0	"Chromosome"	"S48_LN:i:26137_dp:f:1.1646660120443273"	26137
1	0	"Chromosome"	"S49_LN:i:24757_dp:f:0.9322689213682416"	24757
1	0	"Chromosome"	"S5_LN:i:228464_dp:f:1.0569624277005691"	228464
1	0	"Chromosome"	"S50_LN:i:24742_dp:f:0.8499566312921927"	24742
1	0	"Chromosome"	"S51_LN:i:23140_dp:f:0.8616746325031042"	23140
1	0	"Chromosome"	"S52_LN:i:22683_dp:f:1.0139489053662838"	22683
1	0	"Chromosome"	"S53_LN:i:21896_dp:f:0.9990190671935152"	21896
1	0	"Chromosome"	"S54_LN:i:21179_dp:f:1.0794522904574406"	21179
1	0	"Chromosome"	"S55_LN:i:19878_dp:f:1.0591058023127016"	19878
1	0	"Chromosome"	"S56_LN:i:18311_dp:f:0.888211162676518"	18311
1	0	"Chromosome"	"S57_LN:i:18104_dp:f:1.0371898122441985"	18104
0	1	"Plasmid"	"S58_LN:i:17412_dp:f:0.833760808602816"	17412
0	1	"Plasmid"	"S59_LN:i:16291_dp:f:0.6234703626277649"	16291
1	0	"Chromosome"	"S6_LN:i:180527_dp:f:0.9199912979484418"	180527
1	0	"Chromosome"	"S60_LN:i:15855_dp:f:1.090874071923516"	15855
1	0	"Chromosome"	"S61_LN:i:15084_dp:f:1.3441250069141526"	15084
1	0	"Chromosome"	"S62_LN:i:14582_dp:f:1.2316073382439472"	14582
1	0	"Chromosome"	"S63_LN:i:14270_dp:f:1.107685999728484"	14270
1	0	"Chromosome"	"S64_LN:i:12557_dp:f:1.391211284573788"	12557
0	1	"Plasmid"	"S65_LN:i:11205_dp:f:0.6473798935280451"	11205
1	0	"Chromosome"	"S66_LN:i:10584_dp:f:1.0440548728008388"	10584
1	0	"Chromosome"	"S67_LN:i:10415_dp:f:1.505330629416006"	10415
0	1	"Plasmid"	"S68_LN:i:10260_dp:f:0.6951192167235295"	10260
0	1	"Plasmid"	"S69_LN:i:9970_dp:f:0.6056173852500668"	9970
1	0	"Chromosome"	"S7_LN:i:145404_dp:f:1.0527334224140628"	145404
1	0	"Chromosome"	"S70_LN:i:9967_dp:f:1.0207136057374053"	9967
1	0	"Chromosome"	"S71_LN:i:9703_dp:f:1.0122926940180765"	9703
1	0	"Chromosome"	"S72_LN:i:9056_dp:f:1.0781921560171817"	9056
1	0	"Chromosome"	"S73_LN:i:8578_dp:f:0.7955374894158195"	8578
1	0	"Chromosome"	"S74_LN:i:8217_dp:f:1.15916263898814"	8217
1	0	"Chromosome"	"S75_LN:i:7956_dp:f:1.4302842363857653"	7956
0	1	"Plasmid"	"S76_LN:i:7040_dp:f:1.3700980795221562"	7040
0	1	"Plasmid"	"S77_LN:i:6661_dp:f:0.5627546832689841"	6661
1	0	"Chromosome"	"S78_LN:i:6267_dp:f:1.3953966651228797"	6267
1	0	"Chromosome"	"S79_LN:i:6121_dp:f:1.2746580865560424"	6121
1	0	"Chromosome"	"S8_LN:i:143432_dp:f:1.1244979895853566"	143432
1	0	"Chromosome"	"S80_LN:i:6028_dp:f:1.1437979731832688"	6028
1	0	"Chromosome"	"S81_LN:i:5936_dp:f:1.1771298662000216"	5936
0	1	"Plasmid"	"S82_LN:i:5664_dp:f:0.7125845884925366"	5664
1	0	"Chromosome"	"S83_LN:i:5610_dp:f:1.7013824674098617"	5610
1	0	"Chromosome"	"S84_LN:i:5524_dp:f:0.8257071060113486"	5524
0	1	"Plasmid"	"S85_LN:i:5163_dp:f:15.90987839441417"	5163
1	0	"Chromosome"	"S86_LN:i:5112_dp:f:1.264719342683262"	5112
1	0	"Chromosome"	"S87_LN:i:5039_dp:f:1.325708339086969"	5039
1	0	"Chromosome"	"S88_LN:i:4939_dp:f:0.9628197740079584"	4939
1	0	"Chromosome"	"S89_LN:i:4701_dp:f:0.8840961615847791"	4701
1	0	"Chromosome"	"S9_LN:i:120416_dp:f:0.9889516195477082"	120416
1	0	"Chromosome"	"S90_LN:i:4542_dp:f:1.2023843350122567"	4542
0	1	"Plasmid"	"S91_LN:i:4258_dp:f:0.8312498049422874"	4258
1	0	"Chromosome"	"S92_LN:i:4224_dp:f:1.3862821119501765"	4224
1	0	"Chromosome"	"S93_LN:i:4117_dp:f:1.296663000384111"	4117
0	1	"Plasmid"	"S94_LN:i:4073_dp:f:37.5170512599802"	4073
0	1	"Plasmid"	"S95_LN:i:4073_dp:f:18.94094958832759"	4073
0	1	"Plasmid"	"S96_LN:i:3937_dp:f:0.6052333180531604"	3937
1	0	"Chromosome"	"S97_LN:i:3933_dp:f:1.1195263845763437"	3933
0	1	"Plasmid"	"S98_LN:i:3680_dp:f:1.2554388959091272"	3680
1	0	"Chromosome"	"S99_LN:i:3459_dp:f:1.3101615009124712"	3459
