"Prob_Chromosome"	"Prob_Plasmid"	"Prediction"	"Contig_name"	"Contig_length"
1	0	"Chromosome"	"S1_LN:i:696484_dp:f:1.0098932438932826"	696484
1	0	"Chromosome"	"S10_LN:i:162717_dp:f:0.8926714561042349"	162717
1	0	"Chromosome"	"S11_LN:i:147382_dp:f:0.966085177841897"	147382
1	0	"Chromosome"	"S12_LN:i:137359_dp:f:1.0326582700044729"	137359
1	0	"Chromosome"	"S13_LN:i:134368_dp:f:0.9825842058556296"	134368
1	0	"Chromosome"	"S14_LN:i:129109_dp:f:0.9460736757773284"	129109
1	0	"Chromosome"	"S15_LN:i:108827_dp:f:1.0264188897138806"	108827
1	0	"Chromosome"	"S16_LN:i:102285_dp:f:1.012798597084581"	102285
1	0	"Chromosome"	"S17_LN:i:100334_dp:f:0.905107403117391"	100334
1	0	"Chromosome"	"S18_LN:i:78528_dp:f:1.0244901262417565"	78528
1	0	"Chromosome"	"S19_LN:i:57663_dp:f:1.0433823166887264"	57663
1	0	"Chromosome"	"S2_LN:i:556893_dp:f:0.9291622426447806"	556893
1	0	"Chromosome"	"S20_LN:i:54822_dp:f:0.9692834247683012"	54822
1	0	"Chromosome"	"S21_LN:i:49343_dp:f:0.9130101516881239"	49343
1	0	"Chromosome"	"S22_LN:i:48674_dp:f:0.9996963730933198"	48674
1	0	"Chromosome"	"S23_LN:i:48624_dp:f:1.045794891639533"	48624
1	0	"Chromosome"	"S24_LN:i:32321_dp:f:0.9358802789926"	32321
1	0	"Chromosome"	"S25_LN:i:29900_dp:f:0.9932762461509599"	29900
1	0	"Chromosome"	"S26_LN:i:29731_dp:f:1.0698528875051787"	29731
1	0	"Chromosome"	"S27_LN:i:26053_dp:f:1.0406308903182282"	26053
1	0	"Chromosome"	"S28_LN:i:18726_dp:f:1.0447378613422573"	18726
1	0	"Chromosome"	"S29_LN:i:15968_dp:f:2.072195677330362"	15968
1	0	"Chromosome"	"S3_LN:i:416595_dp:f:0.96563022863558"	416595
1	0	"Chromosome"	"S30_LN:i:9653_dp:f:14.832088397001344"	9653
0	1	"Plasmid"	"S31_LN:i:6930_dp:f:24.645745616237193"	6930
1	0	"Chromosome"	"S32_LN:i:6889_dp:f:0.8634406515547184"	6889
1	0	"Chromosome"	"S33_LN:i:4479_dp:f:1.023896803583572"	4479
1	0	"Chromosome"	"S34_LN:i:3037_dp:f:7.07629042603037"	3037
1	0	"Chromosome"	"S35_LN:i:2904_dp:f:0.9147820951767844"	2904
1	0	"Chromosome"	"S36_LN:i:2565_dp:f:0.9832852719158693"	2565
1	0	"Chromosome"	"S37_LN:i:2215_dp:f:1.0347125873229521"	2215
1	0	"Chromosome"	"S38_LN:i:2215_dp:f:1.0417532908176586"	2215
1	0	"Chromosome"	"S39_LN:i:1961_dp:f:1.0055447064859895"	1961
1	0	"Chromosome"	"S4_LN:i:375436_dp:f:1.0"	375436
1	0	"Chromosome"	"S4_LN:i:375436_dp:f:1.0"	375436
1	0	"Chromosome"	"S4_LN:i:375436_dp:f:1.0"	375436
1	0	"Chromosome"	"S4_LN:i:375436_dp:f:1.0"	375436
0.67	0.33	"Chromosome"	"S40_LN:i:1954_dp:f:4.135464603402338"	1954
1	0	"Chromosome"	"S41_LN:i:1879_dp:f:2.156691556595228"	1879
1	0	"Chromosome"	"S42_LN:i:1732_dp:f:7.153809944477052"	1732
0	1	"Plasmid"	"S43_LN:i:1551_dp:f:20.322962307120648"	1551
1	0	"Chromosome"	"S44_LN:i:1469_dp:f:1.0894374282044728"	1469
1	0	"Chromosome"	"S45_LN:i:1120_dp:f:2.0945203353132604"	1120
1	0	"Chromosome"	"S46_LN:i:961_dp:f:1.077085053276108"	961
1	0	"Chromosome"	"S47_LN:i:910_dp:f:1.0004892314434124"	910
1	0	"Chromosome"	"S48_LN:i:910_dp:f:1.9615325856547097"	910
1	0	"Chromosome"	"S49_LN:i:806_dp:f:1.2006416344502109"	806
1	0	"Chromosome"	"S5_LN:i:340073_dp:f:1.0279690011078726"	340073
1	0	"Chromosome"	"S50_LN:i:755_dp:f:1.947530395998597"	755
1	0	"Chromosome"	"S51_LN:i:702_dp:f:1.6342689988720318"	702
1	0	"Chromosome"	"S52_LN:i:678_dp:f:2.9925318910603247"	678
1	0	"Chromosome"	"S53_LN:i:586_dp:f:1.2048532173696056"	586
1	0	"Chromosome"	"S54_LN:i:586_dp:f:2.2192028399318207"	586
1	0	"Chromosome"	"S55_LN:i:575_dp:f:1.9311977292777744"	575
1	0	"Chromosome"	"S56_LN:i:535_dp:f:1.0385385545513397"	535
1	0	"Chromosome"	"S57_LN:i:535_dp:f:1.094416034543767"	535
1	0	"Chromosome"	"S58_LN:i:502_dp:f:1.017879711338183"	502
1	0	"Chromosome"	"S59_LN:i:502_dp:f:0.9212647543933618"	502
1	0	"Chromosome"	"S6_LN:i:271252_dp:f:0.9761224885900421"	271252
1	0	"Chromosome"	"S7_LN:i:259658_dp:f:1.0336855509881926"	259658
1	0	"Chromosome"	"S8_LN:i:231924_dp:f:0.9207135113563248"	231924
1	0	"Chromosome"	"S9_LN:i:175922_dp:f:1.0224437355495866"	175922
