GCA_014169015.1_ASM1416901v1,GCA_014169015.1_ASM1416901v1_bin_2,AP022044.1,S94_LN_i_2353_dp_f_1.775484440524337,2353,4806267,4808619
GCA_014169015.1_ASM1416901v1,GCA_014169015.1_ASM1416901v1_bin_2,AP022045.1,S94_LN_i_2353_dp_f_1.775484440524337,2353,63613,65965
GCA_014169015.1_ASM1416901v1,GCA_014169015.1_ASM1416901v1_bin_2,AP022045.1,S99_LN_i_1519_dp_f_1.7924380722548106,1519,61274,62792
GCA_014169015.1_ASM1416901v1,GCA_014169015.1_ASM1416901v1_bin_2,AP022044.1,S99_LN_i_1519_dp_f_1.7924380722548106,1519,4809440,4810958
GCA_014169115.1_ASM1416911v1,GCA_014169115.1_ASM1416911v1_bin_1,AP022070.1,S120_LN_i_2360_dp_f_1.0212567792805447,2359,66731,69089
GCA_014169115.1_ASM1416911v1,GCA_014169115.1_ASM1416911v1_bin_1,AP022072.1,S120_LN_i_2360_dp_f_1.0212567792805447,2357,34011,36367
GCA_013824985.1_ASM1382498v1,GCA_013824985.1_ASM1382498v1_bin_1,CP057287.1,S90_LN_i_6489_dp_f_1.4344651489233915,6489,3916096,3922584
GCA_013824985.1_ASM1382498v1,GCA_013824985.1_ASM1382498v1_bin_1,CP057288.1,S90_LN_i_6489_dp_f_1.4344651489233915,6489,88808,95296
GCA_013742835.1_ASM1374283v1,GCA_013742835.1_ASM1374283v1_bin_1,CP056625.1,S188_LN_i_1166_dp_f_1.950724466792986,1166,947321,948486
GCA_013742835.1_ASM1374283v1,GCA_013742835.1_ASM1374283v1_bin_1,CP056625.1,S188_LN_i_1166_dp_f_1.950724466792986,1166,2551381,2552546
