GCA_014170595.1_ASM1417059v1,GCA_014170595.1_ASM1417059v1_bin_2,CP059905.1,S36_LN_i_28572_dp_f_0.393572285731468,28572,1.0
GCA_014170595.1_ASM1417059v1,GCA_014170595.1_ASM1417059v1_bin_2,CP059906.1,S45_LN_i_18592_dp_f_0.36353632952551596,18592,1.0
GCA_014170595.1_ASM1417059v1,GCA_014170595.1_ASM1417059v1_bin_2,CP059905.1,S47_LN_i_16514_dp_f_0.3523571315324772,16514,1.0
GCA_014170595.1_ASM1417059v1,GCA_014170595.1_ASM1417059v1_bin_2,CP059906.1,S58_LN_i_6871_dp_f_0.27057234860288776,6871,1.0
GCA_014170595.1_ASM1417059v1,GCA_014170595.1_ASM1417059v1_bin_1,CP059906.1,S28_LN_i_50676_dp_f_0.3743187408970276,50676,1.0
GCA_014170595.1_ASM1417059v1,GCA_014170595.1_ASM1417059v1_bin_1,CP059905.1,S38_LN_i_26023_dp_f_0.36824296136348633,26023,1.0
GCA_014170595.1_ASM1417059v1,GCA_014170595.1_ASM1417059v1_bin_1,CP059906.1,S51_LN_i_14031_dp_f_0.40309915096247945,14031,1.0
GCA_014170595.1_ASM1417059v1,GCA_014170595.1_ASM1417059v1_bin_1,CP059905.1,S57_LN_i_7251_dp_f_0.3932154904244094,7251,0.85,1,6188
GCA_014170595.1_ASM1417059v1,GCA_014170595.1_ASM1417059v1_bin_1,CP059906.1,S57_LN_i_7251_dp_f_0.3932154904244094,7251,0.15,6189,7251
GCA_014170595.1_ASM1417059v1,GCA_014170595.1_ASM1417059v1_bin_1,CP059905.1,S59_LN_i_6398_dp_f_0.4118757181555138,6398,0.99
GCA_014170595.1_ASM1417059v1,GCA_014170595.1_ASM1417059v1_bin_1,CP059905.1,S64_LN_i_4556_dp_f_0.3374408188592391,4556,1.0
GCA_014170595.1_ASM1417059v1,GCA_014170595.1_ASM1417059v1_bin_1,CP059906.1,S71_LN_i_2777_dp_f_0.3869519935707139,2777,1.0
GCA_014170595.1_ASM1417059v1,GCA_014170595.1_ASM1417059v1_bin_1,CP059905.1,S78_LN_i_1893_dp_f_0.34138606878680033,1893,1.0
GCA_014170595.1_ASM1417059v1,GCA_014170595.1_ASM1417059v1_bin_1,CP059906.1,S79_LN_i_1813_dp_f_0.31618433353561526,1813,1.0
GCA_014170595.1_ASM1417059v1,GCA_014170595.1_ASM1417059v1_bin_1,CP059905.1,S95_LN_i_1242_dp_f_0.4313374391103968,1242,1.0
GCA_014170595.1_ASM1417059v1,GCA_014170595.1_ASM1417059v1_bin_Unbinned,CP059905.1,S32_LN_i_37089_dp_f_0.38073175498734374,37089,1.0
GCA_014170595.1_ASM1417059v1,GCA_014170595.1_ASM1417059v1_bin_Unbinned,CP059905.1,S67_LN_i_3316_dp_f_0.4346474143445245,3316,1.0
GCA_013795065.1_ASM1379506v1,GCA_013795065.1_ASM1379506v1_bin_2,CP056865.1,S44_LN_i_13508_dp_f_1.0143087908144108,13508,1.0
GCA_013795065.1_ASM1379506v1,GCA_013795065.1_ASM1379506v1_bin_2,CP056865.1,S53_LN_i_4326_dp_f_0.9415629133084502,4326,1.0
GCA_013795065.1_ASM1379506v1,GCA_013795065.1_ASM1379506v1_bin_2,CP056865.1,S55_LN_i_4233_dp_f_1.0363786512045141,4233,1.0
GCA_013795065.1_ASM1379506v1,GCA_013795065.1_ASM1379506v1_bin_2,CP056865.1,S56_LN_i_4148_dp_f_0.9626426550335154,4148,1.0
GCA_013795065.1_ASM1379506v1,GCA_013795065.1_ASM1379506v1_bin_2,CP056865.1,S59_LN_i_2963_dp_f_1.0065164589381308,2963,1.0
GCA_013795065.1_ASM1379506v1,GCA_013795065.1_ASM1379506v1_bin_2,CP056865.1,S61_LN_i_2281_dp_f_1.1275355514933347,2281,1.0
GCA_013795065.1_ASM1379506v1,GCA_013795065.1_ASM1379506v1_bin_2,CP056865.1,S63_LN_i_2197_dp_f_1.0475883374059587,2197,1.0
GCA_013795065.1_ASM1379506v1,GCA_013795065.1_ASM1379506v1_bin_2,CP056865.1,S75_LN_i_1473_dp_f_0.9165698277127502,1473,1.0
GCA_013795065.1_ASM1379506v1,GCA_013795065.1_ASM1379506v1_bin_2,CP056865.1,S85_LN_i_1005_dp_f_1.0130864909968047,1005,1.0
GCA_013795065.1_ASM1379506v1,GCA_013795065.1_ASM1379506v1_bin_1,CP056866.1,S29_LN_i_40573_dp_f_3.8846533746016947,40573,1.0
GCA_013795065.1_ASM1379506v1,GCA_013795065.1_ASM1379506v1_bin_1,CP056866.1,S65_LN_i_2095_dp_f_3.1830976814606484,2095,1.0
GCA_013823335.1_ASM1382333v1,GCA_013823335.1_ASM1382333v1_bin_4,CP057183.1,S141_LN_i_1603_dp_f_42.4609025797632,1603,1.0
GCA_013823335.1_ASM1382333v1,GCA_013823335.1_ASM1382333v1_bin_3,CP057182.1,S130_LN_i_2519_dp_f_37.688108869394725,2519,1.0
GCA_013823335.1_ASM1382333v1,GCA_013823335.1_ASM1382333v1_bin_1,CP057180.1,S100_LN_i_9225_dp_f_4.957738776905244,9225,1.0
GCA_013823335.1_ASM1382333v1,GCA_013823335.1_ASM1382333v1_bin_1,CP057179.1,S117_LN_i_4012_dp_f_2.7482856493621006,4012,1.0
GCA_013823335.1_ASM1382333v1,GCA_013823335.1_ASM1382333v1_bin_1,CP057179.1,S146_LN_i_1228_dp_f_3.3564422685282733,1228,1.0
GCA_013823335.1_ASM1382333v1,GCA_013823335.1_ASM1382333v1_bin_1,CP057180.1,S147_LN_i_1223_dp_f_4.690830477197498,1223,1.0
GCA_013823335.1_ASM1382333v1,GCA_013823335.1_ASM1382333v1_bin_1,CP057179.1,S49_LN_i_28689_dp_f_2.8566226868163045,28689,1.0
GCA_013823335.1_ASM1382333v1,GCA_013823335.1_ASM1382333v1_bin_1,CP057180.1,S65_LN_i_22164_dp_f_4.324864280979828,22164,1.0
GCA_013823335.1_ASM1382333v1,GCA_013823335.1_ASM1382333v1_bin_1,CP057179.1,S69_LN_i_20003_dp_f_2.9918172157722966,20003,1.0
GCA_013823335.1_ASM1382333v1,GCA_013823335.1_ASM1382333v1_bin_1,CP057180.1,S81_LN_i_14182_dp_f_4.244030317851567,14182,1.0
GCA_013823335.1_ASM1382333v1,GCA_013823335.1_ASM1382333v1_bin_1,CP057179.1,S95_LN_i_10377_dp_f_2.1611415227725534,10377,1.0
GCA_013823335.1_ASM1382333v1,GCA_013823335.1_ASM1382333v1_bin_2,CP057181.1,S124_LN_i_2974_dp_f_19.93271198671288,2974,0.97
GCA_013823335.1_ASM1382333v1,GCA_013823335.1_ASM1382333v1_bin_5,CP057184.1,S142_LN_i_1552_dp_f_30.21802662402974,1552,1.0
GCA_013728735.1_ASM1372873v1,GCA_013728735.1_ASM1372873v1_bin_1,CP056274.1,S63_LN_i_10291_dp_f_1.1385496483850064,10291,1.0
GCA_013728735.1_ASM1372873v1,GCA_013728735.1_ASM1372873v1_bin_1,CP056273.1,S77_LN_i_2976_dp_f_0.848371189082309,2976,1.0
GCA_013728735.1_ASM1372873v1,GCA_013728735.1_ASM1372873v1_bin_1,CP056274.1,S78_LN_i_2973_dp_f_1.2752414027131067,2973,1.0
GCA_013728735.1_ASM1372873v1,GCA_013728735.1_ASM1372873v1_bin_4,CP056273.1,S68_LN_i_6101_dp_f_1.0488625408360817,6101,1.0
GCA_013728735.1_ASM1372873v1,GCA_013728735.1_ASM1372873v1_bin_3,CP056274.1,S38_LN_i_34827_dp_f_1.087942718937648,34827,1.0
GCA_013728735.1_ASM1372873v1,GCA_013728735.1_ASM1372873v1_bin_3,CP056274.1,S58_LN_i_13263_dp_f_1.0216069420953187,13263,1.0
GCA_013728735.1_ASM1372873v1,GCA_013728735.1_ASM1372873v1_bin_3,CP056274.1,S70_LN_i_5380_dp_f_0.8879280181325626,5380,1.0
GCA_013728735.1_ASM1372873v1,GCA_013728735.1_ASM1372873v1_bin_2,CP056274.1,S50_LN_i_19954_dp_f_1.1833770305398406,19954,1.0
GCA_013728735.1_ASM1372873v1,GCA_013728735.1_ASM1372873v1_bin_2,CP056274.1,S60_LN_i_12014_dp_f_1.2395213989308067,12014,1.0
GCA_014170975.1_ASM1417097v1,GCA_014170975.1_ASM1417097v1_bin_Unbinned,CP059950.1,S71_LN_i_6122_dp_f_10.33417073144236,6122,1.0
GCA_014170975.1_ASM1417097v1,GCA_014170975.1_ASM1417097v1_bin_Unbinned,CP059951.1,S75_LN_i_5101_dp_f_20.061536471590557,5101,1.0
GCA_014170975.1_ASM1417097v1,GCA_014170975.1_ASM1417097v1_bin_1,CP059948.1,S30_LN_i_51682_dp_f_0.5039948508351645,51682,1.0
GCA_014170975.1_ASM1417097v1,GCA_014170975.1_ASM1417097v1_bin_1,CP059948.1,S45_LN_i_25277_dp_f_0.4800546976220604,25277,1.0
GCA_014170975.1_ASM1417097v1,GCA_014170975.1_ASM1417097v1_bin_1,CP059948.1,S49_LN_i_21136_dp_f_0.526442516194886,21136,1.0
GCA_014170975.1_ASM1417097v1,GCA_014170975.1_ASM1417097v1_bin_1,CP059948.1,S59_LN_i_10256_dp_f_0.3351101919475148,10256,1.0
GCA_014170975.1_ASM1417097v1,GCA_014170975.1_ASM1417097v1_bin_1,CP059948.1,S62_LN_i_9272_dp_f_0.5038844410332013,9272,1.0
GCA_014170975.1_ASM1417097v1,GCA_014170975.1_ASM1417097v1_bin_1,CP059948.1,S65_LN_i_8500_dp_f_0.4807995424334333,8500,1.0
GCA_014170975.1_ASM1417097v1,GCA_014170975.1_ASM1417097v1_bin_1,CP059948.1,S74_LN_i_5173_dp_f_0.6651038943964278,5173,1.0
GCA_014170975.1_ASM1417097v1,GCA_014170975.1_ASM1417097v1_bin_1,CP059948.1,S87_LN_i_1782_dp_f_0.6050604779789399,1782,1.0
GCA_014170975.1_ASM1417097v1,GCA_014170975.1_ASM1417097v1_bin_2,CP059952.1,S90_LN_i_1506_dp_f_54.101423050357376,1506,1.0
GCA_014109625.1_ASM1410962v1,GCA_014109625.1_ASM1410962v1_bin_2,CP058091.1,S29_LN_i_51413_dp_f_3.6020347350566597,51413,1.0
GCA_014109625.1_ASM1410962v1,GCA_014109625.1_ASM1410962v1_bin_2,CP058091.1,S41_LN_i_20805_dp_f_3.651931898332542,20805,1.0
GCA_014109625.1_ASM1410962v1,GCA_014109625.1_ASM1410962v1_bin_2,CP058091.1,S44_LN_i_12181_dp_f_3.8210042173993646,12181,1.0
GCA_014109625.1_ASM1410962v1,GCA_014109625.1_ASM1410962v1_bin_1,CP058092.1,S24_LN_i_65269_dp_f_6.127715671972076,65269,1.0
GCA_014109625.1_ASM1410962v1,GCA_014109625.1_ASM1410962v1_bin_1,CP058092.1,S59_LN_i_3904_dp_f_6.2580292290673825,3904,1.0
GCA_013829905.1_ASM1382990v1,GCA_013829905.1_ASM1382990v1_bin_1,CP057379.1,S32_LN_i_18154_dp_f_4.755983805683894,18154,1.0
GCA_013829905.1_ASM1382990v1,GCA_013829905.1_ASM1382990v1_bin_1,CP057379.1,S36_LN_i_8855_dp_f_4.496405767271796,8855,1.0
GCA_013829905.1_ASM1382990v1,GCA_013829905.1_ASM1382990v1_bin_1,CP057379.1,S39_LN_i_4335_dp_f_5.123441373797955,4335,1.0
GCA_013829905.1_ASM1382990v1,GCA_013829905.1_ASM1382990v1_bin_1,CP057379.1,S49_LN_i_1348_dp_f_4.626816635711479,1348,1.0
GCA_014170615.1_ASM1417061v1,GCA_014170615.1_ASM1417061v1_bin_Unbinned,CP059909.1,S28_LN_i_53098_dp_f_0.41662336707519254,53098,1.0
GCA_014170615.1_ASM1417061v1,GCA_014170615.1_ASM1417061v1_bin_Unbinned,CP059910.1,S64_LN_i_8124_dp_f_0.37945712916513913,8124,1.0
GCA_014170615.1_ASM1417061v1,GCA_014170615.1_ASM1417061v1_bin_3,CP059909.1,S44_LN_i_21725_dp_f_0.3810862337293074,21725,1.0
GCA_014170615.1_ASM1417061v1,GCA_014170615.1_ASM1417061v1_bin_3,CP059909.1,S62_LN_i_8644_dp_f_0.3187655960832057,8644,1.0
GCA_014170615.1_ASM1417061v1,GCA_014170615.1_ASM1417061v1_bin_3,CP059908.1,S63_LN_i_8464_dp_f_0.5192065704156992,8464,1.0
GCA_014170615.1_ASM1417061v1,GCA_014170615.1_ASM1417061v1_bin_3,CP059908.1,S66_LN_i_6651_dp_f_0.5509492195224855,6651,1.0
GCA_014170615.1_ASM1417061v1,GCA_014170615.1_ASM1417061v1_bin_3,CP059909.1,S72_LN_i_5441_dp_f_0.366033514135344,5441,1.0
GCA_014170615.1_ASM1417061v1,GCA_014170615.1_ASM1417061v1_bin_3,CP059909.1,S74_LN_i_5260_dp_f_0.3839977058259783,5260,1.0
GCA_014170615.1_ASM1417061v1,GCA_014170615.1_ASM1417061v1_bin_3,CP059908.1,S75_LN_i_5160_dp_f_0.6652129868440051,5160,1.0
GCA_014170615.1_ASM1417061v1,GCA_014170615.1_ASM1417061v1_bin_3,CP059909.1,S97_LN_i_2460_dp_f_0.4053246872391089,2460,1.0
GCA_014170615.1_ASM1417061v1,GCA_014170615.1_ASM1417061v1_bin_2,CP059910.1,S29_LN_i_52596_dp_f_0.35661345405506945,52596,1.0
GCA_014170615.1_ASM1417061v1,GCA_014170615.1_ASM1417061v1_bin_2,CP059910.1,S37_LN_i_30465_dp_f_0.3521577924628952,30465,1.0
GCA_014170615.1_ASM1417061v1,GCA_014170615.1_ASM1417061v1_bin_1,CP059908.1,S32_LN_i_39315_dp_f_0.7025578706185985,39315,1.0
GCA_014170615.1_ASM1417061v1,GCA_014170615.1_ASM1417061v1_bin_1,CP059908.1,S45_LN_i_21555_dp_f_0.7942695755241443,21555,1.0
GCA_014170615.1_ASM1417061v1,GCA_014170615.1_ASM1417061v1_bin_1,CP059908.1,S50_LN_i_16660_dp_f_0.6558029419010182,16660,1.0
GCA_014170615.1_ASM1417061v1,GCA_014170615.1_ASM1417061v1_bin_1,CP059908.1,S51_LN_i_16525_dp_f_0.7746590174115212,16525,1.0
GCA_014170615.1_ASM1417061v1,GCA_014170615.1_ASM1417061v1_bin_1,CP059908.1,S52_LN_i_16513_dp_f_0.6829546040602374,16513,1.0
GCA_014170615.1_ASM1417061v1,GCA_014170615.1_ASM1417061v1_bin_1,CP059908.1,S56_LN_i_12138_dp_f_0.8955654456822524,12138,1.0
GCA_014170615.1_ASM1417061v1,GCA_014170615.1_ASM1417061v1_bin_1,CP059908.1,S59_LN_i_10024_dp_f_0.6412150400092501,10024,1.0
GCA_014170615.1_ASM1417061v1,GCA_014170615.1_ASM1417061v1_bin_1,CP059908.1,S77_LN_i_4710_dp_f_0.7957084800874747,4710,1.0
GCA_014170615.1_ASM1417061v1,GCA_014170615.1_ASM1417061v1_bin_1,CP059908.1,S87_LN_i_3408_dp_f_0.7277962953651501,3408,1.0
GCA_014170615.1_ASM1417061v1,GCA_014170615.1_ASM1417061v1_bin_1,CP059908.1,S92_LN_i_2891_dp_f_0.6941881235608961,2891,1.0
GCA_013729295.1_ASM1372929v1,GCA_013729295.1_ASM1372929v1_bin_1,CP056279.1,S35_LN_i_44317_dp_f_4.271239101611313,44317,1.0
GCA_013729295.1_ASM1372929v1,GCA_013729295.1_ASM1372929v1_bin_1,CP056280.1,S50_LN_i_21350_dp_f_4.7826801025703345,21350,1.0
GCA_013729295.1_ASM1372929v1,GCA_013729295.1_ASM1372929v1_bin_1,CP056280.1,S58_LN_i_15576_dp_f_6.099913470045717,15576,1.0
GCA_013729295.1_ASM1372929v1,GCA_013729295.1_ASM1372929v1_bin_1,CP056280.1,S71_LN_i_7337_dp_f_5.6258643991812916,7337,1.0
GCA_013729295.1_ASM1372929v1,GCA_013729295.1_ASM1372929v1_bin_1,CP056279.1,S72_LN_i_7241_dp_f_4.622891349483628,7241,1.0
GCA_013729295.1_ASM1372929v1,GCA_013729295.1_ASM1372929v1_bin_1,CP056279.1,S77_LN_i_3491_dp_f_4.426999304661941,3491,1.0
GCA_013729295.1_ASM1372929v1,GCA_013729295.1_ASM1372929v1_bin_2,CP056281.1,S75_LN_i_4074_dp_f_89.3391881000689,4074,1.0
GCA_013886475.1_ASM1388647v1,GCA_013886475.1_ASM1388647v1_bin_Unbinned,CP057572.1,S21_LN_i_88150_dp_f_0.9552768263878298,88150,0.99
GCA_013886475.1_ASM1388647v1,GCA_013886475.1_ASM1388647v1_bin_Unbinned,CP057571.1,S22_LN_i_86614_dp_f_1.0268136541499513,86614,1.0
GCA_013886475.1_ASM1388647v1,GCA_013886475.1_ASM1388647v1_bin_1,CP057573.1,S39_LN_i_4671_dp_f_100.5242595108075,4671,0.95
GCA_013791985.1_ASM1379198v1,GCA_013791985.1_ASM1379198v1_bin_2,CP056845.1,S34_LN_i_46419_dp_f_4.8717370034601775,46419,1.0
GCA_013791985.1_ASM1379198v1,GCA_013791985.1_ASM1379198v1_bin_1,CP056844.1,S33_LN_i_49317_dp_f_2.2195259804784726,49317,1.0
GCA_013791985.1_ASM1379198v1,GCA_013791985.1_ASM1379198v1_bin_1,CP056843.1,S36_LN_i_40327_dp_f_2.4314512666927297,40327,1.0
GCA_013791985.1_ASM1379198v1,GCA_013791985.1_ASM1379198v1_bin_1,CP056843.1,S53_LN_i_6715_dp_f_2.1241967088720264,6715,1.0
GCA_013791985.1_ASM1379198v1,GCA_013791985.1_ASM1379198v1_bin_1,CP056843.1,S54_LN_i_6689_dp_f_2.2213759239898954,6689,1.0
GCA_013791985.1_ASM1379198v1,GCA_013791985.1_ASM1379198v1_bin_1,CP056843.1,S55_LN_i_5396_dp_f_2.6432499649189265,5396,1.0
GCA_013791985.1_ASM1379198v1,GCA_013791985.1_ASM1379198v1_bin_1,CP056843.1,S58_LN_i_4225_dp_f_2.530481945457344,4225,1.0
GCA_013791985.1_ASM1379198v1,GCA_013791985.1_ASM1379198v1_bin_1,CP056843.1,S60_LN_i_3850_dp_f_2.476351507775593,3850,1.0
GCA_013791985.1_ASM1379198v1,GCA_013791985.1_ASM1379198v1_bin_1,CP056843.1,S61_LN_i_3573_dp_f_1.8751672063772107,3573,1.0
GCA_013791985.1_ASM1379198v1,GCA_013791985.1_ASM1379198v1_bin_1,CP056842.1,S63_LN_i_3413_dp_f_1.0909776510236768,3413,1.0
GCA_013791985.1_ASM1379198v1,GCA_013791985.1_ASM1379198v1_bin_1,CP056843.1,S65_LN_i_2946_dp_f_2.106502913927469,2946,1.0
GCA_013791985.1_ASM1379198v1,GCA_013791985.1_ASM1379198v1_bin_1,CP056843.1,S67_LN_i_1817_dp_f_2.6105739312539984,1817,1.0
GCA_013791985.1_ASM1379198v1,GCA_013791985.1_ASM1379198v1_bin_1,CP056844.1,S70_LN_i_1764_dp_f_2.4634204816892256,1764,1.0
GCA_013791985.1_ASM1379198v1,GCA_013791985.1_ASM1379198v1_bin_1,CP056843.1,S71_LN_i_1672_dp_f_2.7192100142066424,1672,1.0
GCA_013791985.1_ASM1379198v1,GCA_013791985.1_ASM1379198v1_bin_1,CP056843.1,S77_LN_i_1357_dp_f_2.474282246912067,1357,1.0
GCA_013790145.1_ASM1379014v1,GCA_013790145.1_ASM1379014v1_bin_1,CP056794.1,S46_LN_i_18478_dp_f_0.8681951648225008,18478,1.0
GCA_013790145.1_ASM1379014v1,GCA_013790145.1_ASM1379014v1_bin_1,CP056794.1,S51_LN_i_10219_dp_f_0.9482530232986907,10219,1.0
GCA_013790145.1_ASM1379014v1,GCA_013790145.1_ASM1379014v1_bin_1,CP056794.1,S57_LN_i_4327_dp_f_1.061725110410723,4327,1.0
GCA_013790145.1_ASM1379014v1,GCA_013790145.1_ASM1379014v1_bin_1,CP056794.1,S60_LN_i_4233_dp_f_1.0083659075098563,4233,1.0
GCA_013790145.1_ASM1379014v1,GCA_013790145.1_ASM1379014v1_bin_1,CP056794.1,S61_LN_i_4148_dp_f_1.012574936083327,4148,1.0
GCA_013790145.1_ASM1379014v1,GCA_013790145.1_ASM1379014v1_bin_1,CP056794.1,S62_LN_i_3974_dp_f_0.8446613086574363,3974,1.0
GCA_013790145.1_ASM1379014v1,GCA_013790145.1_ASM1379014v1_bin_1,CP056794.1,S67_LN_i_2965_dp_f_0.9393330102819829,2965,1.0
GCA_013790145.1_ASM1379014v1,GCA_013790145.1_ASM1379014v1_bin_1,CP056794.1,S74_LN_i_2197_dp_f_0.7643453713302554,2197,1.0
GCA_013790145.1_ASM1379014v1,GCA_013790145.1_ASM1379014v1_bin_1,CP056794.1,S76_LN_i_2118_dp_f_1.1416291157045733,2118,1.0
GCA_013790145.1_ASM1379014v1,GCA_013790145.1_ASM1379014v1_bin_1,CP056794.1,S78_LN_i_1631_dp_f_0.8655969396185913,1631,1.0
GCA_013790145.1_ASM1379014v1,GCA_013790145.1_ASM1379014v1_bin_1,CP056794.1,S80_LN_i_1535_dp_f_1.1302291471866877,1535,1.0
GCA_013790145.1_ASM1379014v1,GCA_013790145.1_ASM1379014v1_bin_1,CP056794.1,S86_LN_i_1195_dp_f_1.0084678451055398,1195,1.0
GCA_013790145.1_ASM1379014v1,GCA_013790145.1_ASM1379014v1_bin_1,CP056794.1,S88_LN_i_1129_dp_f_0.9653828788222403,1129,1.0
GCA_013790145.1_ASM1379014v1,GCA_013790145.1_ASM1379014v1_bin_1,CP056794.1,S90_LN_i_1105_dp_f_0.8899840103035634,1105,1.0
GCA_013790145.1_ASM1379014v1,GCA_013790145.1_ASM1379014v1_bin_1,CP056794.1,S94_LN_i_1033_dp_f_0.8918047640927173,1033,1.0
GCA_013790145.1_ASM1379014v1,GCA_013790145.1_ASM1379014v1_bin_5,CP056799.1,S33_LN_i_41391_dp_f_3.85878985157967,41391,1.0
GCA_013790145.1_ASM1379014v1,GCA_013790145.1_ASM1379014v1_bin_3,CP056795.1,S9_LN_i_201176_dp_f_0.808110131982292,201176,1.0
GCA_013790145.1_ASM1379014v1,GCA_013790145.1_ASM1379014v1_bin_2,CP056798.1,S26_LN_i_56808_dp_f_2.2855723463579447,56808,1.0
GCA_013790145.1_ASM1379014v1,GCA_013790145.1_ASM1379014v1_bin_2,CP056797.1,S30_LN_i_45899_dp_f_1.434185044674755,45899,1.0
GCA_013790145.1_ASM1379014v1,GCA_013790145.1_ASM1379014v1_bin_2,CP056797.1,S45_LN_i_19475_dp_f_1.4185440145618446,19475,1.0
GCA_013790145.1_ASM1379014v1,GCA_013790145.1_ASM1379014v1_bin_2,CP056797.1,S50_LN_i_12923_dp_f_1.4523765660555152,12923,1.0
GCA_013790145.1_ASM1379014v1,GCA_013790145.1_ASM1379014v1_bin_2,CP056798.1,S55_LN_i_4713_dp_f_2.3202520318550213,4713,1.0
GCA_013790145.1_ASM1379014v1,GCA_013790145.1_ASM1379014v1_bin_2,CP056797.1,S64_LN_i_3728_dp_f_1.5609198283979315,3728,1.0
GCA_013790145.1_ASM1379014v1,GCA_013790145.1_ASM1379014v1_bin_2,CP056797.1,S84_LN_i_1306_dp_f_1.5419730062404857,1306,1.0
GCA_013790145.1_ASM1379014v1,GCA_013790145.1_ASM1379014v1_bin_2,CP056798.1,S93_LN_i_1035_dp_f_2.5761020630779727,1035,1.0
GCA_013790145.1_ASM1379014v1,GCA_013790145.1_ASM1379014v1_bin_2,CP056797.1,S95_LN_i_1013_dp_f_1.6307191511710595,1013,1.0
GCA_013790145.1_ASM1379014v1,GCA_013790145.1_ASM1379014v1_bin_4,CP056796.1,S22_LN_i_86505_dp_f_0.9287413533261353,86505,1.0
GCA_014169595.1_ASM1416959v1,GCA_014169595.1_ASM1416959v1_bin_1,AP022219.1,S59_LN_i_1521_dp_f_5.44973493849922,1521,1.0
GCA_014169595.1_ASM1416959v1,GCA_014169595.1_ASM1416959v1_bin_4,AP022216.1,S20_LN_i_90733_dp_f_0.2387757178438228,90733,1.0
GCA_014169595.1_ASM1416959v1,GCA_014169595.1_ASM1416959v1_bin_3,AP022217.1,S19_LN_i_91103_dp_f_0.6638724060338301,91103,1.0
GCA_014169595.1_ASM1416959v1,GCA_014169595.1_ASM1416959v1_bin_2,AP022220.1,S60_LN_i_1507_dp_f_19.729549263751167,1507,0.97
GCA_014170695.1_ASM1417069v1,GCA_014170695.1_ASM1417069v1_bin_1,CP059923.1,S24_LN_i_72860_dp_f_0.48001329060460207,72860,0.07,1,5423
GCA_014170695.1_ASM1417069v1,GCA_014170695.1_ASM1417069v1_bin_1,CP059924.1,S24_LN_i_72860_dp_f_0.48001329060460207,72860,0.19,5484,19422
GCA_014170695.1_ASM1417069v1,GCA_014170695.1_ASM1417069v1_bin_1,CP059923.1,S24_LN_i_72860_dp_f_0.48001329060460207,72860,0.73,19423,72860
GCA_014170695.1_ASM1417069v1,GCA_014170695.1_ASM1417069v1_bin_1,CP059923.1,S70_LN_i_4582_dp_f_0.260478588463274,4582,1.0
GCA_014170695.1_ASM1417069v1,GCA_014170695.1_ASM1417069v1_bin_Unbinned,CP059924.1,S104_LN_i_1213_dp_f_0.28725280326595026,1213,1.0
GCA_014170695.1_ASM1417069v1,GCA_014170695.1_ASM1417069v1_bin_Unbinned,CP059923.1,S40_LN_i_24035_dp_f_0.5307381672948542,24035,1.0
GCA_014170695.1_ASM1417069v1,GCA_014170695.1_ASM1417069v1_bin_Unbinned,CP059924.1,S41_LN_i_22999_dp_f_0.3739763499885073,22999,1.0
GCA_014170695.1_ASM1417069v1,GCA_014170695.1_ASM1417069v1_bin_Unbinned,CP059923.1,S83_LN_i_2582_dp_f_0.27613458332661395,2582,1.0
GCA_014170695.1_ASM1417069v1,GCA_014170695.1_ASM1417069v1_bin_2,CP059924.1,S63_LN_i_8315_dp_f_0.40336418549532577,8315,0.97
GCA_014170695.1_ASM1417069v1,GCA_014170695.1_ASM1417069v1_bin_2,CP059924.1,S67_LN_i_5489_dp_f_0.366743022424795,5489,1.0
GCA_014170695.1_ASM1417069v1,GCA_014170695.1_ASM1417069v1_bin_2,CP059923.1,S71_LN_i_4418_dp_f_0.587753091944906,4418,1.0
GCA_014170695.1_ASM1417069v1,GCA_014170695.1_ASM1417069v1_bin_4,CP059923.1,S64_LN_i_7679_dp_f_0.5110295027869479,7679,1.0
GCA_014170695.1_ASM1417069v1,GCA_014170695.1_ASM1417069v1_bin_4,CP059923.1,S81_LN_i_2911_dp_f_0.43674489629186597,2911,1.0
GCA_014170695.1_ASM1417069v1,GCA_014170695.1_ASM1417069v1_bin_3,CP059924.1,S38_LN_i_27918_dp_f_0.4197168832258716,27918,1.0
GCA_014170695.1_ASM1417069v1,GCA_014170695.1_ASM1417069v1_bin_3,CP059924.1,S48_LN_i_20385_dp_f_0.37903795863205475,20385,1.0
GCA_014170695.1_ASM1417069v1,GCA_014170695.1_ASM1417069v1_bin_3,CP059923.1,S78_LN_i_3076_dp_f_0.4127281454050375,3076,1.0
GCA_014170695.1_ASM1417069v1,GCA_014170695.1_ASM1417069v1_bin_3,CP059923.1,S80_LN_i_2947_dp_f_0.6498303224661255,2947,1.0
GCA_014170695.1_ASM1417069v1,GCA_014170695.1_ASM1417069v1_bin_3,CP059923.1,S86_LN_i_2340_dp_f_0.5318123945486735,2340,1.0
GCA_013824985.1_ASM1382498v1,GCA_013824985.1_ASM1382498v1_bin_4,CP057291.1,S96_LN_i_5128_dp_f_16.06363649252532,5128,0.95
GCA_013824985.1_ASM1382498v1,GCA_013824985.1_ASM1382498v1_bin_3,CP057290.1,S74_LN_i_14612_dp_f_2.0321084967204848,14612,1.0
GCA_013824985.1_ASM1382498v1,GCA_013824985.1_ASM1382498v1_bin_3,CP057290.1,S79_LN_i_10837_dp_f_2.004807365592316,10837,1.0
GCA_013824985.1_ASM1382498v1,GCA_013824985.1_ASM1382498v1_bin_1,CP057289.1,S56_LN_i_28800_dp_f_0.8630599676957719,28800,1.0
GCA_013824985.1_ASM1382498v1,GCA_013824985.1_ASM1382498v1_bin_1,CP057289.1,S61_LN_i_22139_dp_f_0.8926945769625856,22139,1.0
GCA_013824985.1_ASM1382498v1,GCA_013824985.1_ASM1382498v1_bin_1,CP057289.1,S73_LN_i_15603_dp_f_0.8461967202195878,15603,1.0
GCA_013824985.1_ASM1382498v1,GCA_013824985.1_ASM1382498v1_bin_1,CP057289.1,S80_LN_i_9785_dp_f_0.8612300831034873,9785,1.0
GCA_013824985.1_ASM1382498v1,GCA_013824985.1_ASM1382498v1_bin_1,CP057290.1,S84_LN_i_8324_dp_f_1.6903064169585653,8324,1.0
GCA_013824985.1_ASM1382498v1,GCA_013824985.1_ASM1382498v1_bin_2,CP057288.1,S111_LN_i_2886_dp_f_0.7447078964489282,2886,1.0
GCA_013824985.1_ASM1382498v1,GCA_013824985.1_ASM1382498v1_bin_2,CP057288.1,S114_LN_i_2737_dp_f_0.6039717896643357,2737,1.0
GCA_013824985.1_ASM1382498v1,GCA_013824985.1_ASM1382498v1_bin_2,CP057288.1,S20_LN_i_82788_dp_f_0.656756376973925,82788,1.0
GCA_013824985.1_ASM1382498v1,GCA_013824985.1_ASM1382498v1_bin_2,CP057288.1,S57_LN_i_26410_dp_f_0.6509687236148398,26410,1.0
GCA_013824985.1_ASM1382498v1,GCA_013824985.1_ASM1382498v1_bin_2,CP057288.1,S58_LN_i_26005_dp_f_0.7253392921438779,26005,1.0
GCA_013824985.1_ASM1382498v1,GCA_013824985.1_ASM1382498v1_bin_2,CP057288.1,S87_LN_i_7287_dp_f_0.7421565469012037,7287,1.0
GCA_013824985.1_ASM1382498v1,GCA_013824985.1_ASM1382498v1_bin_2,CP057288.1,S89_LN_i_7075_dp_f_0.6432002063770155,7075,1.0
GCA_013824985.1_ASM1382498v1,GCA_013824985.1_ASM1382498v1_bin_2,CP057287.1,S90_LN_i_6489_dp_f_1.4344651489233915,6489,1.0
GCA_013824985.1_ASM1382498v1,GCA_013824985.1_ASM1382498v1_bin_2,CP057288.1,S90_LN_i_6489_dp_f_1.4344651489233915,6489,1.0
GCA_013824985.1_ASM1382498v1,GCA_013824985.1_ASM1382498v1_bin_2,CP057288.1,S92_LN_i_6086_dp_f_0.7464588234454876,6086,1.0
GCA_013824985.1_ASM1382498v1,GCA_013824985.1_ASM1382498v1_bin_2,CP057288.1,S94_LN_i_5903_dp_f_0.811566060223477,5903,1.0
GCA_013824985.1_ASM1382498v1,GCA_013824985.1_ASM1382498v1_bin_2,CP057288.1,S97_LN_i_4955_dp_f_0.6721399394652852,4955,1.0
GCA_013824985.1_ASM1382498v1,GCA_013824985.1_ASM1382498v1_bin_5,CP057292.1,S107_LN_i_3126_dp_f_12.101559708474024,3126,1.0
GCA_013801205.1_ASM1380120v1,GCA_013801205.1_ASM1380120v1_bin_2,CP056956.1,S24_LN_i_66632_dp_f_1.1418090909103213,66632,1.0
GCA_013801205.1_ASM1380120v1,GCA_013801205.1_ASM1380120v1_bin_2,CP056956.1,S43_LN_i_28989_dp_f_1.075144280095246,28989,1.0
GCA_013801205.1_ASM1380120v1,GCA_013801205.1_ASM1380120v1_bin_2,CP056956.1,S53_LN_i_15523_dp_f_1.1151271459746608,15523,1.0
GCA_013801205.1_ASM1380120v1,GCA_013801205.1_ASM1380120v1_bin_1,CP056956.1,S57_LN_i_9711_dp_f_0.8049341743439741,9711,1.0
GCA_013801205.1_ASM1380120v1,GCA_013801205.1_ASM1380120v1_bin_1,CP056956.1,S60_LN_i_8017_dp_f_0.9568885365469386,8017,1.0
GCA_013801205.1_ASM1380120v1,GCA_013801205.1_ASM1380120v1_bin_1,CP056956.1,S62_LN_i_7215_dp_f_0.8372195837297967,7215,1.0
GCA_013801205.1_ASM1380120v1,GCA_013801205.1_ASM1380120v1_bin_1,CP056956.1,S64_LN_i_6562_dp_f_0.7594212431764594,6562,1.0
GCA_013801205.1_ASM1380120v1,GCA_013801205.1_ASM1380120v1_bin_Unbinned,CP056958.1,S65_LN_i_5609_dp_f_38.50638131110227,5609,1.0
GCA_013801205.1_ASM1380120v1,GCA_013801205.1_ASM1380120v1_bin_Unbinned,CP056957.1,S67_LN_i_5446_dp_f_45.07451987372478,5446,1.0
GCA_013801205.1_ASM1380120v1,GCA_013801205.1_ASM1380120v1_bin_Unbinned,CP056959.1,S69_LN_i_4420_dp_f_67.0378907636476,4420,1.0
GCA_013801205.1_ASM1380120v1,GCA_013801205.1_ASM1380120v1_bin_3,CP056960.1,S70_LN_i_3743_dp_f_28.06132164669956,3743,1.0
GCA_013996855.1_ASM1399685v1,GCA_013996855.1_ASM1399685v1_bin_Unbinned,CP058032.1,S16_LN_i_112182_dp_f_0.6799240420377568,112182,1.0
GCA_013996855.1_ASM1399685v1,GCA_013996855.1_ASM1399685v1_bin_Unbinned,CP058031.1,S51_LN_i_6570_dp_f_0.8317706436821365,6570,1.0
GCA_013996855.1_ASM1399685v1,GCA_013996855.1_ASM1399685v1_bin_1,CP058033.1,S50_LN_i_6768_dp_f_16.049509553857824,6768,1.0
GCA_013996855.1_ASM1399685v1,GCA_013996855.1_ASM1399685v1_bin_3,CP058035.1,S56_LN_i_2460_dp_f_84.90400394141355,2460,1.0
GCA_013996855.1_ASM1399685v1,GCA_013996855.1_ASM1399685v1_bin_2,CP058034.1,S52_LN_i_4664_dp_f_22.71592419716801,4664,1.0
GCA_013790405.1_ASM1379040v1,GCA_013790405.1_ASM1379040v1_bin_2,CP056820.1,S29_LN_i_36067_dp_f_2.8550673659169825,36067,1.0
GCA_013790405.1_ASM1379040v1,GCA_013790405.1_ASM1379040v1_bin_1,CP056818.1,S24_LN_i_65925_dp_f_4.327778755351951,65925,1.0
GCA_013790405.1_ASM1379040v1,GCA_013790405.1_ASM1379040v1_bin_1,CP056819.1,S35_LN_i_27570_dp_f_1.6805456156852696,27570,1.0
GCA_013790405.1_ASM1379040v1,GCA_013790405.1_ASM1379040v1_bin_1,CP056819.1,S37_LN_i_22618_dp_f_1.7411595344034376,22618,1.0
GCA_013790405.1_ASM1379040v1,GCA_013790405.1_ASM1379040v1_bin_1,CP056817.1,S39_LN_i_18901_dp_f_2.103384640117434,18901,1.0
GCA_013790405.1_ASM1379040v1,GCA_013790405.1_ASM1379040v1_bin_1,CP056817.1,S47_LN_i_10329_dp_f_2.1927438039334053,10329,1.0
GCA_013790405.1_ASM1379040v1,GCA_013790405.1_ASM1379040v1_bin_1,CP056819.1,S48_LN_i_10163_dp_f_1.659461044227784,10163,1.0
GCA_013790405.1_ASM1379040v1,GCA_013790405.1_ASM1379040v1_bin_1,CP056817.1,S55_LN_i_6159_dp_f_2.477140656851983,6159,1.0
GCA_013790405.1_ASM1379040v1,GCA_013790405.1_ASM1379040v1_bin_1,CP056819.1,S56_LN_i_5650_dp_f_1.6874908578014858,5650,1.0
GCA_013790405.1_ASM1379040v1,GCA_013790405.1_ASM1379040v1_bin_1,CP056819.1,S70_LN_i_1663_dp_f_1.8208341290195778,1663,1.0
GCA_013790405.1_ASM1379040v1,GCA_013790405.1_ASM1379040v1_bin_1,CP056818.1,S72_LN_i_1582_dp_f_4.642483055699519,1582,1.0
GCA_013837755.1_ASM1383775v1,GCA_013837755.1_ASM1383775v1_bin_5,CP057499.1,S70_LN_i_1551_dp_f_107.23487157574408,1551,1.0
GCA_013837755.1_ASM1383775v1,GCA_013837755.1_ASM1383775v1_bin_1,CP057494.1,S20_LN_i_96123_dp_f_1.03309350275031,96123,1.0
GCA_013837755.1_ASM1383775v1,GCA_013837755.1_ASM1383775v1_bin_1,CP057494.1,S36_LN_i_37550_dp_f_0.9211744751488562,37550,1.0
GCA_013837755.1_ASM1383775v1,GCA_013837755.1_ASM1383775v1_bin_2,CP057496.1,S58_LN_i_3101_dp_f_139.46511361372887,3101,1.0
GCA_013837755.1_ASM1383775v1,GCA_013837755.1_ASM1383775v1_bin_2,CP057496.1,S64_LN_i_1857_dp_f_144.7860083398932,1857,1.0
GCA_013837755.1_ASM1383775v1,GCA_013837755.1_ASM1383775v1_bin_Unbinned,CP057497.1,S62_LN_i_2198_dp_f_67.87536749979962,2198,1.0
GCA_013837755.1_ASM1383775v1,GCA_013837755.1_ASM1383775v1_bin_Unbinned,CP057497.1,S67_LN_i_1678_dp_f_86.54629395611508,1678,1.0
GCA_013837755.1_ASM1383775v1,GCA_013837755.1_ASM1383775v1_bin_4,CP057498.1,S60_LN_i_2590_dp_f_191.99429913343138,2590,1.0
GCA_013837755.1_ASM1383775v1,GCA_013837755.1_ASM1383775v1_bin_3,CP057495.1,S52_LN_i_6826_dp_f_91.76791477549882,6826,1.0
GCA_013748455.1_ASM1374845v1,GCA_013748455.1_ASM1374845v1_bin_1,CP056472.1,S101_LN_i_1164_dp_f_4.564144376583589,1164,1.0
GCA_013748455.1_ASM1374845v1,GCA_013748455.1_ASM1374845v1_bin_1,CP056471.1,S102_LN_i_1076_dp_f_2.0952049478035737,1076,1.0
GCA_013748455.1_ASM1374845v1,GCA_013748455.1_ASM1374845v1_bin_1,CP056472.1,S103_LN_i_1076_dp_f_4.52783513237323,1076,1.0
GCA_013748455.1_ASM1374845v1,GCA_013748455.1_ASM1374845v1_bin_1,CP056472.1,S35_LN_i_36776_dp_f_4.053054906257092,36776,1.0
GCA_013748455.1_ASM1374845v1,GCA_013748455.1_ASM1374845v1_bin_1,CP056471.1,S50_LN_i_11456_dp_f_1.9401767773422538,11456,1.0
GCA_013748455.1_ASM1374845v1,GCA_013748455.1_ASM1374845v1_bin_1,CP056471.1,S51_LN_i_10998_dp_f_1.7721422780423128,10998,1.0
GCA_013748455.1_ASM1374845v1,GCA_013748455.1_ASM1374845v1_bin_1,CP056471.1,S52_LN_i_10551_dp_f_1.635200901695351,10551,1.0
GCA_013748455.1_ASM1374845v1,GCA_013748455.1_ASM1374845v1_bin_1,CP056472.1,S53_LN_i_9920_dp_f_4.205236882552886,9920,1.0
GCA_013748455.1_ASM1374845v1,GCA_013748455.1_ASM1374845v1_bin_1,CP056471.1,S54_LN_i_9676_dp_f_2.161569601552227,9676,1.0
GCA_013748455.1_ASM1374845v1,GCA_013748455.1_ASM1374845v1_bin_1,CP056471.1,S56_LN_i_7604_dp_f_2.1227155931549664,7604,1.0
GCA_013748455.1_ASM1374845v1,GCA_013748455.1_ASM1374845v1_bin_1,CP056471.1,S59_LN_i_5607_dp_f_2.0123238661575344,5607,1.0
GCA_013748455.1_ASM1374845v1,GCA_013748455.1_ASM1374845v1_bin_1,CP056471.1,S61_LN_i_5200_dp_f_2.1045766291198253,5200,1.0
GCA_013748455.1_ASM1374845v1,GCA_013748455.1_ASM1374845v1_bin_1,CP056472.1,S69_LN_i_3023_dp_f_4.380391439149639,3023,1.0
GCA_013748455.1_ASM1374845v1,GCA_013748455.1_ASM1374845v1_bin_1,CP056470.1,S73_LN_i_2817_dp_f_0.9676593665979362,2817,1.0
GCA_013748455.1_ASM1374845v1,GCA_013748455.1_ASM1374845v1_bin_1,CP056470.1,S74_LN_i_2600_dp_f_0.8332618414538544,2600,1.0
GCA_013748455.1_ASM1374845v1,GCA_013748455.1_ASM1374845v1_bin_1,CP056471.1,S76_LN_i_2582_dp_f_1.8912712279153217,2582,1.0
GCA_013748455.1_ASM1374845v1,GCA_013748455.1_ASM1374845v1_bin_1,CP056470.1,S80_LN_i_2186_dp_f_1.0071925109956146,2186,1.0
GCA_013748455.1_ASM1374845v1,GCA_013748455.1_ASM1374845v1_bin_1,CP056471.1,S84_LN_i_1893_dp_f_1.8597915858071388,1893,1.0
GCA_013748455.1_ASM1374845v1,GCA_013748455.1_ASM1374845v1_bin_1,CP056471.1,S95_LN_i_1348_dp_f_1.6938428033791089,1348,1.0
GCA_013748455.1_ASM1374845v1,GCA_013748455.1_ASM1374845v1_bin_1,CP056472.1,S96_LN_i_1346_dp_f_3.349758863987849,1346,1.0
GCA_013748455.1_ASM1374845v1,GCA_013748455.1_ASM1374845v1_bin_1,CP056471.1,S99_LN_i_1240_dp_f_2.011061892710047,1240,1.0
GCA_013802065.1_ASM1380206v1,GCA_013802065.1_ASM1380206v1_bin_2,CP056975.1,S104_LN_i_4791_dp_f_1.2814320792589258,4791,1.0
GCA_013802065.1_ASM1380206v1,GCA_013802065.1_ASM1380206v1_bin_2,CP056975.1,S107_LN_i_4286_dp_f_1.0017357044473145,4286,1.0
GCA_013802065.1_ASM1380206v1,GCA_013802065.1_ASM1380206v1_bin_2,CP056977.1,S113_LN_i_3649_dp_f_1.858007149242731,3649,1.0
GCA_013802065.1_ASM1380206v1,GCA_013802065.1_ASM1380206v1_bin_2,CP056977.1,S118_LN_i_3003_dp_f_1.7565546529499885,3003,1.0
GCA_013802065.1_ASM1380206v1,GCA_013802065.1_ASM1380206v1_bin_2,CP056975.1,S123_LN_i_2557_dp_f_0.782002300144166,2557,1.0
GCA_013802065.1_ASM1380206v1,GCA_013802065.1_ASM1380206v1_bin_2,CP056977.1,S125_LN_i_2372_dp_f_1.0529634873586111,2372,1.0
GCA_013802065.1_ASM1380206v1,GCA_013802065.1_ASM1380206v1_bin_2,CP056977.1,S134_LN_i_1960_dp_f_1.4287249596786193,1960,1.0
GCA_013802065.1_ASM1380206v1,GCA_013802065.1_ASM1380206v1_bin_2,CP056976.1,S135_LN_i_1906_dp_f_1.705965666502746,1906,1.0
GCA_013802065.1_ASM1380206v1,GCA_013802065.1_ASM1380206v1_bin_2,CP056976.1,S47_LN_i_30850_dp_f_1.2734728688314831,30850,1.0
GCA_013802065.1_ASM1380206v1,GCA_013802065.1_ASM1380206v1_bin_2,CP056975.1,S75_LN_i_15920_dp_f_0.9874590146762844,15920,1.0
GCA_013802065.1_ASM1380206v1,GCA_013802065.1_ASM1380206v1_bin_2,CP056976.1,S99_LN_i_5974_dp_f_1.5146932555013466,5974,1.0
GCA_013802065.1_ASM1380206v1,GCA_013802065.1_ASM1380206v1_bin_9,CP056981.1,S111_LN_i_3751_dp_f_65.86862352890252,3751,1.0
GCA_013802065.1_ASM1380206v1,GCA_013802065.1_ASM1380206v1_bin_7,CP056979.1,S109_LN_i_4072_dp_f_50.99129174479783,4072,1.0
GCA_013802065.1_ASM1380206v1,GCA_013802065.1_ASM1380206v1_bin_6,CP056984.1,S158_LN_i_1087_dp_f_43.41432196893349,1087,0.93
GCA_013802065.1_ASM1380206v1,GCA_013802065.1_ASM1380206v1_bin_8,CP056980.1,S110_LN_i_4018_dp_f_47.74911671558859,4018,1.0
GCA_013802065.1_ASM1380206v1,GCA_013802065.1_ASM1380206v1_bin_4,CP056975.1,S122_LN_i_2577_dp_f_1.059920563345779,2577,1.0
GCA_013802065.1_ASM1380206v1,GCA_013802065.1_ASM1380206v1_bin_4,CP056977.1,S141_LN_i_1596_dp_f_1.4985167946120947,1596,1.0
GCA_013802065.1_ASM1380206v1,GCA_013802065.1_ASM1380206v1_bin_4,CP056975.1,S142_LN_i_1569_dp_f_0.8714588421180257,1569,1.0
GCA_013802065.1_ASM1380206v1,GCA_013802065.1_ASM1380206v1_bin_4,CP056975.1,S156_LN_i_1119_dp_f_1.1341288385848636,1119,1.0
GCA_013802065.1_ASM1380206v1,GCA_013802065.1_ASM1380206v1_bin_4,CP056977.1,S164_LN_i_1015_dp_f_1.694870379720385,1015,1.0
GCA_013802065.1_ASM1380206v1,GCA_013802065.1_ASM1380206v1_bin_4,CP056974.1,S64_LN_i_23417_dp_f_0.8187970322300498,23417,1.0
GCA_013802065.1_ASM1380206v1,GCA_013802065.1_ASM1380206v1_bin_4,CP056977.1,S70_LN_i_19400_dp_f_1.951675251661216,19400,1.0
GCA_013802065.1_ASM1380206v1,GCA_013802065.1_ASM1380206v1_bin_4,CP056977.1,S86_LN_i_10693_dp_f_1.8258797630501624,10693,1.0
GCA_013802065.1_ASM1380206v1,GCA_013802065.1_ASM1380206v1_bin_4,CP056975.1,S88_LN_i_10625_dp_f_1.1283274211401368,10625,1.0
GCA_013802065.1_ASM1380206v1,GCA_013802065.1_ASM1380206v1_bin_1,CP056978.1,S58_LN_i_25768_dp_f_3.5137898307077453,25768,1.0
GCA_013802065.1_ASM1380206v1,GCA_013802065.1_ASM1380206v1_bin_1,CP056978.1,S84_LN_i_13743_dp_f_3.220628835047667,13743,1.0
GCA_013802065.1_ASM1380206v1,GCA_013802065.1_ASM1380206v1_bin_1,CP056978.1,S96_LN_i_8367_dp_f_3.7380148106665825,8367,1.0
GCA_013802065.1_ASM1380206v1,GCA_013802065.1_ASM1380206v1_bin_3,CP056977.1,S128_LN_i_2313_dp_f_1.6646998139597153,2313,1.0
GCA_013802065.1_ASM1380206v1,GCA_013802065.1_ASM1380206v1_bin_3,CP056977.1,S145_LN_i_1454_dp_f_1.7265627039655287,1454,1.0
GCA_013802065.1_ASM1380206v1,GCA_013802065.1_ASM1380206v1_bin_3,CP056977.1,S162_LN_i_1036_dp_f_1.689254523261216,1036,1.0
GCA_013802065.1_ASM1380206v1,GCA_013802065.1_ASM1380206v1_bin_10,CP056982.1,S120_LN_i_2601_dp_f_23.898070527616344,2601,1.0
GCA_013802065.1_ASM1380206v1,GCA_013802065.1_ASM1380206v1_bin_5,CP056983.1,S157_LN_i_1100_dp_f_62.22368426006521,1100,0.93
GCA_014169415.1_ASM1416941v1,GCA_014169415.1_ASM1416941v1_bin_1,AP022163.1,S20_LN_i_92181_dp_f_0.27697822317566567,92181,1.0
GCA_014169415.1_ASM1416941v1,GCA_014169415.1_ASM1416941v1_bin_Unbinned,AP022165.1,S87_LN_i_3864_dp_f_7.235994547279701,3864,1.0
GCA_014169415.1_ASM1416941v1,GCA_014169415.1_ASM1416941v1_bin_Unbinned,AP022166.1,S97_LN_i_2494_dp_f_35.34367327568462,2494,1.0
GCA_014169415.1_ASM1416941v1,GCA_014169415.1_ASM1416941v1_bin_5,AP022170.1,S99_LN_i_2088_dp_f_52.6281977890553,2088,1.0
GCA_014169415.1_ASM1416941v1,GCA_014169415.1_ASM1416941v1_bin_2,AP022162.1,S50_LN_i_18126_dp_f_0.3546420479885467,18126,1.0
GCA_014169415.1_ASM1416941v1,GCA_014169415.1_ASM1416941v1_bin_2,AP022162.1,S51_LN_i_18073_dp_f_0.39337158436475794,18073,1.0
GCA_014169415.1_ASM1416941v1,GCA_014169415.1_ASM1416941v1_bin_2,AP022162.1,S53_LN_i_16872_dp_f_0.3559502650030232,16872,1.0
GCA_014169415.1_ASM1416941v1,GCA_014169415.1_ASM1416941v1_bin_2,AP022162.1,S54_LN_i_15377_dp_f_0.35969433571240406,15377,1.0
GCA_014169415.1_ASM1416941v1,GCA_014169415.1_ASM1416941v1_bin_2,AP022162.1,S61_LN_i_10779_dp_f_0.32445886968014326,10779,1.0
GCA_014169415.1_ASM1416941v1,GCA_014169415.1_ASM1416941v1_bin_2,AP022162.1,S64_LN_i_9903_dp_f_0.30052899434052244,9903,1.0
GCA_014169415.1_ASM1416941v1,GCA_014169415.1_ASM1416941v1_bin_2,AP022162.1,S65_LN_i_8980_dp_f_0.3334678759987318,8980,1.0
GCA_014169415.1_ASM1416941v1,GCA_014169415.1_ASM1416941v1_bin_2,AP022162.1,S71_LN_i_7836_dp_f_0.3662957356775129,7836,1.0
GCA_014169415.1_ASM1416941v1,GCA_014169415.1_ASM1416941v1_bin_2,AP022162.1,S78_LN_i_5785_dp_f_0.3195307507558851,5785,1.0
GCA_014169415.1_ASM1416941v1,GCA_014169415.1_ASM1416941v1_bin_2,AP022162.1,S83_LN_i_4492_dp_f_0.26681393568528927,4492,1.0
GCA_014169415.1_ASM1416941v1,GCA_014169415.1_ASM1416941v1_bin_2,AP022162.1,S84_LN_i_4264_dp_f_0.32504767886604435,4264,1.0
GCA_014169415.1_ASM1416941v1,GCA_014169415.1_ASM1416941v1_bin_2,AP022162.1,S86_LN_i_4032_dp_f_0.3382102445763054,4032,1.0
GCA_014169415.1_ASM1416941v1,GCA_014169415.1_ASM1416941v1_bin_2,AP022162.1,S92_LN_i_3561_dp_f_0.29412504084242347,3561,1.0
GCA_014169415.1_ASM1416941v1,GCA_014169415.1_ASM1416941v1_bin_4,AP022167.1,S81_LN_i_5167_dp_f_30.805080038457465,5167,1.0
GCA_014169415.1_ASM1416941v1,GCA_014169415.1_ASM1416941v1_bin_3,AP022164.1,S33_LN_i_47454_dp_f_0.5435215916761611,47454,1.0
GCA_013824345.1_ASM1382434v1,GCA_013824345.1_ASM1382434v1_bin_3,CP057199.1,S66_LN_i_3487_dp_f_14.57757643597193,3487,1.0
GCA_013824345.1_ASM1382434v1,GCA_013824345.1_ASM1382434v1_bin_1,CP057195.1,S25_LN_i_72951_dp_f_1.9997495365960543,72951,1.0
GCA_013824345.1_ASM1382434v1,GCA_013824345.1_ASM1382434v1_bin_1,CP057195.1,S36_LN_i_28294_dp_f_1.845752022791786,28294,1.0
GCA_013824345.1_ASM1382434v1,GCA_013824345.1_ASM1382434v1_bin_1,CP057195.1,S63_LN_i_4234_dp_f_2.253868609696295,4234,1.0
GCA_013824345.1_ASM1382434v1,GCA_013824345.1_ASM1382434v1_bin_2,CP057196.1,S38_LN_i_27020_dp_f_1.8725699336747257,27020,1.0
GCA_013824345.1_ASM1382434v1,GCA_013824345.1_ASM1382434v1_bin_2,CP057196.1,S39_LN_i_23641_dp_f_1.6242084535052619,23641,1.0
GCA_013824345.1_ASM1382434v1,GCA_013824345.1_ASM1382434v1_bin_2,CP057196.1,S53_LN_i_9846_dp_f_1.7731572873567167,9846,1.0
GCA_013824345.1_ASM1382434v1,GCA_013824345.1_ASM1382434v1_bin_2,CP057196.1,S64_LN_i_4179_dp_f_1.3121868658892164,4179,1.0
GCA_013795795.1_ASM1379579v1,GCA_013795795.1_ASM1379579v1_bin_1,CP056875.1,S100_LN_i_1076_dp_f_2.530236029051145,1076,1.0
GCA_013795795.1_ASM1379579v1,GCA_013795795.1_ASM1379579v1_bin_1,CP056875.1,S37_LN_i_27545_dp_f_2.647645845987835,27545,1.0
GCA_013795795.1_ASM1379579v1,GCA_013795795.1_ASM1379579v1_bin_1,CP056874.1,S48_LN_i_11456_dp_f_1.4507819940318725,11456,1.0
GCA_013795795.1_ASM1379579v1,GCA_013795795.1_ASM1379579v1_bin_1,CP056874.1,S49_LN_i_10551_dp_f_1.3637191943487739,10551,1.0
GCA_013795795.1_ASM1379579v1,GCA_013795795.1_ASM1379579v1_bin_1,CP056874.1,S50_LN_i_9676_dp_f_1.5011735328773061,9676,1.0
GCA_013795795.1_ASM1379579v1,GCA_013795795.1_ASM1379579v1_bin_1,CP056875.1,S51_LN_i_9084_dp_f_2.6932550771872323,9084,1.0
GCA_013795795.1_ASM1379579v1,GCA_013795795.1_ASM1379579v1_bin_1,CP056875.1,S52_LN_i_9015_dp_f_2.60828989990341,9015,1.0
GCA_013795795.1_ASM1379579v1,GCA_013795795.1_ASM1379579v1_bin_1,CP056874.1,S54_LN_i_7604_dp_f_1.4886167382316031,7604,1.0
GCA_013795795.1_ASM1379579v1,GCA_013795795.1_ASM1379579v1_bin_1,CP056874.1,S57_LN_i_5200_dp_f_1.3890819886029557,5200,1.0
GCA_013795795.1_ASM1379579v1,GCA_013795795.1_ASM1379579v1_bin_1,CP056875.1,S68_LN_i_3023_dp_f_2.589395047594386,3023,1.0
GCA_013795795.1_ASM1379579v1,GCA_013795795.1_ASM1379579v1_bin_1,CP056873.1,S72_LN_i_2817_dp_f_1.0382821435571183,2817,1.0
GCA_013795795.1_ASM1379579v1,GCA_013795795.1_ASM1379579v1_bin_1,CP056873.1,S74_LN_i_2600_dp_f_0.9782899464745628,2600,1.0
GCA_013795795.1_ASM1379579v1,GCA_013795795.1_ASM1379579v1_bin_1,CP056873.1,S79_LN_i_2186_dp_f_1.0429091447800045,2186,1.0
GCA_013795795.1_ASM1379579v1,GCA_013795795.1_ASM1379579v1_bin_1,CP056874.1,S82_LN_i_1893_dp_f_1.3296811087334817,1893,1.0
GCA_013795795.1_ASM1379579v1,GCA_013795795.1_ASM1379579v1_bin_1,CP056874.1,S84_LN_i_1663_dp_f_1.3388510964667213,1663,1.0
GCA_013795795.1_ASM1379579v1,GCA_013795795.1_ASM1379579v1_bin_1,CP056874.1,S96_LN_i_1240_dp_f_1.415327303861984,1240,1.0
GCA_013795795.1_ASM1379579v1,GCA_013795795.1_ASM1379579v1_bin_1,CP056875.1,S98_LN_i_1164_dp_f_2.8587537599848356,1164,1.0
GCA_013795795.1_ASM1379579v1,GCA_013795795.1_ASM1379579v1_bin_1,CP056874.1,S99_LN_i_1076_dp_f_1.4379818048479307,1076,1.0
GCA_013829445.1_ASM1382944v1,GCA_013829445.1_ASM1382944v1_bin_1,CP057370.1,S41_LN_i_31880_dp_f_7.411657115259258,31880,1.0
GCA_013829445.1_ASM1382944v1,GCA_013829445.1_ASM1382944v1_bin_1,CP057370.1,S73_LN_i_5852_dp_f_8.771909207998949,5852,1.0
GCA_013829445.1_ASM1382944v1,GCA_013829445.1_ASM1382944v1_bin_1,CP057370.1,S92_LN_i_1878_dp_f_7.848595736545321,1878,1.0
GCA_013829445.1_ASM1382944v1,GCA_013829445.1_ASM1382944v1_bin_2,CP057369.1,S29_LN_i_58644_dp_f_0.9396858475715258,58644,1.0
GCA_013829445.1_ASM1382944v1,GCA_013829445.1_ASM1382944v1_bin_2,CP057369.1,S56_LN_i_15854_dp_f_0.8935375314225483,15854,1.0
GCA_013829445.1_ASM1382944v1,GCA_013829445.1_ASM1382944v1_bin_2,CP057369.1,S66_LN_i_10496_dp_f_0.8057737096514839,10496,1.0
GCA_013829445.1_ASM1382944v1,GCA_013829445.1_ASM1382944v1_bin_2,CP057369.1,S70_LN_i_8120_dp_f_0.9533982165794205,8120,1.0
GCA_013829445.1_ASM1382944v1,GCA_013829445.1_ASM1382944v1_bin_2,CP057369.1,S79_LN_i_4515_dp_f_0.9725923937275244,4515,1.0
GCA_013829445.1_ASM1382944v1,GCA_013829445.1_ASM1382944v1_bin_2,CP057369.1,S83_LN_i_3702_dp_f_1.0265686733192652,3702,1.0
GCA_013829445.1_ASM1382944v1,GCA_013829445.1_ASM1382944v1_bin_2,CP057369.1,S87_LN_i_3085_dp_f_0.9171736987874378,3085,1.0
GCA_013829445.1_ASM1382944v1,GCA_013829445.1_ASM1382944v1_bin_2,CP057369.1,S89_LN_i_2872_dp_f_0.7832898451973016,2872,1.0
