GCA_014131575.1_ASM1413157v1,plasmid_AA176,CP048863.1,26551,26551
GCA_014131575.1_ASM1413157v1,plasmid_AA162,CP048864.1,4593,4593
GCA_013749295.1_ASM1374929v1,plasmid_AA176,CP056525.1,114121,127383
GCA_013749295.1_ASM1374929v1,plasmid_AA176,CP056524.1,34325,127383
GCA_013749295.1_ASM1374929v1,plasmid_AA579,CP056526.1,4074,4074
GCA_013749295.1_ASM1374929v1,plasmid_AG799,CP056525.1,4040,4040
GCA_013900205.1_ASM1390020v1,plasmid_AA474,CP057972.1,110218,109438
GCA_013900205.1_ASM1390020v1,plasmid_AA474,CP057971.1,2660,109438
GCA_013900205.1_ASM1390020v1,plasmid_AA474,CP057970.1,8266,109438
GCA_013900205.1_ASM1390020v1,plasmid_AA313,CP057971.1,135553,135639
GCA_013745955.1_ASM1374595v1,plasmid_AD448,CP056357.1,36412,36412
GCA_013745955.1_ASM1374595v1,plasmid_AA519,CP056359.1,4116,4116
GCA_013745955.1_ASM1374595v1,plasmid_AA734,CP056358.1,67423,65965
GCA_013745955.1_ASM1374595v1,plasmid_AA579,CP056360.1,4073,4073
GCA_013745955.1_ASM1374595v1,plasmid_AA337,CP056358.1,49311,72525
GCA_013745955.1_ASM1374595v1,plasmid_AA337,CP056357.1,28047,72525
GCA_013745955.1_ASM1374595v1,plasmid_AF243,CP056357.1,2748,1374
GCA_013745955.1_ASM1374595v1,plasmid_AF242,CP056357.1,15021,13183
GCA_013834305.1_ASM1383430v1,plasmid_AA159,CP057457.1,6811,6811
GCA_013834305.1_ASM1383430v1,plasmid_AA304,CP057456.1,95064,95064
GCA_013834305.1_ASM1383430v1,plasmid_AA304,CP057455.1,2426,95064
GCA_013834305.1_ASM1383430v1,plasmid_AF232,CP057455.1,3750,1875
GCA_013815235.1_ASM1381523v1,plasmid_AA475,CP057134.1,85018,85018
GCA_013815235.1_ASM1381523v1,plasmid_AA318,CP057135.1,62288,81750
GCA_013815235.1_ASM1381523v1,plasmid_AA318,CP057134.1,21406,81750
GCA_013815235.1_ASM1381523v1,plasmid_AA318,CP057133.1,2516,81750
GCA_013795795.1_ASM1379579v1,plasmid_AA173,CP056874.1,9676,9676
GCA_013795795.1_ASM1379579v1,plasmid_AA860,CP056874.1,13449,28365
GCA_013795795.1_ASM1379579v1,plasmid_AA860,CP056873.1,28511,28365
GCA_013795795.1_ASM1379579v1,plasmid_AA336,CP056875.1,60697,80716
GCA_013795795.1_ASM1379579v1,plasmid_AA336,CP056874.1,29627,80716
GCA_013795795.1_ASM1379579v1,plasmid_AA336,CP056873.1,7749,80716
GCA_013795795.1_ASM1379579v1,plasmid_AA338,CP056874.1,15566,15566
GCA_013795795.1_ASM1379579v1,plasmid_AA338,CP056873.1,2870,15566
GCA_013899605.1_ASM1389960v1,plasmid_AA304,CP057886.1,102195,100937
GCA_013899605.1_ASM1389960v1,plasmid_AA304,CP057885.1,2516,100937
GCA_013899605.1_ASM1389960v1,plasmid_AB441,CP057887.1,4671,4671
GCA_013899605.1_ASM1389960v1,plasmid_AF190,CP057885.1,23114,17831
GCA_013830785.1_ASM1383078v1,plasmid_novel_b3a86c315460084bc5aa2ad34eaf687a,CP057398.1,17213,18644
GCA_013830785.1_ASM1383078v1,plasmid_novel_b3a86c315460084bc5aa2ad34eaf687a,CP057400.1,1431,18644
GCA_013830785.1_ASM1383078v1,plasmid_AA279,CP057399.1,99400,103350
GCA_013830785.1_ASM1383078v1,plasmid_AA279,CP057398.1,11750,103350
GCA_013830785.1_ASM1383078v1,plasmid_AA279,CP057397.1,10731,103350
GCA_013830785.1_ASM1383078v1,plasmid_AA279,CP057400.1,5784,103350
GCA_013830785.1_ASM1383078v1,plasmid_AA319,CP057398.1,90233,92814
GCA_013830785.1_ASM1383078v1,plasmid_AA319,CP057396.1,17903,92814
GCA_013830785.1_ASM1383078v1,plasmid_AA319,CP057397.1,2586,92814
GCA_013830785.1_ASM1383078v1,plasmid_AA319,CP057400.1,1293,92814
GCA_013830785.1_ASM1383078v1,plasmid_AA474,CP057400.1,71102,71102
GCA_013830785.1_ASM1383078v1,plasmid_AA474,CP057398.1,2225,71102
GCA_013830785.1_ASM1383078v1,plasmid_AC510,CP057401.1,6888,6888
GCA_013830785.1_ASM1383078v1,plasmid_AA738,CP057397.1,207725,207879
GCA_013830785.1_ASM1383078v1,plasmid_AA738,CP057396.1,23626,207879
GCA_013830785.1_ASM1383078v1,plasmid_AA738,CP057398.1,7388,207879
GCA_013830785.1_ASM1383078v1,plasmid_AA738,CP057400.1,1770,207879
GCA_013830785.1_ASM1383078v1,plasmid_AE638,CP057398.1,28414,28414
GCA_013830785.1_ASM1383078v1,plasmid_AG658,CP057397.1,10574,10574
GCA_013789905.1_ASM1378990v1,plasmid_AB685,CP056793.1,1551,1551
GCA_013789905.1_ASM1378990v1,plasmid_AA747,CP056788.1,109115,110414
GCA_013789905.1_ASM1378990v1,plasmid_AA747,CP056786.1,3897,110414
GCA_013789905.1_ASM1378990v1,plasmid_AB238,CP056792.1,1976,1976
GCA_013789905.1_ASM1378990v1,plasmid_AA674,CP056790.1,3133,3133
GCA_013789905.1_ASM1378990v1,plasmid_AA324,CP056787.1,155389,156445
GCA_013789905.1_ASM1378990v1,plasmid_AA324,CP056786.1,12910,156445
GCA_013789905.1_ASM1378990v1,plasmid_AA324,CP056788.1,1056,156445
GCA_013789905.1_ASM1378990v1,plasmid_AD167,CP056789.1,11271,11271
GCA_013789905.1_ASM1378990v1,plasmid_AC748,CP056791.1,2035,2088
GCA_013742835.1_ASM1374283v1,plasmid_AD306,CP056627.1,20941,20941
GCA_013742835.1_ASM1374283v1,plasmid_novel_c3a5899ed89bf7fb46e9bf9ed8c7265f,CP056626.1,8503,11428
GCA_013742835.1_ASM1374283v1,plasmid_novel_c3a5899ed89bf7fb46e9bf9ed8c7265f,CP056627.1,2925,11428
GCA_013742835.1_ASM1374283v1,plasmid_AB043,CP056630.1,1917,1917
GCA_013742835.1_ASM1374283v1,plasmid_novel_118a09f10eacd3cbdb6780d7be0d3dc6,CP056626.1,14571,28727
GCA_013742835.1_ASM1374283v1,plasmid_novel_118a09f10eacd3cbdb6780d7be0d3dc6,CP056627.1,17170,28727
GCA_013742835.1_ASM1374283v1,plasmid_AA102,CP056628.1,4075,4075
GCA_013742835.1_ASM1374283v1,plasmid_AA537,CP056629.1,4018,4018
GCA_013742835.1_ASM1374283v1,plasmid_novel_d5c3a11cfe6932db437a3e99c6313c59,CP056627.1,11677,24389
GCA_013742835.1_ASM1374283v1,plasmid_novel_d5c3a11cfe6932db437a3e99c6313c59,CP056625.1,8099,24389
GCA_013742835.1_ASM1374283v1,plasmid_novel_d5c3a11cfe6932db437a3e99c6313c59,CP056626.1,5914,24389
GCA_013900245.1_ASM1390024v1,plasmid_AA282,CP057977.1,89301,89301
GCA_013900245.1_ASM1390024v1,plasmid_AA378,CP057976.1,93585,93585
GCA_013730915.1_ASM1373091v1,plasmid_AA747,CP056300.1,110291,110291
GCA_013823975.1_ASM1382397v1,plasmid_AF232,CP057190.1,4827,4827
GCA_013823975.1_ASM1382397v1,plasmid_AA337,CP057191.1,101468,101468
GCA_013748455.1_ASM1374845v1,plasmid_AA171,CP056471.1,9676,9676
GCA_013748455.1_ASM1374845v1,plasmid_AA860,CP056471.1,27029,41932
GCA_013748455.1_ASM1374845v1,plasmid_AA860,CP056470.1,29564,41932
GCA_013748455.1_ASM1374845v1,plasmid_novel_4204f75c392bde35a1d1663c61906664,CP056471.1,11456,11456
GCA_013748455.1_ASM1374845v1,plasmid_AA336,CP056472.1,59656,84967
GCA_013748455.1_ASM1374845v1,plasmid_AA336,CP056471.1,32796,84967
GCA_013748455.1_ASM1374845v1,plasmid_AA336,CP056470.1,7749,84967
GCA_013729295.1_ASM1372929v1,plasmid_novel_98eefbd3c392cd5dfe7d674ad3b03397,CP056279.1,3491,4610
GCA_013729295.1_ASM1372929v1,plasmid_novel_98eefbd3c392cd5dfe7d674ad3b03397,CP056278.1,4475,4610
GCA_013729295.1_ASM1372929v1,plasmid_AD481,CP056281.1,4074,4074
GCA_013729295.1_ASM1372929v1,plasmid_novel_f91ea1c29a1e894176ea5fdad2a5e750,CP056280.1,36926,44167
GCA_013729295.1_ASM1372929v1,plasmid_novel_f91ea1c29a1e894176ea5fdad2a5e750,CP056279.1,7241,44167
GCA_013827205.1_ASM1382720v1,plasmid_AB685,CP057339.1,1551,1551
GCA_013827205.1_ASM1382720v1,plasmid_AA161,CP057338.1,6930,6930
GCA_014131475.1_ASM1413147v1,plasmid_AA176,CP048606.1,12116,12116
GCA_014131475.1_ASM1413147v1,plasmid_AA374,CP048606.1,14260,14260
GCA_014109065.1_ASM1410906v1,plasmid_AA176,CP058075.1,49836,49836
GCA_014109065.1_ASM1410906v1,plasmid_AA176,CP058074.1,1602,49836
GCA_014109065.1_ASM1410906v1,plasmid_AA337,CP058075.1,52182,72482
GCA_014109065.1_ASM1410906v1,plasmid_AA337,CP058074.1,25359,72482
GCA_013821185.1_ASM1382118v1,plasmid_AA304,CP057252.1,93336,93336
GCA_013821185.1_ASM1382118v1,plasmid_AA747,CP057251.1,110561,113105
GCA_013821185.1_ASM1382118v1,plasmid_AA747,CP057250.1,11625,113105
GCA_013821185.1_ASM1382118v1,plasmid_AB442,CP057253.1,4671,4671
GCA_013783905.1_ASM1378390v1,plasmid_AA297,CP056371.1,116541,113529
GCA_013815865.1_ASM1381586v1,plasmid_AA304,CP057140.1,103357,102144
GCA_013815865.1_ASM1381586v1,plasmid_AA304,CP057139.1,6065,102144
GCA_013815865.1_ASM1381586v1,plasmid_AA739,CP057139.1,6602,3301
GCA_013785265.1_ASM1378526v1,plasmid_AA176,CP056481.1,26554,26554
GCA_013785265.1_ASM1378526v1,plasmid_AB042,CP056482.1,1887,1887
GCA_014109025.1_ASM1410902v1,plasmid_AA473,CP058053.1,8246,9707
GCA_014109025.1_ASM1410902v1,plasmid_AA473,CP058052.1,12200,9707
GCA_014109025.1_ASM1410902v1,plasmid_novel_7a1af33b3342c908e9bf7941d4e14d24,CP058053.1,8109,8109
GCA_014109025.1_ASM1410902v1,plasmid_AD466,CP058056.1,2455,2460
GCA_014109025.1_ASM1410902v1,plasmid_AD167,CP058055.1,7431,8559
GCA_014109025.1_ASM1410902v1,plasmid_AD167,CP058052.1,6768,8559
GCA_014109025.1_ASM1410902v1,plasmid_AB718,CP058054.1,37377,37377
GCA_014109025.1_ASM1410902v1,plasmid_AB718,CP058053.1,3102,37377
GCA_014109025.1_ASM1410902v1,plasmid_AB718,CP058052.1,3681,37377
GCA_013803905.1_ASM1380390v1,plasmid_AA302,CP057017.1,86928,86928
GCA_014131555.1_ASM1413155v1,plasmid_AB685,CP048862.1,1546,1546
GCA_014131555.1_ASM1413155v1,plasmid_AA171,CP048861.1,80540,95635
GCA_014131555.1_ASM1413155v1,plasmid_AA171,CP048860.1,16538,95635
GCA_014131555.1_ASM1413155v1,plasmid_AA887,CP048861.1,26128,33521
GCA_014131555.1_ASM1413155v1,plasmid_AA887,CP048860.1,8411,33521
GCA_014131555.1_ASM1413155v1,plasmid_AA176,CP048860.1,12770,12770
GCA_013750815.1_ASM1375081v1,plasmid_AA620,CP056572.1,39529,39529
GCA_013750815.1_ASM1375081v1,plasmid_AA337,CP056570.1,99156,109249
GCA_013750815.1_ASM1375081v1,plasmid_AA337,CP056571.1,36761,109249
GCA_013750815.1_ASM1375081v1,plasmid_AA337,CP056569.1,13714,109249
GCA_013750815.1_ASM1375081v1,plasmid_AA336,CP056571.1,29089,30575
GCA_013750815.1_ASM1375081v1,plasmid_AA336,CP056570.1,1486,30575
GCA_013922765.1_ASM1392276v1,plasmid_AB003,CP058021.1,91006,91006
GCA_013821835.1_ASM1382183v1,plasmid_novel_7fe6fe6efa9ddaec2163e8ba7182bcfe,CP057260.1,40508,51797
GCA_013821835.1_ASM1382183v1,plasmid_novel_7fe6fe6efa9ddaec2163e8ba7182bcfe,CP057259.1,15174,51797
GCA_013821835.1_ASM1382183v1,plasmid_AA516,CP057261.1,5101,5101
GCA_013799025.1_ASM1379902v1,plasmid_AF232,CP056920.1,3984,3984
GCA_013891215.1_ASM1389121v1,plasmid_AA473,CP057639.1,85153,86681
GCA_013891215.1_ASM1389121v1,plasmid_AA473,CP057638.1,1528,86681
GCA_013891215.1_ASM1389121v1,plasmid_AA887,CP057639.1,11830,15796
GCA_013891215.1_ASM1389121v1,plasmid_AA887,CP057638.1,7230,15796
GCA_013891215.1_ASM1389121v1,plasmid_AA337,CP057638.1,54918,43107
GCA_013891215.1_ASM1389121v1,plasmid_AA337,CP057639.1,5175,43107
GCA_014131495.1_ASM1413149v1,plasmid_AA176,CP048853.1,17536,16438
GCA_014131495.1_ASM1413149v1,plasmid_AA297,CP048854.1,87279,88763
GCA_014131495.1_ASM1413149v1,plasmid_AA297,CP048853.1,2696,88763
GCA_014131495.1_ASM1413149v1,plasmid_AA338,CP048854.1,25396,25396
GCA_013832285.1_ASM1383228v1,plasmid_AB685,CP057428.1,1552,1552
GCA_013832285.1_ASM1383228v1,plasmid_AA319,CP057424.1,105281,100232
GCA_013832285.1_ASM1383228v1,plasmid_AA319,CP057423.1,9380,100232
GCA_013832285.1_ASM1383228v1,plasmid_novel_8e7a24fdb38a0c4f3d08e52786feea26,CP057427.1,4064,4064
GCA_013832285.1_ASM1383228v1,plasmid_AC509,CP057425.1,6711,6711
GCA_013832285.1_ASM1383228v1,plasmid_AG799,CP057424.1,3659,3659
GCA_013795285.1_ASM1379528v1,plasmid_AA179,CP056868.1,145710,147124
GCA_013795285.1_ASM1379528v1,plasmid_AA179,CP056867.1,13616,147124
GCA_013795285.1_ASM1379528v1,plasmid_AG659,CP056867.1,12370,12370
GCA_013798625.1_ASM1379862v1,plasmid_AA176,CP056915.1,137294,136253
GCA_013798625.1_ASM1379862v1,plasmid_AA176,CP056914.1,1205,136253
GCA_013898915.1_ASM1389891v1,plasmid_AD672,CP057802.1,15505,15505
GCA_013898915.1_ASM1389891v1,plasmid_AG659,CP057802.1,15818,10825
GCA_013898915.1_ASM1389891v1,plasmid_AA378,CP057803.1,48150,50825
GCA_013898915.1_ASM1389891v1,plasmid_AA378,CP057802.1,8036,50825
GCA_013729535.1_ASM1372953v1,plasmid_AA735,CP056283.1,95880,96349
GCA_013729535.1_ASM1372953v1,plasmid_AA735,CP056282.1,22996,96349
GCA_013751495.1_ASM1375149v1,plasmid_AA304,CP056585.1,94637,94637
GCA_013751495.1_ASM1375149v1,plasmid_AA178,CP056585.1,34545,31376
GCA_013890395.1_ASM1389039v1,plasmid_AA304,CP057622.1,112126,110795
GCA_013890395.1_ASM1389039v1,plasmid_AA304,CP057621.1,8653,110795
GCA_013890395.1_ASM1389039v1,plasmid_AB442,CP057625.1,4671,4671
GCA_013890395.1_ASM1389039v1,plasmid_AF232,CP057621.1,1375,1375
GCA_013890395.1_ASM1389039v1,plasmid_AC509,CP057624.1,6647,6647
GCA_013890395.1_ASM1389039v1,plasmid_AA378,CP057623.1,97938,97938
GCA_013795065.1_ASM1379506v1,plasmid_AA998,CP056865.1,35085,23052
GCA_013795065.1_ASM1379506v1,plasmid_novel_2ab764c9ed9456e17606d6feedca0eed,CP056865.1,33187,25778
GCA_013795065.1_ASM1379506v1,plasmid_AA038,CP056866.1,42668,42668
GCA_013893495.1_ASM1389349v1,plasmid_AF232,CP057677.1,4747,4747
GCA_013893495.1_ASM1389349v1,plasmid_AB448,CP057679.1,6760,6760
GCA_013893495.1_ASM1389349v1,plasmid_AB241,CP057680.1,2590,2590
GCA_013899145.1_ASM1389914v1,plasmid_AA474,CP057846.1,90767,93117
GCA_013899145.1_ASM1389914v1,plasmid_AA474,CP057844.1,3390,93117
GCA_013899145.1_ASM1389914v1,plasmid_AA474,CP057843.1,1310,93117
GCA_013899145.1_ASM1389914v1,plasmid_AE638,CP057844.1,23747,23747
GCA_013899145.1_ASM1389914v1,plasmid_AF232,CP057843.1,4825,4826
GCA_013899145.1_ASM1389914v1,plasmid_AA316,CP057844.1,90209,91467
GCA_013899145.1_ASM1389914v1,plasmid_AA316,CP057843.1,5032,91467
GCA_013899145.1_ASM1389914v1,plasmid_AC509,CP057847.1,6668,6668
GCA_013899145.1_ASM1389914v1,plasmid_AA979,CP057848.1,6230,6230
GCA_013899145.1_ASM1389914v1,plasmid_AA378,CP057845.1,91863,91863
GCA_013899145.1_ASM1389914v1,plasmid_AA378,CP057843.1,10566,91863
GCA_013899145.1_ASM1389914v1,plasmid_AA378,CP057844.1,1341,91863
GCA_013797045.1_ASM1379704v1,plasmid_AA378,CP056895.1,97941,101440
GCA_013797045.1_ASM1379704v1,plasmid_AA378,CP056894.1,3499,101440
GCA_013592195.1_ASM1359219v1,plasmid_AB003,CP055626.1,92102,92102
GCA_013592195.1_ASM1359219v1,plasmid_AB003,CP055624.1,1442,92102
GCA_013592195.1_ASM1359219v1,plasmid_AA674,CP055629.1,3125,3125
GCA_013592195.1_ASM1359219v1,plasmid_AA328,CP055627.1,45133,62553
GCA_013592195.1_ASM1359219v1,plasmid_AA328,CP055625.1,23223,62553
GCA_013592195.1_ASM1359219v1,plasmid_AA328,CP055624.1,3294,62553
GCA_013592195.1_ASM1359219v1,plasmid_AA336,CP055625.1,23776,23776
GCA_013592195.1_ASM1359219v1,plasmid_AC621,CP055628.1,44425,45756
GCA_013592195.1_ASM1359219v1,plasmid_AC621,CP055624.1,1331,45756
GCA_013592195.1_ASM1359219v1,plasmid_AC621,CP055625.1,1331,45756
GCA_013592195.1_ASM1359219v1,plasmid_AA372,CP055625.1,29567,25556
GCA_013592195.1_ASM1359219v1,plasmid_AG799,CP055625.1,3189,3189
GCA_014108945.1_ASM1410894v1,plasmid_AA474,CP058016.1,93048,93048
GCA_014108945.1_ASM1410894v1,plasmid_AA474,CP058015.1,2471,93048
GCA_014108945.1_ASM1410894v1,plasmid_AA302,CP058015.1,93567,93567
GCA_014108945.1_ASM1410894v1,plasmid_AD529,CP058018.1,2998,3081
GCA_014108945.1_ASM1410894v1,plasmid_AF232,CP058014.1,5923,5923
GCA_014108945.1_ASM1410894v1,plasmid_AB233,CP058017.1,35166,35166
GCA_013895455.1_ASM1389545v1,plasmid_AA998,CP057714.1,214865,214994
GCA_013895455.1_ASM1389545v1,plasmid_AA998,CP057713.1,6065,214994
GCA_013895455.1_ASM1389545v1,plasmid_AA749,CP057716.1,69716,69716
GCA_013895455.1_ASM1389545v1,plasmid_AE197,CP057715.1,72779,72779
GCA_011849985.2_ASM1184998v2,plasmid_AA345,CP058234.1,87408,87599
GCA_013822325.1_ASM1382232v1,plasmid_AA998,CP057271.1,213046,214638
GCA_013822325.1_ASM1382232v1,plasmid_AA998,CP057270.1,10714,214638
GCA_011843745.2_ASM1184374v2,plasmid_AA345,CP058232.1,87533,87719
GCA_013832525.1_ASM1383252v1,plasmid_AA752,CP057434.1,50400,50400
GCA_013832525.1_ASM1383252v1,plasmid_AA378,CP057433.1,95081,96429
GCA_013832525.1_ASM1383252v1,plasmid_AA378,CP057432.1,2696,96429
GCA_013752075.1_ASM1375207v1,plasmid_AA309,CP056605.1,51985,55059
GCA_013752075.1_ASM1375207v1,plasmid_AA309,CP056604.1,3074,55059
GCA_013752075.1_ASM1375207v1,plasmid_AA474,CP056606.1,74824,81885
GCA_013752075.1_ASM1375207v1,plasmid_AA474,CP056607.1,11313,81885
GCA_013752075.1_ASM1375207v1,plasmid_AA860,CP056606.1,22207,26107
GCA_013752075.1_ASM1375207v1,plasmid_AA860,CP056604.1,6514,26107
GCA_013752075.1_ASM1375207v1,plasmid_AA860,CP056605.1,1307,26107
GCA_013752075.1_ASM1375207v1,plasmid_AA334,CP056605.1,47755,47755
GCA_013752075.1_ASM1375207v1,plasmid_AA334,CP056604.1,3846,47755
GCA_013752075.1_ASM1375207v1,plasmid_AA282,CP056607.1,69011,69011
GCA_013752075.1_ASM1375207v1,plasmid_AA282,CP056606.1,1530,69011
GCA_012849755.1_ASM1284975v1,plasmid_AA345,CP051632.1,16323,16324
GCA_012849755.1_ASM1284975v1,plasmid_novel_dce6f4bfc083a20e1c4363e6797a31a5,CP051631.1,10365,8679
GCA_012849755.1_ASM1284975v1,plasmid_novel_dce6f4bfc083a20e1c4363e6797a31a5,CP051632.1,1675,8679
GCA_013893695.1_ASM1389369v1,plasmid_AA747,CP057685.1,112153,113411
GCA_013893695.1_ASM1389369v1,plasmid_AA747,CP057684.1,5032,113411
GCA_013893695.1_ASM1389369v1,plasmid_AF232,CP057684.1,4196,4196
GCA_013752295.1_ASM1375229v1,plasmid_AF232,CP056618.1,1512,1512
GCA_013752295.1_ASM1375229v1,plasmid_AA378,CP056619.1,110691,110691
GCA_013742135.1_ASM1374213v1,plasmid_AB044,CP056613.1,5286,5286
GCA_013742135.1_ASM1374213v1,plasmid_AA334,CP056614.1,97930,96790
GCA_013742135.1_ASM1374213v1,plasmid_AA334,CP056613.1,6893,96790
GCA_013742135.1_ASM1374213v1,plasmid_AA334,CP056615.1,1050,96790
GCA_013742135.1_ASM1374213v1,plasmid_AF232,CP056613.1,14073,14073
GCA_013742135.1_ASM1374213v1,plasmid_AA579,CP056616.1,4072,4072
GCA_013742135.1_ASM1374213v1,plasmid_AA282,CP056615.1,91474,97649
GCA_013742135.1_ASM1374213v1,plasmid_AA282,CP056614.1,13961,97649
GCA_013742135.1_ASM1374213v1,plasmid_AA282,CP056613.1,1611,97649
GCA_013742135.1_ASM1374213v1,plasmid_AB686,CP056617.1,1565,1565
GCA_013884735.1_ASM1388473v1,plasmid_AA337,CP057524.1,86339,86339
GCA_013884735.1_ASM1388473v1,plasmid_AA337,CP057523.1,3774,86339
GCA_013900005.1_ASM1390000v1,plasmid_AA473,CP057944.1,83213,83213
GCA_013900005.1_ASM1390000v1,plasmid_AA473,CP057943.1,1018,83213
GCA_013900005.1_ASM1390000v1,plasmid_novel_56b3b55c4b13fac59c239a2b9a71a86a,CP057945.1,4612,4612
GCA_013900005.1_ASM1390000v1,plasmid_AA302,CP057943.1,127728,127836
GCA_013900005.1_ASM1390000v1,plasmid_AA302,CP057942.1,5848,127836
GCA_013900005.1_ASM1390000v1,plasmid_AF232,CP057942.1,3759,3759
GCA_013740395.1_ASM1374039v1,plasmid_AB443,CP056450.1,4034,4197
GCA_013740395.1_ASM1374039v1,plasmid_AA474,CP056448.1,9028,21599
GCA_013740395.1_ASM1374039v1,plasmid_AA474,CP056446.1,24671,21599
GCA_013740395.1_ASM1374039v1,plasmid_AB595,CP056449.1,6200,6200
GCA_013740395.1_ASM1374039v1,plasmid_AA378,CP056447.1,92321,98499
GCA_013740395.1_ASM1374039v1,plasmid_AA378,CP056446.1,12691,98499
GCA_013740395.1_ASM1374039v1,plasmid_AA378,CP056448.1,3539,98499
GCA_013750375.1_ASM1375037v1,plasmid_AF232,CP056565.1,1779,1779
GCA_013835585.1_ASM1383558v1,plasmid_AD672,CP057473.1,13484,13484
GCA_013835585.1_ASM1383558v1,plasmid_AA168,CP057474.1,82709,82709
GCA_013783465.1_ASM1378346v1,plasmid_AD448,CP056348.1,38313,38313
GCA_013783465.1_ASM1378346v1,plasmid_AA474,CP056349.1,83612,83612
GCA_013735655.1_ASM1373565v1,plasmid_AG340,CP056417.1,2353,2353
GCA_013735655.1_ASM1373565v1,plasmid_AA056,CP056413.1,126206,130879
GCA_013735655.1_ASM1373565v1,plasmid_AA056,CP056412.1,51707,130879
GCA_013735655.1_ASM1373565v1,plasmid_AB036,CP056415.1,3230,3230
GCA_013735655.1_ASM1373565v1,plasmid_AA405,CP056412.1,95999,93364
GCA_013735655.1_ASM1373565v1,plasmid_AA405,CP056413.1,24104,93364
GCA_013735655.1_ASM1373565v1,plasmid_AA405,CP056415.1,1230,93364
GCA_013735655.1_ASM1373565v1,plasmid_AF590,CP056414.1,13243,13243
GCA_013735655.1_ASM1373565v1,plasmid_AA449,CP056416.1,4161,4161
GCA_013735655.1_ASM1373565v1,plasmid_novel_537e47abc422bc83dacfc934e30a5332,CP056412.1,17091,17091
GCA_013735655.1_ASM1373565v1,plasmid_AA378,CP056412.1,43349,41694
GCA_013735655.1_ASM1373565v1,plasmid_AA810,CP056412.1,13142,13142
GCA_013885915.1_ASM1388591v1,plasmid_AA747,CP057560.1,109880,109880
GCA_013833985.1_ASM1383398v1,plasmid_AD484,CP057454.1,4315,4315
GCA_013818265.1_ASM1381826v1,plasmid_AA378,CP057172.1,94708,96050
GCA_013818265.1_ASM1381826v1,plasmid_AA378,CP057171.1,6710,96050
GCA_013741855.1_ASM1374185v1,plasmid_AB044,CP056608.1,5113,5113
GCA_013741855.1_ASM1374185v1,plasmid_AA334,CP056609.1,97930,96790
GCA_013741855.1_ASM1374185v1,plasmid_AA334,CP056608.1,6893,96790
GCA_013741855.1_ASM1374185v1,plasmid_AA334,CP056610.1,1050,96790
GCA_013741855.1_ASM1374185v1,plasmid_AF232,CP056608.1,14073,14073
GCA_013741855.1_ASM1374185v1,plasmid_AA579,CP056611.1,3865,4072
GCA_013741855.1_ASM1374185v1,plasmid_AA282,CP056610.1,91474,97649
GCA_013741855.1_ASM1374185v1,plasmid_AA282,CP056609.1,13961,97649
GCA_013741855.1_ASM1374185v1,plasmid_AA282,CP056608.1,1611,97649
GCA_013741855.1_ASM1374185v1,plasmid_AB686,CP056612.1,1565,1565
GCA_013727075.1_ASM1372707v1,plasmid_AA747,CP056250.1,110829,110829
GCA_013727075.1_ASM1372707v1,plasmid_AA747,CP056249.1,6436,110829
GCA_013832965.1_ASM1383296v1,plasmid_AA752,CP057440.1,50400,50400
GCA_013832965.1_ASM1383296v1,plasmid_AA378,CP057439.1,95081,96429
GCA_013832965.1_ASM1383296v1,plasmid_AA378,CP057438.1,2696,96429
GCA_013824985.1_ASM1382498v1,plasmid_AA998,CP057288.1,9936,18001
GCA_013824985.1_ASM1382498v1,plasmid_AA998,CP057287.1,8065,18001
GCA_013824985.1_ASM1382498v1,plasmid_AA345,CP057290.1,8324,8324
GCA_013824985.1_ASM1382498v1,plasmid_AA150,CP057291.1,4866,5128
GCA_013824985.1_ASM1382498v1,plasmid_AA860,CP057288.1,46238,54849
GCA_013824985.1_ASM1382498v1,plasmid_AA860,CP057287.1,34348,54849
GCA_013824985.1_ASM1382498v1,plasmid_AA860,CP057290.1,3793,54849
GCA_013824985.1_ASM1382498v1,plasmid_AA860,CP057289.1,1237,54849
GCA_013824985.1_ASM1382498v1,plasmid_AA738,CP057288.1,118284,119425
GCA_013824985.1_ASM1382498v1,plasmid_AA738,CP057290.1,1141,119425
GCA_013824985.1_ASM1382498v1,plasmid_AG658,CP057288.1,10024,10024
GCA_013824985.1_ASM1382498v1,plasmid_AA674,CP057292.1,3126,3126
GCA_013824985.1_ASM1382498v1,plasmid_novel_7b096ee778da75562a13b902d8c7f335,CP057290.1,25449,25449
GCA_013824985.1_ASM1382498v1,plasmid_AA378,CP057289.1,80043,81526
GCA_013824985.1_ASM1382498v1,plasmid_AA378,CP057287.1,1483,81526
GCA_013791985.1_ASM1379198v1,plasmid_AA474,CP056844.1,83975,135163
GCA_013791985.1_ASM1379198v1,plasmid_AA474,CP056843.1,55716,135163
GCA_013791985.1_ASM1379198v1,plasmid_AA474,CP056842.1,17851,135163
GCA_013791985.1_ASM1379198v1,plasmid_AA738,CP056843.1,40327,41681
GCA_013791985.1_ASM1379198v1,plasmid_AA738,CP056842.1,2708,41681
GCA_013786165.1_ASM1378616v1,plasmid_AD672,CP056632.1,23378,13061
GCA_013786165.1_ASM1378616v1,plasmid_AA579,CP056634.1,4072,4072
GCA_013786165.1_ASM1378616v1,plasmid_AA976,CP056633.1,7462,7462
GCA_013806085.1_ASM1380608v1,plasmid_AB745,CP057048.1,37909,37909
GCA_013806085.1_ASM1380608v1,plasmid_AA304,CP057046.1,110412,110412
GCA_013806085.1_ASM1380608v1,plasmid_AB442,CP057049.1,4671,4671
GCA_013806085.1_ASM1380608v1,plasmid_AB002,CP057047.1,92057,92057
GCA_013816045.1_ASM1381604v1,plasmid_AA337,CP057142.1,89539,96190
GCA_013816045.1_ASM1381604v1,plasmid_AA337,CP057141.1,9183,96190
GCA_013899165.1_ASM1389916v1,plasmid_AA860,CP057840.1,29027,29027
GCA_013899165.1_ASM1389916v1,plasmid_AA860,CP057839.1,5368,29027
GCA_013812015.1_ASM1381201v1,plasmid_AB044,CP057074.1,3430,3633
GCA_013725775.1_ASM1372577v1,plasmid_AA302,CP056243.1,106769,106769
GCA_013725775.1_ASM1372577v1,plasmid_AF232,CP056242.1,9953,7669
GCA_013786125.1_ASM1378612v1,plasmid_AA378,CP056621.1,96235,97578
GCA_013786125.1_ASM1378612v1,plasmid_AA378,CP056620.1,4029,97578
GCA_013803745.1_ASM1380374v1,plasmid_AA302,CP057013.1,86928,86928
GCA_013813585.1_ASM1381358v1,plasmid_AA152,CP057111.1,5686,5686
GCA_013813585.1_ASM1381358v1,plasmid_AA302,CP057110.1,101836,101839
GCA_013813585.1_ASM1381358v1,plasmid_AA302,CP057109.1,4509,101839
GCA_013813585.1_ASM1381358v1,plasmid_AF232,CP057109.1,3648,3648
GCA_013815445.1_ASM1381544v1,plasmid_AA337,CP057138.1,86321,86321
GCA_013815445.1_ASM1381544v1,plasmid_AA337,CP057137.1,3774,86321
GCA_014109665.1_ASM1410966v1,plasmid_AB685,CP058110.1,1551,1551
GCA_014109665.1_ASM1410966v1,plasmid_AB443,CP058108.1,5345,5569
GCA_014109665.1_ASM1410966v1,plasmid_AA971,CP058107.1,5682,5682
GCA_014109665.1_ASM1410966v1,plasmid_AF232,CP058104.1,6252,6252
GCA_014109665.1_ASM1410966v1,plasmid_AA337,CP058105.1,96747,96747
GCA_014109665.1_ASM1410966v1,plasmid_AB239,CP058109.1,2491,2590
GCA_014109665.1_ASM1410966v1,plasmid_AA979,CP058106.1,6230,6230
GCA_013784085.1_ASM1378408v1,plasmid_AF232,CP056392.1,4270,4270
GCA_013923405.1_ASM1392340v1,plasmid_AA176,CP058071.1,49836,49836
GCA_013923405.1_ASM1392340v1,plasmid_AA176,CP058070.1,1602,49836
GCA_013923405.1_ASM1392340v1,plasmid_AA337,CP058071.1,52139,72482
GCA_013923405.1_ASM1392340v1,plasmid_AA337,CP058070.1,25359,72482
GCA_013790405.1_ASM1379040v1,plasmid_AF268,CP056817.1,18901,18901
GCA_013790405.1_ASM1379040v1,plasmid_AA176,CP056816.1,24838,22672
GCA_013790405.1_ASM1379040v1,plasmid_AA176,CP056819.1,6989,22672
GCA_013790405.1_ASM1379040v1,plasmid_AA282,CP056818.1,67444,77773
GCA_013790405.1_ASM1379040v1,plasmid_AA282,CP056817.1,11848,77773
GCA_013790405.1_ASM1379040v1,plasmid_AA297,CP056819.1,62955,69115
GCA_013790405.1_ASM1379040v1,plasmid_AA297,CP056817.1,6159,69115
GCA_013790405.1_ASM1379040v1,plasmid_AA297,CP056818.1,2605,69115
GCA_013790405.1_ASM1379040v1,plasmid_AB233,CP056820.1,36067,36067
GCA_013790405.1_ASM1379040v1,plasmid_AC662,CP056817.1,36249,36249
GCA_013829445.1_ASM1382944v1,plasmid_AB229,CP057370.1,40696,43781
GCA_013829445.1_ASM1382944v1,plasmid_AB229,CP057369.1,4171,43781
GCA_013829445.1_ASM1382944v1,plasmid_AG658,CP057369.1,13078,12035
GCA_013829445.1_ASM1382944v1,plasmid_AA316,CP057369.1,66044,66044
GCA_013829445.1_ASM1382944v1,plasmid_AA316,CP057368.1,1234,66044
GCA_013829445.1_ASM1382944v1,plasmid_AB192,CP057369.1,15854,19781
GCA_013829445.1_ASM1382944v1,plasmid_AB192,CP057368.1,5436,19781
GCA_013829445.1_ASM1382944v1,plasmid_AA322,CP057369.1,10496,10496
GCA_013829445.1_ASM1382944v1,plasmid_AA810,CP057368.1,11365,11365
GCA_013829445.1_ASM1382944v1,plasmid_AA810,CP057369.1,11365,11365
GCA_014109125.1_ASM1410912v1,plasmid_AA176,CP058079.1,50877,50877
GCA_014109125.1_ASM1410912v1,plasmid_AA176,CP058078.1,1602,50877
GCA_014109125.1_ASM1410912v1,plasmid_AA337,CP058079.1,52138,72481
GCA_014109125.1_ASM1410912v1,plasmid_AA337,CP058078.1,25359,72481
GCA_014109005.1_ASM1410900v1,plasmid_AA473,CP058047.1,8246,9707
GCA_014109005.1_ASM1410900v1,plasmid_AA473,CP058046.1,12200,9707
GCA_014109005.1_ASM1410900v1,plasmid_novel_7a1af33b3342c908e9bf7941d4e14d24,CP058047.1,8109,8109
GCA_014109005.1_ASM1410900v1,plasmid_AB685,CP058051.1,1552,1552
GCA_014109005.1_ASM1410900v1,plasmid_AD466,CP058050.1,2460,2460
GCA_014109005.1_ASM1410900v1,plasmid_AD167,CP058049.1,7430,8558
GCA_014109005.1_ASM1410900v1,plasmid_AD167,CP058046.1,6768,8558
GCA_014109005.1_ASM1410900v1,plasmid_AB718,CP058048.1,37375,37375
GCA_014109005.1_ASM1410900v1,plasmid_AB718,CP058047.1,3102,37375
GCA_014109005.1_ASM1410900v1,plasmid_AB718,CP058046.1,3681,37375
GCA_008275005.1_ASM827500v1,plasmid_AA664,no_correct_alignments,0,0
GCA_013886475.1_ASM1388647v1,plasmid_AA304,CP057571.1,104146,104146
GCA_013886475.1_ASM1388647v1,plasmid_AB442,CP057573.1,4430,4671
GCA_013886475.1_ASM1388647v1,plasmid_AB003,CP057572.1,87552,88150
GCA_013900025.1_ASM1390002v1,plasmid_AA304,CP057952.1,65876,65876
GCA_013900025.1_ASM1390002v1,plasmid_novel_ab9ee8abd43d8ea9860d2bf16d2545d4,CP057952.1,39658,38348
GCA_013900025.1_ASM1390002v1,plasmid_novel_ab9ee8abd43d8ea9860d2bf16d2545d4,CP057951.1,10480,38348
GCA_013785665.1_ASM1378566v1,plasmid_AF232,CP056564.1,4597,4597
GCA_013889395.1_ASM1388939v1,plasmid_AD672,CP057612.1,13367,10935
GCA_013889395.1_ASM1388939v1,plasmid_AA337,CP057613.1,89809,96460
GCA_013889395.1_ASM1388939v1,plasmid_AA337,CP057612.1,9183,96460
GCA_013819985.1_ASM1381998v1,plasmid_AF232,CP057225.1,4747,4747
GCA_013819985.1_ASM1381998v1,plasmid_AB448,CP057227.1,6760,6760
GCA_013819985.1_ASM1381998v1,plasmid_AB241,CP057228.1,2590,2590
GCA_013886595.1_ASM1388659v1,plasmid_AA619,CP057579.1,31751,31751
GCA_013886595.1_ASM1388659v1,plasmid_AA302,CP057578.1,77886,79840
GCA_013886595.1_ASM1388659v1,plasmid_AA302,CP057577.1,3908,79840
GCA_013888235.1_ASM1388823v1,plasmid_AA302,CP057601.1,63875,63875
GCA_013822575.1_ASM1382257v1,plasmid_AA998,CP057277.1,212213,236836
GCA_013822575.1_ASM1382257v1,plasmid_AA998,CP057276.1,30530,236836
GCA_013822575.1_ASM1382257v1,plasmid_AA998,CP057278.1,9041,236836
GCA_013822575.1_ASM1382257v1,plasmid_novel_ac8b43fab47da906925c7c723e3fe04a,CP057278.1,30871,47534
GCA_013822575.1_ASM1382257v1,plasmid_novel_ac8b43fab47da906925c7c723e3fe04a,CP057276.1,19549,47534
GCA_013822575.1_ASM1382257v1,plasmid_AA516,CP057279.1,4925,5101
GCA_013822575.1_ASM1382257v1,plasmid_AA521,CP057280.1,1846,1846
GCA_013898135.1_ASM1389813v1,plasmid_AB685,CP057778.1,1539,1539
GCA_013898135.1_ASM1389813v1,plasmid_AC977,CP057780.1,41696,41696
GCA_013898135.1_ASM1389813v1,plasmid_AA161,CP057781.1,6930,8261
GCA_013898135.1_ASM1389813v1,plasmid_AA161,CP057778.1,3993,8261
GCA_013898135.1_ASM1389813v1,plasmid_AA316,CP057779.1,59658,59658
GCA_013898135.1_ASM1389813v1,plasmid_AF190,CP057778.1,23901,18964
GCA_014131615.1_ASM1413161v1,plasmid_AA303,contig_length_below_1k,0,0
GCA_014131615.1_ASM1413161v1,plasmid_AA302,CP048867.1,13150,27280
GCA_014131615.1_ASM1413161v1,plasmid_AA302,CP048868.1,14130,27280
GCA_013790245.1_ASM1379024v1,plasmid_AB685,CP056807.1,1549,1549
GCA_013790245.1_ASM1379024v1,plasmid_AA170,CP056803.1,23979,27891
GCA_013790245.1_ASM1379024v1,plasmid_AA170,CP056800.1,3912,27891
GCA_013790245.1_ASM1379024v1,plasmid_AA476,CP056802.1,6760,6760
GCA_013790245.1_ASM1379024v1,plasmid_AA747,CP056801.1,112468,110811
GCA_013790245.1_ASM1379024v1,plasmid_AA747,CP056800.1,3314,110811
GCA_013790245.1_ASM1379024v1,plasmid_AA474,CP056802.1,72533,86091
GCA_013790245.1_ASM1379024v1,plasmid_AA474,CP056803.1,9412,86091
GCA_013790245.1_ASM1379024v1,plasmid_AA474,CP056800.1,9800,86091
GCA_013790245.1_ASM1379024v1,plasmid_AB238,CP056806.1,1976,1976
GCA_013790245.1_ASM1379024v1,plasmid_AA337,CP056803.1,17208,17208
GCA_013790245.1_ASM1379024v1,plasmid_AA977,CP056805.1,5165,5165
GCA_013790245.1_ASM1379024v1,plasmid_AB446,CP056804.1,5210,5210
GCA_013790245.1_ASM1379024v1,plasmid_AA322,CP056803.1,11086,21078
GCA_013790245.1_ASM1379024v1,plasmid_AA322,CP056800.1,9992,21078
GCA_013732175.1_ASM1373217v1,plasmid_AA171,CP056316.1,70799,73219
GCA_013732175.1_ASM1373217v1,plasmid_AA171,CP056315.1,9680,73219
GCA_013732175.1_ASM1373217v1,plasmid_AB444,CP056319.1,5444,5444
GCA_013732175.1_ASM1373217v1,plasmid_AA971,CP056318.1,5716,5716
GCA_013732175.1_ASM1373217v1,plasmid_AA552,CP056317.1,52715,55779
GCA_013732175.1_ASM1373217v1,plasmid_AA552,CP056316.1,4385,55779
GCA_013732175.1_ASM1373217v1,plasmid_AA579,CP056320.1,4084,4084
GCA_013824345.1_ASM1382434v1,plasmid_novel_0b051d631c1f3fb74f875e3623f54a0b,CP057194.1,16104,24737
GCA_013824345.1_ASM1382434v1,plasmid_novel_0b051d631c1f3fb74f875e3623f54a0b,CP057196.1,9846,24737
GCA_013824345.1_ASM1382434v1,plasmid_AA180,CP057195.1,72949,72951
GCA_013824345.1_ASM1382434v1,plasmid_AA886,CP057196.1,27020,27020
GCA_013886735.1_ASM1388673v1,plasmid_AA304,CP057581.1,51812,51812
GCA_013886735.1_ASM1388673v1,plasmid_AA304,CP057580.1,2516,51812
GCA_013805505.1_ASM1380550v1,plasmid_AD669,CP057033.1,55483,55483
GCA_013805505.1_ASM1380550v1,plasmid_AD672,CP057031.1,14349,14349
GCA_013790285.1_ASM1379028v1,plasmid_AB696,CP056814.1,2150,2150
GCA_013790285.1_ASM1379028v1,plasmid_AA176,CP056811.1,123066,123324
GCA_013790285.1_ASM1379028v1,plasmid_AA176,CP056810.1,1955,123324
GCA_013790285.1_ASM1379028v1,plasmid_AC147,CP056812.1,36596,36596
GCA_013829905.1_ASM1382990v1,plasmid_AA887,CP057378.1,51311,83083
GCA_013829905.1_ASM1382990v1,plasmid_AA887,CP057379.1,37914,83083
GCA_013812575.1_ASM1381257v1,plasmid_AA327,CP057089.1,9480,9480
GCA_013812575.1_ASM1381257v1,plasmid_AA552,CP057089.1,29024,30360
GCA_013812575.1_ASM1381257v1,plasmid_AA552,CP057087.1,4008,30360
GCA_013812575.1_ASM1381257v1,plasmid_AB267,CP057088.1,49778,49778
GCA_013812575.1_ASM1381257v1,plasmid_AA372,CP057088.1,32522,27638
GCA_013812575.1_ASM1381257v1,plasmid_novel_547ffdbfb0085d8cca7198cc494b8f49,CP057088.1,8306,8306
GCA_013812575.1_ASM1381257v1,plasmid_AA735,CP057088.1,21781,21781
GCA_013899265.1_ASM1389926v1,plasmid_AA738,CP057860.1,19310,8604
GCA_014131515.1_ASM1413151v1,plasmid_AA336,CP048856.1,65799,68520
GCA_014131515.1_ASM1413151v1,plasmid_AA336,CP048855.1,2630,68520
GCA_013899825.1_ASM1389982v1,plasmid_AA302,CP057917.1,98055,101716
GCA_013899825.1_ASM1389982v1,plasmid_AA302,CP057916.1,13985,101716
GCA_013893255.1_ASM1389325v1,plasmid_AA152,CP057675.1,5509,5509
GCA_013893255.1_ASM1389325v1,plasmid_AA309,CP057674.1,112831,112831
GCA_013893255.1_ASM1389325v1,plasmid_AD481,CP057676.1,3896,3896
GCA_013996855.1_ASM1399685v1,plasmid_AB050,CP058034.1,4664,4664
GCA_013996855.1_ASM1399685v1,plasmid_AB595,CP058033.1,6768,6768
GCA_013996855.1_ASM1399685v1,plasmid_AD465,CP058035.1,2460,2460
GCA_013996855.1_ASM1399685v1,plasmid_AA749,CP058032.1,112182,112182
GCA_013827445.1_ASM1382744v1,plasmid_AA279,CP057343.1,118965,118965
GCA_013812225.1_ASM1381222v1,plasmid_AB266,CP057076.1,22882,20622
GCA_013812225.1_ASM1381222v1,plasmid_AB266,CP057075.1,9040,20622
GCA_013812225.1_ASM1381222v1,plasmid_AG294,CP057075.1,15371,15371
GCA_013812225.1_ASM1381222v1,plasmid_AA143,CP057081.1,5445,5445
GCA_013812225.1_ASM1381222v1,plasmid_AA329,CP057076.1,53856,55070
GCA_013812225.1_ASM1381222v1,plasmid_AA329,CP057078.1,1214,55070
GCA_013812225.1_ASM1381222v1,plasmid_AA551,CP057077.1,46685,46685
GCA_013812225.1_ASM1381222v1,plasmid_AB062,CP057082.1,4571,4571
GCA_013812225.1_ASM1381222v1,plasmid_AB233,CP057079.1,15815,15815
GCA_013899985.1_ASM1389998v1,plasmid_novel_46a53d03aaeb5f0b4aba344cab0f221c,CP057950.1,4612,4612
GCA_013899985.1_ASM1389998v1,plasmid_AA302,CP057947.1,94531,94531
GCA_013899985.1_ASM1389998v1,plasmid_AA372,CP057948.1,55922,55922
GCA_013806525.1_ASM1380652v1,plasmid_AB745,CP057053.1,37909,37909
GCA_013806525.1_ASM1380652v1,plasmid_AA304,CP057051.1,110369,110455
GCA_013806525.1_ASM1380652v1,plasmid_AB442,CP057054.1,4671,4671
GCA_013806525.1_ASM1380652v1,plasmid_AB002,CP057052.1,92057,92057
GCA_013748665.1_ASM1374866v1,plasmid_AA860,CP056493.1,12008,28367
GCA_013748665.1_ASM1374866v1,plasmid_AA860,CP056492.1,29581,28367
GCA_013748665.1_ASM1374866v1,plasmid_AA860,CP056494.1,1443,28367
GCA_013748665.1_ASM1374866v1,plasmid_AA324,CP056492.1,15300,37672
GCA_013748665.1_ASM1374866v1,plasmid_AA324,CP056493.1,25242,37672
GCA_013748665.1_ASM1374866v1,plasmid_AA336,CP056494.1,60859,80563
GCA_013748665.1_ASM1374866v1,plasmid_AA336,CP056493.1,22481,80563
GCA_013748665.1_ASM1374866v1,plasmid_AA336,CP056492.1,7749,80563
GCA_013802065.1_ASM1380206v1,plasmid_AB685,CP056984.1,1011,1087
GCA_013802065.1_ASM1380206v1,plasmid_AA474,CP056976.1,85744,96839
GCA_013802065.1_ASM1380206v1,plasmid_AA474,CP056975.1,10971,96839
GCA_013802065.1_ASM1380206v1,plasmid_AA474,CP056977.1,7982,96839
GCA_013802065.1_ASM1380206v1,plasmid_AA474,CP056974.1,7903,96839
GCA_013802065.1_ASM1380206v1,plasmid_AA474,CP056978.1,3117,96839
GCA_013802065.1_ASM1380206v1,plasmid_AA537,CP056980.1,4018,4018
GCA_013802065.1_ASM1380206v1,plasmid_AG658,CP056977.1,10693,10693
GCA_013802065.1_ASM1380206v1,plasmid_AA579,CP056979.1,4072,4072
GCA_013802065.1_ASM1380206v1,plasmid_AA551,CP056978.1,47878,47878
GCA_013802065.1_ASM1380206v1,plasmid_AA316,CP056977.1,41340,81662
GCA_013802065.1_ASM1380206v1,plasmid_AA316,CP056975.1,47164,81662
GCA_013802065.1_ASM1380206v1,plasmid_AA316,CP056974.1,10476,81662
GCA_013802065.1_ASM1380206v1,plasmid_AB686,CP056983.1,1024,1100
GCA_013802065.1_ASM1380206v1,plasmid_AA979,CP056981.1,3751,3751
GCA_013802065.1_ASM1380206v1,plasmid_AA739,CP056974.1,6604,3302
GCA_008275105.1_ASM827510v1,plasmid_AA941,no_correct_alignments,0,0
GCA_013801205.1_ASM1380120v1,plasmid_AD481,CP056960.1,3743,3743
GCA_013801205.1_ASM1380120v1,plasmid_AA176,CP056956.1,145231,145231
GCA_013801205.1_ASM1380120v1,plasmid_AA176,CP056955.1,16496,145231
GCA_013801205.1_ASM1380120v1,plasmid_AF232,CP056955.1,5173,3296
GCA_013801205.1_ASM1380120v1,plasmid_AA162,CP056959.1,4420,4420
GCA_013801205.1_ASM1380120v1,plasmid_AC509,CP056957.1,5446,5446
GCA_013801205.1_ASM1380120v1,plasmid_AA155,CP056958.1,5609,5609
GCA_013804445.1_ASM1380444v1,plasmid_AD669,CP057021.1,54502,54502
GCA_013899185.1_ASM1389918v1,plasmid_AA860,CP057842.1,29027,29027
GCA_013899185.1_ASM1389918v1,plasmid_AA860,CP057841.1,5368,29027
GCA_014131535.1_ASM1413153v1,plasmid_AA337,CP048858.1,111378,110049
GCA_014131535.1_ASM1413153v1,plasmid_AA337,CP048857.1,11340,110049
GCA_014131535.1_ASM1413153v1,plasmid_AB446,CP048859.1,5219,5219
GCA_013727815.1_ASM1372781v1,plasmid_AA315,CP056264.1,5219,5219
GCA_013727815.1_ASM1372781v1,plasmid_AA142,CP056266.1,7939,7939
GCA_013727815.1_ASM1372781v1,plasmid_AA474,CP056265.1,7868,7868
GCA_013727815.1_ASM1372781v1,plasmid_AA336,CP056264.1,63571,65148
GCA_013727815.1_ASM1372781v1,plasmid_AA336,CP056265.1,2673,65148
GCA_013837755.1_ASM1383775v1,plasmid_AB685,CP057499.1,1551,1551
GCA_013837755.1_ASM1383775v1,plasmid_AA309,CP057494.1,133673,133673
GCA_013837755.1_ASM1383775v1,plasmid_AA159,CP057495.1,6826,6826
GCA_013837755.1_ASM1383775v1,plasmid_AF232,CP057493.1,2736,1368
GCA_013837755.1_ASM1383775v1,plasmid_AA977,CP057497.1,3876,5733
GCA_013837755.1_ASM1383775v1,plasmid_AA977,CP057496.1,1857,5733
GCA_013837755.1_ASM1383775v1,plasmid_AB239,CP057498.1,2590,2590
GCA_013837755.1_ASM1383775v1,plasmid_AA979,CP057496.1,3101,3101
GCA_013744185.1_ASM1374418v1,plasmid_AB111,CP056659.1,4161,4161
GCA_013744185.1_ASM1374418v1,plasmid_AD484,CP056658.1,4315,4315
GCA_013744185.1_ASM1374418v1,plasmid_AA035,CP056656.1,51244,52474
GCA_013744185.1_ASM1374418v1,plasmid_AA035,CP056655.1,2460,52474
GCA_013744185.1_ASM1374418v1,plasmid_AA449,CP056656.1,63239,64344
GCA_013744185.1_ASM1374418v1,plasmid_AA449,CP056655.1,7608,64344
GCA_013827685.1_ASM1382768v1,plasmid_AA282,CP057341.1,118965,118965
GCA_014109625.1_ASM1410962v1,plasmid_AA302,CP058091.1,75698,77652
GCA_014109625.1_ASM1410962v1,plasmid_AA302,CP058092.1,3480,77652
GCA_014109625.1_ASM1410962v1,plasmid_AA302,CP058090.1,3907,77652
GCA_014109625.1_ASM1410962v1,plasmid_AA182,CP058092.1,69173,69173
GCA_014109625.1_ASM1410962v1,plasmid_AF232,CP058090.1,2520,2520
GCA_013823865.1_ASM1382386v1,plasmid_AB685,CP057189.1,1551,1551
GCA_013601135.1_ASM1360113v1,plasmid_AD669,CP055714.1,71264,71264
GCA_013601135.1_ASM1360113v1,plasmid_AF232,CP055713.1,1342,1342
GCA_013601135.1_ASM1360113v1,plasmid_AC509,CP055716.1,6809,6809
GCA_013601135.1_ASM1360113v1,plasmid_AB233,CP055715.1,37616,37616
GCA_013749975.1_ASM1374997v1,plasmid_AD669,CP056557.1,43092,43092
GCA_013749975.1_ASM1374997v1,plasmid_AD669,CP056558.1,3239,43092
GCA_013749975.1_ASM1374997v1,plasmid_novel_5be5024c5407a7ff3552bc6080769057,CP056558.1,22524,22524
GCA_013749975.1_ASM1374997v1,plasmid_novel_5be5024c5407a7ff3552bc6080769057,CP056557.1,2353,22524
GCA_013749975.1_ASM1374997v1,plasmid_AA338,CP056558.1,42650,44977
GCA_013749975.1_ASM1374997v1,plasmid_AA338,CP056557.1,2327,44977
GCA_013828415.1_ASM1382841v1,plasmid_AB685,CP057352.1,1551,1551
GCA_013828415.1_ASM1382841v1,plasmid_AA161,CP057351.1,6930,6930
GCA_013791815.1_ASM1379181v1,plasmid_novel_a61b0e98ce2a3f300027845e59653435,CP056849.1,4195,4195
GCA_013791815.1_ASM1379181v1,plasmid_AF232,CP056846.1,1419,1419
GCA_013791815.1_ASM1379181v1,plasmid_AA175,CP056847.1,142257,144145
GCA_013791815.1_ASM1379181v1,plasmid_AA175,CP056846.1,3770,144145
GCA_013783685.1_ASM1378368v1,plasmid_AA315,CP056356.1,72869,72869
GCA_013885155.1_ASM1388515v1,plasmid_AA315,CP057541.1,58219,58220
GCA_013885155.1_ASM1388515v1,plasmid_AD486,CP057544.1,3257,3257
GCA_013885155.1_ASM1388515v1,plasmid_AA474,CP057540.1,98678,98678
GCA_013885155.1_ASM1388515v1,plasmid_AA474,CP057541.1,2663,98678
GCA_013885155.1_ASM1388515v1,plasmid_AA154,CP057542.1,7198,7198
GCA_013885155.1_ASM1388515v1,plasmid_AF232,CP057539.1,5758,5758
GCA_013885155.1_ASM1388515v1,plasmid_AA979,CP057543.1,6230,6230
GCA_013602835.1_ASM1360283v1,plasmid_AA576,CP055728.1,5978,5978
GCA_013602835.1_ASM1360283v1,plasmid_AA476,CP055725.1,7748,7748
GCA_013602835.1_ASM1360283v1,plasmid_AA474,CP055725.1,40361,41715
GCA_013602835.1_ASM1360283v1,plasmid_AA474,CP055724.1,2686,41715
GCA_013602835.1_ASM1360283v1,plasmid_novel_1eb9b0529a15387cd88f5a017d0d51ab,CP055725.1,19096,16398
GCA_013602835.1_ASM1360283v1,plasmid_novel_1eb9b0529a15387cd88f5a017d0d51ab,CP055726.1,2698,16398
GCA_013602835.1_ASM1360283v1,plasmid_novel_1eb9b0529a15387cd88f5a017d0d51ab,CP055724.1,13490,16398
GCA_013602835.1_ASM1360283v1,plasmid_AA161,CP055727.1,6860,6860
GCA_013602835.1_ASM1360283v1,plasmid_novel_9f4270541e46205fe9fd5c5e9f0cd036,CP055726.1,32252,46066
GCA_013602835.1_ASM1360283v1,plasmid_novel_9f4270541e46205fe9fd5c5e9f0cd036,CP055725.1,14405,46066
GCA_013602835.1_ASM1360283v1,plasmid_novel_9f4270541e46205fe9fd5c5e9f0cd036,CP055724.1,1770,46066
GCA_013602835.1_ASM1360283v1,plasmid_AA977,CP055733.1,3136,3136
GCA_013602835.1_ASM1360283v1,plasmid_AA973,CP055729.1,4973,4973
GCA_013835785.1_ASM1383578v1,plasmid_AA304,CP057477.1,70470,70513
GCA_013835785.1_ASM1383578v1,plasmid_AA304,CP057475.1,2376,70513
GCA_013835785.1_ASM1383578v1,plasmid_AA372,CP057478.1,56860,58170
GCA_013835785.1_ASM1383578v1,plasmid_AA372,CP057475.1,2620,58170
GCA_013835785.1_ASM1383578v1,plasmid_AA372,CP057477.1,1310,58170
GCA_013835785.1_ASM1383578v1,plasmid_AA378,CP057476.1,98077,98077
GCA_013731515.1_ASM1373151v1,plasmid_AA176,CP056305.1,118153,131415
GCA_013731515.1_ASM1373151v1,plasmid_AA176,CP056304.1,32461,131415
GCA_013731515.1_ASM1373151v1,plasmid_AA579,CP056306.1,4074,4074
GCA_013892855.1_ASM1389285v1,plasmid_AA161,CP057667.1,6930,6930
GCA_013892855.1_ASM1389285v1,plasmid_AA979,CP057668.1,6230,6230
GCA_013892855.1_ASM1389285v1,plasmid_AA175,CP057666.1,126368,126586
GCA_013892855.1_ASM1389285v1,plasmid_AA175,CP057665.1,6290,126586
GCA_013884935.1_ASM1388493v1,plasmid_AA315,CP057536.1,60725,60725
GCA_013884935.1_ASM1388493v1,plasmid_AA161,CP057537.1,6930,6930
GCA_013884935.1_ASM1388493v1,plasmid_AD485,CP057538.1,4721,4721
GCA_013819805.1_ASM1381980v1,plasmid_AD448,CP057223.1,37045,37045
GCA_013819805.1_ASM1381980v1,plasmid_AA302,CP057224.1,100610,102142
GCA_013819805.1_ASM1381980v1,plasmid_AA302,CP057223.1,6739,102142
GCA_013825245.1_ASM1382524v1,plasmid_AB266,CP057296.1,16692,16692
GCA_013825245.1_ASM1382524v1,plasmid_AA474,CP057294.1,107021,119017
GCA_013825245.1_ASM1382524v1,plasmid_AA474,CP057295.1,9972,119017
GCA_013825245.1_ASM1382524v1,plasmid_AA474,CP057293.1,8096,119017
GCA_013825245.1_ASM1382524v1,plasmid_AA474,CP057296.1,1089,119017
GCA_013825245.1_ASM1382524v1,plasmid_AA180,CP057295.1,45027,51474
GCA_013825245.1_ASM1382524v1,plasmid_AA180,CP057297.1,6447,51474
GCA_013825245.1_ASM1382524v1,plasmid_AB056,CP057293.1,1336,1336
GCA_013825245.1_ASM1382524v1,plasmid_AB056,CP057296.1,1336,1336
GCA_013825245.1_ASM1382524v1,plasmid_AG294,CP057293.1,17948,17948
GCA_013825245.1_ASM1382524v1,plasmid_AA143,CP057301.1,3817,3817
GCA_013825245.1_ASM1382524v1,plasmid_novel_6784386a2c3cf426e77ca68e274a1c63,CP057295.1,6406,9610
GCA_013825245.1_ASM1382524v1,plasmid_novel_6784386a2c3cf426e77ca68e274a1c63,CP057296.1,3204,9610
GCA_013825245.1_ASM1382524v1,plasmid_AA176,CP057296.1,29945,67835
GCA_013825245.1_ASM1382524v1,plasmid_AA176,CP057294.1,8940,67835
GCA_013825245.1_ASM1382524v1,plasmid_AA176,CP057297.1,11313,67835
GCA_013825245.1_ASM1382524v1,plasmid_AA176,CP057295.1,19695,67835
GCA_013825245.1_ASM1382524v1,plasmid_AA176,CP057293.1,23667,67835
GCA_013825245.1_ASM1382524v1,plasmid_AB062,CP057299.1,4674,6632
GCA_013825245.1_ASM1382524v1,plasmid_AB062,CP057300.1,1958,6632
GCA_013825245.1_ASM1382524v1,plasmid_AB062,CP057301.1,1958,6632
GCA_013825245.1_ASM1382524v1,plasmid_AG799,CP057297.1,3268,3268
GCA_013797825.1_ASM1379782v1,plasmid_AB044,CP056902.1,5286,5286
GCA_013797825.1_ASM1379782v1,plasmid_AA334,CP056903.1,95638,95719
GCA_013797825.1_ASM1379782v1,plasmid_AA334,CP056902.1,9163,95719
GCA_013797825.1_ASM1379782v1,plasmid_AA334,CP056904.1,1050,95719
GCA_013797825.1_ASM1379782v1,plasmid_AF232,CP056902.1,14069,14069
GCA_013797825.1_ASM1379782v1,plasmid_AA579,CP056905.1,3789,4072
GCA_013797825.1_ASM1379782v1,plasmid_AA282,CP056904.1,91483,97658
GCA_013797825.1_ASM1379782v1,plasmid_AA282,CP056903.1,13961,97658
GCA_013797825.1_ASM1379782v1,plasmid_AA282,CP056902.1,1611,97658
GCA_013797825.1_ASM1379782v1,plasmid_AB686,CP056906.1,1565,1565
GCA_014131595.1_ASM1413159v1,plasmid_AA297,CP048866.1,129024,124642
GCA_014131595.1_ASM1413159v1,plasmid_AA297,CP048865.1,2212,124642
GCA_013890795.1_ASM1389079v1,plasmid_AA473,CP057635.1,84511,86039
GCA_013890795.1_ASM1389079v1,plasmid_AA473,CP057634.1,1528,86039
GCA_013890795.1_ASM1389079v1,plasmid_AA887,CP057635.1,10715,14678
GCA_013890795.1_ASM1389079v1,plasmid_AA887,CP057634.1,7227,14678
GCA_013890795.1_ASM1389079v1,plasmid_AA337,CP057634.1,50158,44688
GCA_013890795.1_ASM1389079v1,plasmid_AA337,CP057635.1,8409,44688
GCA_013806725.1_ASM1380672v1,plasmid_AA887,CP057056.1,70345,74412
GCA_013806725.1_ASM1380672v1,plasmid_AA887,CP057055.1,22815,74412
GCA_013802585.1_ASM1380258v1,plasmid_AA473,CP056998.1,8246,9707
GCA_013802585.1_ASM1380258v1,plasmid_AA473,CP056997.1,12200,9707
GCA_013802585.1_ASM1380258v1,plasmid_novel_7a1af33b3342c908e9bf7941d4e14d24,CP056998.1,8109,8109
GCA_013802585.1_ASM1380258v1,plasmid_AD465,CP057001.1,2460,2460
GCA_013802585.1_ASM1380258v1,plasmid_AD167,CP057000.1,7431,8559
GCA_013802585.1_ASM1380258v1,plasmid_AD167,CP056997.1,7896,8559
GCA_013802585.1_ASM1380258v1,plasmid_AB718,CP056999.1,37377,37377
GCA_013802585.1_ASM1380258v1,plasmid_AB718,CP056998.1,3102,37377
GCA_013802585.1_ASM1380258v1,plasmid_AB718,CP056997.1,3681,37377
GCA_013746875.1_ASM1374687v1,plasmid_AA998,CP056396.1,21736,21736
GCA_013746875.1_ASM1374687v1,plasmid_AB038,CP056398.1,2292,2292
GCA_013746875.1_ASM1374687v1,plasmid_AF232,CP056396.1,6094,6094
GCA_013746875.1_ASM1374687v1,plasmid_AA052,CP056396.1,34210,34210
GCA_013746875.1_ASM1374687v1,plasmid_AA810,CP056396.1,18538,18538
GCA_013795545.1_ASM1379554v1,plasmid_AA860,CP056871.1,13449,26095
GCA_013795545.1_ASM1379554v1,plasmid_AA860,CP056870.1,26241,26095
GCA_013795545.1_ASM1379554v1,plasmid_novel_a240bc46960716576b89f57e3ad9c20a,CP056870.1,12430,22106
GCA_013795545.1_ASM1379554v1,plasmid_novel_a240bc46960716576b89f57e3ad9c20a,CP056871.1,9676,22106
GCA_013795545.1_ASM1379554v1,plasmid_AA338,CP056872.1,60691,102613
GCA_013795545.1_ASM1379554v1,plasmid_AA338,CP056871.1,48064,102613
GCA_013795545.1_ASM1379554v1,plasmid_AA338,CP056870.1,12964,102613
GCA_014109105.1_ASM1410910v1,plasmid_AA176,CP058077.1,50877,50877
GCA_014109105.1_ASM1410910v1,plasmid_AA176,CP058076.1,1602,50877
GCA_014109105.1_ASM1410910v1,plasmid_AA337,CP058076.1,37395,84929
GCA_014109105.1_ASM1410910v1,plasmid_AA337,CP058077.1,52550,84929
GCA_013823335.1_ASM1382333v1,plasmid_AB685,CP057184.1,1552,1552
GCA_013823335.1_ASM1382333v1,plasmid_AB261,CP057179.1,43078,44140
GCA_013823335.1_ASM1382333v1,plasmid_AB261,CP057178.1,7434,44140
GCA_013823335.1_ASM1382333v1,plasmid_AA669,CP057181.1,2898,2974
GCA_013823335.1_ASM1382333v1,plasmid_AB689,CP057183.1,1603,1603
GCA_013823335.1_ASM1382333v1,plasmid_AB239,CP057182.1,2519,2519
GCA_013823335.1_ASM1382333v1,plasmid_AA338,CP057180.1,45571,46948
GCA_013823335.1_ASM1382333v1,plasmid_AA338,CP057178.1,15147,46948
GCA_013790145.1_ASM1379014v1,plasmid_AA998,CP056794.1,21452,24706
GCA_013790145.1_ASM1379014v1,plasmid_AA998,CP056797.1,4741,24706
GCA_013790145.1_ASM1379014v1,plasmid_AA315,CP056798.1,62520,62556
GCA_013790145.1_ASM1379014v1,plasmid_AA056,CP056794.1,34459,30267
GCA_013790145.1_ASM1379014v1,plasmid_AA474,CP056797.1,16925,21158
GCA_013790145.1_ASM1379014v1,plasmid_AA474,CP056794.1,4233,21158
GCA_013790145.1_ASM1379014v1,plasmid_AA474,CP056798.1,2696,21158
GCA_013790145.1_ASM1379014v1,plasmid_AC977,CP056799.1,41391,41391
GCA_013790145.1_ASM1379014v1,plasmid_AA405,CP056795.1,201176,215025
GCA_013790145.1_ASM1379014v1,plasmid_AA405,CP056794.1,25557,215025
GCA_013790145.1_ASM1379014v1,plasmid_AF268,CP056797.1,19475,19475
GCA_013790145.1_ASM1379014v1,plasmid_AB003,CP056796.1,86430,86505
GCA_013790145.1_ASM1379014v1,plasmid_AA047,CP056794.1,21151,16835
GCA_013790145.1_ASM1379014v1,plasmid_AC662,CP056797.1,45899,45899
GCA_013739975.1_ASM1373997v1,plasmid_AB595,CP056407.1,2524,2524
GCA_013739975.1_ASM1373997v1,plasmid_AA336,CP056405.1,68783,68783
GCA_013739975.1_ASM1373997v1,plasmid_AC748,CP056408.1,1911,2089
GCA_013739975.1_ASM1373997v1,plasmid_AA976,CP056406.1,7461,7461
GCA_014058445.1_ASM1405844v1,plasmid_AB745,CP058685.1,33867,33926
GCA_014058445.1_ASM1405844v1,plasmid_AB684,CP058688.1,2784,2784
GCA_014058445.1_ASM1405844v1,plasmid_AA346,CP058683.1,82355,78142
GCA_014058445.1_ASM1405844v1,plasmid_AA346,CP058682.1,48763,78142
GCA_014058445.1_ASM1405844v1,plasmid_AA378,CP058684.1,89589,89589
GCA_014058445.1_ASM1405844v1,plasmid_AD485,CP058687.1,4536,4543
GCA_014058445.1_ASM1405844v1,plasmid_AA155,CP058686.1,6542,6542
GCA_013899725.1_ASM1389972v1,plasmid_novel_d2b55cd26197ebf760edb88ec91ae837,CP057902.1,41767,37576
GCA_013899725.1_ASM1389972v1,plasmid_novel_d2b55cd26197ebf760edb88ec91ae837,CP057901.1,15360,37576
GCA_013899725.1_ASM1389972v1,plasmid_AB266,CP057902.1,35850,35850
GCA_013899725.1_ASM1389972v1,plasmid_AD669,CP057903.1,62892,62892
GCA_013899725.1_ASM1389972v1,plasmid_novel_3379c2476a42082bd6b90a024b25a112,CP057902.1,40356,40356
GCA_013899725.1_ASM1389972v1,plasmid_AB233,CP057904.1,32598,35199
GCA_013899725.1_ASM1389972v1,plasmid_AB233,CP057902.1,2601,35199
GCA_013796065.1_ASM1379606v1,plasmid_AA302,CP056877.1,22014,42587
GCA_013796065.1_ASM1379606v1,plasmid_AA302,CP056876.1,41244,42587
GCA_013796065.1_ASM1379606v1,plasmid_AB272,CP056877.1,56188,59012
GCA_013796065.1_ASM1379606v1,plasmid_AB272,CP056876.1,24655,59012
GCA_013796065.1_ASM1379606v1,plasmid_AA735,CP056877.1,65557,67835
GCA_013796065.1_ASM1379606v1,plasmid_AA735,CP056876.1,4556,67835
GCA_013828065.1_ASM1382806v1,plasmid_AA279,CP057348.1,118006,118006
GCA_014117345.1_ASM1411734v1,plasmid_AB269,CP059841.1,90734,92114
GCA_014117345.1_ASM1411734v1,plasmid_AB269,CP059840.1,6434,92114
GCA_014117345.1_ASM1411734v1,plasmid_AA144,CP059842.1,5218,5218
GCA_013804645.1_ASM1380464v1,plasmid_AA302,CP057023.1,86928,86928
GCA_013741635.1_ASM1374163v1,plasmid_AB685,CP056603.1,1552,1552
GCA_013741635.1_ASM1374163v1,plasmid_AA142,CP056601.1,7939,7939
GCA_013741635.1_ASM1374163v1,plasmid_AA860,CP056598.1,31063,43206
GCA_013741635.1_ASM1374163v1,plasmid_AA860,CP056599.1,25507,43206
GCA_013741635.1_ASM1374163v1,plasmid_AA579,CP056602.1,4072,4072
GCA_013741635.1_ASM1374163v1,plasmid_AA282,CP056600.1,92972,96204
GCA_013741635.1_ASM1374163v1,plasmid_AA282,CP056599.1,3232,96204
GCA_013741635.1_ASM1374163v1,plasmid_AA338,CP056599.1,76616,79199
GCA_013741635.1_ASM1374163v1,plasmid_AA338,CP056598.1,5166,79199
GCA_013899075.1_ASM1389907v1,plasmid_AB003,CP057832.1,87857,87857
GCA_014109085.1_ASM1410908v1,plasmid_AA473,CP058073.1,23048,23048
GCA_014109085.1_ASM1410908v1,plasmid_AA179,CP058073.1,76237,76280
GCA_014109085.1_ASM1410908v1,plasmid_AA179,CP058072.1,1602,76280
GCA_013804065.1_ASM1380406v1,plasmid_AA302,CP057015.1,86928,86928
GCA_013888615.1_ASM1388861v1,plasmid_AA337,CP057606.1,89809,96460
GCA_013888615.1_ASM1388861v1,plasmid_AA337,CP057605.1,9183,96460
GCA_013728735.1_ASM1372873v1,plasmid_AA297,CP056274.1,127808,126130
GCA_013728735.1_ASM1372873v1,plasmid_AA297,CP056273.1,22356,126130
