"Prob_Chromosome"	"Prob_Plasmid"	"Prediction"	"Contig_name"	"Contig_length"
1	0	"Chromosome"	"S8_LN:i:174958_dp:f:1.006119621239991"	174958
1	0	"Chromosome"	"S7_LN:i:190966_dp:f:1.130383454315825"	190966
1	0	"Chromosome"	"S5_LN:i:252959_dp:f:0.9623324123674134"	252959
1	0	"Chromosome"	"S6_LN:i:219219_dp:f:1.16555237214313"	219219
1	0	"Chromosome"	"S2_LN:i:274333_dp:f:0.7896695236510267"	274333
1	0	"Chromosome"	"S1_LN:i:285870_dp:f:0.911245841291148"	285870
1	0	"Chromosome"	"S3_LN:i:273160_dp:f:0.938402670257981"	273160
1	0	"Chromosome"	"S4_LN:i:271253_dp:f:1.0896060545460622"	271253
1	0	"Chromosome"	"S10_LN:i:164478_dp:f:1.0"	164478
1	0	"Chromosome"	"S9_LN:i:172092_dp:f:1.203895305095268"	172092
1	0	"Chromosome"	"S15_LN:i:130026_dp:f:0.7890867580016114"	130026
1	0	"Chromosome"	"S13_LN:i:157268_dp:f:1.154002156660067"	157268
1	0	"Chromosome"	"S16_LN:i:117271_dp:f:1.194241400760115"	117271
1	0	"Chromosome"	"S14_LN:i:142498_dp:f:0.7897939014695338"	142498
1	0	"Chromosome"	"S12_LN:i:157599_dp:f:1.1196389025957347"	157599
1	0	"Chromosome"	"S11_LN:i:162015_dp:f:1.078495073956932"	162015
1	0	"Chromosome"	"S22_LN:i:99850_dp:f:0.8979335039407074"	99850
1	0	"Chromosome"	"S17_LN:i:112830_dp:f:1.2183220058391506"	112830
1	0	"Chromosome"	"S18_LN:i:111632_dp:f:1.1652105536152872"	111632
1	0	"Chromosome"	"S20_LN:i:108098_dp:f:0.7365338519390978"	108098
1	0	"Chromosome"	"S21_LN:i:104689_dp:f:0.8612492330408533"	104689
1	0	"Chromosome"	"S19_LN:i:111420_dp:f:1.1085296570090195"	111420
1	0	"Chromosome"	"S24_LN:i:89116_dp:f:1.161116312677607"	89116
1	0	"Chromosome"	"S23_LN:i:94501_dp:f:1.0121466674824522"	94501
1	0	"Chromosome"	"S25_LN:i:79553_dp:f:0.9901061956933815"	79553
1	0	"Chromosome"	"S31_LN:i:51855_dp:f:0.7964657742775676"	51855
1	0	"Chromosome"	"S32_LN:i:48613_dp:f:1.1232557614412388"	48613
1	0	"Chromosome"	"S28_LN:i:60194_dp:f:1.1971318388857364"	60194
1	0	"Chromosome"	"S30_LN:i:56090_dp:f:0.8751047308446491"	56090
1	0	"Chromosome"	"S29_LN:i:58009_dp:f:0.9373447581016134"	58009
1	0	"Chromosome"	"S26_LN:i:78800_dp:f:1.1144661362994925"	78800
1	0	"Chromosome"	"S27_LN:i:73836_dp:f:0.946498331252684"	73836
1	0	"Chromosome"	"S39_LN:i:31538_dp:f:0.7442316330528722"	31538
1	0	"Chromosome"	"S35_LN:i:41303_dp:f:1.2485389112303307"	41303
1	0	"Chromosome"	"S38_LN:i:39879_dp:f:1.2453028854159898"	39879
1	0	"Chromosome"	"S36_LN:i:40880_dp:f:0.8020812512784234"	40880
1	0	"Chromosome"	"S37_LN:i:40463_dp:f:0.8679951841330634"	40463
1	0	"Chromosome"	"S40_LN:i:29837_dp:f:1.2685019574550882"	29837
1	0	"Chromosome"	"S33_LN:i:46106_dp:f:0.959769217374905"	46106
1	0	"Chromosome"	"S43_LN:i:20823_dp:f:0.9285071037889483"	20823
1	0	"Chromosome"	"S42_LN:i:28998_dp:f:0.8189181412858384"	28998
1	0	"Chromosome"	"S44_LN:i:20336_dp:f:0.9322374837819225"	20336
1	0	"Chromosome"	"S47_LN:i:17648_dp:f:0.7974936067313292"	17648
1	0	"Chromosome"	"S45_LN:i:19856_dp:f:0.7212078746366514"	19856
1	0	"Chromosome"	"S41_LN:i:29394_dp:f:1.0620962675883787"	29394
1	0	"Chromosome"	"S46_LN:i:19757_dp:f:0.9721706607580405"	19757
1	0	"Chromosome"	"S34_LN:i:45972_dp:f:1.2941643233353164"	45972
1	0	"Chromosome"	"S49_LN:i:15995_dp:f:1.138696813758594"	15995
1	0	"Chromosome"	"S48_LN:i:16598_dp:f:0.9610422103387808"	16598
1	0	"Chromosome"	"S51_LN:i:15036_dp:f:0.8725166879854168"	15036
1	0	"Chromosome"	"S52_LN:i:14947_dp:f:0.8102648993188504"	14947
1	0	"Chromosome"	"S50_LN:i:15266_dp:f:0.9219857760458565"	15266
1	0	"Chromosome"	"S53_LN:i:14840_dp:f:0.8096165055114497"	14840
1	0	"Chromosome"	"S54_LN:i:14739_dp:f:0.8692916941225992"	14739
1	0	"Chromosome"	"S56_LN:i:12147_dp:f:0.9621908383372939"	12147
1	0	"Chromosome"	"S55_LN:i:12489_dp:f:1.1290556526543472"	12489
1	0	"Chromosome"	"S58_LN:i:10556_dp:f:0.9356694743924402"	10556
1	0	"Chromosome"	"S59_LN:i:9403_dp:f:1.1927266787332444"	9403
1	0	"Chromosome"	"S57_LN:i:11236_dp:f:0.9607400129158193"	11236
1	0	"Chromosome"	"S61_LN:i:7267_dp:f:0.9473627743681756"	7267
1	0	"Chromosome"	"S60_LN:i:8580_dp:f:0.9506835899280862"	8580
1	0	"Chromosome"	"S62_LN:i:6851_dp:f:1.1582194815906688"	6851
1	0	"Chromosome"	"S65_LN:i:5534_dp:f:0.45420756642215093"	5534
1	0	"Chromosome"	"S64_LN:i:5545_dp:f:1.2274855372568878"	5545
1	0	"Chromosome"	"S63_LN:i:6512_dp:f:1.172719455506567"	6512
1	0	"Chromosome"	"S66_LN:i:5450_dp:f:2.436966774263757"	5450
0	1	"Plasmid"	"S68_LN:i:4593_dp:f:1.9409402660955402"	4593
1	0	"Chromosome"	"S67_LN:i:5089_dp:f:1.3375473330143137"	5089
1	0	"Chromosome"	"S69_LN:i:4564_dp:f:2.1018195474381702"	4564
1	0	"Chromosome"	"S70_LN:i:4504_dp:f:0.9742851327135739"	4504
1	0	"Chromosome"	"S73_LN:i:3843_dp:f:0.6712650772972543"	3843
1	0	"Chromosome"	"S72_LN:i:3931_dp:f:0.8175593911228896"	3931
1	0	"Chromosome"	"S75_LN:i:3375_dp:f:1.0060633140037778"	3375
1	0	"Chromosome"	"S71_LN:i:4143_dp:f:1.2798495047729397"	4143
1	0	"Chromosome"	"S78_LN:i:2678_dp:f:1.2508482455644632"	2678
1	0	"Chromosome"	"S74_LN:i:3442_dp:f:1.1413918960281555"	3442
1	0	"Chromosome"	"S77_LN:i:2971_dp:f:0.6533500736030652"	2971
1	0	"Chromosome"	"S76_LN:i:3182_dp:f:10.9068766421151"	3182
1	0	"Chromosome"	"S80_LN:i:2392_dp:f:0.5244512534035859"	2392
1	0	"Chromosome"	"S81_LN:i:2363_dp:f:2.078222635451585"	2363
1	0	"Chromosome"	"S79_LN:i:2655_dp:f:1.3612756285520635"	2655
1	0	"Chromosome"	"S82_LN:i:2333_dp:f:2.6702729388775115"	2333
1	0	"Chromosome"	"S85_LN:i:2058_dp:f:0.9131676029144854"	2058
1	0	"Chromosome"	"S83_LN:i:2219_dp:f:1.1394890884649382"	2219
1	0	"Chromosome"	"S87_LN:i:1903_dp:f:1.5675755886739184"	1903
1	0	"Chromosome"	"S84_LN:i:2153_dp:f:1.3498048937872997"	2153
1	0	"Chromosome"	"S86_LN:i:2014_dp:f:3.3895907918735793"	2014
1	0	"Chromosome"	"S89_LN:i:1485_dp:f:0.7899168001163192"	1485
1	0	"Chromosome"	"S90_LN:i:1464_dp:f:0.5349877142446284"	1464
1	0	"Chromosome"	"S91_LN:i:1397_dp:f:0.3751034809387506"	1397
1	0	"Chromosome"	"S92_LN:i:1388_dp:f:0.9789730174822493"	1388
1	0	"Chromosome"	"S93_LN:i:1353_dp:f:1.4297494897617748"	1353
1	0	"Chromosome"	"S94_LN:i:1352_dp:f:1.124789252546847"	1352
1	0	"Chromosome"	"S88_LN:i:1732_dp:f:10.19375783060923"	1732
1	0	"Chromosome"	"S95_LN:i:1296_dp:f:1.2536641401219097"	1296
1	0	"Chromosome"	"S96_LN:i:1230_dp:f:0.5323541830067957"	1230
1	0	"Chromosome"	"S97_LN:i:1211_dp:f:3.2450221677982682"	1211
1	0	"Chromosome"	"S98_LN:i:1202_dp:f:0.7765889920500657"	1202
1	0	"Chromosome"	"S100_LN:i:1137_dp:f:1.3708998629898232"	1137
1	0	"Chromosome"	"S99_LN:i:1188_dp:f:1.3003758282624378"	1188
1	0	"Chromosome"	"S101_LN:i:1117_dp:f:1.1009397366272056"	1117
1	0	"Chromosome"	"S102_LN:i:1117_dp:f:1.1779593888771571"	1117
1	0	"Chromosome"	"S103_LN:i:1114_dp:f:2.158016791932509"	1114
1	0	"Chromosome"	"S104_LN:i:1093_dp:f:1.4904461905880282"	1093
1	0	"Chromosome"	"S106_LN:i:1038_dp:f:2.6985065919422375"	1038
1	0	"Chromosome"	"S105_LN:i:1058_dp:f:0.9289505130289987"	1058
1	0	"Chromosome"	"S107_LN:i:1018_dp:f:1.7756845929263438"	1018
1	0	"Chromosome"	"S109_LN:i:902_dp:f:5.959995511813312"	902
1	0	"Chromosome"	"S110_LN:i:900_dp:f:1.191587461222694"	900
1	0	"Chromosome"	"S112_LN:i:839_dp:f:0.7782056736138349"	839
1	0	"Chromosome"	"S111_LN:i:851_dp:f:2.0092908169167756"	851
1	0	"Chromosome"	"S108_LN:i:905_dp:f:3.4220315462315396"	905
1	0	"Chromosome"	"S115_LN:i:761_dp:f:0.6806089230085424"	761
1	0	"Chromosome"	"S119_LN:i:699_dp:f:1.043217197131511"	699
1	0	"Chromosome"	"S116_LN:i:754_dp:f:1.6984821265710446"	754
1	0	"Chromosome"	"S118_LN:i:723_dp:f:1.0620744249705463"	723
1	0	"Chromosome"	"S117_LN:i:737_dp:f:3.099541194378112"	737
1	0	"Chromosome"	"S114_LN:i:768_dp:f:3.3684582025525374"	768
0.5	0.5	"Plasmid"	"S113_LN:i:809_dp:f:2.613259321419121"	809
1	0	"Chromosome"	"S120_LN:i:697_dp:f:1.8535307403290988"	697
1	0	"Chromosome"	"S121_LN:i:677_dp:f:1.7200095632144414"	677
1	0	"Chromosome"	"S123_LN:i:674_dp:f:1.2601638147160805"	674
1	0	"Chromosome"	"S125_LN:i:658_dp:f:2.2019868012395953"	658
1	0	"Chromosome"	"S122_LN:i:676_dp:f:5.628588741085354"	676
1	0	"Chromosome"	"S124_LN:i:660_dp:f:2.3575717270794"	660
1	0	"Chromosome"	"S126_LN:i:653_dp:f:10.246861906339264"	653
1	0	"Chromosome"	"S127_LN:i:651_dp:f:5.26411999227763"	651
1	0	"Chromosome"	"S129_LN:i:626_dp:f:0.6901809482622149"	626
0.5	0.5	"Plasmid"	"S132_LN:i:601_dp:f:4.272694838507445"	601
1	0	"Chromosome"	"S130_LN:i:624_dp:f:1.4177446148828878"	624
1	0	"Chromosome"	"S131_LN:i:613_dp:f:0.5707921907682606"	613
1	0	"Chromosome"	"S128_LN:i:648_dp:f:1.639850106366992"	648
1	0	"Chromosome"	"S133_LN:i:597_dp:f:3.389301920179206"	597
1	0	"Chromosome"	"S134_LN:i:590_dp:f:1.3423554956128918"	590
1	0	"Chromosome"	"S136_LN:i:542_dp:f:0.8254297821922176"	542
1	0	"Chromosome"	"S135_LN:i:543_dp:f:1.186844826477613"	543
1	0	"Chromosome"	"S137_LN:i:534_dp:f:0.49971397645185484"	534
1	0	"Chromosome"	"S138_LN:i:533_dp:f:0.6908322516866251"	533
1	0	"Chromosome"	"S141_LN:i:525_dp:f:3.0992982618480727"	525
1	0	"Chromosome"	"S142_LN:i:512_dp:f:1.3825869749068482"	512
1	0	"Chromosome"	"S143_LN:i:511_dp:f:2.2249008138198776"	511
1	0	"Chromosome"	"S139_LN:i:533_dp:f:0.7781952645614345"	533
0.5	0.5	"Plasmid"	"S140_LN:i:528_dp:f:3.7836353058173446"	528
