"Prob_Chromosome"	"Prob_Plasmid"	"Prediction"	"Contig_name"	"Contig_length"
1	0	"Chromosome"	"S4_LN:i:257661_dp:f:0.991242445052021"	257661
1	0	"Chromosome"	"S7_LN:i:218243_dp:f:0.9235985716567717"	218243
1	0	"Chromosome"	"S6_LN:i:245142_dp:f:1.0"	245142
1	0	"Chromosome"	"S5_LN:i:257541_dp:f:1.0259870442690466"	257541
1	0	"Chromosome"	"S3_LN:i:268980_dp:f:1.048600991671612"	268980
1	0	"Chromosome"	"S8_LN:i:207391_dp:f:1.0577478589590625"	207391
1	0	"Chromosome"	"S1_LN:i:445738_dp:f:0.9920502670775064"	445738
1	0	"Chromosome"	"S2_LN:i:431457_dp:f:0.919911727534372"	431457
1	0	"Chromosome"	"S9_LN:i:202927_dp:f:1.0209513871512257"	202927
1	0	"Chromosome"	"S11_LN:i:197516_dp:f:1.015443607661258"	197516
1	0	"Chromosome"	"S14_LN:i:178855_dp:f:1.0252414526049871"	178855
1	0	"Chromosome"	"S10_LN:i:198110_dp:f:1.0363083931540367"	198110
1	0	"Chromosome"	"S12_LN:i:193314_dp:f:1.000580391494424"	193314
1	0	"Chromosome"	"S13_LN:i:186257_dp:f:0.9465803980907922"	186257
1	0	"Chromosome"	"S15_LN:i:153898_dp:f:1.034419926611425"	153898
1	0	"Chromosome"	"S17_LN:i:139469_dp:f:1.0495610751855964"	139469
1	0	"Chromosome"	"S20_LN:i:113653_dp:f:1.0524205733479601"	113653
1	0	"Chromosome"	"S16_LN:i:148477_dp:f:0.9784582021321203"	148477
1	0	"Chromosome"	"S22_LN:i:101829_dp:f:1.0264167795931"	101829
1	0	"Chromosome"	"S19_LN:i:129052_dp:f:1.0528386439241713"	129052
1	0	"Chromosome"	"S18_LN:i:131566_dp:f:0.9516708958722196"	131566
1	0	"Chromosome"	"S21_LN:i:113380_dp:f:0.9959147071572689"	113380
1	0	"Chromosome"	"S25_LN:i:45839_dp:f:0.9354063201798136"	45839
1	0	"Chromosome"	"S26_LN:i:41494_dp:f:0.9369281068814961"	41494
1	0	"Chromosome"	"S30_LN:i:32057_dp:f:0.9158530032790575"	32057
1	0	"Chromosome"	"S27_LN:i:41325_dp:f:1.031525786681558"	41325
0	1	"Plasmid"	"S29_LN:i:36067_dp:f:2.8550673659169825"	36067
0	1	"Plasmid"	"S28_LN:i:36249_dp:f:2.1914012828169995"	36249
1	0	"Chromosome"	"S23_LN:i:101314_dp:f:0.9692652981205735"	101314
0	1	"Plasmid"	"S24_LN:i:65925_dp:f:4.327778755351951"	65925
1	0	"Chromosome"	"S31_LN:i:30728_dp:f:1.0134021780108429"	30728
1	0	"Chromosome"	"S32_LN:i:29945_dp:f:1.129227172764424"	29945
1	0	"Chromosome"	"S34_LN:i:28786_dp:f:0.8681574170983775"	28786
1	0	"Chromosome"	"S33_LN:i:29888_dp:f:0.882893060557358"	29888
0	1	"Plasmid"	"S39_LN:i:18901_dp:f:2.103384640117434"	18901
1	0	"Chromosome"	"S40_LN:i:18097_dp:f:1.0001943505320174"	18097
1	0	"Chromosome"	"S36_LN:i:27166_dp:f:0.880883127663887"	27166
1	0	"Chromosome"	"S38_LN:i:20537_dp:f:0.980846582009431"	20537
0	1	"Plasmid"	"S37_LN:i:22618_dp:f:1.7411595344034376"	22618
0	1	"Plasmid"	"S35_LN:i:27570_dp:f:1.6805456156852696"	27570
1	0	"Chromosome"	"S44_LN:i:11749_dp:f:0.9944206565044412"	11749
1	0	"Chromosome"	"S46_LN:i:11006_dp:f:0.9250898824615523"	11006
1	0	"Chromosome"	"S42_LN:i:16822_dp:f:0.9522757988241768"	16822
1	0	"Chromosome"	"S43_LN:i:15532_dp:f:0.9352689257903286"	15532
1	0	"Chromosome"	"S45_LN:i:11203_dp:f:0.9721821512847938"	11203
1	0	"Chromosome"	"S41_LN:i:17172_dp:f:1.0305785304258235"	17172
0	1	"Plasmid"	"S47_LN:i:10329_dp:f:2.1927438039334053"	10329
0	1	"Plasmid"	"S48_LN:i:10163_dp:f:1.659461044227784"	10163
1	0	"Chromosome"	"S52_LN:i:6787_dp:f:0.8344907663290856"	6787
1	0	"Chromosome"	"S53_LN:i:6361_dp:f:1.0152631824523815"	6361
1	0	"Chromosome"	"S51_LN:i:8667_dp:f:1.581082868053592"	8667
1	0	"Chromosome"	"S50_LN:i:9458_dp:f:0.9445547697850699"	9458
1	0	"Chromosome"	"S54_LN:i:6350_dp:f:1.1225905087840458"	6350
1	0	"Chromosome"	"S59_LN:i:3632_dp:f:0.9177811066092018"	3632
1	0	"Chromosome"	"S58_LN:i:4143_dp:f:1.0286260092942434"	4143
1	0	"Chromosome"	"S60_LN:i:3521_dp:f:0.8204271074479126"	3521
1	0	"Chromosome"	"S49_LN:i:9672_dp:f:0.9529185719736286"	9672
0	1	"Plasmid"	"S55_LN:i:6159_dp:f:2.477140656851983"	6159
1	0	"Chromosome"	"S57_LN:i:4426_dp:f:1.8047671301875159"	4426
0	1	"Plasmid"	"S56_LN:i:5650_dp:f:1.6874908578014858"	5650
1	0	"Chromosome"	"S63_LN:i:2534_dp:f:1.0874044072823805"	2534
1	0	"Chromosome"	"S67_LN:i:1954_dp:f:5.208240964241281"	1954
1	0	"Chromosome"	"S64_LN:i:2528_dp:f:1.1215922678523529"	2528
1	0	"Chromosome"	"S62_LN:i:2818_dp:f:1.009992811602261"	2818
1	0	"Chromosome"	"S66_LN:i:2098_dp:f:0.8505482876964531"	2098
1	0	"Chromosome"	"S65_LN:i:2526_dp:f:0.7585716170980438"	2526
1	0	"Chromosome"	"S61_LN:i:3245_dp:f:7.2144582243899995"	3245
0	1	"Plasmid"	"S70_LN:i:1663_dp:f:1.8208341290195778"	1663
1	0	"Chromosome"	"S71_LN:i:1637_dp:f:0.7866047321294202"	1637
1	0	"Chromosome"	"S69_LN:i:1757_dp:f:1.0386250613558088"	1757
1	0	"Chromosome"	"S73_LN:i:1536_dp:f:1.8393119987843816"	1536
0	1	"Plasmid"	"S72_LN:i:1582_dp:f:4.642483055699519"	1582
1	0	"Chromosome"	"S68_LN:i:1923_dp:f:0.8562148253073021"	1923
1	0	"Chromosome"	"S76_LN:i:1444_dp:f:0.7976763717470735"	1444
0	1	"Plasmid"	"S75_LN:i:1513_dp:f:6.012812763469396"	1513
1	0	"Chromosome"	"S77_LN:i:1425_dp:f:7.518687128739453"	1425
0	1	"Plasmid"	"S74_LN:i:1519_dp:f:6.596989716133032"	1519
1	0	"Chromosome"	"S79_LN:i:1336_dp:f:2.0699938979539385"	1336
0.5	0.5	"Plasmid"	"S78_LN:i:1339_dp:f:2.6267418422581748"	1339
1	0	"Chromosome"	"S81_LN:i:1278_dp:f:1.4752550462090939"	1278
0	1	"Plasmid"	"S82_LN:i:1236_dp:f:6.486531090655726"	1236
0	1	"Plasmid"	"S80_LN:i:1319_dp:f:5.30477204683897"	1319
1	0	"Chromosome"	"S83_LN:i:1231_dp:f:1.0085839493434785"	1231
1	0	"Chromosome"	"S87_LN:i:1136_dp:f:0.8388230298240238"	1136
1	0	"Chromosome"	"S84_LN:i:1219_dp:f:1.02173409501132"	1219
0	1	"Plasmid"	"S85_LN:i:1212_dp:f:6.697460237654539"	1212
1	0	"Chromosome"	"S86_LN:i:1147_dp:f:1.0661810403665417"	1147
1	0	"Chromosome"	"S88_LN:i:1123_dp:f:1.9770147403572664"	1123
1	0	"Chromosome"	"S89_LN:i:1109_dp:f:2.008777891364087"	1109
0	1	"Plasmid"	"S90_LN:i:1092_dp:f:5.717423147290692"	1092
1	0	"Chromosome"	"S91_LN:i:1062_dp:f:0.9580262505274156"	1062
1	0	"Chromosome"	"S95_LN:i:961_dp:f:0.8792006243219481"	961
1	0	"Chromosome"	"S92_LN:i:1031_dp:f:2.1606818784607755"	1031
1	0	"Chromosome"	"S94_LN:i:981_dp:f:2.0699187318546395"	981
1	0	"Chromosome"	"S93_LN:i:996_dp:f:1.8375022115391881"	996
1	0	"Chromosome"	"S96_LN:i:960_dp:f:0.9678751337949464"	960
1	0	"Chromosome"	"S99_LN:i:911_dp:f:1.0201766044124703"	911
1	0	"Chromosome"	"S98_LN:i:911_dp:f:0.9650787097941685"	911
1	0	"Chromosome"	"S102_LN:i:858_dp:f:1.2246217766216216"	858
0	1	"Plasmid"	"S100_LN:i:910_dp:f:2.237634724961745"	910
1	0	"Chromosome"	"S101_LN:i:905_dp:f:2.1263596485819427"	905
1	0	"Chromosome"	"S104_LN:i:818_dp:f:2.0627756647573183"	818
1	0	"Chromosome"	"S105_LN:i:798_dp:f:1.9940957462093318"	798
1	0	"Chromosome"	"S106_LN:i:790_dp:f:1.7063823862192813"	790
0	1	"Plasmid"	"S97_LN:i:941_dp:f:7.331926660542934"	941
1	0	"Chromosome"	"S103_LN:i:858_dp:f:1.1696282975195202"	858
0.5	0.5	"Plasmid"	"S108_LN:i:768_dp:f:12.936109628170838"	768
1	0	"Chromosome"	"S111_LN:i:749_dp:f:2.120712795372086"	749
0	1	"Plasmid"	"S107_LN:i:774_dp:f:6.9991200137513125"	774
0	1	"Plasmid"	"S109_LN:i:763_dp:f:5.579263853366845"	763
1	0	"Chromosome"	"S114_LN:i:734_dp:f:0.9769163900064194"	734
1	0	"Chromosome"	"S113_LN:i:734_dp:f:0.8987251003172121"	734
0	1	"Plasmid"	"S110_LN:i:762_dp:f:1.7742666062443593"	762
1	0	"Chromosome"	"S115_LN:i:726_dp:f:2.245653395413621"	726
0.5	0.5	"Plasmid"	"S112_LN:i:737_dp:f:1.7478418823334236"	737
1	0	"Chromosome"	"S116_LN:i:718_dp:f:3.009574714522444"	718
1	0	"Chromosome"	"S117_LN:i:712_dp:f:1.9407434208426915"	712
0	1	"Plasmid"	"S118_LN:i:703_dp:f:2.2197427422600664"	703
1	0	"Chromosome"	"S121_LN:i:662_dp:f:1.079008620120308"	662
1	0	"Chromosome"	"S122_LN:i:661_dp:f:1.0831773156469886"	661
0	1	"Plasmid"	"S120_LN:i:669_dp:f:2.2478381144302104"	669
1	0	"Chromosome"	"S124_LN:i:644_dp:f:0.8117243437901317"	644
1	0	"Chromosome"	"S125_LN:i:638_dp:f:0.7995075649901107"	638
1	0	"Chromosome"	"S123_LN:i:651_dp:f:1.943535351217968"	651
0	1	"Plasmid"	"S128_LN:i:616_dp:f:2.1349257243221933"	616
1	0	"Chromosome"	"S126_LN:i:637_dp:f:2.2902271374049263"	637
1	0	"Chromosome"	"S127_LN:i:617_dp:f:1.5628478991727195"	617
1	0	"Chromosome"	"S131_LN:i:605_dp:f:1.0058756004025315"	605
0	1	"Plasmid"	"S129_LN:i:616_dp:f:4.7986620329915715"	616
1	0	"Chromosome"	"S130_LN:i:605_dp:f:1.0021922981323046"	605
0	1	"Plasmid"	"S119_LN:i:703_dp:f:5.071841374063856"	703
1	0	"Chromosome"	"S132_LN:i:590_dp:f:1.5786362932236828"	590
1	0	"Chromosome"	"S138_LN:i:541_dp:f:0.9592679618069266"	541
0	1	"Plasmid"	"S133_LN:i:566_dp:f:4.256535610748959"	566
1	0	"Chromosome"	"S139_LN:i:541_dp:f:1.0114938578137422"	541
1	0	"Chromosome"	"S137_LN:i:548_dp:f:0.8158123991646291"	548
1	0	"Chromosome"	"S136_LN:i:550_dp:f:1.083611236465878"	550
0	1	"Plasmid"	"S135_LN:i:556_dp:f:2.151533265450955"	556
1	0	"Chromosome"	"S142_LN:i:509_dp:f:1.0372973175735132"	509
0	1	"Plasmid"	"S141_LN:i:524_dp:f:1.834037953086593"	524
0	1	"Plasmid"	"S134_LN:i:562_dp:f:5.09400091205325"	562
0	1	"Plasmid"	"S140_LN:i:536_dp:f:2.3178224916101664"	536
