"Prob_Chromosome"	"Prob_Plasmid"	"Prediction"	"Contig_name"	"Contig_length"
1	0	"Chromosome"	"S8_LN:i:207622_dp:f:1.032489552986037"	207622
1	0	"Chromosome"	"S7_LN:i:240439_dp:f:1.0060089183928902"	240439
1	0	"Chromosome"	"S6_LN:i:282290_dp:f:0.9831045860032709"	282290
1	0	"Chromosome"	"S4_LN:i:339526_dp:f:0.9971618132347677"	339526
1	0	"Chromosome"	"S3_LN:i:364710_dp:f:1.017303991142519"	364710
1	0	"Chromosome"	"S5_LN:i:333354_dp:f:0.9638153502518387"	333354
1	0	"Chromosome"	"S1_LN:i:436891_dp:f:1.0125823798746545"	436891
1	0	"Chromosome"	"S9_LN:i:196654_dp:f:0.9761014455293294"	196654
1	0	"Chromosome"	"S10_LN:i:185654_dp:f:0.9694021696815702"	185654
1	0	"Chromosome"	"S2_LN:i:379491_dp:f:1.0"	379491
1	0	"Chromosome"	"S11_LN:i:180384_dp:f:0.9851190739693942"	180384
1	0	"Chromosome"	"S12_LN:i:166107_dp:f:0.9752586191334751"	166107
1	0	"Chromosome"	"S14_LN:i:149516_dp:f:1.0503863400059292"	149516
1	0	"Chromosome"	"S15_LN:i:139549_dp:f:1.0517656654651484"	139549
1	0	"Chromosome"	"S13_LN:i:165778_dp:f:0.9491342943720816"	165778
1	0	"Chromosome"	"S18_LN:i:105311_dp:f:1.0248548927225576"	105311
1	0	"Chromosome"	"S19_LN:i:73990_dp:f:0.9416848511614114"	73990
1	0	"Chromosome"	"S16_LN:i:137035_dp:f:0.925936719790359"	137035
1	0	"Chromosome"	"S17_LN:i:130890_dp:f:1.0446577122777223"	130890
1	0	"Chromosome"	"S20_LN:i:68140_dp:f:1.032008197960798"	68140
1	0	"Chromosome"	"S21_LN:i:62982_dp:f:0.9956333076692355"	62982
1	0	"Chromosome"	"S23_LN:i:61767_dp:f:0.9672264668454122"	61767
0	1	"Plasmid"	"S22_LN:i:62288_dp:f:1.1778471959190082"	62288
1	0	"Chromosome"	"S28_LN:i:38096_dp:f:0.9980310135853403"	38096
1	0	"Chromosome"	"S24_LN:i:61252_dp:f:1.040230479064784"	61252
1	0	"Chromosome"	"S29_LN:i:37272_dp:f:1.0948958008456289"	37272
1	0	"Chromosome"	"S27_LN:i:41902_dp:f:0.98802968821897"	41902
1	0	"Chromosome"	"S25_LN:i:54238_dp:f:0.5364292687654607"	54238
1	0	"Chromosome"	"S30_LN:i:37049_dp:f:0.9972720007557896"	37049
1	0	"Chromosome"	"S26_LN:i:42152_dp:f:1.0069073038908274"	42152
0	1	"Plasmid"	"S31_LN:i:30780_dp:f:0.5160857348055401"	30780
1	0	"Chromosome"	"S33_LN:i:26354_dp:f:0.4964744114181217"	26354
1	0	"Chromosome"	"S38_LN:i:17999_dp:f:1.0777593931597194"	17999
1	0	"Chromosome"	"S36_LN:i:20515_dp:f:1.0557295732929102"	20515
1	0	"Chromosome"	"S34_LN:i:26220_dp:f:1.0523983972086284"	26220
1	0	"Chromosome"	"S39_LN:i:13921_dp:f:0.47360628938879085"	13921
1	0	"Chromosome"	"S37_LN:i:19875_dp:f:0.8634497304230826"	19875
1	0	"Chromosome"	"S35_LN:i:24986_dp:f:1.0400238957476597"	24986
0.5	0.5	"Plasmid"	"S45_LN:i:6555_dp:f:2.4158739322822966"	6555
0.5	0.5	"Plasmid"	"S44_LN:i:6909_dp:f:1.1361698614852311"	6909
1	0	"Chromosome"	"S32_LN:i:30744_dp:f:1.11171385319011"	30744
1	0	"Chromosome"	"S48_LN:i:4226_dp:f:0.9989684356259252"	4226
1	0	"Chromosome"	"S43_LN:i:9425_dp:f:0.8599868162130425"	9425
1	0	"Chromosome"	"S47_LN:i:5723_dp:f:1.0446638406823936"	5723
0	1	"Plasmid"	"S42_LN:i:10470_dp:f:1.1198950750352183"	10470
1	0	"Chromosome"	"S40_LN:i:13131_dp:f:0.9685324811677866"	13131
0	1	"Plasmid"	"S50_LN:i:3202_dp:f:0.9064544779042842"	3202
0	1	"Plasmid"	"S52_LN:i:2939_dp:f:0.8140116186044318"	2939
1	0	"Chromosome"	"S46_LN:i:6020_dp:f:1.0349777391333432"	6020
1	0	"Chromosome"	"S49_LN:i:4193_dp:f:2.1045081806428856"	4193
1	0	"Chromosome"	"S54_LN:i:2058_dp:f:1.8815601691152577"	2058
1	0	"Chromosome"	"S53_LN:i:2561_dp:f:7.262242188533716"	2561
0.5	0.5	"Plasmid"	"S60_LN:i:1364_dp:f:2.3819766242902234"	1364
1	0	"Chromosome"	"S51_LN:i:3014_dp:f:1.0324213885296472"	3014
0.5	0.5	"Plasmid"	"S56_LN:i:1625_dp:f:7.375051148554004"	1625
1	0	"Chromosome"	"S57_LN:i:1620_dp:f:2.009726870537539"	1620
1	0	"Chromosome"	"S55_LN:i:1865_dp:f:1.948700269667621"	1865
1	0	"Chromosome"	"S41_LN:i:11677_dp:f:1.033410014295138"	11677
1	0	"Chromosome"	"S58_LN:i:1437_dp:f:1.008611656448409"	1437
0	1	"Plasmid"	"S59_LN:i:1364_dp:f:1.4225777761723983"	1364
1	0	"Chromosome"	"S61_LN:i:1274_dp:f:1.0819522708625116"	1274
0.5	0.5	"Plasmid"	"S62_LN:i:1258_dp:f:2.0774747842231456"	1258
1	0	"Chromosome"	"S63_LN:i:1242_dp:f:1.1337236577861167"	1242
1	0	"Chromosome"	"S64_LN:i:1241_dp:f:2.1719180050554083"	1241
1	0	"Chromosome"	"S67_LN:i:1189_dp:f:1.0078672732545457"	1189
1	0	"Chromosome"	"S68_LN:i:1106_dp:f:0.9902121163713362"	1106
1	0	"Chromosome"	"S66_LN:i:1217_dp:f:0.9467086439416794"	1217
0	1	"Plasmid"	"S65_LN:i:1234_dp:f:3.996330195175408"	1234
1	0	"Chromosome"	"S71_LN:i:1071_dp:f:1.9766542479703826"	1071
1	0	"Chromosome"	"S70_LN:i:1081_dp:f:0.4100035382093533"	1081
1	0	"Chromosome"	"S69_LN:i:1095_dp:f:1.929473351348073"	1095
1	0	"Chromosome"	"S73_LN:i:1006_dp:f:0.9886068353850992"	1006
1	0	"Chromosome"	"S75_LN:i:956_dp:f:2.0970262875366803"	956
1	0	"Chromosome"	"S78_LN:i:905_dp:f:1.011364399244743"	905
1	0	"Chromosome"	"S72_LN:i:1056_dp:f:1.7997408368028653"	1056
1	0	"Chromosome"	"S77_LN:i:932_dp:f:1.0776886966509993"	932
1	0	"Chromosome"	"S76_LN:i:955_dp:f:2.9545871162779456"	955
1	0	"Chromosome"	"S74_LN:i:990_dp:f:0.932244033760141"	990
1	0	"Chromosome"	"S80_LN:i:883_dp:f:2.203504353095862"	883
1	0	"Chromosome"	"S81_LN:i:871_dp:f:6.3960595608418345"	871
1	0	"Chromosome"	"S86_LN:i:797_dp:f:1.1573704543094516"	797
1	0	"Chromosome"	"S79_LN:i:905_dp:f:1.1929652421456385"	905
1	0	"Chromosome"	"S84_LN:i:831_dp:f:2.2684681345744977"	831
1	0	"Chromosome"	"S87_LN:i:775_dp:f:3.8068238427942824"	775
1	0	"Chromosome"	"S88_LN:i:767_dp:f:0.9977694083691612"	767
1	0	"Chromosome"	"S89_LN:i:725_dp:f:1.1540848953584262"	725
1	0	"Chromosome"	"S85_LN:i:797_dp:f:1.032403302441572"	797
1	0	"Chromosome"	"S90_LN:i:725_dp:f:1.0895523666021143"	725
1	0	"Chromosome"	"S91_LN:i:716_dp:f:1.9755824663910533"	716
1	0	"Chromosome"	"S94_LN:i:699_dp:f:0.9538866505769164"	699
1	0	"Chromosome"	"S93_LN:i:702_dp:f:0.9969771171375521"	702
1	0	"Chromosome"	"S96_LN:i:677_dp:f:2.139346728849693"	677
0.5	0.5	"Plasmid"	"S92_LN:i:713_dp:f:3.24431636017922"	713
1	0	"Chromosome"	"S97_LN:i:667_dp:f:0.8886802341789269"	667
1	0	"Chromosome"	"S99_LN:i:632_dp:f:1.993647976517033"	632
0.5	0.5	"Plasmid"	"S100_LN:i:613_dp:f:1.1795605571079133"	613
0.5	0.5	"Plasmid"	"S101_LN:i:603_dp:f:2.3193592514958348"	603
0	1	"Plasmid"	"S82_LN:i:867_dp:f:1.35514251066265"	867
0.5	0.5	"Plasmid"	"S98_LN:i:635_dp:f:1.1066323055019225"	635
1	0	"Chromosome"	"S103_LN:i:565_dp:f:0.8888551467462664"	565
1	0	"Chromosome"	"S95_LN:i:685_dp:f:1.0246803418769794"	685
1	0	"Chromosome"	"S104_LN:i:558_dp:f:1.0551831724765086"	558
1	0	"Chromosome"	"S102_LN:i:588_dp:f:1.9820876303585908"	588
1	0	"Chromosome"	"S106_LN:i:500_dp:f:5.91816993123398"	500
0	1	"Plasmid"	"S105_LN:i:539_dp:f:1.9515220611290944"	539
0	1	"Plasmid"	"S83_LN:i:861_dp:f:0.5691463228691283"	861
