"Prob_Chromosome"	"Prob_Plasmid"	"Prediction"	"Contig_name"	"Contig_length"
1	0	"Chromosome"	"S8_LN:i:202069_dp:f:1.0898445435454724"	202069
1	0	"Chromosome"	"S7_LN:i:233383_dp:f:1.0504581311727026"	233383
1	0	"Chromosome"	"S6_LN:i:263026_dp:f:1.0669156017339008"	263026
1	0	"Chromosome"	"S10_LN:i:133554_dp:f:1.0894023957829209"	133554
1	0	"Chromosome"	"S9_LN:i:194481_dp:f:1.0736005134390414"	194481
0	1	"Plasmid"	"S11_LN:i:121369_dp:f:1.1881182613772898"	121369
1	0	"Chromosome"	"S4_LN:i:445274_dp:f:1.0"	445274
1	0	"Chromosome"	"S2_LN:i:500907_dp:f:0.8919576138972488"	500907
1	0	"Chromosome"	"S5_LN:i:442829_dp:f:1.0205299075061691"	442829
1	0	"Chromosome"	"S3_LN:i:470977_dp:f:1.045576382552666"	470977
1	0	"Chromosome"	"S14_LN:i:71218_dp:f:1.0642350032099608"	71218
1	0	"Chromosome"	"S12_LN:i:114913_dp:f:1.110632727828602"	114913
1	0	"Chromosome"	"S15_LN:i:62754_dp:f:0.924210170590338"	62754
1	0	"Chromosome"	"S17_LN:i:41210_dp:f:1.05862693174323"	41210
1	0	"Chromosome"	"S16_LN:i:46032_dp:f:0.9029539341424404"	46032
1	0	"Chromosome"	"S18_LN:i:37374_dp:f:1.0042372904310468"	37374
1	0	"Chromosome"	"S13_LN:i:91760_dp:f:0.9537664532968007"	91760
1	0	"Chromosome"	"S22_LN:i:30727_dp:f:1.0515041075960523"	30727
0	1	"Plasmid"	"S19_LN:i:36596_dp:f:5.810012977317544"	36596
1	0	"Chromosome"	"S25_LN:i:10053_dp:f:1.108945297338953"	10053
1	0	"Chromosome"	"S23_LN:i:30104_dp:f:0.9305440431719024"	30104
1	0	"Chromosome"	"S27_LN:i:4149_dp:f:1.0369576038014268"	4149
0	1	"Plasmid"	"S28_LN:i:3792_dp:f:67.06450132129689"	3792
1	0	"Chromosome"	"S21_LN:i:31134_dp:f:1.0456642408293861"	31134
0.5	0.5	"Plasmid"	"S30_LN:i:2150_dp:f:108.29652710120038"	2150
1	0	"Chromosome"	"S20_LN:i:33954_dp:f:0.8698879496709968"	33954
1	0	"Chromosome"	"S31_LN:i:2029_dp:f:1.8760264065339374"	2029
1	0	"Chromosome"	"S29_LN:i:3151_dp:f:7.5470966902496865"	3151
1	0	"Chromosome"	"S33_LN:i:1730_dp:f:7.611562257561759"	1730
0.5	0.5	"Plasmid"	"S35_LN:i:1474_dp:f:89.2316720321447"	1474
1	0	"Chromosome"	"S34_LN:i:1550_dp:f:5.615017097151703"	1550
0	1	"Plasmid"	"S26_LN:i:8671_dp:f:1.2360351509933623"	8671
1	0	"Chromosome"	"S32_LN:i:1955_dp:f:2.3449768532346695"	1955
1	0	"Chromosome"	"S38_LN:i:726_dp:f:0.7563383664536218"	726
1	0	"Chromosome"	"S36_LN:i:1162_dp:f:2.150821437951397"	1162
0	1	"Plasmid"	"S39_LN:i:573_dp:f:2.652505494959008"	573
1	0	"Chromosome"	"S37_LN:i:1031_dp:f:2.2693287593185056"	1031
1	0	"Chromosome"	"S24_LN:i:29731_dp:f:1.1598010561608918"	29731
1	0	"Chromosome"	"S1_LN:i:1163000_dp:f:0.9636550056514762"	1163000
