"Prob_Chromosome"	"Prob_Plasmid"	"Prediction"	"Contig_name"	"Contig_length"
1	0	"Chromosome"	"S7_LN:i:224757_dp:f:0.9859612363264213"	224757
1	0	"Chromosome"	"S6_LN:i:239837_dp:f:1.0033810475825358"	239837
1	0	"Chromosome"	"S8_LN:i:224118_dp:f:0.9956311998046851"	224118
1	0	"Chromosome"	"S5_LN:i:254640_dp:f:1.0067971969553609"	254640
1	0	"Chromosome"	"S4_LN:i:297975_dp:f:1.0148894342630732"	297975
1	0	"Chromosome"	"S11_LN:i:134951_dp:f:0.9889526429785145"	134951
1	0	"Chromosome"	"S3_LN:i:391046_dp:f:0.9934523648207618"	391046
1	0	"Chromosome"	"S10_LN:i:161174_dp:f:1.0041587777517402"	161174
1	0	"Chromosome"	"S12_LN:i:133234_dp:f:1.0018021533673698"	133234
1	0	"Chromosome"	"S13_LN:i:125770_dp:f:1.0068604390076978"	125770
1	0	"Chromosome"	"S2_LN:i:454204_dp:f:1.0041174439948768"	454204
1	0	"Chromosome"	"S9_LN:i:191720_dp:f:0.9968265236187005"	191720
1	0	"Chromosome"	"S16_LN:i:93255_dp:f:0.9908909801156531"	93255
1	0	"Chromosome"	"S18_LN:i:82674_dp:f:0.9809519467435128"	82674
1	0	"Chromosome"	"S17_LN:i:86399_dp:f:1.0188019111846267"	86399
1	0	"Chromosome"	"S14_LN:i:110900_dp:f:1.037778448873458"	110900
1	0	"Chromosome"	"S15_LN:i:104376_dp:f:0.9977135228395673"	104376
1	0	"Chromosome"	"S20_LN:i:77220_dp:f:1.0095292536163178"	77220
1	0	"Chromosome"	"S19_LN:i:80909_dp:f:0.985178700807812"	80909
1	0	"Chromosome"	"S23_LN:i:54146_dp:f:1.0023772148200152"	54146
1	0	"Chromosome"	"S24_LN:i:50314_dp:f:1.0158058066989513"	50314
1	0	"Chromosome"	"S26_LN:i:39703_dp:f:0.9681764534539907"	39703
0	1	"Plasmid"	"S22_LN:i:73111_dp:f:1.0700767822228623"	73111
1	0	"Chromosome"	"S25_LN:i:41324_dp:f:1.0123370046406919"	41324
1	0	"Chromosome"	"S27_LN:i:37826_dp:f:1.0092112784601492"	37826
1	0	"Chromosome"	"S21_LN:i:75373_dp:f:1.0107793872090252"	75373
1	0	"Chromosome"	"S28_LN:i:37562_dp:f:1.0027479407113113"	37562
1	0	"Chromosome"	"S29_LN:i:34061_dp:f:1.0112703220246086"	34061
1	0	"Chromosome"	"S30_LN:i:30786_dp:f:1.0274268524773726"	30786
1	0	"Chromosome"	"S32_LN:i:26762_dp:f:1.0938654228736209"	26762
1	0	"Chromosome"	"S31_LN:i:30147_dp:f:0.9896334020008021"	30147
1	0	"Chromosome"	"S33_LN:i:26062_dp:f:1.05316283798955"	26062
1	0	"Chromosome"	"S34_LN:i:25834_dp:f:1.0102598218829268"	25834
1	0	"Chromosome"	"S38_LN:i:14019_dp:f:0.9706198995775038"	14019
1	0	"Chromosome"	"S37_LN:i:15060_dp:f:1.0220781436447621"	15060
0	1	"Plasmid"	"S39_LN:i:13611_dp:f:1.1734845194241346"	13611
1	0	"Chromosome"	"S41_LN:i:11915_dp:f:0.9964151071045827"	11915
1	0	"Chromosome"	"S40_LN:i:12548_dp:f:0.9541337260550392"	12548
1	0	"Chromosome"	"S43_LN:i:9445_dp:f:1.0919757111299149"	9445
1	0	"Chromosome"	"S42_LN:i:11711_dp:f:1.0266638297622002"	11711
1	0	"Chromosome"	"S45_LN:i:7472_dp:f:1.0954753007919473"	7472
1	0	"Chromosome"	"S44_LN:i:8617_dp:f:2.1446425157198172"	8617
1	0	"Chromosome"	"S46_LN:i:6207_dp:f:0.9843889199924307"	6207
1	0	"Chromosome"	"S36_LN:i:24467_dp:f:1.0073994181731185"	24467
1	0	"Chromosome"	"S47_LN:i:4910_dp:f:0.8771136327313409"	4910
0	1	"Plasmid"	"S48_LN:i:4671_dp:f:37.57446462416082"	4671
1	0	"Chromosome"	"S50_LN:i:3512_dp:f:1.1420429241948404"	3512
1	0	"Chromosome"	"S53_LN:i:2435_dp:f:1.5997224213175723"	2435
1	0	"Chromosome"	"S52_LN:i:2744_dp:f:6.873781806094965"	2744
1	0	"Chromosome"	"S51_LN:i:3439_dp:f:1.99036034242875"	3439
1	0	"Chromosome"	"S49_LN:i:4392_dp:f:1.0864227647856486"	4392
1	0	"Chromosome"	"S54_LN:i:2246_dp:f:0.7798900078537805"	2246
0	1	"Plasmid"	"S55_LN:i:2208_dp:f:1.1466097847711176"	2208
1	0	"Chromosome"	"S56_LN:i:2166_dp:f:0.9048109062635125"	2166
1	0	"Chromosome"	"S35_LN:i:25166_dp:f:0.960748158381631"	25166
1	0	"Chromosome"	"S57_LN:i:2036_dp:f:1.0590545460250165"	2036
1	0	"Chromosome"	"S58_LN:i:1844_dp:f:1.8163652782503228"	1844
1	0	"Chromosome"	"S63_LN:i:1543_dp:f:2.0406246353777022"	1543
1	0	"Chromosome"	"S59_LN:i:1708_dp:f:6.6105711296599345"	1708
1	0	"Chromosome"	"S64_LN:i:1374_dp:f:0.8979940993694425"	1374
1	0	"Chromosome"	"S60_LN:i:1682_dp:f:0.9417431862816713"	1682
1	0	"Chromosome"	"S61_LN:i:1678_dp:f:1.7978305524806084"	1678
1	0	"Chromosome"	"S62_LN:i:1619_dp:f:0.9872248732642908"	1619
1	0	"Chromosome"	"S65_LN:i:1349_dp:f:0.8300473285870746"	1349
1	0	"Chromosome"	"S66_LN:i:1318_dp:f:1.0204631671423712"	1318
0.5	0.5	"Plasmid"	"S68_LN:i:1187_dp:f:11.081465372279979"	1187
1	0	"Chromosome"	"S70_LN:i:1105_dp:f:1.0861737185640428"	1105
0.5	0.5	"Plasmid"	"S67_LN:i:1258_dp:f:4.1617803275055865"	1258
1	0	"Chromosome"	"S71_LN:i:1079_dp:f:1.9978654581715105"	1079
1	0	"Chromosome"	"S69_LN:i:1130_dp:f:1.1032722124227001"	1130
1	0	"Chromosome"	"S72_LN:i:977_dp:f:2.216269091500955"	977
1	0	"Chromosome"	"S73_LN:i:959_dp:f:1.7935315636670977"	959
1	0	"Chromosome"	"S76_LN:i:892_dp:f:0.7998892038462934"	892
1	0	"Chromosome"	"S77_LN:i:892_dp:f:0.9081384187133723"	892
1	0	"Chromosome"	"S78_LN:i:890_dp:f:0.9682527838759241"	890
1	0	"Chromosome"	"S74_LN:i:956_dp:f:2.0059382816399007"	956
0.5	0.5	"Plasmid"	"S75_LN:i:936_dp:f:2.362888583191733"	936
1	0	"Chromosome"	"S82_LN:i:722_dp:f:0.8255114517139577"	722
1	0	"Chromosome"	"S80_LN:i:820_dp:f:1.0925778479159918"	820
1	0	"Chromosome"	"S79_LN:i:890_dp:f:1.8468436332902243"	890
0	1	"Plasmid"	"S81_LN:i:815_dp:f:1.0521022344544662"	815
1	0	"Chromosome"	"S84_LN:i:713_dp:f:0.8586351874857214"	713
1	0	"Chromosome"	"S83_LN:i:713_dp:f:0.8922522112657136"	713
1	0	"Chromosome"	"S85_LN:i:703_dp:f:1.0001068741659647"	703
1	0	"Chromosome"	"S87_LN:i:614_dp:f:2.4438965536513213"	614
1	0	"Chromosome"	"S86_LN:i:703_dp:f:0.8564581901399267"	703
1	0	"Chromosome"	"S1_LN:i:713770_dp:f:1.0"	713770
