"Prob_Chromosome"	"Prob_Plasmid"	"Prediction"	"Contig_name"	"Contig_length"
1	0	"Chromosome"	"S6_LN:i:196575_dp:f:1.0440783491983183"	196575
1	0	"Chromosome"	"S8_LN:i:177262_dp:f:1.034072961525682"	177262
1	0	"Chromosome"	"S5_LN:i:200644_dp:f:1.0142765241880214"	200644
1	0	"Chromosome"	"S7_LN:i:195237_dp:f:1.0496971792407483"	195237
1	0	"Chromosome"	"S3_LN:i:281819_dp:f:1.0386053958648558"	281819
1	0	"Chromosome"	"S2_LN:i:336880_dp:f:0.9782818546238241"	336880
1	0	"Chromosome"	"S4_LN:i:259449_dp:f:0.981451191606765"	259449
1	0	"Chromosome"	"S9_LN:i:158029_dp:f:0.9911063596430296"	158029
1	0	"Chromosome"	"S10_LN:i:148869_dp:f:1.0385229540934005"	148869
1	0	"Chromosome"	"S11_LN:i:146624_dp:f:1.0173925407465454"	146624
1	0	"Chromosome"	"S12_LN:i:143315_dp:f:0.9947013099398466"	143315
1	0	"Chromosome"	"S15_LN:i:111753_dp:f:1.0386353217621211"	111753
1	0	"Chromosome"	"S13_LN:i:132681_dp:f:1.0112523106618039"	132681
1	0	"Chromosome"	"S14_LN:i:121159_dp:f:0.993646857137846"	121159
1	0	"Chromosome"	"S16_LN:i:98666_dp:f:1.021711237091374"	98666
1	0	"Chromosome"	"S17_LN:i:96817_dp:f:0.9715963048303549"	96817
1	0	"Chromosome"	"S19_LN:i:87836_dp:f:1.0592308598989604"	87836
1	0	"Chromosome"	"S18_LN:i:93478_dp:f:1.0431086907812968"	93478
1	0	"Chromosome"	"S21_LN:i:80910_dp:f:0.986665216756993"	80910
1	0	"Chromosome"	"S20_LN:i:81808_dp:f:1.0448802859498774"	81808
1	0	"Chromosome"	"S22_LN:i:76555_dp:f:1.0084710653069802"	76555
1	0	"Chromosome"	"S25_LN:i:64881_dp:f:0.9992568000286647"	64881
0	1	"Plasmid"	"S24_LN:i:66326_dp:f:1.0069766335345787"	66326
1	0	"Chromosome"	"S23_LN:i:76507_dp:f:1.0451605646841904"	76507
1	0	"Chromosome"	"S26_LN:i:62135_dp:f:1.0153743992345803"	62135
1	0	"Chromosome"	"S29_LN:i:56248_dp:f:0.9814044303267823"	56248
1	0	"Chromosome"	"S28_LN:i:58772_dp:f:0.9825412228595194"	58772
1	0	"Chromosome"	"S27_LN:i:62091_dp:f:1.0051460303014539"	62091
1	0	"Chromosome"	"S33_LN:i:44576_dp:f:1.0222686505941387"	44576
0	1	"Plasmid"	"S30_LN:i:53135_dp:f:0.7704088447300088"	53135
1	0	"Chromosome"	"S32_LN:i:46533_dp:f:1.0328810491349776"	46533
1	0	"Chromosome"	"S31_LN:i:52588_dp:f:1.0035300318491094"	52588
1	0	"Chromosome"	"S36_LN:i:35900_dp:f:1.0962955260346414"	35900
1	0	"Chromosome"	"S34_LN:i:43535_dp:f:1.010190814632724"	43535
1	0	"Chromosome"	"S37_LN:i:34622_dp:f:0.9855267083306739"	34622
1	0	"Chromosome"	"S35_LN:i:39833_dp:f:0.9836868033898334"	39833
1	0	"Chromosome"	"S38_LN:i:30711_dp:f:1.036605600691159"	30711
1	0	"Chromosome"	"S40_LN:i:28382_dp:f:1.0051916760280224"	28382
1	0	"Chromosome"	"S39_LN:i:30581_dp:f:0.959079384502369"	30581
1	0	"Chromosome"	"S41_LN:i:28330_dp:f:1.0445629782843178"	28330
1	0	"Chromosome"	"S46_LN:i:12761_dp:f:0.973769106419736"	12761
1	0	"Chromosome"	"S42_LN:i:26062_dp:f:1.098985609547068"	26062
1	0	"Chromosome"	"S47_LN:i:12628_dp:f:1.150200696972934"	12628
1	0	"Chromosome"	"S43_LN:i:25940_dp:f:1.027787591554458"	25940
0	1	"Plasmid"	"S45_LN:i:22057_dp:f:0.8192116195366453"	22057
0	1	"Plasmid"	"S48_LN:i:12521_dp:f:0.7858763028429956"	12521
1	0	"Chromosome"	"S44_LN:i:24783_dp:f:0.7789627316174975"	24783
1	0	"Chromosome"	"S50_LN:i:9944_dp:f:1.004083835613294"	9944
0	1	"Plasmid"	"S54_LN:i:5848_dp:f:1.7663090148324947"	5848
1	0	"Chromosome"	"S52_LN:i:7379_dp:f:1.0526643960911637"	7379
0	1	"Plasmid"	"S51_LN:i:8026_dp:f:0.8894093110527154"	8026
0	1	"Plasmid"	"S53_LN:i:6975_dp:f:0.6883801885503666"	6975
1	0	"Chromosome"	"S49_LN:i:11071_dp:f:1.100466231563434"	11071
0	1	"Plasmid"	"S57_LN:i:4612_dp:f:19.8041268238769"	4612
1	0	"Chromosome"	"S55_LN:i:5632_dp:f:1.0126570570079079"	5632
0	1	"Plasmid"	"S56_LN:i:4783_dp:f:0.8628350751318302"	4783
1	0	"Chromosome"	"S58_LN:i:4444_dp:f:1.0987664634822667"	4444
1	0	"Chromosome"	"S59_LN:i:3865_dp:f:3.139580610432523"	3865
1	0	"Chromosome"	"S60_LN:i:3511_dp:f:1.0051763055282594"	3511
1	0	"Chromosome"	"S64_LN:i:2875_dp:f:2.5180629246450437"	2875
0	1	"Plasmid"	"S61_LN:i:3278_dp:f:0.8834470709060525"	3278
1	0	"Chromosome"	"S62_LN:i:3212_dp:f:2.151842369771628"	3212
0	1	"Plasmid"	"S66_LN:i:2517_dp:f:0.7595291702721532"	2517
1	0	"Chromosome"	"S63_LN:i:2940_dp:f:6.834004356874227"	2940
1	0	"Chromosome"	"S67_LN:i:2328_dp:f:1.0230738551839904"	2328
0	1	"Plasmid"	"S65_LN:i:2661_dp:f:3.011523154748844"	2661
1	0	"Chromosome"	"S69_LN:i:2068_dp:f:1.8945821232855742"	2068
1	0	"Chromosome"	"S68_LN:i:2237_dp:f:1.041618363147923"	2237
1	0	"Chromosome"	"S70_LN:i:1886_dp:f:1.083343214958822"	1886
1	0	"Chromosome"	"S1_LN:i:662802_dp:f:1.0"	662802
1	0	"Chromosome"	"S73_LN:i:1612_dp:f:0.9632599046862248"	1612
0	1	"Plasmid"	"S72_LN:i:1741_dp:f:0.8463705143984493"	1741
1	0	"Chromosome"	"S74_LN:i:1510_dp:f:0.9937635247472123"	1510
1	0	"Chromosome"	"S71_LN:i:1753_dp:f:0.8906597943629709"	1753
0.5	0.5	"Plasmid"	"S75_LN:i:1463_dp:f:6.504592422751185"	1463
1	0	"Chromosome"	"S76_LN:i:1449_dp:f:1.7473709289200878"	1449
1	0	"Chromosome"	"S77_LN:i:1439_dp:f:0.8115194199474253"	1439
1	0	"Chromosome"	"S78_LN:i:1375_dp:f:1.119367823778107"	1375
1	0	"Chromosome"	"S79_LN:i:1361_dp:f:1.0247314238516025"	1361
1	0	"Chromosome"	"S84_LN:i:1192_dp:f:0.77475062276462"	1192
1	0	"Chromosome"	"S83_LN:i:1244_dp:f:2.2372254959545095"	1244
0.5	0.5	"Plasmid"	"S82_LN:i:1283_dp:f:9.51346789247269"	1283
0	1	"Plasmid"	"S80_LN:i:1319_dp:f:0.7514821314303776"	1319
1	0	"Chromosome"	"S85_LN:i:1192_dp:f:0.8112001327478052"	1192
1	0	"Chromosome"	"S81_LN:i:1314_dp:f:1.89286051086895"	1314
1	0	"Chromosome"	"S86_LN:i:1101_dp:f:0.9875103613575922"	1101
0	1	"Plasmid"	"S90_LN:i:975_dp:f:0.8692865322267656"	975
1	0	"Chromosome"	"S89_LN:i:977_dp:f:1.9750450593398092"	977
1	0	"Chromosome"	"S93_LN:i:931_dp:f:1.330183659923793"	931
1	0	"Chromosome"	"S94_LN:i:909_dp:f:1.8825621595846305"	909
1	0	"Chromosome"	"S87_LN:i:1100_dp:f:1.9800098472064043"	1100
0	1	"Plasmid"	"S88_LN:i:1018_dp:f:1.6494169463515789"	1018
1	0	"Chromosome"	"S97_LN:i:833_dp:f:2.142914321829806"	833
0.5	0.5	"Plasmid"	"S96_LN:i:874_dp:f:4.682314760554788"	874
0	1	"Plasmid"	"S98_LN:i:817_dp:f:0.8847447137042168"	817
0.5	0.5	"Plasmid"	"S92_LN:i:943_dp:f:3.3449790440708687"	943
1	0	"Chromosome"	"S95_LN:i:874_dp:f:0.7686420135406695"	874
0	1	"Plasmid"	"S99_LN:i:816_dp:f:0.7507292098283558"	816
1	0	"Chromosome"	"S103_LN:i:700_dp:f:1.8501118906192988"	700
1	0	"Chromosome"	"S104_LN:i:690_dp:f:1.01510890878413"	690
0.5	0.5	"Plasmid"	"S100_LN:i:792_dp:f:0.9785705526545885"	792
1	0	"Chromosome"	"S91_LN:i:956_dp:f:1.9531774959044104"	956
0	1	"Plasmid"	"S102_LN:i:714_dp:f:0.8488498225874762"	714
0	1	"Plasmid"	"S105_LN:i:654_dp:f:1.7669651721519182"	654
1	0	"Chromosome"	"S101_LN:i:718_dp:f:0.9633279075033576"	718
0	1	"Plasmid"	"S106_LN:i:640_dp:f:0.7411968217822205"	640
1	0	"Chromosome"	"S108_LN:i:607_dp:f:0.794628754469344"	607
0.5	0.5	"Plasmid"	"S107_LN:i:638_dp:f:3.9273109215878272"	638
1	0	"Chromosome"	"S110_LN:i:604_dp:f:0.6692671912895329"	604
1	0	"Chromosome"	"S111_LN:i:574_dp:f:1.08317285858645"	574
0	1	"Plasmid"	"S109_LN:i:606_dp:f:0.7818601775640391"	606
1	0	"Chromosome"	"S113_LN:i:512_dp:f:2.127842731710028"	512
1	0	"Chromosome"	"S112_LN:i:517_dp:f:2.8787341468881538"	517
