"Prob_Chromosome"	"Prob_Plasmid"	"Prediction"	"Contig_name"	"Contig_length"
1	0	"Chromosome"	"S7_LN:i:176678_dp:f:0.9725450216829689"	176678
1	0	"Chromosome"	"S4_LN:i:206434_dp:f:0.986556431492139"	206434
1	0	"Chromosome"	"S5_LN:i:179993_dp:f:1.0424810182119104"	179993
1	0	"Chromosome"	"S8_LN:i:171897_dp:f:0.9566456652507267"	171897
1	0	"Chromosome"	"S6_LN:i:177126_dp:f:1.082079808221486"	177126
1	0	"Chromosome"	"S3_LN:i:218423_dp:f:1.0708796573387696"	218423
1	0	"Chromosome"	"S2_LN:i:286361_dp:f:1.0741864428376509"	286361
1	0	"Chromosome"	"S11_LN:i:127671_dp:f:1.0260290213201593"	127671
1	0	"Chromosome"	"S13_LN:i:119021_dp:f:0.9892161666309837"	119021
1	0	"Chromosome"	"S14_LN:i:108000_dp:f:0.9201153038111344"	108000
1	0	"Chromosome"	"S10_LN:i:147302_dp:f:1.1176140253171394"	147302
1	0	"Chromosome"	"S12_LN:i:125382_dp:f:1.1160863357183626"	125382
1	0	"Chromosome"	"S9_LN:i:156200_dp:f:1.0"	156200
1	0	"Chromosome"	"S15_LN:i:106490_dp:f:1.0502153167466974"	106490
1	0	"Chromosome"	"S16_LN:i:106194_dp:f:0.9031550255730274"	106194
1	0	"Chromosome"	"S18_LN:i:94926_dp:f:1.0967550795189984"	94926
1	0	"Chromosome"	"S17_LN:i:104180_dp:f:1.0344061785305958"	104180
1	0	"Chromosome"	"S1_LN:i:408987_dp:f:0.8877122963976284"	408987
1	0	"Chromosome"	"S19_LN:i:90929_dp:f:0.9971712666921431"	90929
1	0	"Chromosome"	"S21_LN:i:86004_dp:f:1.0754606533368325"	86004
1	0	"Chromosome"	"S20_LN:i:88119_dp:f:1.146646802596326"	88119
1	0	"Chromosome"	"S27_LN:i:55449_dp:f:1.068068012011213"	55449
1	0	"Chromosome"	"S25_LN:i:63558_dp:f:1.0329648232021231"	63558
1	0	"Chromosome"	"S24_LN:i:73097_dp:f:1.03156774001859"	73097
1	0	"Chromosome"	"S22_LN:i:79101_dp:f:1.0152111273016184"	79101
1	0	"Chromosome"	"S23_LN:i:78724_dp:f:0.8037682972728585"	78724
1	0	"Chromosome"	"S26_LN:i:61481_dp:f:1.038641144344361"	61481
1	0	"Chromosome"	"S28_LN:i:54454_dp:f:0.9961856720385951"	54454
1	0	"Chromosome"	"S31_LN:i:48420_dp:f:0.8946256696231426"	48420
1	0	"Chromosome"	"S30_LN:i:49173_dp:f:0.8757854314326027"	49173
1	0	"Chromosome"	"S32_LN:i:43164_dp:f:1.0968998001153705"	43164
1	0	"Chromosome"	"S29_LN:i:53720_dp:f:1.1324914137804984"	53720
1	0	"Chromosome"	"S35_LN:i:39209_dp:f:0.875692970712144"	39209
1	0	"Chromosome"	"S34_LN:i:39529_dp:f:1.0004627576090666"	39529
1	0	"Chromosome"	"S36_LN:i:38150_dp:f:0.9210894241119443"	38150
1	0	"Chromosome"	"S33_LN:i:41219_dp:f:1.061364261967794"	41219
0	1	"Plasmid"	"S38_LN:i:33680_dp:f:1.8968258480743927"	33680
1	0	"Chromosome"	"S39_LN:i:33320_dp:f:1.0012974736295677"	33320
1	0	"Chromosome"	"S37_LN:i:37712_dp:f:1.0962360363435661"	37712
1	0	"Chromosome"	"S41_LN:i:30055_dp:f:0.9311715324373239"	30055
1	0	"Chromosome"	"S40_LN:i:30733_dp:f:1.1874706620618016"	30733
1	0	"Chromosome"	"S46_LN:i:19924_dp:f:1.0259074535116302"	19924
1	0	"Chromosome"	"S43_LN:i:24242_dp:f:0.8951940701975565"	24242
1	0	"Chromosome"	"S45_LN:i:20917_dp:f:0.8935227930289122"	20917
1	0	"Chromosome"	"S42_LN:i:26123_dp:f:0.9940087352692537"	26123
1	0	"Chromosome"	"S49_LN:i:12834_dp:f:0.7613758874281139"	12834
1	0	"Chromosome"	"S47_LN:i:16672_dp:f:0.6398466691996451"	16672
0	1	"Plasmid"	"S44_LN:i:23188_dp:f:1.8455312981971073"	23188
0	1	"Plasmid"	"S48_LN:i:14532_dp:f:1.8063797835364883"	14532
0	1	"Plasmid"	"S51_LN:i:11587_dp:f:1.6773583367024953"	11587
1	0	"Chromosome"	"S52_LN:i:11274_dp:f:1.004908225891861"	11274
1	0	"Chromosome"	"S50_LN:i:12244_dp:f:0.9079310412863695"	12244
1	0	"Chromosome"	"S53_LN:i:10590_dp:f:0.9206755158107482"	10590
1	0	"Chromosome"	"S54_LN:i:10424_dp:f:0.8906076342352836"	10424
1	0	"Chromosome"	"S59_LN:i:8481_dp:f:1.0053455865360936"	8481
1	0	"Chromosome"	"S60_LN:i:7885_dp:f:1.066804694484284"	7885
1	0	"Chromosome"	"S57_LN:i:9695_dp:f:1.233465306368705"	9695
1	0	"Chromosome"	"S55_LN:i:10393_dp:f:0.9863471727970584"	10393
1	0	"Chromosome"	"S56_LN:i:9744_dp:f:0.8685219199570201"	9744
0	1	"Plasmid"	"S58_LN:i:9082_dp:f:1.001076204819392"	9082
0	1	"Plasmid"	"S61_LN:i:7508_dp:f:1.8249924119111043"	7508
1	0	"Chromosome"	"S68_LN:i:3672_dp:f:0.956481294404281"	3672
0.5	0.5	"Plasmid"	"S62_LN:i:6084_dp:f:1.0709733870137244"	6084
1	0	"Chromosome"	"S65_LN:i:4626_dp:f:0.7775927283552696"	4626
1	0	"Chromosome"	"S67_LN:i:4173_dp:f:0.9786776461817377"	4173
0.5	0.5	"Plasmid"	"S66_LN:i:4412_dp:f:0.7705400040403455"	4412
0.5	0.5	"Plasmid"	"S69_LN:i:3234_dp:f:2.130205199348611"	3234
0.5	0.5	"Plasmid"	"S63_LN:i:5838_dp:f:1.0270243012563143"	5838
1	0	"Chromosome"	"S64_LN:i:5596_dp:f:1.2733959300112814"	5596
1	0	"Chromosome"	"S71_LN:i:3043_dp:f:1.1797234816895392"	3043
1	0	"Chromosome"	"S72_LN:i:2926_dp:f:0.9667646651101426"	2926
1	0	"Chromosome"	"S76_LN:i:2017_dp:f:0.9129759923426207"	2017
1	0	"Chromosome"	"S74_LN:i:2716_dp:f:0.6637051693393486"	2716
1	0	"Chromosome"	"S70_LN:i:3066_dp:f:7.687027869526632"	3066
0.5	0.5	"Plasmid"	"S73_LN:i:2826_dp:f:2.8888112483436195"	2826
1	0	"Chromosome"	"S75_LN:i:2475_dp:f:3.508088963422787"	2475
0.5	0.5	"Plasmid"	"S77_LN:i:1955_dp:f:2.093814652630802"	1955
1	0	"Chromosome"	"S78_LN:i:1876_dp:f:1.0055037478882554"	1876
1	0	"Chromosome"	"S82_LN:i:1638_dp:f:2.3679832609608393"	1638
0.5	0.5	"Plasmid"	"S79_LN:i:1858_dp:f:4.4105576814463205"	1858
1	0	"Chromosome"	"S80_LN:i:1731_dp:f:0.7380221379280396"	1731
0.5	0.5	"Plasmid"	"S83_LN:i:1560_dp:f:1.1416800048717828"	1560
0.5	0.5	"Plasmid"	"S84_LN:i:1528_dp:f:0.8395790739354437"	1528
1	0	"Chromosome"	"S85_LN:i:1504_dp:f:0.989945858175828"	1504
1	0	"Chromosome"	"S86_LN:i:1475_dp:f:0.833959668241797"	1475
1	0	"Chromosome"	"S81_LN:i:1702_dp:f:7.737591476021944"	1702
0	1	"Plasmid"	"S89_LN:i:1309_dp:f:2.128210267782729"	1309
1	0	"Chromosome"	"S87_LN:i:1437_dp:f:0.8120899324701331"	1437
0.5	0.5	"Plasmid"	"S88_LN:i:1343_dp:f:1.9718979028888863"	1343
0.5	0.5	"Plasmid"	"S92_LN:i:1213_dp:f:3.872201537805699"	1213
0.5	0.5	"Plasmid"	"S93_LN:i:1160_dp:f:1.9434428286920047"	1160
1	0	"Chromosome"	"S91_LN:i:1284_dp:f:0.7486937490043853"	1284
0.5	0.5	"Plasmid"	"S90_LN:i:1299_dp:f:5.004465696678613"	1299
0.5	0.5	"Plasmid"	"S97_LN:i:1040_dp:f:0.877235075837471"	1040
1	0	"Chromosome"	"S100_LN:i:934_dp:f:0.9709431713403922"	934
0.5	0.5	"Plasmid"	"S99_LN:i:1006_dp:f:2.827423533756889"	1006
1	0	"Chromosome"	"S98_LN:i:1031_dp:f:2.2173859282634845"	1031
0.5	0.5	"Plasmid"	"S105_LN:i:673_dp:f:1.9017475723955912"	673
1	0	"Chromosome"	"S102_LN:i:848_dp:f:1.9403339168209612"	848
0.5	0.5	"Plasmid"	"S103_LN:i:797_dp:f:0.8148053787603029"	797
1	0	"Chromosome"	"S94_LN:i:1133_dp:f:2.1627107938396453"	1133
0.5	0.5	"Plasmid"	"S95_LN:i:1088_dp:f:4.874245042960036"	1088
0.5	0.5	"Plasmid"	"S104_LN:i:737_dp:f:13.43446365164234"	737
1	0	"Chromosome"	"S106_LN:i:597_dp:f:0.8362138614583572"	597
1	0	"Chromosome"	"S101_LN:i:894_dp:f:0.7588611772944442"	894
0.5	0.5	"Plasmid"	"S96_LN:i:1050_dp:f:3.257578445591625"	1050
