"Prob_Chromosome"	"Prob_Plasmid"	"Prediction"	"Contig_name"	"Contig_length"
1	0	"Chromosome"	"S8_LN:i:130030_dp:f:0.9804611376788195"	130030
1	0	"Chromosome"	"S7_LN:i:136871_dp:f:1.0979467339693536"	136871
1	0	"Chromosome"	"S5_LN:i:172303_dp:f:1.0"	172303
1	0	"Chromosome"	"S6_LN:i:158969_dp:f:1.0060363382067792"	158969
1	0	"Chromosome"	"S3_LN:i:213124_dp:f:0.9725509645353269"	213124
1	0	"Chromosome"	"S4_LN:i:194292_dp:f:0.9842910365733735"	194292
1	0	"Chromosome"	"S11_LN:i:119304_dp:f:1.0014910047729035"	119304
1	0	"Chromosome"	"S10_LN:i:124379_dp:f:1.0307926328118724"	124379
1	0	"Chromosome"	"S2_LN:i:316841_dp:f:0.9821841112981659"	316841
1	0	"Chromosome"	"S12_LN:i:115402_dp:f:0.9923285766517714"	115402
1	0	"Chromosome"	"S9_LN:i:127729_dp:f:1.032088691800126"	127729
1	0	"Chromosome"	"S14_LN:i:108870_dp:f:0.9866057114265122"	108870
1	0	"Chromosome"	"S13_LN:i:114509_dp:f:1.0080397498911753"	114509
1	0	"Chromosome"	"S1_LN:i:372760_dp:f:1.0595701611190738"	372760
1	0	"Chromosome"	"S16_LN:i:96615_dp:f:1.0794507212279567"	96615
1	0	"Chromosome"	"S19_LN:i:84245_dp:f:0.9637565352314021"	84245
1	0	"Chromosome"	"S15_LN:i:103642_dp:f:1.0576322930467577"	103642
1	0	"Chromosome"	"S17_LN:i:87396_dp:f:0.9754884233013179"	87396
1	0	"Chromosome"	"S21_LN:i:74939_dp:f:1.060894268277169"	74939
1	0	"Chromosome"	"S20_LN:i:78655_dp:f:1.003056328589597"	78655
1	0	"Chromosome"	"S18_LN:i:87039_dp:f:1.0697527032830034"	87039
1	0	"Chromosome"	"S25_LN:i:64392_dp:f:1.041360887859055"	64392
1	0	"Chromosome"	"S27_LN:i:59331_dp:f:1.061041439155183"	59331
1	0	"Chromosome"	"S29_LN:i:56776_dp:f:1.0552774378747518"	56776
0	1	"Plasmid"	"S22_LN:i:72869_dp:f:1.8560528507248921"	72869
1	0	"Chromosome"	"S28_LN:i:57304_dp:f:1.0607171606888461"	57304
1	0	"Chromosome"	"S26_LN:i:61899_dp:f:1.009529119176679"	61899
1	0	"Chromosome"	"S24_LN:i:68775_dp:f:1.0620760145322867"	68775
1	0	"Chromosome"	"S23_LN:i:70913_dp:f:1.105337073601247"	70913
1	0	"Chromosome"	"S35_LN:i:41230_dp:f:1.0833824091817748"	41230
1	0	"Chromosome"	"S36_LN:i:41016_dp:f:1.1325470305979268"	41016
1	0	"Chromosome"	"S30_LN:i:55570_dp:f:1.099856214731981"	55570
1	0	"Chromosome"	"S34_LN:i:44417_dp:f:0.9787925889894177"	44417
1	0	"Chromosome"	"S32_LN:i:52984_dp:f:1.1060826915227375"	52984
1	0	"Chromosome"	"S37_LN:i:39737_dp:f:1.0226716372002667"	39737
1	0	"Chromosome"	"S31_LN:i:55430_dp:f:0.9749993852422777"	55430
1	0	"Chromosome"	"S33_LN:i:52197_dp:f:1.0634685382009903"	52197
1	0	"Chromosome"	"S42_LN:i:30790_dp:f:1.0493833518962907"	30790
1	0	"Chromosome"	"S43_LN:i:30349_dp:f:1.122844305877802"	30349
1	0	"Chromosome"	"S38_LN:i:37698_dp:f:1.0387368669993977"	37698
1	0	"Chromosome"	"S40_LN:i:35087_dp:f:1.0840265150927715"	35087
1	0	"Chromosome"	"S41_LN:i:34833_dp:f:1.065735256885098"	34833
1	0	"Chromosome"	"S39_LN:i:36054_dp:f:1.0483787850201673"	36054
1	0	"Chromosome"	"S44_LN:i:29082_dp:f:1.0821150884453918"	29082
1	0	"Chromosome"	"S45_LN:i:28945_dp:f:1.0712907780534542"	28945
1	0	"Chromosome"	"S48_LN:i:24633_dp:f:1.096990115725658"	24633
1	0	"Chromosome"	"S49_LN:i:23973_dp:f:1.0875287512454765"	23973
1	0	"Chromosome"	"S47_LN:i:25842_dp:f:1.0021927864046842"	25842
1	0	"Chromosome"	"S50_LN:i:23678_dp:f:0.9246095124236529"	23678
1	0	"Chromosome"	"S46_LN:i:26620_dp:f:1.0199134245386903"	26620
1	0	"Chromosome"	"S52_LN:i:21743_dp:f:1.1763100500469237"	21743
1	0	"Chromosome"	"S51_LN:i:22950_dp:f:1.0874345618835477"	22950
1	0	"Chromosome"	"S53_LN:i:20127_dp:f:1.0788349008418074"	20127
1	0	"Chromosome"	"S56_LN:i:18323_dp:f:0.9958397148478295"	18323
1	0	"Chromosome"	"S59_LN:i:15399_dp:f:1.0144010495643274"	15399
1	0	"Chromosome"	"S60_LN:i:13249_dp:f:1.0071036713163324"	13249
0.5	0.5	"Plasmid"	"S54_LN:i:19859_dp:f:0.9387963543201905"	19859
1	0	"Chromosome"	"S55_LN:i:19696_dp:f:1.0305901856540547"	19696
1	0	"Chromosome"	"S58_LN:i:18023_dp:f:1.11800877336096"	18023
1	0	"Chromosome"	"S57_LN:i:18153_dp:f:1.0939463348056353"	18153
1	0	"Chromosome"	"S63_LN:i:11431_dp:f:0.9453349769536816"	11431
1	0	"Chromosome"	"S61_LN:i:12299_dp:f:1.0951501207971193"	12299
0	1	"Plasmid"	"S65_LN:i:11389_dp:f:1.9409691741019708"	11389
1	0	"Chromosome"	"S66_LN:i:11225_dp:f:1.0867011483763314"	11225
1	0	"Chromosome"	"S67_LN:i:10955_dp:f:1.0975781531216653"	10955
1	0	"Chromosome"	"S64_LN:i:11428_dp:f:1.0111257658649717"	11428
1	0	"Chromosome"	"S62_LN:i:11486_dp:f:1.0909609197021126"	11486
1	0	"Chromosome"	"S68_LN:i:10836_dp:f:1.079768107789762"	10836
0	1	"Plasmid"	"S70_LN:i:9860_dp:f:1.8837377748088606"	9860
0	1	"Plasmid"	"S74_LN:i:8141_dp:f:1.818575463580546"	8141
1	0	"Chromosome"	"S69_LN:i:10191_dp:f:1.0127306959942022"	10191
1	0	"Chromosome"	"S71_LN:i:9204_dp:f:1.0366471123222678"	9204
1	0	"Chromosome"	"S73_LN:i:8288_dp:f:1.000735551529321"	8288
1	0	"Chromosome"	"S72_LN:i:8816_dp:f:1.049405750586018"	8816
1	0	"Chromosome"	"S75_LN:i:7876_dp:f:1.038666296768623"	7876
0.5	0.5	"Plasmid"	"S82_LN:i:6150_dp:f:1.9400065139834395"	6150
0	1	"Plasmid"	"S77_LN:i:7700_dp:f:1.8561103550533258"	7700
1	0	"Chromosome"	"S76_LN:i:7813_dp:f:1.010117156572686"	7813
1	0	"Chromosome"	"S79_LN:i:7080_dp:f:1.057450182568947"	7080
1	0	"Chromosome"	"S81_LN:i:6686_dp:f:1.0457040799459354"	6686
1	0	"Chromosome"	"S80_LN:i:6799_dp:f:1.117678967012864"	6799
1	0	"Chromosome"	"S83_LN:i:6068_dp:f:1.152302315983817"	6068
1	0	"Chromosome"	"S78_LN:i:7531_dp:f:1.0478774707561804"	7531
1	0	"Chromosome"	"S85_LN:i:5707_dp:f:0.8697574185836372"	5707
1	0	"Chromosome"	"S87_LN:i:4636_dp:f:3.572417852361874"	4636
1	0	"Chromosome"	"S88_LN:i:4149_dp:f:1.2327143300106203"	4149
1	0	"Chromosome"	"S86_LN:i:4813_dp:f:1.135868354256683"	4813
1	0	"Chromosome"	"S84_LN:i:5725_dp:f:1.003742719206521"	5725
1	0	"Chromosome"	"S90_LN:i:3458_dp:f:1.0635358060608435"	3458
1	0	"Chromosome"	"S89_LN:i:3460_dp:f:1.6015372572632338"	3460
1	0	"Chromosome"	"S91_LN:i:3403_dp:f:1.1142311481896878"	3403
1	0	"Chromosome"	"S97_LN:i:2401_dp:f:1.026368052085705"	2401
1	0	"Chromosome"	"S92_LN:i:3158_dp:f:1.0964433579661674"	3158
1	0	"Chromosome"	"S95_LN:i:2687_dp:f:1.7640759337317147"	2687
1	0	"Chromosome"	"S94_LN:i:2764_dp:f:0.9925041766359776"	2764
0	1	"Plasmid"	"S101_LN:i:1663_dp:f:2.0447908868974642"	1663
0	1	"Plasmid"	"S98_LN:i:2131_dp:f:3.732326836507593"	2131
1	0	"Chromosome"	"S100_LN:i:1741_dp:f:1.2163845365488515"	1741
1	0	"Chromosome"	"S93_LN:i:2814_dp:f:7.077058705423162"	2814
0.5	0.5	"Plasmid"	"S104_LN:i:1629_dp:f:2.0271461754836424"	1629
1	0	"Chromosome"	"S102_LN:i:1638_dp:f:1.1579154132712792"	1638
1	0	"Chromosome"	"S99_LN:i:1872_dp:f:2.135005486469425"	1872
0.5	0.5	"Plasmid"	"S96_LN:i:2581_dp:f:3.045808503977867"	2581
1	0	"Chromosome"	"S103_LN:i:1635_dp:f:1.1589647775268568"	1635
1	0	"Chromosome"	"S106_LN:i:1544_dp:f:2.822128296459093"	1544
1	0	"Chromosome"	"S105_LN:i:1628_dp:f:6.79897365995219"	1628
1	0	"Chromosome"	"S107_LN:i:1419_dp:f:1.0466250824796153"	1419
0.5	0.5	"Plasmid"	"S109_LN:i:1343_dp:f:3.010426112229722"	1343
1	0	"Chromosome"	"S108_LN:i:1363_dp:f:1.9223172205621801"	1363
1	0	"Chromosome"	"S111_LN:i:1308_dp:f:1.075428864189853"	1308
1	0	"Chromosome"	"S112_LN:i:1289_dp:f:0.9365235334289455"	1289
0.5	0.5	"Plasmid"	"S110_LN:i:1332_dp:f:2.2956928968738315"	1332
0	1	"Plasmid"	"S113_LN:i:1245_dp:f:2.030194680938145"	1245
0	1	"Plasmid"	"S115_LN:i:1223_dp:f:0.9463073816086586"	1223
1	0	"Chromosome"	"S119_LN:i:1158_dp:f:0.8240004850049001"	1158
0.5	0.5	"Plasmid"	"S117_LN:i:1213_dp:f:4.2358479457580565"	1213
1	0	"Chromosome"	"S114_LN:i:1224_dp:f:1.6269716155643401"	1224
1	0	"Chromosome"	"S118_LN:i:1177_dp:f:1.050268889837903"	1177
1	0	"Chromosome"	"S120_LN:i:1133_dp:f:1.9870887033710265"	1133
0.5	0.5	"Plasmid"	"S116_LN:i:1221_dp:f:4.190501583033644"	1221
1	0	"Chromosome"	"S122_LN:i:1057_dp:f:0.8668238363454445"	1057
1	0	"Chromosome"	"S121_LN:i:1057_dp:f:0.8610636399706401"	1057
1	0	"Chromosome"	"S124_LN:i:1036_dp:f:0.9161798516936872"	1036
0.5	0.5	"Plasmid"	"S123_LN:i:1045_dp:f:3.480518110341314"	1045
1	0	"Chromosome"	"S127_LN:i:974_dp:f:2.1559239243263333"	974
1	0	"Chromosome"	"S126_LN:i:998_dp:f:2.3109838075181646"	998
1	0	"Chromosome"	"S128_LN:i:961_dp:f:0.9336226168242412"	961
0	1	"Plasmid"	"S125_LN:i:1023_dp:f:3.8119564757887385"	1023
1	0	"Chromosome"	"S130_LN:i:908_dp:f:2.2206389796668287"	908
1	0	"Chromosome"	"S132_LN:i:881_dp:f:6.560848594860984"	881
0.5	0.5	"Plasmid"	"S131_LN:i:899_dp:f:2.1487690505626595"	899
1	0	"Chromosome"	"S129_LN:i:948_dp:f:2.586562855994578"	948
1	0	"Chromosome"	"S135_LN:i:680_dp:f:1.016011457923164"	680
0.5	0.5	"Plasmid"	"S134_LN:i:807_dp:f:3.1155040372023803"	807
0.5	0.5	"Plasmid"	"S137_LN:i:651_dp:f:4.1479663994513185"	651
0.5	0.5	"Plasmid"	"S140_LN:i:547_dp:f:0.9412910801792119"	547
0.5	0.5	"Plasmid"	"S142_LN:i:519_dp:f:3.5435656119478995"	519
1	0	"Chromosome"	"S138_LN:i:562_dp:f:3.8319174414504875"	562
1	0	"Chromosome"	"S136_LN:i:680_dp:f:0.9588102297073524"	680
1	0	"Chromosome"	"S133_LN:i:823_dp:f:2.4427146656618874"	823
1	0	"Chromosome"	"S141_LN:i:536_dp:f:3.4547286035848237"	536
0.5	0.5	"Plasmid"	"S139_LN:i:555_dp:f:3.1757347599944468"	555
