"Prob_Chromosome"	"Prob_Plasmid"	"Prediction"	"Contig_name"	"Contig_length"
1	0	"Chromosome"	"S8_LN:i:155936_dp:f:1.0241635031947405"	155936
1	0	"Chromosome"	"S5_LN:i:188880_dp:f:0.956150414566705"	188880
1	0	"Chromosome"	"S7_LN:i:180365_dp:f:0.9311700363215272"	180365
1	0	"Chromosome"	"S4_LN:i:196315_dp:f:1.1499881004254788"	196315
1	0	"Chromosome"	"S6_LN:i:186741_dp:f:0.9748469003461864"	186741
1	0	"Chromosome"	"S3_LN:i:239453_dp:f:0.9384897156070708"	239453
1	0	"Chromosome"	"S2_LN:i:332478_dp:f:1.1148636731817765"	332478
1	0	"Chromosome"	"S13_LN:i:119986_dp:f:0.996330550993124"	119986
1	0	"Chromosome"	"S12_LN:i:125398_dp:f:1.0488796955108959"	125398
1	0	"Chromosome"	"S14_LN:i:109603_dp:f:1.145617206523669"	109603
1	0	"Chromosome"	"S9_LN:i:155291_dp:f:1.0554304095484648"	155291
1	0	"Chromosome"	"S10_LN:i:146912_dp:f:1.2283689122366697"	146912
1	0	"Chromosome"	"S11_LN:i:143997_dp:f:0.9935540019501464"	143997
1	0	"Chromosome"	"S20_LN:i:75304_dp:f:0.9462648060941886"	75304
1	0	"Chromosome"	"S19_LN:i:77437_dp:f:1.2181677022799442"	77437
1	0	"Chromosome"	"S17_LN:i:91909_dp:f:1.1458869957048092"	91909
1	0	"Chromosome"	"S16_LN:i:93586_dp:f:0.9916882407136651"	93586
1	0	"Chromosome"	"S21_LN:i:75160_dp:f:1.097973462268089"	75160
1	0	"Chromosome"	"S15_LN:i:101371_dp:f:1.1043536184188254"	101371
1	0	"Chromosome"	"S18_LN:i:90718_dp:f:1.15051840376766"	90718
1	0	"Chromosome"	"S27_LN:i:56081_dp:f:1.0236830734255506"	56081
1	0	"Chromosome"	"S26_LN:i:60530_dp:f:1.1370299413613905"	60530
1	0	"Chromosome"	"S23_LN:i:69120_dp:f:1.0957593359787183"	69120
1	0	"Chromosome"	"S28_LN:i:55887_dp:f:1.1119723151921495"	55887
1	0	"Chromosome"	"S22_LN:i:74942_dp:f:0.9869377776122147"	74942
1	0	"Chromosome"	"S24_LN:i:66737_dp:f:0.9806115140564183"	66737
1	0	"Chromosome"	"S25_LN:i:66152_dp:f:1.1476709725971084"	66152
1	0	"Chromosome"	"S29_LN:i:55210_dp:f:1.016372160871845"	55210
1	0	"Chromosome"	"S32_LN:i:43675_dp:f:1.1518186151379264"	43675
1	0	"Chromosome"	"S35_LN:i:40105_dp:f:1.1513531555766163"	40105
1	0	"Chromosome"	"S34_LN:i:40660_dp:f:1.2272813990649738"	40660
0	1	"Plasmid"	"S33_LN:i:42650_dp:f:4.917621113658596"	42650
1	0	"Chromosome"	"S31_LN:i:47247_dp:f:1.171209997291776"	47247
1	0	"Chromosome"	"S30_LN:i:54673_dp:f:1.2456486237362554"	54673
1	0	"Chromosome"	"S1_LN:i:545212_dp:f:1.0"	545212
1	0	"Chromosome"	"S38_LN:i:38926_dp:f:0.951095464369528"	38926
1	0	"Chromosome"	"S42_LN:i:32662_dp:f:1.1331022754557056"	32662
1	0	"Chromosome"	"S43_LN:i:30687_dp:f:1.0983682201410963"	30687
0	1	"Plasmid"	"S36_LN:i:39853_dp:f:3.2101538563737377"	39853
1	0	"Chromosome"	"S39_LN:i:38344_dp:f:1.0600675127990957"	38344
1	0	"Chromosome"	"S37_LN:i:39383_dp:f:1.0885113055086562"	39383
1	0	"Chromosome"	"S41_LN:i:36031_dp:f:1.1938282026151625"	36031
1	0	"Chromosome"	"S40_LN:i:37586_dp:f:0.911653766835636"	37586
1	0	"Chromosome"	"S49_LN:i:26062_dp:f:1.1681467998641724"	26062
1	0	"Chromosome"	"S51_LN:i:24679_dp:f:0.9412235885906249"	24679
1	0	"Chromosome"	"S44_LN:i:29942_dp:f:1.1162847113794718"	29942
1	0	"Chromosome"	"S50_LN:i:25167_dp:f:1.0044260977033186"	25167
1	0	"Chromosome"	"S45_LN:i:28516_dp:f:1.124913264419608"	28516
1	0	"Chromosome"	"S47_LN:i:26642_dp:f:1.1505824339502768"	26642
1	0	"Chromosome"	"S46_LN:i:27000_dp:f:1.252828546971012"	27000
1	0	"Chromosome"	"S48_LN:i:26412_dp:f:1.1768554742188406"	26412
0	1	"Plasmid"	"S54_LN:i:20140_dp:f:3.6126927439995855"	20140
1	0	"Chromosome"	"S58_LN:i:15123_dp:f:1.0884234056304563"	15123
1	0	"Chromosome"	"S52_LN:i:21965_dp:f:1.1558125689684988"	21965
0	1	"Plasmid"	"S57_LN:i:15656_dp:f:5.531540220727049"	15656
1	0	"Chromosome"	"S55_LN:i:16756_dp:f:0.9850251964498932"	16756
1	0	"Chromosome"	"S56_LN:i:16522_dp:f:0.9294151862467336"	16522
1	0	"Chromosome"	"S59_LN:i:15023_dp:f:1.0316677266936782"	15023
1	0	"Chromosome"	"S53_LN:i:20628_dp:f:1.160824659654557"	20628
1	0	"Chromosome"	"S62_LN:i:13375_dp:f:1.1181373915897044"	13375
1	0	"Chromosome"	"S61_LN:i:14292_dp:f:1.3053621175266599"	14292
1	0	"Chromosome"	"S60_LN:i:14665_dp:f:1.128339552634604"	14665
0.5	0.5	"Plasmid"	"S69_LN:i:8768_dp:f:1.3199408024949537"	8768
1	0	"Chromosome"	"S65_LN:i:12606_dp:f:1.3269113201194564"	12606
1	0	"Chromosome"	"S64_LN:i:12750_dp:f:1.247723706083959"	12750
1	0	"Chromosome"	"S66_LN:i:12491_dp:f:1.0619147356061225"	12491
1	0	"Chromosome"	"S63_LN:i:12961_dp:f:1.1497864907780526"	12961
1	0	"Chromosome"	"S67_LN:i:12421_dp:f:1.1025611801046813"	12421
1	0	"Chromosome"	"S75_LN:i:6493_dp:f:1.1162519233698218"	6493
1	0	"Chromosome"	"S70_LN:i:8545_dp:f:1.9448168057609723"	8545
1	0	"Chromosome"	"S68_LN:i:11762_dp:f:1.1258756711583426"	11762
1	0	"Chromosome"	"S73_LN:i:7452_dp:f:1.087841235047796"	7452
1	0	"Chromosome"	"S71_LN:i:8495_dp:f:1.1999630477592296"	8495
1	0	"Chromosome"	"S78_LN:i:5553_dp:f:1.2578973454553977"	5553
1	0	"Chromosome"	"S76_LN:i:6332_dp:f:1.1931921380304051"	6332
1	0	"Chromosome"	"S80_LN:i:5419_dp:f:1.0997917819081313"	5419
1	0	"Chromosome"	"S74_LN:i:7230_dp:f:2.1359044310433544"	7230
1	0	"Chromosome"	"S77_LN:i:5832_dp:f:1.4024136654447181"	5832
1	0	"Chromosome"	"S72_LN:i:7845_dp:f:0.9056311057578579"	7845
1	0	"Chromosome"	"S79_LN:i:5422_dp:f:1.3151583092362713"	5422
0	1	"Plasmid"	"S81_LN:i:5275_dp:f:3.7470552363181127"	5275
1	0	"Chromosome"	"S82_LN:i:4931_dp:f:1.2401984917500593"	4931
1	0	"Chromosome"	"S85_LN:i:4741_dp:f:1.2342860732357444"	4741
1	0	"Chromosome"	"S88_LN:i:4189_dp:f:1.1816584319985797"	4189
1	0	"Chromosome"	"S84_LN:i:4750_dp:f:1.3855192625898065"	4750
1	0	"Chromosome"	"S87_LN:i:4392_dp:f:1.1916631251675438"	4392
1	0	"Chromosome"	"S83_LN:i:4887_dp:f:1.0199672888381381"	4887
1	0	"Chromosome"	"S86_LN:i:4639_dp:f:1.1529674158730596"	4639
0	1	"Plasmid"	"S89_LN:i:3749_dp:f:6.840177946753884"	3749
1	0	"Chromosome"	"S93_LN:i:3239_dp:f:7.102043494495152"	3239
1	0	"Chromosome"	"S90_LN:i:3731_dp:f:0.9738645531569313"	3731
0	1	"Plasmid"	"S91_LN:i:3524_dp:f:4.005751330699761"	3524
1	0	"Chromosome"	"S92_LN:i:3491_dp:f:0.9027837559471317"	3491
1	0	"Chromosome"	"S97_LN:i:2781_dp:f:1.0059949592171693"	2781
1	0	"Chromosome"	"S98_LN:i:2701_dp:f:1.0587298899092559"	2701
1	0	"Chromosome"	"S99_LN:i:2677_dp:f:1.0096389871366243"	2677
1	0	"Chromosome"	"S94_LN:i:3229_dp:f:1.4852758463120759"	3229
1	0	"Chromosome"	"S96_LN:i:2811_dp:f:2.5938142887119424"	2811
0.5	0.5	"Plasmid"	"S100_LN:i:2545_dp:f:3.9496358319011775"	2545
0.5	0.5	"Plasmid"	"S104_LN:i:2367_dp:f:1.3893152679650973"	2367
1	0	"Chromosome"	"S95_LN:i:2937_dp:f:7.336079344427822"	2937
1	0	"Chromosome"	"S101_LN:i:2526_dp:f:1.174911462549912"	2526
1	0	"Chromosome"	"S106_LN:i:2331_dp:f:2.07168549363151"	2331
1	0	"Chromosome"	"S102_LN:i:2467_dp:f:2.021791662043717"	2467
1	0	"Chromosome"	"S107_LN:i:2331_dp:f:1.0765447487255377"	2331
1	0	"Chromosome"	"S103_LN:i:2391_dp:f:1.1042783605802988"	2391
0	1	"Plasmid"	"S105_LN:i:2353_dp:f:6.9882096269771035"	2353
1	0	"Chromosome"	"S113_LN:i:1861_dp:f:2.0633614071716697"	1861
1	0	"Chromosome"	"S110_LN:i:2051_dp:f:0.9690709414813433"	2051
1	0	"Chromosome"	"S108_LN:i:2327_dp:f:3.298505745205921"	2327
1	0	"Chromosome"	"S109_LN:i:2184_dp:f:2.0342725033448232"	2184
1	0	"Chromosome"	"S114_LN:i:1852_dp:f:1.186357000072366"	1852
1	0	"Chromosome"	"S115_LN:i:1845_dp:f:1.9395651917488355"	1845
1	0	"Chromosome"	"S112_LN:i:1917_dp:f:0.8701202268300013"	1917
1	0	"Chromosome"	"S111_LN:i:1917_dp:f:0.9692327661741323"	1917
1	0	"Chromosome"	"S117_LN:i:1790_dp:f:1.0642136908630562"	1790
1	0	"Chromosome"	"S121_LN:i:1720_dp:f:1.271891479509583"	1720
1	0	"Chromosome"	"S118_LN:i:1744_dp:f:0.9159176725669996"	1744
1	0	"Chromosome"	"S120_LN:i:1722_dp:f:1.7496188007378208"	1722
1	0	"Chromosome"	"S119_LN:i:1739_dp:f:1.320156894191307"	1739
1	0	"Chromosome"	"S116_LN:i:1830_dp:f:0.7769717694893356"	1830
0.5	0.5	"Plasmid"	"S126_LN:i:1452_dp:f:3.783979009974462"	1452
1	0	"Chromosome"	"S124_LN:i:1629_dp:f:1.2110845290969787"	1629
1	0	"Chromosome"	"S123_LN:i:1682_dp:f:1.3292818867727227"	1682
1	0	"Chromosome"	"S122_LN:i:1708_dp:f:7.412492492475767"	1708
1	0	"Chromosome"	"S128_LN:i:1401_dp:f:0.8996437548443181"	1401
1	0	"Chromosome"	"S129_LN:i:1400_dp:f:0.8454602264604992"	1400
0.5	0.5	"Plasmid"	"S133_LN:i:1310_dp:f:5.063084502485658"	1310
1	0	"Chromosome"	"S130_LN:i:1312_dp:f:1.5311365086334368"	1312
1	0	"Chromosome"	"S125_LN:i:1517_dp:f:1.0430991258948823"	1517
1	0	"Chromosome"	"S131_LN:i:1311_dp:f:1.1672702291049428"	1311
0.5	0.5	"Plasmid"	"S135_LN:i:1295_dp:f:8.030660540854374"	1295
0.5	0.5	"Plasmid"	"S127_LN:i:1443_dp:f:6.228107003693326"	1443
0.5	0.5	"Plasmid"	"S137_LN:i:1270_dp:f:4.070320847599402"	1270
1	0	"Chromosome"	"S138_LN:i:1267_dp:f:1.7580859177707737"	1267
1	0	"Chromosome"	"S134_LN:i:1307_dp:f:1.165310596349531"	1307
0	1	"Plasmid"	"S132_LN:i:1310_dp:f:5.378482781367097"	1310
1	0	"Chromosome"	"S136_LN:i:1293_dp:f:2.142428919524412"	1293
1	0	"Chromosome"	"S139_LN:i:1258_dp:f:1.9268826594404773"	1258
0.5	0.5	"Plasmid"	"S140_LN:i:1232_dp:f:16.395376063520363"	1232
1	0	"Chromosome"	"S141_LN:i:1231_dp:f:1.0631296525489686"	1231
1	0	"Chromosome"	"S142_LN:i:1231_dp:f:0.824801746385335"	1231
1	0	"Chromosome"	"S143_LN:i:1212_dp:f:0.850937860551962"	1212
1	0	"Chromosome"	"S144_LN:i:1193_dp:f:0.9899394926257791"	1193
1	0	"Chromosome"	"S147_LN:i:1157_dp:f:1.039238665249472"	1157
0.5	0.5	"Plasmid"	"S148_LN:i:1157_dp:f:0.8556088070057044"	1157
1	0	"Chromosome"	"S145_LN:i:1190_dp:f:0.8765486293572206"	1190
1	0	"Chromosome"	"S146_LN:i:1173_dp:f:1.117946567173794"	1173
1	0	"Chromosome"	"S152_LN:i:1104_dp:f:2.034078948320115"	1104
1	0	"Chromosome"	"S150_LN:i:1135_dp:f:1.5272724050842574"	1135
1	0	"Chromosome"	"S155_LN:i:1082_dp:f:2.3106190423356767"	1082
1	0	"Chromosome"	"S153_LN:i:1085_dp:f:0.8833448596552285"	1085
1	0	"Chromosome"	"S151_LN:i:1122_dp:f:1.9910671002863383"	1122
1	0	"Chromosome"	"S149_LN:i:1152_dp:f:1.9154881345285704"	1152
1	0	"Chromosome"	"S154_LN:i:1085_dp:f:0.8130611981358559"	1085
1	0	"Chromosome"	"S159_LN:i:1070_dp:f:0.902094882305179"	1070
1	0	"Chromosome"	"S158_LN:i:1070_dp:f:0.9789686896847344"	1070
1	0	"Chromosome"	"S160_LN:i:1069_dp:f:1.8341371773151882"	1069
1	0	"Chromosome"	"S162_LN:i:1033_dp:f:0.8189988381960551"	1033
1	0	"Chromosome"	"S163_LN:i:1031_dp:f:0.8575101047662798"	1031
1	0	"Chromosome"	"S156_LN:i:1080_dp:f:1.708129439117397"	1080
1	0	"Chromosome"	"S161_LN:i:1065_dp:f:1.1490027515796433"	1065
1	0	"Chromosome"	"S168_LN:i:983_dp:f:0.9299941427645245"	983
1	0	"Chromosome"	"S169_LN:i:983_dp:f:1.0565782339656926"	983
1	0	"Chromosome"	"S166_LN:i:991_dp:f:1.0345360673393664"	991
0	1	"Plasmid"	"S164_LN:i:992_dp:f:2.9513476821482776"	992
1	0	"Chromosome"	"S167_LN:i:991_dp:f:0.9090032264426355"	991
0	1	"Plasmid"	"S165_LN:i:991_dp:f:4.387972630925721"	991
1	0	"Chromosome"	"S157_LN:i:1079_dp:f:1.9299884080567828"	1079
0	1	"Plasmid"	"S172_LN:i:947_dp:f:7.840904369115225"	947
1	0	"Chromosome"	"S170_LN:i:956_dp:f:2.366893762312635"	956
1	0	"Chromosome"	"S171_LN:i:950_dp:f:1.6432114580854198"	950
1	0	"Chromosome"	"S175_LN:i:898_dp:f:1.8847831804891215"	898
1	0	"Chromosome"	"S176_LN:i:893_dp:f:2.326083755234588"	893
1	0	"Chromosome"	"S174_LN:i:912_dp:f:1.9834178122186508"	912
1	0	"Chromosome"	"S173_LN:i:945_dp:f:1.211740370649805"	945
1	0	"Chromosome"	"S178_LN:i:869_dp:f:0.7640961703152217"	869
1	0	"Chromosome"	"S179_LN:i:846_dp:f:2.069300593068552"	846
1	0	"Chromosome"	"S177_LN:i:893_dp:f:1.1376254749507286"	893
1	0	"Chromosome"	"S180_LN:i:845_dp:f:1.174527850972989"	845
1	0	"Chromosome"	"S186_LN:i:806_dp:f:1.0926458581789964"	806
1	0	"Chromosome"	"S185_LN:i:806_dp:f:0.877430407145278"	806
1	0	"Chromosome"	"S183_LN:i:816_dp:f:1.2127186411908277"	816
1	0	"Chromosome"	"S184_LN:i:808_dp:f:1.7897967233320682"	808
1	0	"Chromosome"	"S187_LN:i:796_dp:f:1.1690956995082133"	796
1	0	"Chromosome"	"S188_LN:i:796_dp:f:0.8662221148737904"	796
0	1	"Plasmid"	"S182_LN:i:826_dp:f:2.7009242548167944"	826
0	1	"Plasmid"	"S181_LN:i:836_dp:f:4.125188123956171"	836
0.5	0.5	"Plasmid"	"S193_LN:i:757_dp:f:1.1310304475010198"	757
1	0	"Chromosome"	"S189_LN:i:777_dp:f:2.0457614870140595"	777
1	0	"Chromosome"	"S192_LN:i:762_dp:f:0.9389783828479387"	762
1	0	"Chromosome"	"S196_LN:i:725_dp:f:0.8998281975685778"	725
1	0	"Chromosome"	"S197_LN:i:725_dp:f:0.9933155999420031"	725
1	0	"Chromosome"	"S194_LN:i:737_dp:f:1.9670404861578423"	737
1	0	"Chromosome"	"S191_LN:i:762_dp:f:0.8435247575732413"	762
1	0	"Chromosome"	"S190_LN:i:765_dp:f:2.1321885650961168"	765
1	0	"Chromosome"	"S195_LN:i:735_dp:f:1.627196508687096"	735
1	0	"Chromosome"	"S198_LN:i:721_dp:f:0.7894205550192208"	721
1	0	"Chromosome"	"S200_LN:i:711_dp:f:0.8918512734838667"	711
1	0	"Chromosome"	"S199_LN:i:721_dp:f:0.8558132642470209"	721
1	0	"Chromosome"	"S202_LN:i:680_dp:f:0.9666394217384122"	680
1	0	"Chromosome"	"S205_LN:i:665_dp:f:1.6645494554226121"	665
1	0	"Chromosome"	"S203_LN:i:680_dp:f:1.2953048846337798"	680
0.5	0.5	"Plasmid"	"S208_LN:i:659_dp:f:1.017515347779023"	659
0.5	0.5	"Plasmid"	"S209_LN:i:659_dp:f:0.8187737969189037"	659
1	0	"Chromosome"	"S206_LN:i:662_dp:f:2.0481385770337748"	662
1	0	"Chromosome"	"S207_LN:i:659_dp:f:1.2598957054877162"	659
0	1	"Plasmid"	"S204_LN:i:672_dp:f:3.061023411708027"	672
0	1	"Plasmid"	"S201_LN:i:683_dp:f:6.954070149266768"	683
0.5	0.5	"Plasmid"	"S212_LN:i:647_dp:f:4.21287432669665"	647
1	0	"Chromosome"	"S216_LN:i:621_dp:f:1.0183030736088785"	621
1	0	"Chromosome"	"S211_LN:i:654_dp:f:3.2347863571222435"	654
1	0	"Chromosome"	"S217_LN:i:621_dp:f:1.0155837841633861"	621
1	0	"Chromosome"	"S214_LN:i:633_dp:f:0.9113371143950454"	633
1	0	"Chromosome"	"S215_LN:i:623_dp:f:0.8579664520271411"	623
1	0	"Chromosome"	"S218_LN:i:620_dp:f:2.198695666238477"	620
1	0	"Chromosome"	"S213_LN:i:643_dp:f:1.6746563797371945"	643
1	0	"Chromosome"	"S210_LN:i:655_dp:f:1.035204926464262"	655
0.5	0.5	"Plasmid"	"S222_LN:i:607_dp:f:3.7249277232349054"	607
0.5	0.5	"Plasmid"	"S223_LN:i:604_dp:f:0.9301287119157929"	604
1	0	"Chromosome"	"S221_LN:i:617_dp:f:2.006100850189924"	617
1	0	"Chromosome"	"S224_LN:i:591_dp:f:0.9621535664032638"	591
1	0	"Chromosome"	"S226_LN:i:590_dp:f:0.88451863785677"	590
1	0	"Chromosome"	"S225_LN:i:590_dp:f:1.6286023251107764"	590
0	1	"Plasmid"	"S219_LN:i:618_dp:f:3.982699976798747"	618
1	0	"Chromosome"	"S228_LN:i:588_dp:f:0.933646629407749"	588
1	0	"Chromosome"	"S227_LN:i:588_dp:f:0.758637739626831"	588
1	0	"Chromosome"	"S229_LN:i:587_dp:f:2.6937177269191217"	587
1	0	"Chromosome"	"S235_LN:i:571_dp:f:1.1763372121308235"	571
1	0	"Chromosome"	"S231_LN:i:575_dp:f:1.7127286286893757"	575
1	0	"Chromosome"	"S230_LN:i:575_dp:f:1.054432612649338"	575
1	0	"Chromosome"	"S234_LN:i:573_dp:f:1.0054911791780796"	573
1	0	"Chromosome"	"S236_LN:i:571_dp:f:1.2031463322891742"	571
1	0	"Chromosome"	"S233_LN:i:573_dp:f:0.9528398190268405"	573
0	1	"Plasmid"	"S220_LN:i:617_dp:f:2.983084278774234"	617
1	0	"Chromosome"	"S237_LN:i:568_dp:f:0.7986139712138266"	568
1	0	"Chromosome"	"S238_LN:i:568_dp:f:0.7416035956952909"	568
0	1	"Plasmid"	"S239_LN:i:559_dp:f:2.848898495003258"	559
0	1	"Plasmid"	"S240_LN:i:559_dp:f:3.934328712984133"	559
1	0	"Chromosome"	"S241_LN:i:556_dp:f:1.0100291861613317"	556
1	0	"Chromosome"	"S242_LN:i:556_dp:f:1.3242710978438716"	556
1	0	"Chromosome"	"S243_LN:i:550_dp:f:0.9843697616961941"	550
0.5	0.5	"Plasmid"	"S245_LN:i:548_dp:f:4.440787198886782"	548
1	0	"Chromosome"	"S244_LN:i:550_dp:f:0.8878676523511242"	550
0	1	"Plasmid"	"S232_LN:i:573_dp:f:4.387775496068694"	573
0.5	0.5	"Plasmid"	"S250_LN:i:531_dp:f:0.9922684176288376"	531
0	1	"Plasmid"	"S246_LN:i:539_dp:f:2.986736277258506"	539
0	1	"Plasmid"	"S247_LN:i:538_dp:f:3.8878985318847312"	538
0.5	0.5	"Plasmid"	"S251_LN:i:531_dp:f:0.9310630481510811"	531
1	0	"Chromosome"	"S249_LN:i:534_dp:f:0.9805028105531246"	534
1	0	"Chromosome"	"S248_LN:i:534_dp:f:1.130421550567469"	534
1	0	"Chromosome"	"S254_LN:i:505_dp:f:0.9705248415618553"	505
1	0	"Chromosome"	"S252_LN:i:521_dp:f:0.8807703093391837"	521
1	0	"Chromosome"	"S257_LN:i:505_dp:f:1.1163803905341827"	505
1	0	"Chromosome"	"S256_LN:i:505_dp:f:0.9572653053715168"	505
1	0	"Chromosome"	"S255_LN:i:505_dp:f:1.179331253706808"	505
1	0	"Chromosome"	"S253_LN:i:518_dp:f:1.8446415443770174"	518
