"Prob_Chromosome"	"Prob_Plasmid"	"Prediction"	"Contig_name"	"Contig_length"
1	0	"Chromosome"	"S8_LN:i:159759_dp:f:0.8817616400351389"	159759
1	0	"Chromosome"	"S6_LN:i:165608_dp:f:1.104286807836994"	165608
1	0	"Chromosome"	"S4_LN:i:201233_dp:f:1.1317250028512011"	201233
1	0	"Chromosome"	"S5_LN:i:180635_dp:f:1.1722774759533818"	180635
1	0	"Chromosome"	"S7_LN:i:164956_dp:f:0.9367166995104435"	164956
1	0	"Chromosome"	"S11_LN:i:138727_dp:f:1.1051186873493506"	138727
1	0	"Chromosome"	"S3_LN:i:266029_dp:f:1.0438892628760317"	266029
1	0	"Chromosome"	"S2_LN:i:300970_dp:f:0.9421122873390778"	300970
1	0	"Chromosome"	"S9_LN:i:158701_dp:f:1.0345410520698535"	158701
1	0	"Chromosome"	"S10_LN:i:156961_dp:f:1.0"	156961
1	0	"Chromosome"	"S13_LN:i:126841_dp:f:0.8661591396220206"	126841
1	0	"Chromosome"	"S12_LN:i:134219_dp:f:1.03550813142171"	134219
1	0	"Chromosome"	"S14_LN:i:120277_dp:f:0.8559480985765481"	120277
1	0	"Chromosome"	"S15_LN:i:117283_dp:f:0.9908421414497691"	117283
1	0	"Chromosome"	"S18_LN:i:108982_dp:f:1.0327212919384734"	108982
1	0	"Chromosome"	"S1_LN:i:431804_dp:f:0.971592753307246"	431804
1	0	"Chromosome"	"S17_LN:i:114022_dp:f:1.0230451400832201"	114022
1	0	"Chromosome"	"S16_LN:i:114253_dp:f:1.1229364026723996"	114253
1	0	"Chromosome"	"S20_LN:i:100625_dp:f:0.9145987120357754"	100625
1	0	"Chromosome"	"S19_LN:i:103623_dp:f:1.0410005690573747"	103623
1	0	"Chromosome"	"S21_LN:i:98076_dp:f:1.1928115222709461"	98076
1	0	"Chromosome"	"S22_LN:i:96026_dp:f:0.8802867110760764"	96026
1	0	"Chromosome"	"S24_LN:i:86023_dp:f:0.915451316719022"	86023
1	0	"Chromosome"	"S25_LN:i:85538_dp:f:0.9788711944103248"	85538
1	0	"Chromosome"	"S28_LN:i:67574_dp:f:1.1103734485627876"	67574
1	0	"Chromosome"	"S27_LN:i:72020_dp:f:0.9834239984102273"	72020
1	0	"Chromosome"	"S26_LN:i:74600_dp:f:0.8714134894439477"	74600
1	0	"Chromosome"	"S23_LN:i:95286_dp:f:1.1070405004629442"	95286
1	0	"Chromosome"	"S29_LN:i:59094_dp:f:0.90794079989575"	59094
1	0	"Chromosome"	"S30_LN:i:55901_dp:f:0.9411141439589971"	55901
1	0	"Chromosome"	"S32_LN:i:51585_dp:f:1.0412940386847322"	51585
1	0	"Chromosome"	"S31_LN:i:54188_dp:f:0.979314668858622"	54188
1	0	"Chromosome"	"S34_LN:i:49088_dp:f:0.9395950616526427"	49088
1	0	"Chromosome"	"S35_LN:i:46527_dp:f:1.0999474412970445"	46527
1	0	"Chromosome"	"S36_LN:i:44295_dp:f:0.889395424100531"	44295
1	0	"Chromosome"	"S41_LN:i:29665_dp:f:0.93118210654138"	29665
1	0	"Chromosome"	"S40_LN:i:34738_dp:f:1.130842306970986"	34738
0	1	"Plasmid"	"S33_LN:i:49699_dp:f:0.7786990529950113"	49699
1	0	"Chromosome"	"S43_LN:i:21385_dp:f:0.9346849193487097"	21385
1	0	"Chromosome"	"S37_LN:i:41161_dp:f:0.9702251793447451"	41161
1	0	"Chromosome"	"S38_LN:i:40620_dp:f:1.1675598459000909"	40620
1	0	"Chromosome"	"S39_LN:i:36656_dp:f:1.0127196595473542"	36656
1	0	"Chromosome"	"S42_LN:i:23840_dp:f:0.8825948193143073"	23840
1	0	"Chromosome"	"S44_LN:i:21204_dp:f:0.9805541177703321"	21204
1	0	"Chromosome"	"S45_LN:i:18444_dp:f:1.1268416097232783"	18444
1	0	"Chromosome"	"S46_LN:i:17299_dp:f:0.8987332682296737"	17299
1	0	"Chromosome"	"S47_LN:i:16595_dp:f:1.1671084837454915"	16595
1	0	"Chromosome"	"S48_LN:i:14445_dp:f:0.8707789284550077"	14445
1	0	"Chromosome"	"S49_LN:i:14089_dp:f:0.9639158678292535"	14089
1	0	"Chromosome"	"S50_LN:i:13787_dp:f:0.9076330081666091"	13787
1	0	"Chromosome"	"S53_LN:i:10685_dp:f:1.1570058671165764"	10685
1	0	"Chromosome"	"S54_LN:i:10503_dp:f:1.1232044209242384"	10503
1	0	"Chromosome"	"S55_LN:i:9693_dp:f:0.8605867589723136"	9693
1	0	"Chromosome"	"S51_LN:i:12336_dp:f:1.2046912216953072"	12336
0	1	"Plasmid"	"S52_LN:i:11139_dp:f:0.7688491507067577"	11139
1	0	"Chromosome"	"S57_LN:i:8815_dp:f:1.139130781669293"	8815
1	0	"Chromosome"	"S56_LN:i:9051_dp:f:1.2474587837549447"	9051
1	0	"Chromosome"	"S58_LN:i:8621_dp:f:1.2210998845029402"	8621
1	0	"Chromosome"	"S62_LN:i:7161_dp:f:1.168018701625786"	7161
1	0	"Chromosome"	"S61_LN:i:8101_dp:f:1.025254989059963"	8101
0	1	"Plasmid"	"S59_LN:i:8500_dp:f:0.8254557215106348"	8500
0	1	"Plasmid"	"S60_LN:i:8449_dp:f:0.7855262380990072"	8449
1	0	"Chromosome"	"S63_LN:i:6952_dp:f:0.9501000360084286"	6952
1	0	"Chromosome"	"S65_LN:i:6449_dp:f:0.971256919754064"	6449
0	1	"Plasmid"	"S64_LN:i:6655_dp:f:0.7772135449652419"	6655
0	1	"Plasmid"	"S66_LN:i:6245_dp:f:0.7545064504176356"	6245
1	0	"Chromosome"	"S68_LN:i:5334_dp:f:1.0981320861714325"	5334
1	0	"Chromosome"	"S69_LN:i:5280_dp:f:0.9618954332184604"	5280
0	1	"Plasmid"	"S70_LN:i:5210_dp:f:10.756375625970504"	5210
0	1	"Plasmid"	"S67_LN:i:5679_dp:f:0.879424647803954"	5679
1	0	"Chromosome"	"S71_LN:i:4785_dp:f:0.9490878244953125"	4785
1	0	"Chromosome"	"S73_LN:i:4149_dp:f:1.131345450552384"	4149
1	0	"Chromosome"	"S74_LN:i:4115_dp:f:0.9531989491808008"	4115
1	0	"Chromosome"	"S77_LN:i:3430_dp:f:1.1422912538749967"	3430
1	0	"Chromosome"	"S75_LN:i:3870_dp:f:1.0210356548501915"	3870
0	1	"Plasmid"	"S76_LN:i:3867_dp:f:0.7992626207176904"	3867
0	1	"Plasmid"	"S79_LN:i:3131_dp:f:0.7577622905500694"	3131
0	1	"Plasmid"	"S72_LN:i:4225_dp:f:14.786762678628863"	4225
0	1	"Plasmid"	"S78_LN:i:3372_dp:f:15.072807751560962"	3372
1	0	"Chromosome"	"S80_LN:i:3098_dp:f:1.1517880456945284"	3098
1	0	"Chromosome"	"S81_LN:i:3085_dp:f:6.892976601815679"	3085
1	0	"Chromosome"	"S82_LN:i:3023_dp:f:1.2450571211177457"	3023
1	0	"Chromosome"	"S84_LN:i:2918_dp:f:1.2847245516896495"	2918
1	0	"Chromosome"	"S85_LN:i:2827_dp:f:1.2032025023125592"	2827
0	1	"Plasmid"	"S86_LN:i:2674_dp:f:0.7808288779515353"	2674
0.5	0.5	"Plasmid"	"S83_LN:i:2936_dp:f:0.7856678863663493"	2936
0	1	"Plasmid"	"S87_LN:i:2615_dp:f:0.755505578349284"	2615
0	1	"Plasmid"	"S88_LN:i:2595_dp:f:0.8389763295592334"	2595
0	1	"Plasmid"	"S90_LN:i:2553_dp:f:0.8013668909940188"	2553
0.5	0.5	"Plasmid"	"S94_LN:i:2353_dp:f:1.775484440524337"	2353
1	0	"Chromosome"	"S95_LN:i:2223_dp:f:1.1912102272217608"	2223
1	0	"Chromosome"	"S93_LN:i:2445_dp:f:0.8050063741720304"	2445
0	1	"Plasmid"	"S92_LN:i:2499_dp:f:2.4252747725027297"	2499
1	0	"Chromosome"	"S96_LN:i:1988_dp:f:1.0089226579760147"	1988
0.5	0.5	"Plasmid"	"S89_LN:i:2581_dp:f:4.318680311294985"	2581
0.5	0.5	"Plasmid"	"S91_LN:i:2532_dp:f:3.0310455643145726"	2532
1	0	"Chromosome"	"S97_LN:i:1672_dp:f:1.2260389437120145"	1672
0	1	"Plasmid"	"S99_LN:i:1519_dp:f:1.7924380722548106"	1519
1	0	"Chromosome"	"S98_LN:i:1558_dp:f:2.047994267434491"	1558
1	0	"Chromosome"	"S102_LN:i:1276_dp:f:1.0604734254460242"	1276
0.5	0.5	"Plasmid"	"S100_LN:i:1425_dp:f:7.174023275067628"	1425
0.5	0.5	"Plasmid"	"S101_LN:i:1333_dp:f:0.7887280408809981"	1333
1	0	"Chromosome"	"S103_LN:i:1262_dp:f:0.9399431060912007"	1262
1	0	"Chromosome"	"S105_LN:i:1259_dp:f:1.0960468896179507"	1259
1	0	"Chromosome"	"S104_LN:i:1261_dp:f:2.307766346796556"	1261
0	1	"Plasmid"	"S106_LN:i:1195_dp:f:1.8855418420800232"	1195
1	0	"Chromosome"	"S111_LN:i:922_dp:f:1.2670281769651133"	922
1	0	"Chromosome"	"S110_LN:i:1001_dp:f:1.1760572633574462"	1001
1	0	"Chromosome"	"S109_LN:i:1031_dp:f:1.9826965354923538"	1031
1	0	"Chromosome"	"S112_LN:i:922_dp:f:0.910303227006108"	922
1	0	"Chromosome"	"S108_LN:i:1060_dp:f:1.6269994510513563"	1060
0	1	"Plasmid"	"S107_LN:i:1067_dp:f:1.5444057460896157"	1067
1	0	"Chromosome"	"S113_LN:i:858_dp:f:1.138771240216831"	858
1	0	"Chromosome"	"S114_LN:i:852_dp:f:1.2862327051359177"	852
0.5	0.5	"Plasmid"	"S115_LN:i:838_dp:f:0.8352978543810127"	838
0	1	"Plasmid"	"S117_LN:i:809_dp:f:0.8202293243062216"	809
1	0	"Chromosome"	"S120_LN:i:678_dp:f:1.1656396592279805"	678
1	0	"Chromosome"	"S118_LN:i:732_dp:f:2.032591423015054"	732
1	0	"Chromosome"	"S116_LN:i:813_dp:f:2.1564641635305097"	813
0.5	0.5	"Plasmid"	"S121_LN:i:671_dp:f:10.020063584990488"	671
1	0	"Chromosome"	"S122_LN:i:650_dp:f:2.4072946097659234"	650
1	0	"Chromosome"	"S119_LN:i:687_dp:f:2.0790996157950925"	687
1	0	"Chromosome"	"S126_LN:i:606_dp:f:1.9169844552608828"	606
1	0	"Chromosome"	"S124_LN:i:616_dp:f:2.039624796707136"	616
0.5	0.5	"Plasmid"	"S125_LN:i:611_dp:f:3.1681612349599746"	611
0.5	0.5	"Plasmid"	"S123_LN:i:647_dp:f:2.0684129588154456"	647
1	0	"Chromosome"	"S128_LN:i:589_dp:f:1.0128596813732131"	589
1	0	"Chromosome"	"S130_LN:i:570_dp:f:0.7845289337532639"	570
0	1	"Plasmid"	"S129_LN:i:582_dp:f:14.683820909275417"	582
1	0	"Chromosome"	"S131_LN:i:544_dp:f:2.324234362529075"	544
1	0	"Chromosome"	"S132_LN:i:539_dp:f:2.0238392949642314"	539
0	1	"Plasmid"	"S127_LN:i:592_dp:f:0.7851708359919078"	592
