"Prob_Chromosome"	"Prob_Plasmid"	"Prediction"	"Contig_name"	"Contig_length"
1	0	"Chromosome"	"S8_LN:i:220233_dp:f:1.0286346906818944"	220233
1	0	"Chromosome"	"S7_LN:i:225993_dp:f:1.0321294038461555"	225993
1	0	"Chromosome"	"S6_LN:i:251863_dp:f:1.0"	251863
1	0	"Chromosome"	"S5_LN:i:307669_dp:f:1.0009307245845211"	307669
1	0	"Chromosome"	"S4_LN:i:388663_dp:f:0.9519129939064873"	388663
1	0	"Chromosome"	"S10_LN:i:211604_dp:f:1.0262817813153136"	211604
1	0	"Chromosome"	"S11_LN:i:178152_dp:f:1.043666375952073"	178152
1	0	"Chromosome"	"S9_LN:i:212964_dp:f:1.0401213450277877"	212964
1	0	"Chromosome"	"S12_LN:i:151441_dp:f:1.0047493268374044"	151441
1	0	"Chromosome"	"S13_LN:i:138700_dp:f:1.025555331210193"	138700
1	0	"Chromosome"	"S16_LN:i:75941_dp:f:1.0399884531697905"	75941
0	1	"Plasmid"	"S17_LN:i:74041_dp:f:1.3064494987832278"	74041
1	0	"Chromosome"	"S15_LN:i:90687_dp:f:1.064711898130136"	90687
1	0	"Chromosome"	"S3_LN:i:584465_dp:f:1.027987975691572"	584465
1	0	"Chromosome"	"S20_LN:i:30663_dp:f:1.0692778186723855"	30663
1	0	"Chromosome"	"S14_LN:i:121686_dp:f:1.0313155268911889"	121686
1	0	"Chromosome"	"S21_LN:i:26066_dp:f:1.071618086177403"	26066
1	0	"Chromosome"	"S19_LN:i:39996_dp:f:0.9446378215767309"	39996
1	0	"Chromosome"	"S24_LN:i:4219_dp:f:1.0994927055218233"	4219
1	0	"Chromosome"	"S25_LN:i:2560_dp:f:7.133666161167595"	2560
1	0	"Chromosome"	"S26_LN:i:2393_dp:f:0.9438349872116838"	2393
1	0	"Chromosome"	"S28_LN:i:1778_dp:f:0.6831234754682861"	1778
0.5	0.5	"Plasmid"	"S27_LN:i:1916_dp:f:1.2942011342002635"	1916
1	0	"Chromosome"	"S30_LN:i:1498_dp:f:0.8367295567271671"	1498
0.5	0.5	"Plasmid"	"S31_LN:i:1342_dp:f:5.085263903353405"	1342
1	0	"Chromosome"	"S18_LN:i:57966_dp:f:1.0576491337733889"	57966
1	0	"Chromosome"	"S29_LN:i:1702_dp:f:7.217731722797637"	1702
1	0	"Chromosome"	"S33_LN:i:835_dp:f:1.0091879340399939"	835
0.5	0.5	"Plasmid"	"S34_LN:i:822_dp:f:2.6823275681802476"	822
0.5	0.5	"Plasmid"	"S35_LN:i:614_dp:f:2.0770046219122027"	614
1	0	"Chromosome"	"S32_LN:i:959_dp:f:2.080828861190822"	959
1	0	"Chromosome"	"S23_LN:i:17386_dp:f:1.0300841638814713"	17386
0	1	"Plasmid"	"S22_LN:i:25769_dp:f:1.2660231101783295"	25769
1	0	"Chromosome"	"S2_LN:i:627332_dp:f:0.9715975253566042"	627332
1	0	"Chromosome"	"S1_LN:i:797092_dp:f:0.9901837154327131"	797092
