"Prob_Chromosome"	"Prob_Plasmid"	"Prediction"	"Contig_name"	"Contig_length"
1	0	"Chromosome"	"S8_LN:i:241694_dp:f:0.9904216568669318"	241694
1	0	"Chromosome"	"S6_LN:i:270448_dp:f:1.0"	270448
1	0	"Chromosome"	"S5_LN:i:276380_dp:f:1.0045794516725706"	276380
1	0	"Chromosome"	"S7_LN:i:264012_dp:f:0.9247411257937393"	264012
1	0	"Chromosome"	"S4_LN:i:296153_dp:f:1.0452603459845515"	296153
1	0	"Chromosome"	"S3_LN:i:358822_dp:f:1.0239275827843715"	358822
1	0	"Chromosome"	"S2_LN:i:389962_dp:f:0.9628331234083198"	389962
1	0	"Chromosome"	"S13_LN:i:144572_dp:f:1.0228032639473965"	144572
1	0	"Chromosome"	"S11_LN:i:163281_dp:f:0.9405934700135924"	163281
1	0	"Chromosome"	"S12_LN:i:153559_dp:f:1.005508748237352"	153559
1	0	"Chromosome"	"S1_LN:i:480256_dp:f:0.9592987660724885"	480256
1	0	"Chromosome"	"S14_LN:i:135805_dp:f:1.0113807060725473"	135805
1	0	"Chromosome"	"S9_LN:i:222860_dp:f:1.0229458600257626"	222860
1	0	"Chromosome"	"S10_LN:i:214090_dp:f:1.0224473505977454"	214090
1	0	"Chromosome"	"S15_LN:i:123934_dp:f:1.0379049415951755"	123934
1	0	"Chromosome"	"S18_LN:i:111755_dp:f:0.9310605242485316"	111755
1	0	"Chromosome"	"S16_LN:i:121555_dp:f:1.0470347882870834"	121555
1	0	"Chromosome"	"S17_LN:i:117374_dp:f:0.9340005099164642"	117374
1	0	"Chromosome"	"S20_LN:i:91126_dp:f:1.0590489517068262"	91126
0	1	"Plasmid"	"S22_LN:i:86614_dp:f:1.0268136541499513"	86614
1	0	"Chromosome"	"S19_LN:i:103662_dp:f:0.9941774854898128"	103662
0	1	"Plasmid"	"S21_LN:i:88150_dp:f:0.9552768263878298"	88150
1	0	"Chromosome"	"S23_LN:i:86450_dp:f:0.9898657773043716"	86450
1	0	"Chromosome"	"S28_LN:i:33805_dp:f:1.0443067623747802"	33805
1	0	"Chromosome"	"S29_LN:i:30583_dp:f:1.1004138293361265"	30583
1	0	"Chromosome"	"S30_LN:i:29874_dp:f:1.0178798267206075"	29874
1	0	"Chromosome"	"S26_LN:i:68618_dp:f:1.0306806026903688"	68618
1	0	"Chromosome"	"S33_LN:i:17532_dp:f:0.8775197323133387"	17532
1	0	"Chromosome"	"S34_LN:i:10301_dp:f:1.057554382390856"	10301
1	0	"Chromosome"	"S27_LN:i:63796_dp:f:0.8829379042824106"	63796
1	0	"Chromosome"	"S35_LN:i:8991_dp:f:1.1055949559879459"	8991
0	1	"Plasmid"	"S39_LN:i:4671_dp:f:100.5242595108075"	4671
0	1	"Plasmid"	"S37_LN:i:7015_dp:f:1.000537749152728"	7015
1	0	"Chromosome"	"S31_LN:i:27862_dp:f:0.9619005838393729"	27862
1	0	"Chromosome"	"S38_LN:i:6071_dp:f:0.8695724662608512"	6071
1	0	"Chromosome"	"S24_LN:i:85534_dp:f:1.042569745400796"	85534
1	0	"Chromosome"	"S25_LN:i:84392_dp:f:0.9252041742120356"	84392
1	0	"Chromosome"	"S41_LN:i:3171_dp:f:0.8606824682569921"	3171
1	0	"Chromosome"	"S40_LN:i:4294_dp:f:1.0124096043727178"	4294
1	0	"Chromosome"	"S36_LN:i:8384_dp:f:0.9493733542196632"	8384
1	0	"Chromosome"	"S45_LN:i:2133_dp:f:1.1126452455664706"	2133
0	1	"Plasmid"	"S43_LN:i:2969_dp:f:1.0041459020822174"	2969
1	0	"Chromosome"	"S46_LN:i:1984_dp:f:0.9981083869774627"	1984
1	0	"Chromosome"	"S44_LN:i:2493_dp:f:0.9079088386359649"	2493
0	1	"Plasmid"	"S48_LN:i:1795_dp:f:1.9885187672074995"	1795
1	0	"Chromosome"	"S47_LN:i:1914_dp:f:0.7352652014199748"	1914
1	0	"Chromosome"	"S50_LN:i:1574_dp:f:1.9588415954435259"	1574
1	0	"Chromosome"	"S51_LN:i:1206_dp:f:0.9337579117361301"	1206
1	0	"Chromosome"	"S53_LN:i:878_dp:f:1.8662518166646282"	878
1	0	"Chromosome"	"S54_LN:i:861_dp:f:1.9672686833094133"	861
1	0	"Chromosome"	"S49_LN:i:1732_dp:f:7.238565851760903"	1732
1	0	"Chromosome"	"S42_LN:i:3080_dp:f:7.204709898952364"	3080
1	0	"Chromosome"	"S55_LN:i:853_dp:f:0.8023458787516907"	853
0.5	0.5	"Plasmid"	"S52_LN:i:1096_dp:f:4.042338398838522"	1096
1	0	"Chromosome"	"S56_LN:i:842_dp:f:1.0566161132427228"	842
1	0	"Chromosome"	"S60_LN:i:649_dp:f:1.0061889734045764"	649
1	0	"Chromosome"	"S57_LN:i:808_dp:f:1.095792150302848"	808
1	0	"Chromosome"	"S61_LN:i:614_dp:f:3.368251653048935"	614
1	0	"Chromosome"	"S58_LN:i:799_dp:f:1.1420555416968117"	799
1	0	"Chromosome"	"S62_LN:i:599_dp:f:1.9190850181474501"	599
1	0	"Chromosome"	"S59_LN:i:698_dp:f:2.0329222501193676"	698
0.5	0.5	"Plasmid"	"S63_LN:i:586_dp:f:4.100395569884249"	586
1	0	"Chromosome"	"S65_LN:i:555_dp:f:1.1460428919709027"	555
1	0	"Chromosome"	"S64_LN:i:582_dp:f:1.0118965229309755"	582
1	0	"Chromosome"	"S66_LN:i:547_dp:f:1.055028153896888"	547
1	0	"Chromosome"	"S69_LN:i:511_dp:f:0.9502877121378164"	511
1	0	"Chromosome"	"S68_LN:i:519_dp:f:3.3548919462062705"	519
1	0	"Chromosome"	"S70_LN:i:510_dp:f:0.9933728829731773"	510
1	0	"Chromosome"	"S71_LN:i:503_dp:f:3.2445279025985503"	503
1	0	"Chromosome"	"S67_LN:i:547_dp:f:1.1258419426487574"	547
0	1	"Plasmid"	"S72_LN:i:500_dp:f:0.9041737541870116"	500
1	0	"Chromosome"	"S32_LN:i:26059_dp:f:1.058038150261856"	26059
