"Prob_Chromosome"	"Prob_Plasmid"	"Prediction"	"Contig_name"	"Contig_length"
1	0	"Chromosome"	"S7_LN:i:213268_dp:f:1.020067033769788"	213268
1	0	"Chromosome"	"S8_LN:i:212400_dp:f:1.0287615998749824"	212400
1	0	"Chromosome"	"S6_LN:i:237550_dp:f:1.0"	237550
1	0	"Chromosome"	"S4_LN:i:287381_dp:f:0.9864363849907877"	287381
1	0	"Chromosome"	"S5_LN:i:263363_dp:f:1.0070692802285395"	263363
1	0	"Chromosome"	"S3_LN:i:309010_dp:f:0.9853994193402278"	309010
1	0	"Chromosome"	"S2_LN:i:367894_dp:f:1.0031303346557987"	367894
1	0	"Chromosome"	"S10_LN:i:179628_dp:f:1.006624131687637"	179628
1	0	"Chromosome"	"S11_LN:i:177941_dp:f:1.0044107761367798"	177941
1	0	"Chromosome"	"S1_LN:i:409389_dp:f:0.9525617802939444"	409389
1	0	"Chromosome"	"S15_LN:i:129531_dp:f:0.9698830449561383"	129531
1	0	"Chromosome"	"S14_LN:i:139764_dp:f:0.9850967512331033"	139764
1	0	"Chromosome"	"S13_LN:i:149095_dp:f:0.9219701630172366"	149095
1	0	"Chromosome"	"S12_LN:i:166398_dp:f:0.946991585001642"	166398
0	1	"Plasmid"	"S9_LN:i:201176_dp:f:0.808110131982292"	201176
1	0	"Chromosome"	"S19_LN:i:95787_dp:f:1.018394120514682"	95787
1	0	"Chromosome"	"S16_LN:i:117978_dp:f:1.030098576854598"	117978
1	0	"Chromosome"	"S20_LN:i:95139_dp:f:1.0388228412839293"	95139
1	0	"Chromosome"	"S21_LN:i:90070_dp:f:1.036938021451668"	90070
1	0	"Chromosome"	"S17_LN:i:114290_dp:f:1.0330035616343725"	114290
1	0	"Chromosome"	"S18_LN:i:108238_dp:f:0.9307776104230803"	108238
1	0	"Chromosome"	"S23_LN:i:86235_dp:f:1.0678812948712157"	86235
1	0	"Chromosome"	"S25_LN:i:72669_dp:f:0.9889959704788983"	72669
1	0	"Chromosome"	"S28_LN:i:52273_dp:f:1.0606835638158183"	52273
1	0	"Chromosome"	"S27_LN:i:54588_dp:f:0.9182697206290199"	54588
1	0	"Chromosome"	"S24_LN:i:73171_dp:f:0.9163490806199472"	73171
1	0	"Chromosome"	"S29_LN:i:46121_dp:f:1.0305572171361057"	46121
0	1	"Plasmid"	"S26_LN:i:56808_dp:f:2.2855723463579447"	56808
1	0	"Chromosome"	"S31_LN:i:45229_dp:f:0.945421414652032"	45229
1	0	"Chromosome"	"S32_LN:i:44582_dp:f:1.0039310698041517"	44582
1	0	"Chromosome"	"S34_LN:i:41191_dp:f:1.003659262515352"	41191
1	0	"Chromosome"	"S36_LN:i:40573_dp:f:1.0371194893077607"	40573
0	1	"Plasmid"	"S22_LN:i:86505_dp:f:0.9287413533261353"	86505
1	0	"Chromosome"	"S35_LN:i:40719_dp:f:0.9285485333925234"	40719
1	0	"Chromosome"	"S37_LN:i:38611_dp:f:0.939067120423273"	38611
0	1	"Plasmid"	"S33_LN:i:41391_dp:f:3.85878985157967"	41391
0	1	"Plasmid"	"S30_LN:i:45899_dp:f:1.434185044674755"	45899
1	0	"Chromosome"	"S38_LN:i:37329_dp:f:0.9621005986999287"	37329
1	0	"Chromosome"	"S40_LN:i:31686_dp:f:0.8967827429816143"	31686
1	0	"Chromosome"	"S39_LN:i:34398_dp:f:1.0383963129230434"	34398
1	0	"Chromosome"	"S42_LN:i:28563_dp:f:0.9716768152640816"	28563
1	0	"Chromosome"	"S41_LN:i:30707_dp:f:1.08123251044536"	30707
1	0	"Chromosome"	"S44_LN:i:19687_dp:f:1.051267597109519"	19687
1	0	"Chromosome"	"S46_LN:i:18478_dp:f:0.8681951648225008"	18478
1	0	"Chromosome"	"S47_LN:i:15086_dp:f:1.0250368071556268"	15086
1	0	"Chromosome"	"S49_LN:i:13460_dp:f:1.1088489384643097"	13460
1	0	"Chromosome"	"S48_LN:i:14291_dp:f:0.867703623629693"	14291
1	0	"Chromosome"	"S51_LN:i:10219_dp:f:0.9482530232986907"	10219
1	0	"Chromosome"	"S43_LN:i:26161_dp:f:0.9056405046337754"	26161
0	1	"Plasmid"	"S45_LN:i:19475_dp:f:1.4185440145618446"	19475
0	1	"Plasmid"	"S50_LN:i:12923_dp:f:1.4523765660555152"	12923
1	0	"Chromosome"	"S52_LN:i:9066_dp:f:0.9790848065441969"	9066
1	0	"Chromosome"	"S54_LN:i:5951_dp:f:0.8461263065495802"	5951
1	0	"Chromosome"	"S56_LN:i:4407_dp:f:0.7660737343109374"	4407
1	0	"Chromosome"	"S53_LN:i:7911_dp:f:0.775910225507113"	7911
0	1	"Plasmid"	"S55_LN:i:4713_dp:f:2.3202520318550213"	4713
0.5	0.5	"Plasmid"	"S57_LN:i:4327_dp:f:1.061725110410723"	4327
1	0	"Chromosome"	"S60_LN:i:4233_dp:f:1.0083659075098563"	4233
1	0	"Chromosome"	"S62_LN:i:3974_dp:f:0.8446613086574363"	3974
0	1	"Plasmid"	"S58_LN:i:4316_dp:f:2.114265264734843"	4316
1	0	"Chromosome"	"S59_LN:i:4260_dp:f:0.9513029456661355"	4260
0.5	0.5	"Plasmid"	"S61_LN:i:4148_dp:f:1.012574936083327"	4148
1	0	"Chromosome"	"S63_LN:i:3927_dp:f:0.9102704597343135"	3927
0	1	"Plasmid"	"S65_LN:i:3060_dp:f:0.83362672172284"	3060
1	0	"Chromosome"	"S66_LN:i:3026_dp:f:3.48151912555155"	3026
1	0	"Chromosome"	"S67_LN:i:2965_dp:f:0.9393330102819829"	2965
1	0	"Chromosome"	"S68_LN:i:2720_dp:f:0.8293963115019776"	2720
0	1	"Plasmid"	"S64_LN:i:3728_dp:f:1.5609198283979315"	3728
0	1	"Plasmid"	"S71_LN:i:2281_dp:f:1.8790725085616136"	2281
1	0	"Chromosome"	"S72_LN:i:2222_dp:f:0.8602946913378071"	2222
1	0	"Chromosome"	"S70_LN:i:2437_dp:f:4.196098357531577"	2437
0	1	"Plasmid"	"S69_LN:i:2696_dp:f:3.49351801689361"	2696
1	0	"Chromosome"	"S74_LN:i:2197_dp:f:0.7643453713302554"	2197
1	0	"Chromosome"	"S73_LN:i:2211_dp:f:0.7181639322294696"	2211
0.5	0.5	"Plasmid"	"S78_LN:i:1631_dp:f:0.8655969396185913"	1631
1	0	"Chromosome"	"S79_LN:i:1535_dp:f:0.8098968013741273"	1535
1	0	"Chromosome"	"S75_LN:i:2153_dp:f:7.151698151727267"	2153
1	0	"Chromosome"	"S77_LN:i:1702_dp:f:7.264925967325185"	1702
1	0	"Chromosome"	"S76_LN:i:2118_dp:f:1.1416291157045733"	2118
0.5	0.5	"Plasmid"	"S80_LN:i:1535_dp:f:1.1302291471866877"	1535
1	0	"Chromosome"	"S82_LN:i:1454_dp:f:1.9847247512592678"	1454
1	0	"Chromosome"	"S81_LN:i:1487_dp:f:2.1426318466048624"	1487
0.5	0.5	"Plasmid"	"S83_LN:i:1369_dp:f:2.9714202407889294"	1369
1	0	"Chromosome"	"S86_LN:i:1195_dp:f:1.0084678451055398"	1195
1	0	"Chromosome"	"S88_LN:i:1129_dp:f:0.9653828788222403"	1129
1	0	"Chromosome"	"S87_LN:i:1193_dp:f:0.7415433829187197"	1193
1	0	"Chromosome"	"S85_LN:i:1222_dp:f:1.7965930009953996"	1222
0	1	"Plasmid"	"S84_LN:i:1306_dp:f:1.5419730062404857"	1306
1	0	"Chromosome"	"S89_LN:i:1110_dp:f:1.0216521160432246"	1110
0.5	0.5	"Plasmid"	"S90_LN:i:1105_dp:f:0.8899840103035634"	1105
0	1	"Plasmid"	"S93_LN:i:1035_dp:f:2.5761020630779727"	1035
1	0	"Chromosome"	"S92_LN:i:1058_dp:f:2.8396884635014996"	1058
1	0	"Chromosome"	"S96_LN:i:985_dp:f:0.9538448369355884"	985
1	0	"Chromosome"	"S91_LN:i:1100_dp:f:2.116246499228037"	1100
0	1	"Plasmid"	"S95_LN:i:1013_dp:f:1.6307191511710595"	1013
0.5	0.5	"Plasmid"	"S94_LN:i:1033_dp:f:0.8918047640927173"	1033
0.5	0.5	"Plasmid"	"S97_LN:i:943_dp:f:0.8594600123218041"	943
0.5	0.5	"Plasmid"	"S99_LN:i:820_dp:f:1.1393192665937155"	820
1	0	"Chromosome"	"S100_LN:i:798_dp:f:0.9066995668217466"	798
1	0	"Chromosome"	"S103_LN:i:727_dp:f:0.9108499733877925"	727
1	0	"Chromosome"	"S101_LN:i:783_dp:f:1.7719816202604828"	783
0.5	0.5	"Plasmid"	"S102_LN:i:750_dp:f:1.5643693745441198"	750
1	0	"Chromosome"	"S98_LN:i:884_dp:f:2.1027591769706766"	884
1	0	"Chromosome"	"S104_LN:i:721_dp:f:0.9800046118773839"	721
0	1	"Plasmid"	"S109_LN:i:658_dp:f:1.0135263799427283"	658
0	1	"Plasmid"	"S107_LN:i:685_dp:f:1.915918215457103"	685
0	1	"Plasmid"	"S108_LN:i:663_dp:f:2.7024429037552924"	663
0.5	0.5	"Plasmid"	"S106_LN:i:701_dp:f:7.270122970026479"	701
1	0	"Chromosome"	"S105_LN:i:708_dp:f:1.0369040254450346"	708
0	1	"Plasmid"	"S110_LN:i:644_dp:f:2.666911260835118"	644
0.5	0.5	"Plasmid"	"S114_LN:i:593_dp:f:12.8432783186581"	593
0	1	"Plasmid"	"S111_LN:i:641_dp:f:1.6139379506284117"	641
0	1	"Plasmid"	"S112_LN:i:602_dp:f:4.00142847821082"	602
0	1	"Plasmid"	"S116_LN:i:566_dp:f:2.396321542450563"	566
0	1	"Plasmid"	"S117_LN:i:554_dp:f:3.3668793322350945"	554
0	1	"Plasmid"	"S115_LN:i:579_dp:f:1.6864955059150823"	579
0.5	0.5	"Plasmid"	"S113_LN:i:597_dp:f:2.160803643218656"	597
0	1	"Plasmid"	"S118_LN:i:536_dp:f:1.3539360926561925"	536
