"Prob_Chromosome"	"Prob_Plasmid"	"Prediction"	"Contig_name"	"Contig_length"
1	0	"Chromosome"	"S7_LN:i:187148_dp:f:1.0131393755266895"	187148
1	0	"Chromosome"	"S8_LN:i:186229_dp:f:1.0233910479074044"	186229
1	0	"Chromosome"	"S6_LN:i:214785_dp:f:1.0140102337908166"	214785
1	0	"Chromosome"	"S5_LN:i:241655_dp:f:0.967389901795403"	241655
1	0	"Chromosome"	"S2_LN:i:271549_dp:f:0.996518788547154"	271549
1	0	"Chromosome"	"S3_LN:i:269497_dp:f:1.0173299538130256"	269497
1	0	"Chromosome"	"S4_LN:i:264131_dp:f:0.9961891340797199"	264131
1	0	"Chromosome"	"S1_LN:i:346855_dp:f:1.0"	346855
1	0	"Chromosome"	"S13_LN:i:106336_dp:f:1.0230868483576847"	106336
1	0	"Chromosome"	"S14_LN:i:97748_dp:f:1.0025647317022528"	97748
1	0	"Chromosome"	"S15_LN:i:96446_dp:f:0.9920288620175189"	96446
1	0	"Chromosome"	"S11_LN:i:141283_dp:f:1.0448439942101087"	141283
1	0	"Chromosome"	"S12_LN:i:118203_dp:f:1.0325265196580007"	118203
1	0	"Chromosome"	"S10_LN:i:158466_dp:f:0.968542800773506"	158466
1	0	"Chromosome"	"S9_LN:i:175684_dp:f:1.0021345021674672"	175684
1	0	"Chromosome"	"S16_LN:i:95929_dp:f:0.9726897027410888"	95929
1	0	"Chromosome"	"S19_LN:i:81501_dp:f:1.0155456005870902"	81501
1	0	"Chromosome"	"S20_LN:i:78906_dp:f:0.9850243359642146"	78906
1	0	"Chromosome"	"S17_LN:i:86549_dp:f:1.052329483011641"	86549
1	0	"Chromosome"	"S21_LN:i:70168_dp:f:0.9687123822231173"	70168
1	0	"Chromosome"	"S18_LN:i:84555_dp:f:1.0221288107009432"	84555
1	0	"Chromosome"	"S22_LN:i:66686_dp:f:0.9833990421591012"	66686
1	0	"Chromosome"	"S24_LN:i:60896_dp:f:1.0324599648128405"	60896
1	0	"Chromosome"	"S23_LN:i:64884_dp:f:1.0009850197691927"	64884
1	0	"Chromosome"	"S27_LN:i:52212_dp:f:1.0329142610550277"	52212
1	0	"Chromosome"	"S26_LN:i:53075_dp:f:1.022922714925354"	53075
0	1	"Plasmid"	"S25_LN:i:60540_dp:f:1.2022518380574534"	60540
1	0	"Chromosome"	"S28_LN:i:51501_dp:f:1.0126505264522578"	51501
1	0	"Chromosome"	"S30_LN:i:48673_dp:f:0.9997694282055247"	48673
1	0	"Chromosome"	"S29_LN:i:49403_dp:f:1.0081102507593114"	49403
0	1	"Plasmid"	"S31_LN:i:48141_dp:f:1.2365993910241249"	48141
1	0	"Chromosome"	"S32_LN:i:45811_dp:f:1.0215326397330238"	45811
1	0	"Chromosome"	"S37_LN:i:36755_dp:f:1.041176786819161"	36755
1	0	"Chromosome"	"S36_LN:i:40651_dp:f:1.0315784845142735"	40651
1	0	"Chromosome"	"S38_LN:i:35780_dp:f:0.9521129650325001"	35780
1	0	"Chromosome"	"S34_LN:i:43459_dp:f:1.0090008674930953"	43459
1	0	"Chromosome"	"S35_LN:i:42609_dp:f:0.9816596765655303"	42609
1	0	"Chromosome"	"S33_LN:i:43757_dp:f:0.9711423025911143"	43757
1	0	"Chromosome"	"S39_LN:i:35377_dp:f:1.012750668490168"	35377
1	0	"Chromosome"	"S40_LN:i:35292_dp:f:1.0219035938588388"	35292
1	0	"Chromosome"	"S41_LN:i:34195_dp:f:1.0321737641226594"	34195
1	0	"Chromosome"	"S43_LN:i:31772_dp:f:0.9442929192860999"	31772
1	0	"Chromosome"	"S42_LN:i:32288_dp:f:1.015647586973703"	32288
1	0	"Chromosome"	"S48_LN:i:26097_dp:f:0.9054286779905654"	26097
1	0	"Chromosome"	"S45_LN:i:30707_dp:f:1.0407048176568647"	30707
1	0	"Chromosome"	"S44_LN:i:31382_dp:f:0.9882028497803415"	31382
1	0	"Chromosome"	"S46_LN:i:28168_dp:f:1.0292394085387215"	28168
1	0	"Chromosome"	"S47_LN:i:27138_dp:f:1.0107792783221414"	27138
0.5	0.5	"Plasmid"	"S55_LN:i:10385_dp:f:1.6993297083630856"	10385
1	0	"Chromosome"	"S56_LN:i:8750_dp:f:0.9522162141784518"	8750
1	0	"Chromosome"	"S53_LN:i:17554_dp:f:0.9500029684570309"	17554
1	0	"Chromosome"	"S52_LN:i:19099_dp:f:0.986240818887416"	19099
1	0	"Chromosome"	"S51_LN:i:21163_dp:f:0.9738924438714837"	21163
1	0	"Chromosome"	"S57_LN:i:8440_dp:f:1.060004979953709"	8440
1	0	"Chromosome"	"S54_LN:i:15665_dp:f:1.012187002888974"	15665
0.5	0.5	"Plasmid"	"S63_LN:i:4401_dp:f:55.22010455592789"	4401
1	0	"Chromosome"	"S61_LN:i:6132_dp:f:0.9929689492054067"	6132
1	0	"Chromosome"	"S50_LN:i:22310_dp:f:0.9569921928383455"	22310
1	0	"Chromosome"	"S58_LN:i:7991_dp:f:1.0149458641810374"	7991
1	0	"Chromosome"	"S59_LN:i:7516_dp:f:1.015075259873302"	7516
1	0	"Chromosome"	"S62_LN:i:5321_dp:f:1.8252934435841972"	5321
0	1	"Plasmid"	"S65_LN:i:4161_dp:f:46.02938714271856"	4161
0	1	"Plasmid"	"S64_LN:i:4315_dp:f:37.923922502728075"	4315
1	0	"Chromosome"	"S60_LN:i:6957_dp:f:1.0753782578261795"	6957
0.5	0.5	"Plasmid"	"S69_LN:i:3675_dp:f:19.76762577633866"	3675
1	0	"Chromosome"	"S66_LN:i:4142_dp:f:1.0086519002357712"	4142
0.5	0.5	"Plasmid"	"S71_LN:i:2865_dp:f:41.19084410573572"	2865
1	0	"Chromosome"	"S67_LN:i:4105_dp:f:0.9287629106956738"	4105
1	0	"Chromosome"	"S68_LN:i:3693_dp:f:1.0558837791510551"	3693
0	1	"Plasmid"	"S70_LN:i:3103_dp:f:1.2796390887407056"	3103
1	0	"Chromosome"	"S74_LN:i:2693_dp:f:0.9881868795887014"	2693
1	0	"Chromosome"	"S49_LN:i:25689_dp:f:1.0017339103371672"	25689
1	0	"Chromosome"	"S72_LN:i:2785_dp:f:6.978632801658982"	2785
1	0	"Chromosome"	"S77_LN:i:2138_dp:f:1.1823359051165065"	2138
1	0	"Chromosome"	"S75_LN:i:2554_dp:f:0.9776085217662092"	2554
1	0	"Chromosome"	"S79_LN:i:1831_dp:f:1.0159568887317911"	1831
1	0	"Chromosome"	"S82_LN:i:1589_dp:f:1.0737696509882453"	1589
1	0	"Chromosome"	"S76_LN:i:2438_dp:f:1.9065393051740058"	2438
0.5	0.5	"Plasmid"	"S73_LN:i:2699_dp:f:3.1571582530260347"	2699
1	0	"Chromosome"	"S80_LN:i:1690_dp:f:2.0011392181732996"	1690
1	0	"Chromosome"	"S78_LN:i:2030_dp:f:0.9768314048130106"	2030
1	0	"Chromosome"	"S81_LN:i:1671_dp:f:1.8690262163711764"	1671
1	0	"Chromosome"	"S83_LN:i:1469_dp:f:6.887778232859092"	1469
0	1	"Plasmid"	"S85_LN:i:1230_dp:f:1.928989309221986"	1230
0.5	0.5	"Plasmid"	"S89_LN:i:842_dp:f:8.874636608548059"	842
1	0	"Chromosome"	"S88_LN:i:1031_dp:f:1.8194482048840346"	1031
0	1	"Plasmid"	"S86_LN:i:1105_dp:f:2.0119450212367305"	1105
0.5	0.5	"Plasmid"	"S90_LN:i:820_dp:f:2.549206780393537"	820
1	0	"Chromosome"	"S87_LN:i:1100_dp:f:1.8403566768989685"	1100
1	0	"Chromosome"	"S91_LN:i:775_dp:f:1.1260578411366757"	775
1	0	"Chromosome"	"S84_LN:i:1455_dp:f:0.9583148218259822"	1455
1	0	"Chromosome"	"S94_LN:i:588_dp:f:2.8137956416078374"	588
1	0	"Chromosome"	"S92_LN:i:775_dp:f:1.0167790193414261"	775
1	0	"Chromosome"	"S93_LN:i:595_dp:f:1.728278837608935"	595
