"Prob_Chromosome"	"Prob_Plasmid"	"Prediction"	"Contig_name"	"Contig_length"
1	0	"Chromosome"	"S7_LN:i:149091_dp:f:1.0905614351625124"	149091
1	0	"Chromosome"	"S5_LN:i:156044_dp:f:0.9113431450990871"	156044
1	0	"Chromosome"	"S6_LN:i:152927_dp:f:1.0646478164119217"	152927
1	0	"Chromosome"	"S8_LN:i:143082_dp:f:1.025849646978294"	143082
1	0	"Chromosome"	"S4_LN:i:173918_dp:f:1.0474451804692801"	173918
1	0	"Chromosome"	"S3_LN:i:185358_dp:f:1.1182650925720676"	185358
1	0	"Chromosome"	"S2_LN:i:230277_dp:f:0.9188538234984241"	230277
1	0	"Chromosome"	"S12_LN:i:124126_dp:f:1.0720001374676735"	124126
1	0	"Chromosome"	"S10_LN:i:129130_dp:f:0.9492056258645428"	129130
1	0	"Chromosome"	"S11_LN:i:126795_dp:f:0.9903824866183811"	126795
1	0	"Chromosome"	"S13_LN:i:116759_dp:f:1.1036709023893598"	116759
1	0	"Chromosome"	"S9_LN:i:142866_dp:f:1.0704328685207618"	142866
1	0	"Chromosome"	"S15_LN:i:113430_dp:f:1.0809883238394722"	113430
1	0	"Chromosome"	"S14_LN:i:113459_dp:f:1.0897359008006213"	113459
1	0	"Chromosome"	"S18_LN:i:99127_dp:f:1.0003525358489918"	99127
1	0	"Chromosome"	"S20_LN:i:97731_dp:f:1.0922408777310961"	97731
1	0	"Chromosome"	"S17_LN:i:105700_dp:f:1.0921141325360209"	105700
1	0	"Chromosome"	"S19_LN:i:98388_dp:f:1.0912899450988478"	98388
1	0	"Chromosome"	"S21_LN:i:96566_dp:f:0.9364699989121963"	96566
1	0	"Chromosome"	"S16_LN:i:111911_dp:f:1.0879537421278276"	111911
1	0	"Chromosome"	"S22_LN:i:91809_dp:f:1.1076368447732212"	91809
1	0	"Chromosome"	"S29_LN:i:67859_dp:f:1.067354211236264"	67859
1	0	"Chromosome"	"S23_LN:i:88888_dp:f:1.05368985574486"	88888
1	0	"Chromosome"	"S28_LN:i:68316_dp:f:1.0478294026170407"	68316
1	0	"Chromosome"	"S25_LN:i:84678_dp:f:1.1245406947272554"	84678
1	0	"Chromosome"	"S27_LN:i:75597_dp:f:0.9108172968700329"	75597
1	0	"Chromosome"	"S26_LN:i:82871_dp:f:0.9239363868340336"	82871
1	0	"Chromosome"	"S24_LN:i:85180_dp:f:0.9564652738352126"	85180
1	0	"Chromosome"	"S33_LN:i:59618_dp:f:1.097603422945073"	59618
1	0	"Chromosome"	"S36_LN:i:47476_dp:f:1.0565437142261507"	47476
1	0	"Chromosome"	"S35_LN:i:53861_dp:f:1.0607910920947496"	53861
1	0	"Chromosome"	"S31_LN:i:62190_dp:f:0.9594167246608415"	62190
1	0	"Chromosome"	"S34_LN:i:58426_dp:f:0.9908567500923611"	58426
1	0	"Chromosome"	"S32_LN:i:60584_dp:f:1.111339330360595"	60584
0	1	"Plasmid"	"S37_LN:i:40356_dp:f:1.2129789416707477"	40356
1	0	"Chromosome"	"S42_LN:i:30689_dp:f:1.0523527764174205"	30689
1	0	"Chromosome"	"S40_LN:i:37437_dp:f:1.038196767791324"	37437
0	1	"Plasmid"	"S41_LN:i:32598_dp:f:5.1019935218358805"	32598
1	0	"Chromosome"	"S39_LN:i:39714_dp:f:1.1157279501190323"	39714
1	0	"Chromosome"	"S38_LN:i:40349_dp:f:1.117132905465199"	40349
0	1	"Plasmid"	"S30_LN:i:62892_dp:f:3.7335866683009296"	62892
1	0	"Chromosome"	"S43_LN:i:30391_dp:f:1.1159841568506155"	30391
1	0	"Chromosome"	"S48_LN:i:26078_dp:f:1.1215953810861665"	26078
1	0	"Chromosome"	"S45_LN:i:27479_dp:f:0.9357412171044153"	27479
1	0	"Chromosome"	"S49_LN:i:24736_dp:f:0.9966614600785284"	24736
0	1	"Plasmid"	"S44_LN:i:28975_dp:f:1.2207774602239014"	28975
1	0	"Chromosome"	"S46_LN:i:27452_dp:f:0.9597800517222121"	27452
1	0	"Chromosome"	"S47_LN:i:27001_dp:f:1.0398115318194705"	27001
1	0	"Chromosome"	"S56_LN:i:11712_dp:f:1.0449599711317885"	11712
1	0	"Chromosome"	"S52_LN:i:16854_dp:f:1.1063953054789457"	16854
0	1	"Plasmid"	"S50_LN:i:21391_dp:f:1.2629355190693436"	21391
1	0	"Chromosome"	"S55_LN:i:14135_dp:f:1.112908592588774"	14135
1	0	"Chromosome"	"S51_LN:i:20065_dp:f:1.0383576049694563"	20065
1	0	"Chromosome"	"S53_LN:i:16242_dp:f:0.9966847608492064"	16242
1	0	"Chromosome"	"S54_LN:i:15659_dp:f:1.1332697545342854"	15659
0.5	0.5	"Plasmid"	"S60_LN:i:8133_dp:f:1.0592289094517617"	8133
0.5	0.5	"Plasmid"	"S61_LN:i:7912_dp:f:1.1765907268946023"	7912
1	0	"Chromosome"	"S59_LN:i:8379_dp:f:1.1555290013832684"	8379
1	0	"Chromosome"	"S58_LN:i:9131_dp:f:1.1966794683437723"	9131
1	0	"Chromosome"	"S63_LN:i:7496_dp:f:0.9832178089371171"	7496
1	0	"Chromosome"	"S62_LN:i:7827_dp:f:2.098121332405426"	7827
0	1	"Plasmid"	"S66_LN:i:6361_dp:f:1.0906219043229157"	6361
1	0	"Chromosome"	"S57_LN:i:11349_dp:f:1.0725115172135302"	11349
0.5	0.5	"Plasmid"	"S70_LN:i:4673_dp:f:1.0654676736173758"	4673
1	0	"Chromosome"	"S67_LN:i:6035_dp:f:1.2035790396164652"	6035
1	0	"Chromosome"	"S64_LN:i:7369_dp:f:1.1384213556030964"	7369
0	1	"Plasmid"	"S65_LN:i:6875_dp:f:1.269365432035123"	6875
0	1	"Plasmid"	"S69_LN:i:4819_dp:f:1.2288608569391104"	4819
1	0	"Chromosome"	"S68_LN:i:5263_dp:f:0.9911766373688687"	5263
0.5	0.5	"Plasmid"	"S75_LN:i:3318_dp:f:2.2681735873048603"	3318
1	0	"Chromosome"	"S76_LN:i:2834_dp:f:1.2140186784201528"	2834
0	1	"Plasmid"	"S73_LN:i:4121_dp:f:1.2479031540239365"	4121
0.5	0.5	"Plasmid"	"S77_LN:i:2808_dp:f:2.3189420487838404"	2808
1	0	"Chromosome"	"S72_LN:i:4327_dp:f:0.9045278434813631"	4327
1	0	"Chromosome"	"S71_LN:i:4447_dp:f:1.0712914228763393"	4447
0	1	"Plasmid"	"S78_LN:i:2601_dp:f:1.1214322069575826"	2601
0.5	0.5	"Plasmid"	"S80_LN:i:2272_dp:f:1.109116821747386"	2272
1	0	"Chromosome"	"S74_LN:i:3634_dp:f:1.045072969559502"	3634
1	0	"Chromosome"	"S79_LN:i:2584_dp:f:1.1192888109905406"	2584
1	0	"Chromosome"	"S81_LN:i:2248_dp:f:3.4543496318443863"	2248
1	0	"Chromosome"	"S82_LN:i:2234_dp:f:1.049073897466299"	2234
1	0	"Chromosome"	"S83_LN:i:2222_dp:f:7.768722873761717"	2222
1	0	"Chromosome"	"S85_LN:i:2081_dp:f:1.0190489604524866"	2081
0	1	"Plasmid"	"S84_LN:i:2132_dp:f:3.6653830622642642"	2132
0	1	"Plasmid"	"S89_LN:i:1781_dp:f:2.2899547215850022"	1781
1	0	"Chromosome"	"S87_LN:i:1799_dp:f:2.1690072256445943"	1799
1	0	"Chromosome"	"S88_LN:i:1797_dp:f:3.3633298794580333"	1797
0	1	"Plasmid"	"S86_LN:i:1937_dp:f:1.0146423692553548"	1937
1	0	"Chromosome"	"S95_LN:i:1519_dp:f:0.9768586918232508"	1519
0.5	0.5	"Plasmid"	"S92_LN:i:1671_dp:f:1.8180321846190857"	1671
1	0	"Chromosome"	"S91_LN:i:1682_dp:f:0.9476349202257907"	1682
1	0	"Chromosome"	"S90_LN:i:1708_dp:f:7.522045725184936"	1708
1	0	"Chromosome"	"S93_LN:i:1647_dp:f:1.082246909125276"	1647
1	0	"Chromosome"	"S94_LN:i:1634_dp:f:3.617634903042331"	1634
1	0	"Chromosome"	"S96_LN:i:1493_dp:f:1.8149841138919676"	1493
1	0	"Chromosome"	"S99_LN:i:1261_dp:f:1.8597929393166137"	1261
1	0	"Chromosome"	"S97_LN:i:1428_dp:f:3.4159717503930715"	1428
1	0	"Chromosome"	"S100_LN:i:1259_dp:f:2.0606259246848984"	1259
1	0	"Chromosome"	"S101_LN:i:1232_dp:f:18.817856294730692"	1232
0	1	"Plasmid"	"S103_LN:i:1206_dp:f:2.1140247613647105"	1206
1	0	"Chromosome"	"S98_LN:i:1310_dp:f:3.486349013239855"	1310
0.5	0.5	"Plasmid"	"S104_LN:i:1153_dp:f:1.067424594685156"	1153
1	0	"Chromosome"	"S102_LN:i:1215_dp:f:3.058966896065847"	1215
1	0	"Chromosome"	"S106_LN:i:1033_dp:f:0.9448781434990677"	1033
1	0	"Chromosome"	"S105_LN:i:1151_dp:f:2.073626448780404"	1151
0	1	"Plasmid"	"S107_LN:i:1031_dp:f:1.1626877679545669"	1031
1	0	"Chromosome"	"S1_LN:i:708001_dp:f:1.0"	708001
