"Prob_Chromosome"	"Prob_Plasmid"	"Prediction"	"Contig_name"	"Contig_length"
1	0	"Chromosome"	"S8_LN:i:188261_dp:f:1.1352412541512513"	188261
1	0	"Chromosome"	"S7_LN:i:213881_dp:f:1.074801191054969"	213881
1	0	"Chromosome"	"S6_LN:i:287632_dp:f:1.1862106071722953"	287632
1	0	"Chromosome"	"S5_LN:i:304094_dp:f:1.06861942125663"	304094
1	0	"Chromosome"	"S4_LN:i:361971_dp:f:1.1137829376404913"	361971
1	0	"Chromosome"	"S10_LN:i:172481_dp:f:0.8895370322659681"	172481
1	0	"Chromosome"	"S9_LN:i:177930_dp:f:1.0925925959409395"	177930
1	0	"Chromosome"	"S3_LN:i:498928_dp:f:0.9688641433871444"	498928
1	0	"Chromosome"	"S11_LN:i:169153_dp:f:0.9921894800879867"	169153
1	0	"Chromosome"	"S12_LN:i:153625_dp:f:0.8993807272632575"	153625
1	0	"Chromosome"	"S13_LN:i:132679_dp:f:1.187766121459372"	132679
1	0	"Chromosome"	"S1_LN:i:577240_dp:f:1.0"	577240
1	0	"Chromosome"	"S15_LN:i:117053_dp:f:1.1823930114836705"	117053
1	0	"Chromosome"	"S14_LN:i:125731_dp:f:1.0586738799072657"	125731
1	0	"Chromosome"	"S21_LN:i:57783_dp:f:1.0555785114972043"	57783
1	0	"Chromosome"	"S22_LN:i:41345_dp:f:1.167908527376238"	41345
1	0	"Chromosome"	"S2_LN:i:569388_dp:f:0.9173728700224051"	569388
1	0	"Chromosome"	"S16_LN:i:112970_dp:f:1.1821400334313383"	112970
0	1	"Plasmid"	"S20_LN:i:72650_dp:f:0.8815639909572421"	72650
1	0	"Chromosome"	"S17_LN:i:110250_dp:f:0.9301560059715314"	110250
1	0	"Chromosome"	"S25_LN:i:29804_dp:f:1.1237357012508076"	29804
1	0	"Chromosome"	"S26_LN:i:29153_dp:f:1.3524722476546294"	29153
1	0	"Chromosome"	"S19_LN:i:85241_dp:f:1.1102683346624225"	85241
1	0	"Chromosome"	"S24_LN:i:31905_dp:f:1.1874981899718478"	31905
1	0	"Chromosome"	"S23_LN:i:37919_dp:f:0.9455741333585208"	37919
1	0	"Chromosome"	"S27_LN:i:27922_dp:f:0.9569271031391424"	27922
1	0	"Chromosome"	"S18_LN:i:107365_dp:f:1.0431328052436208"	107365
1	0	"Chromosome"	"S31_LN:i:22847_dp:f:1.1851588554289374"	22847
0	1	"Plasmid"	"S30_LN:i:24773_dp:f:0.7553562424079017"	24773
1	0	"Chromosome"	"S28_LN:i:26610_dp:f:1.1242387234536302"	26610
1	0	"Chromosome"	"S32_LN:i:22546_dp:f:0.9627703945454411"	22546
1	0	"Chromosome"	"S34_LN:i:19122_dp:f:1.1239073013717131"	19122
1	0	"Chromosome"	"S33_LN:i:20344_dp:f:1.032827995556369"	20344
1	0	"Chromosome"	"S29_LN:i:26187_dp:f:1.0881743502401162"	26187
1	0	"Chromosome"	"S35_LN:i:17741_dp:f:0.8341316510579405"	17741
1	0	"Chromosome"	"S41_LN:i:8060_dp:f:1.279695676772602"	8060
0	1	"Plasmid"	"S39_LN:i:10694_dp:f:0.9094587481097628"	10694
1	0	"Chromosome"	"S42_LN:i:7853_dp:f:1.013072614827713"	7853
1	0	"Chromosome"	"S38_LN:i:14411_dp:f:0.9705799864985694"	14411
1	0	"Chromosome"	"S43_LN:i:7339_dp:f:1.0539791564256142"	7339
1	0	"Chromosome"	"S40_LN:i:10604_dp:f:1.1786548419696363"	10604
1	0	"Chromosome"	"S45_LN:i:5109_dp:f:0.989642001511622"	5109
1	0	"Chromosome"	"S46_LN:i:4819_dp:f:1.1810300144746806"	4819
1	0	"Chromosome"	"S36_LN:i:16176_dp:f:1.251533859974472"	16176
1	0	"Chromosome"	"S37_LN:i:14691_dp:f:1.1137239337370732"	14691
1	0	"Chromosome"	"S44_LN:i:5635_dp:f:1.813988730409817"	5635
1	0	"Chromosome"	"S47_LN:i:4242_dp:f:1.2590049492084807"	4242
1	0	"Chromosome"	"S48_LN:i:4172_dp:f:1.186866549297974"	4172
1	0	"Chromosome"	"S49_LN:i:3543_dp:f:1.9810976275712573"	3543
1	0	"Chromosome"	"S53_LN:i:2819_dp:f:2.0433459390161057"	2819
1	0	"Chromosome"	"S55_LN:i:2637_dp:f:1.1623449030648296"	2637
1	0	"Chromosome"	"S50_LN:i:3245_dp:f:7.498420330463347"	3245
1	0	"Chromosome"	"S56_LN:i:2363_dp:f:0.8867080428849379"	2363
1	0	"Chromosome"	"S51_LN:i:3129_dp:f:1.6204525704481885"	3129
1	0	"Chromosome"	"S54_LN:i:2702_dp:f:2.07490838181685"	2702
1	0	"Chromosome"	"S52_LN:i:3060_dp:f:0.9622480653756615"	3060
1	0	"Chromosome"	"S57_LN:i:2030_dp:f:1.8837885266266734"	2030
1	0	"Chromosome"	"S58_LN:i:1801_dp:f:1.8401479670804854"	1801
1	0	"Chromosome"	"S59_LN:i:1619_dp:f:2.701737172744544"	1619
1	0	"Chromosome"	"S61_LN:i:1590_dp:f:1.0886860795064683"	1590
1	0	"Chromosome"	"S63_LN:i:1434_dp:f:2.4854566485717484"	1434
1	0	"Chromosome"	"S64_LN:i:1428_dp:f:2.1852043519417794"	1428
1	0	"Chromosome"	"S60_LN:i:1601_dp:f:7.12184219885911"	1601
1	0	"Chromosome"	"S62_LN:i:1446_dp:f:1.9983166028369508"	1446
1	0	"Chromosome"	"S65_LN:i:1404_dp:f:0.9045697319379066"	1404
1	0	"Chromosome"	"S68_LN:i:1121_dp:f:0.849199527471448"	1121
1	0	"Chromosome"	"S69_LN:i:1115_dp:f:1.0111148505214869"	1115
1	0	"Chromosome"	"S66_LN:i:1234_dp:f:2.139338569811816"	1234
0	1	"Plasmid"	"S67_LN:i:1185_dp:f:0.8627426076557424"	1185
0	1	"Plasmid"	"S71_LN:i:1098_dp:f:0.7300399559574012"	1098
1	0	"Chromosome"	"S72_LN:i:1090_dp:f:2.698033926126623"	1090
0.5	0.5	"Plasmid"	"S73_LN:i:1056_dp:f:1.9505011956123213"	1056
1	0	"Chromosome"	"S70_LN:i:1114_dp:f:1.8340602154013947"	1114
