"Prob_Chromosome"	"Prob_Plasmid"	"Prediction"	"Contig_name"	"Contig_length"
1	0	"Chromosome"	"S4_LN:i:152320_dp:f:1.0165748137498662"	152320
1	0	"Chromosome"	"S7_LN:i:100787_dp:f:0.9699017184068746"	100787
1	0	"Chromosome"	"S5_LN:i:119371_dp:f:0.919138112191736"	119371
1	0	"Chromosome"	"S6_LN:i:111888_dp:f:1.0120437788307763"	111888
1	0	"Chromosome"	"S9_LN:i:94438_dp:f:0.9808513849052589"	94438
1	0	"Chromosome"	"S8_LN:i:100346_dp:f:1.018162150336603"	100346
1	0	"Chromosome"	"S2_LN:i:195456_dp:f:0.9454883573309775"	195456
1	0	"Chromosome"	"S10_LN:i:94080_dp:f:0.9359292094376631"	94080
1	0	"Chromosome"	"S11_LN:i:91940_dp:f:1.0298705566596782"	91940
1	0	"Chromosome"	"S1_LN:i:255737_dp:f:1.0"	255737
1	0	"Chromosome"	"S13_LN:i:87911_dp:f:1.0567399805816287"	87911
1	0	"Chromosome"	"S14_LN:i:87333_dp:f:1.0576651784694602"	87333
1	0	"Chromosome"	"S16_LN:i:86334_dp:f:0.9475221012876085"	86334
1	0	"Chromosome"	"S12_LN:i:91901_dp:f:0.9987840699439644"	91901
1	0	"Chromosome"	"S3_LN:i:194326_dp:f:1.0358332135736228"	194326
1	0	"Chromosome"	"S17_LN:i:85258_dp:f:1.0454291502293962"	85258
0	1	"Plasmid"	"S15_LN:i:86851_dp:f:1.1344673821897617"	86851
1	0	"Chromosome"	"S19_LN:i:80430_dp:f:1.0101858083355644"	80430
1	0	"Chromosome"	"S18_LN:i:83210_dp:f:0.981729210142296"	83210
1	0	"Chromosome"	"S26_LN:i:61381_dp:f:0.9859146214293701"	61381
1	0	"Chromosome"	"S21_LN:i:77149_dp:f:1.0259207732557332"	77149
1	0	"Chromosome"	"S23_LN:i:77002_dp:f:1.040963246493659"	77002
1	0	"Chromosome"	"S27_LN:i:60249_dp:f:0.9806132916372363"	60249
1	0	"Chromosome"	"S20_LN:i:79185_dp:f:1.0407574002030244"	79185
1	0	"Chromosome"	"S25_LN:i:62500_dp:f:0.8805525990168812"	62500
1	0	"Chromosome"	"S24_LN:i:63075_dp:f:1.0325904525762164"	63075
1	0	"Chromosome"	"S28_LN:i:58703_dp:f:1.0150076042750755"	58703
1	0	"Chromosome"	"S29_LN:i:58127_dp:f:1.0417856446161755"	58127
1	0	"Chromosome"	"S31_LN:i:55829_dp:f:0.9850599225384888"	55829
1	0	"Chromosome"	"S30_LN:i:57334_dp:f:1.0202105168182056"	57334
1	0	"Chromosome"	"S34_LN:i:54856_dp:f:1.0046094080135044"	54856
1	0	"Chromosome"	"S33_LN:i:55010_dp:f:1.019083694418509"	55010
1	0	"Chromosome"	"S22_LN:i:77065_dp:f:1.0231710959541265"	77065
1	0	"Chromosome"	"S35_LN:i:53631_dp:f:0.9873012820531846"	53631
1	0	"Chromosome"	"S36_LN:i:48721_dp:f:1.0543104433912676"	48721
1	0	"Chromosome"	"S37_LN:i:48566_dp:f:0.9380403696863485"	48566
1	0	"Chromosome"	"S42_LN:i:42387_dp:f:1.0708777617796466"	42387
1	0	"Chromosome"	"S38_LN:i:47194_dp:f:1.0315089143930947"	47194
1	0	"Chromosome"	"S32_LN:i:55245_dp:f:0.9566575376951388"	55245
1	0	"Chromosome"	"S41_LN:i:42448_dp:f:0.9632455959181737"	42448
0	1	"Plasmid"	"S40_LN:i:45027_dp:f:2.8385552663714595"	45027
1	0	"Chromosome"	"S43_LN:i:41649_dp:f:1.0480397118122171"	41649
1	0	"Chromosome"	"S45_LN:i:40791_dp:f:0.9147656165212352"	40791
1	0	"Chromosome"	"S44_LN:i:41248_dp:f:0.9960968840786408"	41248
1	0	"Chromosome"	"S46_LN:i:39839_dp:f:1.0090874740008873"	39839
1	0	"Chromosome"	"S49_LN:i:39791_dp:f:0.9373877757920581"	39791
1	0	"Chromosome"	"S48_LN:i:39829_dp:f:1.0373207802828648"	39829
1	0	"Chromosome"	"S50_LN:i:39459_dp:f:1.0177165945116735"	39459
1	0	"Chromosome"	"S51_LN:i:38643_dp:f:0.9058204567003701"	38643
1	0	"Chromosome"	"S39_LN:i:47012_dp:f:0.9289171833404152"	47012
1	0	"Chromosome"	"S52_LN:i:38513_dp:f:1.0503852237207187"	38513
1	0	"Chromosome"	"S53_LN:i:35697_dp:f:1.010065153874169"	35697
1	0	"Chromosome"	"S47_LN:i:39829_dp:f:0.9488211115852075"	39829
1	0	"Chromosome"	"S54_LN:i:35138_dp:f:0.9407328801553949"	35138
1	0	"Chromosome"	"S57_LN:i:34781_dp:f:1.0284828139330708"	34781
1	0	"Chromosome"	"S56_LN:i:34901_dp:f:1.0417726052775225"	34901
1	0	"Chromosome"	"S55_LN:i:35073_dp:f:0.9977121811436902"	35073
1	0	"Chromosome"	"S59_LN:i:31640_dp:f:0.9611067656430942"	31640
1	0	"Chromosome"	"S63_LN:i:29808_dp:f:1.0655656717457678"	29808
1	0	"Chromosome"	"S60_LN:i:31387_dp:f:1.0227093626924448"	31387
1	0	"Chromosome"	"S62_LN:i:29963_dp:f:1.026031472371435"	29963
1	0	"Chromosome"	"S65_LN:i:29073_dp:f:1.053164821164546"	29073
1	0	"Chromosome"	"S58_LN:i:32224_dp:f:0.9564552385780276"	32224
1	0	"Chromosome"	"S64_LN:i:29792_dp:f:1.0786090074981194"	29792
1	0	"Chromosome"	"S67_LN:i:27251_dp:f:0.960424066991126"	27251
1	0	"Chromosome"	"S68_LN:i:27217_dp:f:1.0089691460604964"	27217
1	0	"Chromosome"	"S66_LN:i:28526_dp:f:0.9728388159121919"	28526
1	0	"Chromosome"	"S69_LN:i:25590_dp:f:0.8912533730911493"	25590
1	0	"Chromosome"	"S73_LN:i:22704_dp:f:0.6706729190011135"	22704
1	0	"Chromosome"	"S61_LN:i:30853_dp:f:0.9989075378726211"	30853
1	0	"Chromosome"	"S72_LN:i:23401_dp:f:0.8333125734021299"	23401
1	0	"Chromosome"	"S77_LN:i:20349_dp:f:0.9195442253698682"	20349
1	0	"Chromosome"	"S75_LN:i:20785_dp:f:1.0870085057962766"	20785
1	0	"Chromosome"	"S74_LN:i:22409_dp:f:0.9469936022836122"	22409
1	0	"Chromosome"	"S70_LN:i:25399_dp:f:1.029017318607567"	25399
1	0	"Chromosome"	"S79_LN:i:19502_dp:f:1.0078383089207699"	19502
1	0	"Chromosome"	"S76_LN:i:20420_dp:f:0.9944341249272471"	20420
1	0	"Chromosome"	"S80_LN:i:18250_dp:f:2.075879323845257"	18250
0	1	"Plasmid"	"S78_LN:i:20170_dp:f:1.0770632279653534"	20170
0	1	"Plasmid"	"S81_LN:i:16692_dp:f:1.5176649404784779"	16692
1	0	"Chromosome"	"S86_LN:i:14091_dp:f:1.0462021930597887"	14091
1	0	"Chromosome"	"S82_LN:i:16253_dp:f:0.9278205803702065"	16253
0.5	0.5	"Plasmid"	"S85_LN:i:14790_dp:f:1.8037719159967462"	14790
1	0	"Chromosome"	"S83_LN:i:15931_dp:f:0.9857941833885331"	15931
1	0	"Chromosome"	"S84_LN:i:15386_dp:f:1.040348990843334"	15386
1	0	"Chromosome"	"S87_LN:i:13641_dp:f:1.9844387161773678"	13641
1	0	"Chromosome"	"S71_LN:i:25153_dp:f:0.965111527455107"	25153
1	0	"Chromosome"	"S89_LN:i:13206_dp:f:0.9999019362340512"	13206
1	0	"Chromosome"	"S88_LN:i:13369_dp:f:0.9712878402402682"	13369
1	0	"Chromosome"	"S91_LN:i:11450_dp:f:0.9432302145839426"	11450
1	0	"Chromosome"	"S93_LN:i:10336_dp:f:1.0187810049237966"	10336
1	0	"Chromosome"	"S94_LN:i:10224_dp:f:1.9760608599350664"	10224
1	0	"Chromosome"	"S96_LN:i:9431_dp:f:0.871941338013407"	9431
1	0	"Chromosome"	"S97_LN:i:9272_dp:f:0.9819575879367133"	9272
0	1	"Plasmid"	"S95_LN:i:9796_dp:f:1.6455598308692099"	9796
1	0	"Chromosome"	"S90_LN:i:12037_dp:f:1.0487417259990366"	12037
1	0	"Chromosome"	"S98_LN:i:9212_dp:f:0.8830181161251026"	9212
1	0	"Chromosome"	"S101_LN:i:8781_dp:f:0.9959099508211873"	8781
1	0	"Chromosome"	"S99_LN:i:9018_dp:f:0.9301125822956049"	9018
0.5	0.5	"Plasmid"	"S100_LN:i:8940_dp:f:1.2101225032183172"	8940
1	0	"Chromosome"	"S92_LN:i:10593_dp:f:1.020578377662613"	10593
1	0	"Chromosome"	"S102_LN:i:8767_dp:f:0.9317424741317178"	8767
0	1	"Plasmid"	"S105_LN:i:8005_dp:f:2.0981695051686984"	8005
1	0	"Chromosome"	"S104_LN:i:8083_dp:f:1.027516442033974"	8083
1	0	"Chromosome"	"S106_LN:i:7587_dp:f:1.629947143564626"	7587
1	0	"Chromosome"	"S103_LN:i:8527_dp:f:0.9919611954148951"	8527
1	0	"Chromosome"	"S110_LN:i:6733_dp:f:1.0137810407594534"	6733
0	1	"Plasmid"	"S107_LN:i:7335_dp:f:2.3999162495629918"	7335
0	1	"Plasmid"	"S112_LN:i:6406_dp:f:3.1141867654545825"	6406
0.5	0.5	"Plasmid"	"S113_LN:i:5641_dp:f:25.62416075028202"	5641
0	1	"Plasmid"	"S109_LN:i:7069_dp:f:2.73878053223304"	7069
1	0	"Chromosome"	"S111_LN:i:6447_dp:f:2.405439832631143"	6447
0	1	"Plasmid"	"S114_LN:i:5573_dp:f:2.0593187144941925"	5573
1	0	"Chromosome"	"S108_LN:i:7186_dp:f:0.8827452439490151"	7186
1	0	"Chromosome"	"S115_LN:i:5552_dp:f:0.8804057576679002"	5552
1	0	"Chromosome"	"S118_LN:i:5081_dp:f:1.0129234201910315"	5081
0	1	"Plasmid"	"S121_LN:i:4913_dp:f:1.3432958954451053"	4913
1	0	"Chromosome"	"S120_LN:i:4948_dp:f:0.9846034737228393"	4948
0	1	"Plasmid"	"S119_LN:i:4988_dp:f:2.2087478040938087"	4988
0	1	"Plasmid"	"S116_LN:i:5177_dp:f:1.9339470423940561"	5177
0	1	"Plasmid"	"S117_LN:i:5154_dp:f:1.9024357503525606"	5154
0	1	"Plasmid"	"S122_LN:i:4674_dp:f:4.134988380923347"	4674
1	0	"Chromosome"	"S123_LN:i:4629_dp:f:0.8795611764381315"	4629
0	1	"Plasmid"	"S129_LN:i:4004_dp:f:8.594230108122987"	4004
1	0	"Chromosome"	"S125_LN:i:4545_dp:f:1.076809254133159"	4545
1	0	"Chromosome"	"S126_LN:i:4360_dp:f:0.6902325221372417"	4360
1	0	"Chromosome"	"S128_LN:i:4149_dp:f:0.9824607657353585"	4149
1	0	"Chromosome"	"S124_LN:i:4546_dp:f:0.8908872758445157"	4546
0	1	"Plasmid"	"S130_LN:i:3817_dp:f:8.735675389212293"	3817
1	0	"Chromosome"	"S127_LN:i:4325_dp:f:0.8578053754597332"	4325
1	0	"Chromosome"	"S136_LN:i:3290_dp:f:2.0098442714412386"	3290
1	0	"Chromosome"	"S134_LN:i:3358_dp:f:1.1092410110408635"	3358
1	0	"Chromosome"	"S132_LN:i:3491_dp:f:0.9388692286205208"	3491
1	0	"Chromosome"	"S133_LN:i:3461_dp:f:0.9291241896046748"	3461
0	1	"Plasmid"	"S137_LN:i:3268_dp:f:2.1263862011728065"	3268
1	0	"Chromosome"	"S131_LN:i:3521_dp:f:0.9299255949330115"	3521
1	0	"Chromosome"	"S135_LN:i:3311_dp:f:0.8380316403000855"	3311
0	1	"Plasmid"	"S138_LN:i:3242_dp:f:2.6109668189056925"	3242
0	1	"Plasmid"	"S139_LN:i:3204_dp:f:1.5025306218169634"	3204
1	0	"Chromosome"	"S140_LN:i:2978_dp:f:3.026890070431665"	2978
1	0	"Chromosome"	"S142_LN:i:2921_dp:f:0.8841399508607201"	2921
1	0	"Chromosome"	"S143_LN:i:2908_dp:f:1.94140370452886"	2908
0	1	"Plasmid"	"S145_LN:i:2856_dp:f:2.4467849349857795"	2856
1	0	"Chromosome"	"S141_LN:i:2950_dp:f:7.289225339787959"	2950
1	0	"Chromosome"	"S144_LN:i:2882_dp:f:0.932822117275113"	2882
1	0	"Chromosome"	"S150_LN:i:2487_dp:f:1.9370327667179623"	2487
1	0	"Chromosome"	"S147_LN:i:2606_dp:f:0.9135467788511358"	2606
0.5	0.5	"Plasmid"	"S146_LN:i:2718_dp:f:1.3881593902877223"	2718
1	0	"Chromosome"	"S148_LN:i:2562_dp:f:1.1083093205362753"	2562
0	1	"Plasmid"	"S151_LN:i:2390_dp:f:1.8031802762947908"	2390
1	0	"Chromosome"	"S152_LN:i:2355_dp:f:0.9330737024829218"	2355
1	0	"Chromosome"	"S149_LN:i:2505_dp:f:0.7871728839646439"	2505
0	1	"Plasmid"	"S154_LN:i:2167_dp:f:1.6841227280956956"	2167
0	1	"Plasmid"	"S153_LN:i:2279_dp:f:2.3920048878346596"	2279
1	0	"Chromosome"	"S157_LN:i:2049_dp:f:0.8277538820793514"	2049
1	0	"Chromosome"	"S155_LN:i:2153_dp:f:0.77644327290246"	2153
0	1	"Plasmid"	"S156_LN:i:2070_dp:f:1.6477968619727348"	2070
0	1	"Plasmid"	"S160_LN:i:1951_dp:f:17.57206311334676"	1951
1	0	"Chromosome"	"S163_LN:i:1489_dp:f:2.0347326356752977"	1489
0.5	0.5	"Plasmid"	"S158_LN:i:2024_dp:f:4.072650549131438"	2024
0	1	"Plasmid"	"S159_LN:i:1958_dp:f:19.782860257814686"	1958
1	0	"Chromosome"	"S164_LN:i:1479_dp:f:2.944528142879825"	1479
1	0	"Chromosome"	"S165_LN:i:1466_dp:f:0.9414498273607549"	1466
0	1	"Plasmid"	"S162_LN:i:1653_dp:f:2.1172676996739836"	1653
1	0	"Chromosome"	"S171_LN:i:1268_dp:f:2.849600567172465"	1268
0	1	"Plasmid"	"S166_LN:i:1401_dp:f:5.271853636689269"	1401
0	1	"Plasmid"	"S161_LN:i:1864_dp:f:3.197039326191365"	1864
1	0	"Chromosome"	"S168_LN:i:1340_dp:f:7.451522200642841"	1340
0	1	"Plasmid"	"S169_LN:i:1336_dp:f:2.8666773395556877"	1336
1	0	"Chromosome"	"S172_LN:i:1210_dp:f:1.4582409119802207"	1210
0	1	"Plasmid"	"S170_LN:i:1333_dp:f:3.0659579309264036"	1333
1	0	"Chromosome"	"S176_LN:i:1076_dp:f:2.0053679368183244"	1076
1	0	"Chromosome"	"S174_LN:i:1102_dp:f:2.3214712094901966"	1102
1	0	"Chromosome"	"S178_LN:i:1043_dp:f:2.0617247700539503"	1043
0	1	"Plasmid"	"S175_LN:i:1089_dp:f:5.032227924792349"	1089
0	1	"Plasmid"	"S173_LN:i:1202_dp:f:1.9662271967004912"	1202
0.5	0.5	"Plasmid"	"S180_LN:i:1029_dp:f:29.750936349744105"	1029
1	0	"Chromosome"	"S179_LN:i:1031_dp:f:1.8949367497678935"	1031
1	0	"Chromosome"	"S167_LN:i:1381_dp:f:0.9209610766616015"	1381
0	1	"Plasmid"	"S177_LN:i:1065_dp:f:3.6213352861926795"	1065
