"Prob_Chromosome"	"Prob_Plasmid"	"Prediction"	"Contig_name"	"Contig_length"
1	0	"Chromosome"	"S3_LN:i:204515_dp:f:1.019038351508189"	204515
1	0	"Chromosome"	"S8_LN:i:150766_dp:f:1.0784737565341147"	150766
1	0	"Chromosome"	"S6_LN:i:168402_dp:f:1.0431639624247553"	168402
1	0	"Chromosome"	"S5_LN:i:184885_dp:f:1.1296748854967624"	184885
1	0	"Chromosome"	"S7_LN:i:152353_dp:f:0.9707803932182356"	152353
1	0	"Chromosome"	"S4_LN:i:198085_dp:f:0.7032458445808766"	198085
1	0	"Chromosome"	"S1_LN:i:245747_dp:f:0.9579530514354165"	245747
1	0	"Chromosome"	"S2_LN:i:230506_dp:f:1.0"	230506
1	0	"Chromosome"	"S9_LN:i:144034_dp:f:1.099944684246614"	144034
1	0	"Chromosome"	"S12_LN:i:126807_dp:f:0.9050943415535553"	126807
1	0	"Chromosome"	"S13_LN:i:117815_dp:f:1.1392190730120242"	117815
1	0	"Chromosome"	"S14_LN:i:113563_dp:f:0.8214658594854352"	113563
1	0	"Chromosome"	"S11_LN:i:134472_dp:f:0.8432115599853823"	134472
1	0	"Chromosome"	"S16_LN:i:103984_dp:f:1.0820263065202176"	103984
1	0	"Chromosome"	"S10_LN:i:135249_dp:f:0.927607938803416"	135249
1	0	"Chromosome"	"S15_LN:i:106908_dp:f:1.060173772321019"	106908
1	0	"Chromosome"	"S20_LN:i:96181_dp:f:0.8106213253775398"	96181
1	0	"Chromosome"	"S24_LN:i:79551_dp:f:0.9079268306963554"	79551
1	0	"Chromosome"	"S17_LN:i:101059_dp:f:0.7394898947329023"	101059
1	0	"Chromosome"	"S21_LN:i:95363_dp:f:0.9981584791645693"	95363
1	0	"Chromosome"	"S19_LN:i:97755_dp:f:0.8029056372156488"	97755
1	0	"Chromosome"	"S22_LN:i:91797_dp:f:1.1389060438260432"	91797
1	0	"Chromosome"	"S18_LN:i:100519_dp:f:1.0254650211137217"	100519
0	1	"Plasmid"	"S23_LN:i:89589_dp:f:1.205392054855151"	89589
1	0	"Chromosome"	"S26_LN:i:69938_dp:f:1.032722711346889"	69938
1	0	"Chromosome"	"S28_LN:i:57944_dp:f:1.0737137354515838"	57944
1	0	"Chromosome"	"S29_LN:i:56581_dp:f:0.780348653558623"	56581
1	0	"Chromosome"	"S31_LN:i:53323_dp:f:0.9491921945662625"	53323
1	0	"Chromosome"	"S30_LN:i:55009_dp:f:1.1095951977102938"	55009
1	0	"Chromosome"	"S25_LN:i:72887_dp:f:0.9695611137209003"	72887
1	0	"Chromosome"	"S27_LN:i:61036_dp:f:0.7533465990026204"	61036
1	0	"Chromosome"	"S32_LN:i:52390_dp:f:0.7568915041860697"	52390
1	0	"Chromosome"	"S34_LN:i:48667_dp:f:0.8670163542103313"	48667
1	0	"Chromosome"	"S35_LN:i:48253_dp:f:1.0950007801775934"	48253
1	0	"Chromosome"	"S33_LN:i:51782_dp:f:1.0195399321068135"	51782
1	0	"Chromosome"	"S36_LN:i:46610_dp:f:0.7258581719087385"	46610
1	0	"Chromosome"	"S37_LN:i:46388_dp:f:0.884225110775229"	46388
1	0	"Chromosome"	"S40_LN:i:42893_dp:f:0.9332433611412521"	42893
1	0	"Chromosome"	"S38_LN:i:45754_dp:f:0.6986193119457441"	45754
1	0	"Chromosome"	"S39_LN:i:43008_dp:f:0.8063280781532863"	43008
1	0	"Chromosome"	"S41_LN:i:42351_dp:f:1.0730141242560731"	42351
1	0	"Chromosome"	"S42_LN:i:40796_dp:f:1.1443579297417765"	40796
1	0	"Chromosome"	"S44_LN:i:40617_dp:f:1.0982176315895804"	40617
1	0	"Chromosome"	"S43_LN:i:40747_dp:f:1.0747551818205208"	40747
1	0	"Chromosome"	"S45_LN:i:37371_dp:f:0.7243342875270212"	37371
0	1	"Plasmid"	"S47_LN:i:33926_dp:f:2.0655171003634565"	33926
1	0	"Chromosome"	"S46_LN:i:34054_dp:f:0.9730945643445337"	34054
1	0	"Chromosome"	"S48_LN:i:33765_dp:f:0.8259139546180231"	33765
1	0	"Chromosome"	"S49_LN:i:33173_dp:f:0.9002023813702967"	33173
1	0	"Chromosome"	"S50_LN:i:32636_dp:f:1.1367507802897172"	32636
1	0	"Chromosome"	"S52_LN:i:30786_dp:f:1.1406128938179314"	30786
1	0	"Chromosome"	"S51_LN:i:30980_dp:f:0.6669065312027035"	30980
1	0	"Chromosome"	"S55_LN:i:30350_dp:f:0.8527650150345747"	30350
1	0	"Chromosome"	"S54_LN:i:30489_dp:f:0.725782947050629"	30489
1	0	"Chromosome"	"S53_LN:i:30550_dp:f:0.900323459280134"	30550
1	0	"Chromosome"	"S56_LN:i:27872_dp:f:1.0112546580801873"	27872
1	0	"Chromosome"	"S58_LN:i:25417_dp:f:0.9721898796104633"	25417
1	0	"Chromosome"	"S57_LN:i:26139_dp:f:1.234736050650915"	26139
0	1	"Plasmid"	"S63_LN:i:19459_dp:f:1.7976721637078834"	19459
1	0	"Chromosome"	"S64_LN:i:18770_dp:f:1.1030620845583834"	18770
1	0	"Chromosome"	"S61_LN:i:22860_dp:f:0.8784842513191974"	22860
1	0	"Chromosome"	"S60_LN:i:24461_dp:f:0.7482089858274329"	24461
1	0	"Chromosome"	"S62_LN:i:19871_dp:f:0.9163831668050682"	19871
1	0	"Chromosome"	"S59_LN:i:25395_dp:f:1.022751585052996"	25395
1	0	"Chromosome"	"S66_LN:i:14795_dp:f:0.7234429035376355"	14795
1	0	"Chromosome"	"S68_LN:i:12158_dp:f:0.9769369293974002"	12158
0	1	"Plasmid"	"S65_LN:i:18441_dp:f:1.4189199657728961"	18441
1	0	"Chromosome"	"S70_LN:i:11915_dp:f:0.9203253774789496"	11915
1	0	"Chromosome"	"S69_LN:i:12078_dp:f:0.7013266525504875"	12078
1	0	"Chromosome"	"S67_LN:i:14017_dp:f:0.8663735019447161"	14017
0	1	"Plasmid"	"S71_LN:i:11696_dp:f:1.626105545490918"	11696
1	0	"Chromosome"	"S72_LN:i:11681_dp:f:0.82638532895912"	11681
1	0	"Chromosome"	"S73_LN:i:11111_dp:f:0.616821330198108"	11111
1	0	"Chromosome"	"S75_LN:i:10730_dp:f:1.212978167626018"	10730
1	0	"Chromosome"	"S74_LN:i:10896_dp:f:1.174142488602211"	10896
1	0	"Chromosome"	"S78_LN:i:9131_dp:f:1.0233788258211016"	9131
1	0	"Chromosome"	"S76_LN:i:10213_dp:f:0.8574284465838476"	10213
1	0	"Chromosome"	"S80_LN:i:7683_dp:f:0.8610338374458906"	7683
1	0	"Chromosome"	"S79_LN:i:7745_dp:f:0.8370230074831411"	7745
1	0	"Chromosome"	"S77_LN:i:10179_dp:f:0.7536896460002996"	10179
1	0	"Chromosome"	"S81_LN:i:7380_dp:f:1.0392152077998025"	7380
1	0	"Chromosome"	"S83_LN:i:6704_dp:f:1.15309909902637"	6704
0	1	"Plasmid"	"S84_LN:i:6542_dp:f:11.655107093084382"	6542
1	0	"Chromosome"	"S87_LN:i:5771_dp:f:0.740812262116676"	5771
0	1	"Plasmid"	"S85_LN:i:6499_dp:f:2.0752746206781434"	6499
1	0	"Chromosome"	"S82_LN:i:6999_dp:f:0.8150079055413892"	6999
1	0	"Chromosome"	"S86_LN:i:5925_dp:f:2.2267480880960147"	5925
1	0	"Chromosome"	"S88_LN:i:5766_dp:f:0.8380237765186482"	5766
1	0	"Chromosome"	"S90_LN:i:5125_dp:f:0.9180361973862767"	5125
1	0	"Chromosome"	"S89_LN:i:5710_dp:f:0.9345200835895136"	5710
1	0	"Chromosome"	"S91_LN:i:5101_dp:f:0.8190807913752927"	5101
1	0	"Chromosome"	"S92_LN:i:4949_dp:f:0.8003327181203881"	4949
0	1	"Plasmid"	"S94_LN:i:4787_dp:f:2.1026331676714793"	4787
1	0	"Chromosome"	"S93_LN:i:4807_dp:f:0.9424024259180909"	4807
0	1	"Plasmid"	"S95_LN:i:4543_dp:f:7.612996788326667"	4543
1	0	"Chromosome"	"S96_LN:i:4529_dp:f:1.2112852617541694"	4529
1	0	"Chromosome"	"S97_LN:i:4285_dp:f:0.7051310295641637"	4285
1	0	"Chromosome"	"S98_LN:i:4084_dp:f:0.8990864032720245"	4084
1	0	"Chromosome"	"S99_LN:i:3701_dp:f:1.155869657052522"	3701
1	0	"Chromosome"	"S100_LN:i:3639_dp:f:0.6521592164089511"	3639
1	0	"Chromosome"	"S103_LN:i:3207_dp:f:0.6725714306915872"	3207
1	0	"Chromosome"	"S102_LN:i:3388_dp:f:1.1493723290843316"	3388
1	0	"Chromosome"	"S101_LN:i:3490_dp:f:0.7901221566073907"	3490
1	0	"Chromosome"	"S104_LN:i:3128_dp:f:0.9087494949843367"	3128
1	0	"Chromosome"	"S106_LN:i:2974_dp:f:1.2176330777686"	2974
1	0	"Chromosome"	"S108_LN:i:2844_dp:f:1.3516882598704494"	2844
1	0	"Chromosome"	"S107_LN:i:2866_dp:f:2.214876626951611"	2866
1	0	"Chromosome"	"S105_LN:i:3036_dp:f:1.0000358999932604"	3036
0	1	"Plasmid"	"S110_LN:i:2784_dp:f:29.280707191471276"	2784
1	0	"Chromosome"	"S111_LN:i:2750_dp:f:0.7970497525232212"	2750
1	0	"Chromosome"	"S109_LN:i:2813_dp:f:9.335979474744569"	2813
1	0	"Chromosome"	"S113_LN:i:2657_dp:f:1.750418168925747"	2657
1	0	"Chromosome"	"S115_LN:i:2641_dp:f:0.9562042506978278"	2641
0	1	"Plasmid"	"S114_LN:i:2642_dp:f:5.774488942904006"	2642
1	0	"Chromosome"	"S117_LN:i:2620_dp:f:1.1534236259955417"	2620
0.5	0.5	"Plasmid"	"S112_LN:i:2699_dp:f:10.096370789971504"	2699
1	0	"Chromosome"	"S119_LN:i:2411_dp:f:0.8573183410394983"	2411
0	1	"Plasmid"	"S116_LN:i:2626_dp:f:2.160360703398496"	2626
1	0	"Chromosome"	"S118_LN:i:2600_dp:f:0.8992388409541954"	2600
1	0	"Chromosome"	"S123_LN:i:2276_dp:f:0.9168927591568733"	2276
1	0	"Chromosome"	"S121_LN:i:2392_dp:f:0.9820713680449776"	2392
1	0	"Chromosome"	"S120_LN:i:2403_dp:f:0.6945227578028258"	2403
1	0	"Chromosome"	"S125_LN:i:2182_dp:f:0.9733918056767001"	2182
1	0	"Chromosome"	"S122_LN:i:2348_dp:f:0.9638026409956694"	2348
1	0	"Chromosome"	"S124_LN:i:2199_dp:f:2.0616330513481618"	2199
1	0	"Chromosome"	"S127_LN:i:2137_dp:f:0.46455007156146866"	2137
0	1	"Plasmid"	"S126_LN:i:2171_dp:f:1.9069626905497639"	2171
1	0	"Chromosome"	"S128_LN:i:2125_dp:f:1.1902084185219175"	2125
1	0	"Chromosome"	"S130_LN:i:2080_dp:f:0.6909303529122234"	2080
1	0	"Chromosome"	"S131_LN:i:2033_dp:f:0.7812327596958828"	2033
1	0	"Chromosome"	"S129_LN:i:2115_dp:f:0.9905717362390596"	2115
1	0	"Chromosome"	"S132_LN:i:2030_dp:f:3.959464116866078"	2030
1	0	"Chromosome"	"S134_LN:i:1992_dp:f:4.329342827892823"	1992
1	0	"Chromosome"	"S135_LN:i:1974_dp:f:0.8575748598442654"	1974
1	0	"Chromosome"	"S133_LN:i:2026_dp:f:1.6408931217039944"	2026
1	0	"Chromosome"	"S136_LN:i:1948_dp:f:1.5795491458268327"	1948
1	0	"Chromosome"	"S137_LN:i:1860_dp:f:1.0447717357742556"	1860
0	1	"Plasmid"	"S138_LN:i:1847_dp:f:2.29176776663349"	1847
1	0	"Chromosome"	"S139_LN:i:1743_dp:f:2.9810188927740793"	1743
1	0	"Chromosome"	"S140_LN:i:1740_dp:f:1.6028192931334138"	1740
1	0	"Chromosome"	"S141_LN:i:1723_dp:f:1.0213809432887337"	1723
1	0	"Chromosome"	"S143_LN:i:1707_dp:f:0.7769831464107734"	1707
1	0	"Chromosome"	"S142_LN:i:1708_dp:f:1.6162103371839083"	1708
1	0	"Chromosome"	"S145_LN:i:1671_dp:f:1.129310552555327"	1671
0	1	"Plasmid"	"S147_LN:i:1634_dp:f:4.261298559633558"	1634
1	0	"Chromosome"	"S144_LN:i:1688_dp:f:1.6709582957871592"	1688
1	0	"Chromosome"	"S146_LN:i:1670_dp:f:0.9047244146496926"	1670
1	0	"Chromosome"	"S150_LN:i:1528_dp:f:2.265169704221974"	1528
1	0	"Chromosome"	"S148_LN:i:1602_dp:f:1.5922186428236893"	1602
1	0	"Chromosome"	"S149_LN:i:1573_dp:f:1.0221011244709644"	1573
1	0	"Chromosome"	"S152_LN:i:1472_dp:f:1.1804509593656518"	1472
1	0	"Chromosome"	"S154_LN:i:1399_dp:f:0.749277504990833"	1399
1	0	"Chromosome"	"S151_LN:i:1493_dp:f:9.520894672681557"	1493
1	0	"Chromosome"	"S153_LN:i:1447_dp:f:0.7380326730303227"	1447
1	0	"Chromosome"	"S155_LN:i:1384_dp:f:0.9545327910456896"	1384
1	0	"Chromosome"	"S157_LN:i:1374_dp:f:0.8070657098717071"	1374
1	0	"Chromosome"	"S158_LN:i:1374_dp:f:2.0234840183056124"	1374
1	0	"Chromosome"	"S156_LN:i:1377_dp:f:0.8269399339089483"	1377
1	0	"Chromosome"	"S160_LN:i:1348_dp:f:1.8864287710088858"	1348
1	0	"Chromosome"	"S159_LN:i:1354_dp:f:0.5959674909557907"	1354
1	0	"Chromosome"	"S163_LN:i:1342_dp:f:1.6429831699771518"	1342
1	0	"Chromosome"	"S161_LN:i:1345_dp:f:1.9684006873064923"	1345
1	0	"Chromosome"	"S164_LN:i:1339_dp:f:2.2885050260194424"	1339
1	0	"Chromosome"	"S165_LN:i:1336_dp:f:0.4344909317758648"	1336
1	0	"Chromosome"	"S162_LN:i:1342_dp:f:6.091496198779874"	1342
1	0	"Chromosome"	"S166_LN:i:1314_dp:f:7.603425760424443"	1314
1	0	"Chromosome"	"S168_LN:i:1284_dp:f:1.9860980792708547"	1284
1	0	"Chromosome"	"S172_LN:i:1228_dp:f:0.5314087634391044"	1228
1	0	"Chromosome"	"S170_LN:i:1270_dp:f:1.7997591132876987"	1270
1	0	"Chromosome"	"S171_LN:i:1269_dp:f:3.198285529668827"	1269
0.5	0.5	"Plasmid"	"S169_LN:i:1279_dp:f:20.60808743876564"	1279
1	0	"Chromosome"	"S173_LN:i:1209_dp:f:1.7032412984715655"	1209
1	0	"Chromosome"	"S167_LN:i:1302_dp:f:1.0411483031779505"	1302
1	0	"Chromosome"	"S174_LN:i:1209_dp:f:1.26552735866931"	1209
1	0	"Chromosome"	"S175_LN:i:1200_dp:f:0.8845925709561022"	1200
1	0	"Chromosome"	"S179_LN:i:1178_dp:f:0.6641351565229513"	1178
1	0	"Chromosome"	"S176_LN:i:1198_dp:f:1.0572944729463074"	1198
1	0	"Chromosome"	"S180_LN:i:1176_dp:f:2.528904183386869"	1176
0	1	"Plasmid"	"S178_LN:i:1188_dp:f:7.01826989594547"	1188
1	0	"Chromosome"	"S181_LN:i:1174_dp:f:0.8562649076200008"	1174
1	0	"Chromosome"	"S177_LN:i:1192_dp:f:0.717672504564151"	1192
1	0	"Chromosome"	"S182_LN:i:1167_dp:f:5.670169739489997"	1167
1	0	"Chromosome"	"S183_LN:i:1163_dp:f:1.9415240686724264"	1163
1	0	"Chromosome"	"S184_LN:i:1161_dp:f:2.0450559389576983"	1161
1	0	"Chromosome"	"S186_LN:i:1146_dp:f:1.6108451942956155"	1146
1	0	"Chromosome"	"S187_LN:i:1139_dp:f:8.852318864351723"	1139
1	0	"Chromosome"	"S188_LN:i:1120_dp:f:1.7349159787261654"	1120
1	0	"Chromosome"	"S189_LN:i:1113_dp:f:0.7399668692600527"	1113
1	0	"Chromosome"	"S190_LN:i:1110_dp:f:1.2306499342118864"	1110
1	0	"Chromosome"	"S192_LN:i:1097_dp:f:1.6818145475253325"	1097
1	0	"Chromosome"	"S191_LN:i:1097_dp:f:3.5952114505525805"	1097
1	0	"Chromosome"	"S193_LN:i:1073_dp:f:0.6911880541131341"	1073
1	0	"Chromosome"	"S196_LN:i:1049_dp:f:1.3962958464421311"	1049
1	0	"Chromosome"	"S197_LN:i:1019_dp:f:1.3093736859858374"	1019
1	0	"Chromosome"	"S194_LN:i:1060_dp:f:1.7341110931305352"	1060
1	0	"Chromosome"	"S195_LN:i:1053_dp:f:0.8381000818421993"	1053
1	0	"Chromosome"	"S198_LN:i:1010_dp:f:6.634592051109522"	1010
1	0	"Chromosome"	"S185_LN:i:1151_dp:f:1.771643200792026"	1151
