"Prob_Chromosome"	"Prob_Plasmid"	"Prediction"	"Contig_name"	"Contig_length"
1	0	"Chromosome"	"S6_LN:i:209196_dp:f:1.0"	209196
1	0	"Chromosome"	"S2_LN:i:303968_dp:f:1.0070291254925285"	303968
1	0	"Chromosome"	"S7_LN:i:204587_dp:f:1.0606907441929792"	204587
1	0	"Chromosome"	"S9_LN:i:175297_dp:f:0.9685956783630961"	175297
1	0	"Chromosome"	"S4_LN:i:265339_dp:f:1.0122514257063961"	265339
1	0	"Chromosome"	"S5_LN:i:251990_dp:f:0.9420909078789587"	251990
1	0	"Chromosome"	"S8_LN:i:197587_dp:f:1.0521729707210459"	197587
1	0	"Chromosome"	"S10_LN:i:173573_dp:f:1.0284757873076495"	173573
1	0	"Chromosome"	"S1_LN:i:346771_dp:f:0.9617964871542201"	346771
1	0	"Chromosome"	"S12_LN:i:158936_dp:f:1.0360455813815443"	158936
1	0	"Chromosome"	"S14_LN:i:147668_dp:f:0.9817589845452773"	147668
1	0	"Chromosome"	"S3_LN:i:269711_dp:f:0.9682865845332124"	269711
1	0	"Chromosome"	"S13_LN:i:154043_dp:f:0.9776460431409817"	154043
1	0	"Chromosome"	"S11_LN:i:159069_dp:f:1.0370996234775276"	159069
1	0	"Chromosome"	"S18_LN:i:111558_dp:f:0.9501002870558598"	111558
1	0	"Chromosome"	"S16_LN:i:126785_dp:f:1.0128661796955225"	126785
1	0	"Chromosome"	"S15_LN:i:137539_dp:f:1.0927446072066953"	137539
1	0	"Chromosome"	"S19_LN:i:107163_dp:f:1.0630219835401051"	107163
1	0	"Chromosome"	"S21_LN:i:105891_dp:f:1.0217729960266673"	105891
1	0	"Chromosome"	"S17_LN:i:124523_dp:f:0.9745387719589093"	124523
1	0	"Chromosome"	"S23_LN:i:97003_dp:f:1.044509967830652"	97003
1	0	"Chromosome"	"S22_LN:i:98260_dp:f:1.0412494799304415"	98260
1	0	"Chromosome"	"S26_LN:i:82121_dp:f:0.9498152315458919"	82121
1	0	"Chromosome"	"S25_LN:i:87661_dp:f:1.0277047890307083"	87661
1	0	"Chromosome"	"S24_LN:i:93688_dp:f:1.0204248795286026"	93688
1	0	"Chromosome"	"S29_LN:i:54247_dp:f:1.0407316637925113"	54247
1	0	"Chromosome"	"S20_LN:i:106701_dp:f:1.0666887960847966"	106701
1	0	"Chromosome"	"S33_LN:i:41392_dp:f:1.0847774408557678"	41392
1	0	"Chromosome"	"S30_LN:i:53453_dp:f:0.9216129660051936"	53453
1	0	"Chromosome"	"S34_LN:i:40640_dp:f:1.227454857939687"	40640
1	0	"Chromosome"	"S27_LN:i:75842_dp:f:1.052499276900066"	75842
1	0	"Chromosome"	"S28_LN:i:67488_dp:f:0.9467325618376697"	67488
0	1	"Plasmid"	"S35_LN:i:36776_dp:f:4.053054906257092"	36776
1	0	"Chromosome"	"S36_LN:i:35865_dp:f:1.0986627581740602"	35865
1	0	"Chromosome"	"S37_LN:i:33063_dp:f:1.0089923852321896"	33063
1	0	"Chromosome"	"S38_LN:i:31727_dp:f:0.9682770080750688"	31727
1	0	"Chromosome"	"S32_LN:i:50972_dp:f:0.9872860611559533"	50972
1	0	"Chromosome"	"S31_LN:i:53369_dp:f:0.9733544825185207"	53369
1	0	"Chromosome"	"S44_LN:i:15631_dp:f:1.0203912670802764"	15631
1	0	"Chromosome"	"S46_LN:i:12430_dp:f:1.0488064348169557"	12430
1	0	"Chromosome"	"S39_LN:i:29791_dp:f:1.0110646167952755"	29791
1	0	"Chromosome"	"S43_LN:i:15802_dp:f:0.9047192863863714"	15802
1	0	"Chromosome"	"S42_LN:i:20684_dp:f:1.079722253487101"	20684
0.5	0.5	"Plasmid"	"S47_LN:i:11809_dp:f:1.134379201986476"	11809
1	0	"Chromosome"	"S41_LN:i:21873_dp:f:0.9516612886206035"	21873
1	0	"Chromosome"	"S48_LN:i:11566_dp:f:0.9282313214106944"	11566
0	1	"Plasmid"	"S52_LN:i:10551_dp:f:1.635200901695351"	10551
1	0	"Chromosome"	"S49_LN:i:11532_dp:f:1.2177133058051592"	11532
0	1	"Plasmid"	"S51_LN:i:10998_dp:f:1.7721422780423128"	10998
0	1	"Plasmid"	"S50_LN:i:11456_dp:f:1.9401767773422538"	11456
0	1	"Plasmid"	"S53_LN:i:9920_dp:f:4.205236882552886"	9920
1	0	"Chromosome"	"S45_LN:i:13126_dp:f:0.9985099652826088"	13126
1	0	"Chromosome"	"S55_LN:i:8654_dp:f:0.8224849954027604"	8654
0	1	"Plasmid"	"S54_LN:i:9676_dp:f:2.161569601552227"	9676
0	1	"Plasmid"	"S56_LN:i:7604_dp:f:2.1227155931549664"	7604
0	1	"Plasmid"	"S61_LN:i:5200_dp:f:2.1045766291198253"	5200
1	0	"Chromosome"	"S58_LN:i:6492_dp:f:1.2372238846325945"	6492
0	1	"Plasmid"	"S59_LN:i:5607_dp:f:2.0123238661575344"	5607
1	0	"Chromosome"	"S57_LN:i:7449_dp:f:0.7888836797438349"	7449
1	0	"Chromosome"	"S62_LN:i:4902_dp:f:0.9328753565642677"	4902
1	0	"Chromosome"	"S60_LN:i:5262_dp:f:1.2361957296940764"	5262
1	0	"Chromosome"	"S64_LN:i:4526_dp:f:1.342611454494372"	4526
1	0	"Chromosome"	"S63_LN:i:4874_dp:f:0.9558625230111727"	4874
1	0	"Chromosome"	"S65_LN:i:4521_dp:f:0.9665602877851984"	4521
1	0	"Chromosome"	"S68_LN:i:3252_dp:f:6.947773481610018"	3252
0	1	"Plasmid"	"S69_LN:i:3023_dp:f:4.380391439149639"	3023
1	0	"Chromosome"	"S67_LN:i:4115_dp:f:1.1482769030427429"	4115
1	0	"Chromosome"	"S70_LN:i:2963_dp:f:0.9372356781720305"	2963
1	0	"Chromosome"	"S66_LN:i:4131_dp:f:1.755419763349736"	4131
1	0	"Chromosome"	"S71_LN:i:2910_dp:f:0.9785601730753687"	2910
0	1	"Plasmid"	"S76_LN:i:2582_dp:f:1.8912712279153217"	2582
0	1	"Plasmid"	"S72_LN:i:2870_dp:f:2.9395875240749865"	2870
0	1	"Plasmid"	"S77_LN:i:2354_dp:f:9.929307732945158"	2354
0.5	0.5	"Plasmid"	"S73_LN:i:2817_dp:f:0.9676593665979362"	2817
0.5	0.5	"Plasmid"	"S75_LN:i:2583_dp:f:3.2517645853318617"	2583
0.5	0.5	"Plasmid"	"S78_LN:i:2314_dp:f:4.988777351770025"	2314
0.5	0.5	"Plasmid"	"S79_LN:i:2270_dp:f:1.0142314240679735"	2270
1	0	"Chromosome"	"S82_LN:i:1996_dp:f:1.085209335525165"	1996
1	0	"Chromosome"	"S83_LN:i:1959_dp:f:1.0973296788239306"	1959
1	0	"Chromosome"	"S81_LN:i:2064_dp:f:2.294975146789929"	2064
0.5	0.5	"Plasmid"	"S80_LN:i:2186_dp:f:1.0071925109956146"	2186
0	1	"Plasmid"	"S85_LN:i:1690_dp:f:5.1314153948078545"	1690
0	1	"Plasmid"	"S84_LN:i:1893_dp:f:1.8597915858071388"	1893
1	0	"Chromosome"	"S88_LN:i:1562_dp:f:1.1645479012344764"	1562
1	0	"Chromosome"	"S86_LN:i:1578_dp:f:1.6487887741375518"	1578
1	0	"Chromosome"	"S87_LN:i:1577_dp:f:6.233969557794969"	1577
1	0	"Chromosome"	"S90_LN:i:1494_dp:f:1.84190049185306"	1494
1	0	"Chromosome"	"S89_LN:i:1535_dp:f:2.3820506065559837"	1535
0	1	"Plasmid"	"S91_LN:i:1457_dp:f:2.722357990147216"	1457
1	0	"Chromosome"	"S92_LN:i:1447_dp:f:3.614425694486114"	1447
0	1	"Plasmid"	"S95_LN:i:1348_dp:f:1.6938428033791089"	1348
0.5	0.5	"Plasmid"	"S93_LN:i:1441_dp:f:4.572089297922199"	1441
1	0	"Chromosome"	"S94_LN:i:1433_dp:f:3.046379820874115"	1433
0	1	"Plasmid"	"S96_LN:i:1346_dp:f:3.349758863987849"	1346
0	1	"Plasmid"	"S99_LN:i:1240_dp:f:2.011061892710047"	1240
1	0	"Chromosome"	"S98_LN:i:1259_dp:f:1.1644089742086299"	1259
0	1	"Plasmid"	"S101_LN:i:1164_dp:f:4.564144376583589"	1164
1	0	"Chromosome"	"S100_LN:i:1184_dp:f:2.355928105327512"	1184
0	1	"Plasmid"	"S103_LN:i:1076_dp:f:4.52783513237323"	1076
0	1	"Plasmid"	"S102_LN:i:1076_dp:f:2.0952049478035737"	1076
1	0	"Chromosome"	"S104_LN:i:1066_dp:f:2.403958605322178"	1066
0	1	"Plasmid"	"S97_LN:i:1316_dp:f:5.304455816944302"	1316
1	0	"Chromosome"	"S105_LN:i:1030_dp:f:1.7761112005591622"	1030
0.5	0.5	"Plasmid"	"S74_LN:i:2600_dp:f:0.8332618414538544"	2600
1	0	"Chromosome"	"S40_LN:i:28082_dp:f:1.1932380557823459"	28082
