"Prob_Chromosome"	"Prob_Plasmid"	"Prediction"	"Contig_name"	"Contig_length"
1	0	"Chromosome"	"S8_LN:i:225759_dp:f:1.0365649163481767"	225759
1	0	"Chromosome"	"S5_LN:i:374932_dp:f:1.0251880273367135"	374932
1	0	"Chromosome"	"S6_LN:i:326745_dp:f:0.9949122579501419"	326745
1	0	"Chromosome"	"S9_LN:i:223547_dp:f:0.9711615439835121"	223547
1	0	"Chromosome"	"S4_LN:i:447969_dp:f:0.9933937121156386"	447969
1	0	"Chromosome"	"S1_LN:i:638435_dp:f:0.9940248319486531"	638435
1	0	"Chromosome"	"S7_LN:i:295905_dp:f:1.0297401834794555"	295905
1	0	"Chromosome"	"S10_LN:i:205799_dp:f:1.0449306890358667"	205799
1	0	"Chromosome"	"S12_LN:i:163748_dp:f:0.9769417270679281"	163748
1	0	"Chromosome"	"S14_LN:i:114069_dp:f:1.0632567308174212"	114069
1	0	"Chromosome"	"S11_LN:i:165283_dp:f:1.0506680505937895"	165283
1	0	"Chromosome"	"S13_LN:i:135219_dp:f:1.0692568968463343"	135219
1	0	"Chromosome"	"S18_LN:i:72945_dp:f:1.0749381554513484"	72945
1	0	"Chromosome"	"S16_LN:i:96714_dp:f:1.0874934914671195"	96714
1	0	"Chromosome"	"S21_LN:i:32318_dp:f:1.113887284444862"	32318
1	0	"Chromosome"	"S17_LN:i:79603_dp:f:1.0562722388868622"	79603
1	0	"Chromosome"	"S22_LN:i:29822_dp:f:1.1026051353255746"	29822
1	0	"Chromosome"	"S23_LN:i:29798_dp:f:1.0352203182910242"	29798
1	0	"Chromosome"	"S20_LN:i:59207_dp:f:1.0095336749425037"	59207
0	1	"Plasmid"	"S26_LN:i:14580_dp:f:1.861287281033086"	14580
1	0	"Chromosome"	"S25_LN:i:18246_dp:f:1.0534097668889737"	18246
1	0	"Chromosome"	"S24_LN:i:26139_dp:f:1.0478138026862402"	26139
1	0	"Chromosome"	"S27_LN:i:6528_dp:f:0.9923090912799524"	6528
1	0	"Chromosome"	"S28_LN:i:4138_dp:f:0.9880210831477112"	4138
0.5	0.5	"Plasmid"	"S31_LN:i:2431_dp:f:0.7735371328060715"	2431
1	0	"Chromosome"	"S29_LN:i:3776_dp:f:2.094063725381827"	3776
1	0	"Chromosome"	"S32_LN:i:2386_dp:f:4.208675299763004"	2386
0.5	0.5	"Plasmid"	"S34_LN:i:1880_dp:f:0.7990445561265056"	1880
1	0	"Chromosome"	"S30_LN:i:2832_dp:f:7.296729739332572"	2832
1	0	"Chromosome"	"S33_LN:i:1917_dp:f:2.0423756433060567"	1917
1	0	"Chromosome"	"S35_LN:i:1816_dp:f:0.9305257754594529"	1816
1	0	"Chromosome"	"S38_LN:i:1369_dp:f:0.9368961884069071"	1369
1	0	"Chromosome"	"S39_LN:i:1276_dp:f:2.155254662417988"	1276
1	0	"Chromosome"	"S36_LN:i:1493_dp:f:7.30896462081834"	1493
1	0	"Chromosome"	"S37_LN:i:1409_dp:f:2.1627283248704594"	1409
1	0	"Chromosome"	"S40_LN:i:1190_dp:f:0.7928417191980437"	1190
1	0	"Chromosome"	"S41_LN:i:1163_dp:f:1.0438390021133064"	1163
1	0	"Chromosome"	"S42_LN:i:1158_dp:f:1.0165973135642488"	1158
1	0	"Chromosome"	"S43_LN:i:1034_dp:f:2.043745727900597"	1034
1	0	"Chromosome"	"S44_LN:i:1003_dp:f:1.0220844510666014"	1003
1	0	"Chromosome"	"S2_LN:i:455403_dp:f:1.0273608002246162"	455403
1	0	"Chromosome"	"S3_LN:i:448551_dp:f:1.0"	448551
0	1	"Plasmid"	"S19_LN:i:72348_dp:f:2.000884845237898"	72348
1	0	"Chromosome"	"S15_LN:i:113421_dp:f:1.0357646960728382"	113421
