"Prob_Chromosome"	"Prob_Plasmid"	"Prediction"	"Contig_name"	"Contig_length"
1	0	"Chromosome"	"S7_LN:i:202999_dp:f:1.0312587093859635"	202999
1	0	"Chromosome"	"S8_LN:i:202037_dp:f:1.0028835204687032"	202037
1	0	"Chromosome"	"S6_LN:i:228120_dp:f:0.9891481992542444"	228120
1	0	"Chromosome"	"S4_LN:i:270711_dp:f:1.0"	270711
1	0	"Chromosome"	"S5_LN:i:236580_dp:f:1.019613023090304"	236580
1	0	"Chromosome"	"S3_LN:i:334920_dp:f:0.9773218085726344"	334920
1	0	"Chromosome"	"S2_LN:i:360835_dp:f:1.027794918437043"	360835
1	0	"Chromosome"	"S1_LN:i:418188_dp:f:0.9855272488267366"	418188
1	0	"Chromosome"	"S9_LN:i:190742_dp:f:0.9522306023834018"	190742
1	0	"Chromosome"	"S11_LN:i:177110_dp:f:1.0063561035506374"	177110
1	0	"Chromosome"	"S12_LN:i:173824_dp:f:1.008504544778083"	173824
1	0	"Chromosome"	"S13_LN:i:167075_dp:f:1.020686469017038"	167075
1	0	"Chromosome"	"S10_LN:i:179724_dp:f:1.024901910210159"	179724
1	0	"Chromosome"	"S14_LN:i:131385_dp:f:1.00478488825542"	131385
1	0	"Chromosome"	"S15_LN:i:130503_dp:f:0.9835054224502273"	130503
1	0	"Chromosome"	"S16_LN:i:125490_dp:f:1.042263851759585"	125490
1	0	"Chromosome"	"S21_LN:i:68092_dp:f:1.0188642210473928"	68092
1	0	"Chromosome"	"S22_LN:i:58109_dp:f:1.1160626009755301"	58109
1	0	"Chromosome"	"S20_LN:i:77935_dp:f:1.0267871676402076"	77935
1	0	"Chromosome"	"S17_LN:i:110262_dp:f:0.9791434888336341"	110262
1	0	"Chromosome"	"S18_LN:i:106498_dp:f:1.0194564167358615"	106498
1	0	"Chromosome"	"S19_LN:i:91784_dp:f:0.9875440934707869"	91784
1	0	"Chromosome"	"S23_LN:i:57769_dp:f:0.9664957645727015"	57769
1	0	"Chromosome"	"S26_LN:i:50379_dp:f:0.9670470846985282"	50379
1	0	"Chromosome"	"S25_LN:i:51643_dp:f:0.9751344449564666"	51643
1	0	"Chromosome"	"S27_LN:i:49586_dp:f:1.0933785278495127"	49586
1	0	"Chromosome"	"S30_LN:i:32627_dp:f:1.0171456928284681"	32627
1	0	"Chromosome"	"S28_LN:i:47669_dp:f:0.9843891932506306"	47669
1	0	"Chromosome"	"S29_LN:i:41213_dp:f:1.0635117022869571"	41213
0	1	"Plasmid"	"S24_LN:i:54149_dp:f:1.2361519376798684"	54149
1	0	"Chromosome"	"S31_LN:i:32458_dp:f:1.04816899862957"	32458
1	0	"Chromosome"	"S32_LN:i:31753_dp:f:1.106041033733386"	31753
1	0	"Chromosome"	"S33_LN:i:30726_dp:f:0.9705912329317973"	30726
1	0	"Chromosome"	"S35_LN:i:28809_dp:f:0.9685868949428751"	28809
1	0	"Chromosome"	"S34_LN:i:29665_dp:f:0.9744209421681679"	29665
1	0	"Chromosome"	"S37_LN:i:26887_dp:f:1.0481739965092245"	26887
1	0	"Chromosome"	"S36_LN:i:27301_dp:f:1.023444294510373"	27301
0	1	"Plasmid"	"S38_LN:i:25396_dp:f:1.2744190550908379"	25396
1	0	"Chromosome"	"S41_LN:i:20383_dp:f:1.108824484687827"	20383
1	0	"Chromosome"	"S40_LN:i:20643_dp:f:0.9758359751042898"	20643
1	0	"Chromosome"	"S39_LN:i:23489_dp:f:1.1099414484290395"	23489
1	0	"Chromosome"	"S44_LN:i:18197_dp:f:1.0439809801337088"	18197
1	0	"Chromosome"	"S46_LN:i:17436_dp:f:1.1519689888881632"	17436
1	0	"Chromosome"	"S43_LN:i:20069_dp:f:1.0592450832094"	20069
1	0	"Chromosome"	"S47_LN:i:17245_dp:f:1.0448840020787074"	17245
0	1	"Plasmid"	"S45_LN:i:18013_dp:f:1.3377599022365576"	18013
1	0	"Chromosome"	"S42_LN:i:20190_dp:f:1.095309261926163"	20190
1	0	"Chromosome"	"S49_LN:i:16541_dp:f:1.0113396177907499"	16541
1	0	"Chromosome"	"S48_LN:i:16634_dp:f:1.1154878234378345"	16634
1	0	"Chromosome"	"S52_LN:i:13150_dp:f:1.1924470323880778"	13150
1	0	"Chromosome"	"S54_LN:i:10186_dp:f:1.0402939201634387"	10186
1	0	"Chromosome"	"S57_LN:i:7911_dp:f:0.992334581105411"	7911
1	0	"Chromosome"	"S56_LN:i:8015_dp:f:1.0158391126873751"	8015
1	0	"Chromosome"	"S50_LN:i:15340_dp:f:1.009758055636569"	15340
1	0	"Chromosome"	"S55_LN:i:10015_dp:f:1.0922730624206565"	10015
1	0	"Chromosome"	"S53_LN:i:11859_dp:f:1.1144146524904965"	11859
1	0	"Chromosome"	"S51_LN:i:15150_dp:f:1.0320720941504484"	15150
1	0	"Chromosome"	"S59_LN:i:6111_dp:f:1.0210889681424633"	6111
1	0	"Chromosome"	"S64_LN:i:4110_dp:f:1.0533479541290105"	4110
1	0	"Chromosome"	"S60_LN:i:5572_dp:f:1.0905434928061317"	5572
1	0	"Chromosome"	"S63_LN:i:4321_dp:f:1.1536109630945353"	4321
1	0	"Chromosome"	"S58_LN:i:7697_dp:f:1.3833494689783612"	7697
1	0	"Chromosome"	"S65_LN:i:3246_dp:f:1.1360573777182579"	3246
0	1	"Plasmid"	"S62_LN:i:5102_dp:f:1.2370321330436995"	5102
1	0	"Chromosome"	"S61_LN:i:5171_dp:f:2.014372644022923"	5171
1	0	"Chromosome"	"S66_LN:i:3093_dp:f:0.9829465656929447"	3093
1	0	"Chromosome"	"S68_LN:i:2900_dp:f:1.0059165315415435"	2900
1	0	"Chromosome"	"S67_LN:i:3030_dp:f:6.465663097514456"	3030
1	0	"Chromosome"	"S72_LN:i:2016_dp:f:1.1232291252409208"	2016
1	0	"Chromosome"	"S71_LN:i:2382_dp:f:1.071442304281027"	2382
1	0	"Chromosome"	"S70_LN:i:2476_dp:f:1.1697380501045571"	2476
1	0	"Chromosome"	"S74_LN:i:1889_dp:f:1.176715182808576"	1889
1	0	"Chromosome"	"S73_LN:i:2016_dp:f:1.0506221938306477"	2016
1	0	"Chromosome"	"S69_LN:i:2673_dp:f:1.956140631383374"	2673
1	0	"Chromosome"	"S76_LN:i:1488_dp:f:0.9877536764845802"	1488
1	0	"Chromosome"	"S77_LN:i:1388_dp:f:1.069137503561402"	1388
1	0	"Chromosome"	"S81_LN:i:1102_dp:f:1.913442171558242"	1102
1	0	"Chromosome"	"S79_LN:i:1276_dp:f:1.7812780994237143"	1276
0	1	"Plasmid"	"S80_LN:i:1106_dp:f:2.2546892504211673"	1106
1	0	"Chromosome"	"S82_LN:i:1098_dp:f:2.164397423463157"	1098
1	0	"Chromosome"	"S78_LN:i:1308_dp:f:2.493263749964621"	1308
1	0	"Chromosome"	"S84_LN:i:1010_dp:f:1.165812360340874"	1010
1	0	"Chromosome"	"S83_LN:i:1031_dp:f:1.8342871161302932"	1031
1	0	"Chromosome"	"S75_LN:i:1732_dp:f:6.791519407732663"	1732
