"Prob_Chromosome"	"Prob_Plasmid"	"Prediction"	"Contig_name"	"Contig_length"
1	0	"Chromosome"	"S4_LN:i:335656_dp:f:0.9575572570735205"	335656
1	0	"Chromosome"	"S7_LN:i:254069_dp:f:1.0150061901135037"	254069
1	0	"Chromosome"	"S5_LN:i:301377_dp:f:1.0078547505786757"	301377
1	0	"Chromosome"	"S8_LN:i:248635_dp:f:0.9806215309149078"	248635
1	0	"Chromosome"	"S9_LN:i:208940_dp:f:1.0283046920064849"	208940
1	0	"Chromosome"	"S13_LN:i:89325_dp:f:0.9813780406438403"	89325
1	0	"Chromosome"	"S10_LN:i:184650_dp:f:1.0"	184650
1	0	"Chromosome"	"S11_LN:i:184602_dp:f:0.9754423809849269"	184602
1	0	"Chromosome"	"S6_LN:i:292737_dp:f:0.9975622782532728"	292737
1	0	"Chromosome"	"S14_LN:i:87957_dp:f:1.048168957799937"	87957
1	0	"Chromosome"	"S15_LN:i:81385_dp:f:0.9546421861123836"	81385
1	0	"Chromosome"	"S16_LN:i:75485_dp:f:1.038281813427745"	75485
1	0	"Chromosome"	"S18_LN:i:41636_dp:f:0.9446655061879298"	41636
1	0	"Chromosome"	"S17_LN:i:59694_dp:f:1.0328203213385017"	59694
1	0	"Chromosome"	"S19_LN:i:31136_dp:f:0.9626036980154202"	31136
1	0	"Chromosome"	"S21_LN:i:26066_dp:f:1.0428312172654224"	26066
0	1	"Plasmid"	"S22_LN:i:17125_dp:f:1.769544363863424"	17125
1	0	"Chromosome"	"S24_LN:i:15752_dp:f:0.9733893766872332"	15752
1	0	"Chromosome"	"S20_LN:i:30588_dp:f:1.0629235161591863"	30588
0	1	"Plasmid"	"S26_LN:i:8758_dp:f:1.7301168447988668"	8758
1	0	"Chromosome"	"S27_LN:i:6745_dp:f:0.9900324817839321"	6745
1	0	"Chromosome"	"S25_LN:i:9861_dp:f:0.9850673645537019"	9861
1	0	"Chromosome"	"S28_LN:i:4213_dp:f:1.0069992923388078"	4213
0	1	"Plasmid"	"S23_LN:i:16685_dp:f:1.59698842770646"	16685
1	0	"Chromosome"	"S30_LN:i:2772_dp:f:0.9097514531210397"	2772
0	1	"Plasmid"	"S31_LN:i:2717_dp:f:1.803689991739429"	2717
0	1	"Plasmid"	"S29_LN:i:3326_dp:f:1.6653111180310585"	3326
1	0	"Chromosome"	"S34_LN:i:1687_dp:f:7.242698502938462"	1687
1	0	"Chromosome"	"S32_LN:i:2278_dp:f:1.7930804702932193"	2278
0.5	0.5	"Plasmid"	"S33_LN:i:1943_dp:f:1.5233559435951685"	1943
0.5	0.5	"Plasmid"	"S36_LN:i:1258_dp:f:4.117943357796247"	1258
1	0	"Chromosome"	"S35_LN:i:1648_dp:f:7.161101416446492"	1648
1	0	"Chromosome"	"S38_LN:i:1133_dp:f:2.0699880617259243"	1133
1	0	"Chromosome"	"S37_LN:i:1233_dp:f:6.778053754476202"	1233
1	0	"Chromosome"	"S3_LN:i:413193_dp:f:1.0214756859995333"	413193
1	0	"Chromosome"	"S12_LN:i:172398_dp:f:1.0133552569570565"	172398
1	0	"Chromosome"	"S2_LN:i:663795_dp:f:1.0135540188191288"	663795
1	0	"Chromosome"	"S1_LN:i:1010464_dp:f:0.9699985009051489"	1010464
