"Prob_Chromosome"	"Prob_Plasmid"	"Prediction"	"Contig_name"	"Contig_length"
1	0	"Chromosome"	"S8_LN:i:214631_dp:f:1.0419781233751766"	214631
1	0	"Chromosome"	"S7_LN:i:232906_dp:f:0.9816102943135535"	232906
1	0	"Chromosome"	"S6_LN:i:272203_dp:f:1.0913199240799891"	272203
1	0	"Chromosome"	"S5_LN:i:337131_dp:f:0.9414629443284068"	337131
1	0	"Chromosome"	"S4_LN:i:366123_dp:f:1.0777090899133313"	366123
1	0	"Chromosome"	"S3_LN:i:417928_dp:f:1.0855398058248058"	417928
1	0	"Chromosome"	"S9_LN:i:204431_dp:f:1.0355952018200314"	204431
1	0	"Chromosome"	"S10_LN:i:189027_dp:f:1.0096633955922707"	189027
1	0	"Chromosome"	"S11_LN:i:171261_dp:f:1.1320382576533767"	171261
1	0	"Chromosome"	"S1_LN:i:571636_dp:f:1.0"	571636
1	0	"Chromosome"	"S12_LN:i:158595_dp:f:1.009151458504373"	158595
1	0	"Chromosome"	"S13_LN:i:143054_dp:f:1.0757368896190092"	143054
1	0	"Chromosome"	"S2_LN:i:533114_dp:f:0.9425923682095516"	533114
1	0	"Chromosome"	"S14_LN:i:133519_dp:f:0.9421299541179403"	133519
1	0	"Chromosome"	"S16_LN:i:112546_dp:f:1.0710502073714268"	112546
1	0	"Chromosome"	"S15_LN:i:132025_dp:f:1.1262905429992316"	132025
1	0	"Chromosome"	"S17_LN:i:109777_dp:f:1.0080186300456622"	109777
1	0	"Chromosome"	"S18_LN:i:106951_dp:f:0.9241565038783708"	106951
1	0	"Chromosome"	"S20_LN:i:94244_dp:f:1.1477247286395675"	94244
0	1	"Plasmid"	"S19_LN:i:97140_dp:f:1.4026990500443093"	97140
1	0	"Chromosome"	"S21_LN:i:82356_dp:f:1.0446517719724973"	82356
1	0	"Chromosome"	"S23_LN:i:61944_dp:f:1.0841485463794696"	61944
1	0	"Chromosome"	"S24_LN:i:58366_dp:f:1.0210719808545725"	58366
1	0	"Chromosome"	"S22_LN:i:71678_dp:f:0.959678588011062"	71678
1	0	"Chromosome"	"S25_LN:i:46412_dp:f:0.9805592308033753"	46412
1	0	"Chromosome"	"S29_LN:i:17582_dp:f:0.8888087130679738"	17582
1	0	"Chromosome"	"S26_LN:i:33118_dp:f:1.0535250295098895"	33118
1	0	"Chromosome"	"S35_LN:i:5636_dp:f:0.8861090611862279"	5636
0	1	"Plasmid"	"S30_LN:i:17553_dp:f:0.981318776881313"	17553
0	1	"Plasmid"	"S36_LN:i:5509_dp:f:105.18906622848755"	5509
1	0	"Chromosome"	"S32_LN:i:15691_dp:f:1.3676232500005667"	15691
1	0	"Chromosome"	"S34_LN:i:13282_dp:f:1.1417922292046765"	13282
1	0	"Chromosome"	"S28_LN:i:26087_dp:f:1.1038831236542657"	26087
1	0	"Chromosome"	"S31_LN:i:17133_dp:f:0.9490158402590827"	17133
1	0	"Chromosome"	"S38_LN:i:4691_dp:f:0.8002136694496338"	4691
1	0	"Chromosome"	"S27_LN:i:30689_dp:f:1.1990609630071007"	30689
1	0	"Chromosome"	"S39_LN:i:4649_dp:f:0.986202208006133"	4649
1	0	"Chromosome"	"S33_LN:i:13907_dp:f:1.0527766448811668"	13907
1	0	"Chromosome"	"S43_LN:i:3472_dp:f:0.8801019313832804"	3472
1	0	"Chromosome"	"S41_LN:i:4181_dp:f:0.8011044098501245"	4181
1	0	"Chromosome"	"S40_LN:i:4563_dp:f:1.0132535748565528"	4563
0	1	"Plasmid"	"S42_LN:i:3896_dp:f:60.253025624171876"	3896
1	0	"Chromosome"	"S37_LN:i:4972_dp:f:0.7701991124723114"	4972
1	0	"Chromosome"	"S44_LN:i:2435_dp:f:8.108017606937961"	2435
1	0	"Chromosome"	"S46_LN:i:2041_dp:f:0.8702321834435128"	2041
1	0	"Chromosome"	"S47_LN:i:1792_dp:f:1.1232821953327423"	1792
1	0	"Chromosome"	"S45_LN:i:2110_dp:f:0.7835522742510763"	2110
1	0	"Chromosome"	"S49_LN:i:1710_dp:f:1.8373362872181758"	1710
0.5	0.5	"Plasmid"	"S53_LN:i:1369_dp:f:2.7883821869946552"	1369
1	0	"Chromosome"	"S48_LN:i:1748_dp:f:1.023133727537114"	1748
1	0	"Chromosome"	"S51_LN:i:1507_dp:f:2.379313370670042"	1507
0	1	"Plasmid"	"S54_LN:i:1248_dp:f:1.9754747337767475"	1248
1	0	"Chromosome"	"S50_LN:i:1702_dp:f:7.976787813677832"	1702
1	0	"Chromosome"	"S52_LN:i:1424_dp:f:3.3838197745299112"	1424
1	0	"Chromosome"	"S57_LN:i:1121_dp:f:0.875550424817367"	1121
1	0	"Chromosome"	"S59_LN:i:1016_dp:f:2.2901282836601484"	1016
1	0	"Chromosome"	"S58_LN:i:1060_dp:f:1.0858160479744834"	1060
1	0	"Chromosome"	"S56_LN:i:1178_dp:f:2.00996663868486"	1178
1	0	"Chromosome"	"S55_LN:i:1229_dp:f:3.6149650639804434"	1229
