"Prob_Chromosome"	"Prob_Plasmid"	"Prediction"	"Contig_name"	"Contig_length"
1	0	"Chromosome"	"S6_LN:i:187259_dp:f:0.9498637874525043"	187259
1	0	"Chromosome"	"S5_LN:i:201378_dp:f:1.0576982044830248"	201378
1	0	"Chromosome"	"S4_LN:i:206770_dp:f:1.0"	206770
1	0	"Chromosome"	"S7_LN:i:178569_dp:f:0.9939711623734583"	178569
1	0	"Chromosome"	"S8_LN:i:174648_dp:f:0.976179798914866"	174648
1	0	"Chromosome"	"S3_LN:i:241241_dp:f:1.002427531087263"	241241
1	0	"Chromosome"	"S2_LN:i:290414_dp:f:0.9452880969559625"	290414
1	0	"Chromosome"	"S1_LN:i:421196_dp:f:1.0421051841139952"	421196
1	0	"Chromosome"	"S11_LN:i:149629_dp:f:0.9878788299290014"	149629
1	0	"Chromosome"	"S10_LN:i:154270_dp:f:1.0096337487607434"	154270
1	0	"Chromosome"	"S9_LN:i:154930_dp:f:0.9571745471164319"	154930
1	0	"Chromosome"	"S14_LN:i:125085_dp:f:1.0692575718991155"	125085
1	0	"Chromosome"	"S13_LN:i:132036_dp:f:1.0224674996820788"	132036
1	0	"Chromosome"	"S12_LN:i:147301_dp:f:1.0497172137008073"	147301
1	0	"Chromosome"	"S15_LN:i:114897_dp:f:1.0271318862097054"	114897
1	0	"Chromosome"	"S16_LN:i:113609_dp:f:1.0202199938143348"	113609
1	0	"Chromosome"	"S18_LN:i:108777_dp:f:1.0520795630057909"	108777
1	0	"Chromosome"	"S20_LN:i:95177_dp:f:1.0332272576966666"	95177
1	0	"Chromosome"	"S17_LN:i:110312_dp:f:0.974935558129922"	110312
1	0	"Chromosome"	"S21_LN:i:94588_dp:f:1.0626129959770698"	94588
1	0	"Chromosome"	"S19_LN:i:98474_dp:f:1.0280887645605408"	98474
1	0	"Chromosome"	"S22_LN:i:93096_dp:f:0.9971231523147976"	93096
1	0	"Chromosome"	"S23_LN:i:88155_dp:f:1.0618655250272906"	88155
1	0	"Chromosome"	"S30_LN:i:49032_dp:f:1.037982971984097"	49032
1	0	"Chromosome"	"S24_LN:i:84773_dp:f:1.061039448934849"	84773
1	0	"Chromosome"	"S25_LN:i:82144_dp:f:1.031659982814427"	82144
1	0	"Chromosome"	"S27_LN:i:72076_dp:f:0.9925298749013556"	72076
0	1	"Plasmid"	"S31_LN:i:48150_dp:f:3.0337368035885848"	48150
1	0	"Chromosome"	"S28_LN:i:71970_dp:f:1.0194986597794229"	71970
1	0	"Chromosome"	"S29_LN:i:68964_dp:f:1.0322045655912138"	68964
1	0	"Chromosome"	"S33_LN:i:45109_dp:f:1.0069327027561865"	45109
1	0	"Chromosome"	"S26_LN:i:78947_dp:f:0.9388930165797003"	78947
1	0	"Chromosome"	"S32_LN:i:47077_dp:f:0.9697172595742963"	47077
1	0	"Chromosome"	"S35_LN:i:39750_dp:f:1.0275339377302954"	39750
1	0	"Chromosome"	"S36_LN:i:39529_dp:f:1.0346226880989087"	39529
1	0	"Chromosome"	"S34_LN:i:41267_dp:f:0.9241230445976413"	41267
1	0	"Chromosome"	"S37_LN:i:38972_dp:f:1.0755305786297311"	38972
1	0	"Chromosome"	"S39_LN:i:31836_dp:f:1.0536744290280862"	31836
0	1	"Plasmid"	"S43_LN:i:16927_dp:f:1.043298206342132"	16927
1	0	"Chromosome"	"S40_LN:i:30731_dp:f:1.0768603328191624"	30731
1	0	"Chromosome"	"S38_LN:i:37932_dp:f:0.9506004484362681"	37932
1	0	"Chromosome"	"S42_LN:i:21524_dp:f:2.147595378808356"	21524
1	0	"Chromosome"	"S44_LN:i:16886_dp:f:1.020852269061705"	16886
1	0	"Chromosome"	"S45_LN:i:14572_dp:f:0.9823501994575092"	14572
1	0	"Chromosome"	"S46_LN:i:14433_dp:f:0.9518818696147336"	14433
1	0	"Chromosome"	"S49_LN:i:9409_dp:f:1.1056505838464479"	9409
1	0	"Chromosome"	"S48_LN:i:12010_dp:f:8.843093747889673"	12010
1	0	"Chromosome"	"S50_LN:i:8779_dp:f:0.9617675993783256"	8779
1	0	"Chromosome"	"S47_LN:i:14032_dp:f:1.0368577424615752"	14032
1	0	"Chromosome"	"S53_LN:i:7722_dp:f:0.9528943148555699"	7722
1	0	"Chromosome"	"S51_LN:i:8086_dp:f:1.0269665609577716"	8086
1	0	"Chromosome"	"S52_LN:i:7875_dp:f:1.0520693161411743"	7875
1	0	"Chromosome"	"S55_LN:i:4113_dp:f:1.1221497551516533"	4113
1	0	"Chromosome"	"S56_LN:i:3841_dp:f:1.1032808072838902"	3841
1	0	"Chromosome"	"S58_LN:i:3175_dp:f:1.0316676711478494"	3175
1	0	"Chromosome"	"S54_LN:i:5146_dp:f:1.0564525672154292"	5146
1	0	"Chromosome"	"S57_LN:i:3512_dp:f:2.083545047697448"	3512
1	0	"Chromosome"	"S59_LN:i:2958_dp:f:1.0739630146561119"	2958
1	0	"Chromosome"	"S60_LN:i:2729_dp:f:0.8561834035164209"	2729
1	0	"Chromosome"	"S63_LN:i:1791_dp:f:7.403452251081406"	1791
1	0	"Chromosome"	"S61_LN:i:1935_dp:f:0.98410427012133"	1935
1	0	"Chromosome"	"S62_LN:i:1890_dp:f:3.1180174026013785"	1890
1	0	"Chromosome"	"S64_LN:i:1684_dp:f:1.1104734873065651"	1684
1	0	"Chromosome"	"S65_LN:i:1479_dp:f:2.0933509532809533"	1479
1	0	"Chromosome"	"S69_LN:i:1353_dp:f:1.0238965590561162"	1353
1	0	"Chromosome"	"S66_LN:i:1473_dp:f:0.9204985429013341"	1473
0.5	0.5	"Plasmid"	"S70_LN:i:1343_dp:f:3.959473488665168"	1343
1	0	"Chromosome"	"S67_LN:i:1466_dp:f:7.314471229587569"	1466
1	0	"Chromosome"	"S41_LN:i:26270_dp:f:0.9923500389887903"	26270
1	0	"Chromosome"	"S68_LN:i:1392_dp:f:7.169190013949001"	1392
1	0	"Chromosome"	"S71_LN:i:1335_dp:f:0.9045946525365363"	1335
1	0	"Chromosome"	"S72_LN:i:1332_dp:f:1.953264898002967"	1332
0.5	0.5	"Plasmid"	"S74_LN:i:1213_dp:f:2.159317723158767"	1213
0.5	0.5	"Plasmid"	"S73_LN:i:1225_dp:f:2.988778444385383"	1225
1	0	"Chromosome"	"S77_LN:i:1130_dp:f:2.0605556911484797"	1130
1	0	"Chromosome"	"S76_LN:i:1130_dp:f:0.9360939957640841"	1130
1	0	"Chromosome"	"S79_LN:i:1005_dp:f:0.9364871590192029"	1005
1	0	"Chromosome"	"S80_LN:i:1005_dp:f:0.7572697031887451"	1005
1	0	"Chromosome"	"S78_LN:i:1031_dp:f:2.042587091948902"	1031
1	0	"Chromosome"	"S75_LN:i:1133_dp:f:2.092864055284409"	1133
