"Prob_Chromosome"	"Prob_Plasmid"	"Prediction"	"Contig_name"	"Contig_length"
1	0	"Chromosome"	"S1_LN:i:394838_dp:f:0.9019906768923596"	394838
1	0	"Chromosome"	"S7_LN:i:253478_dp:f:1.008668385350953"	253478
1	0	"Chromosome"	"S3_LN:i:309114_dp:f:1.0552027217619377"	309114
1	0	"Chromosome"	"S5_LN:i:299939_dp:f:0.963912594400635"	299939
1	0	"Chromosome"	"S2_LN:i:357500_dp:f:1.0"	357500
1	0	"Chromosome"	"S8_LN:i:246377_dp:f:1.0124930478484375"	246377
1	0	"Chromosome"	"S9_LN:i:187029_dp:f:1.0519059411780705"	187029
1	0	"Chromosome"	"S4_LN:i:307683_dp:f:0.9156089542589446"	307683
1	0	"Chromosome"	"S6_LN:i:261893_dp:f:0.9795563757864696"	261893
1	0	"Chromosome"	"S10_LN:i:186555_dp:f:1.0009757635552277"	186555
1	0	"Chromosome"	"S11_LN:i:175247_dp:f:1.0427168086893444"	175247
1	0	"Chromosome"	"S12_LN:i:154283_dp:f:1.0612694742989373"	154283
1	0	"Chromosome"	"S13_LN:i:151626_dp:f:1.0008356201394772"	151626
1	0	"Chromosome"	"S14_LN:i:146801_dp:f:0.9685717766412102"	146801
1	0	"Chromosome"	"S16_LN:i:118944_dp:f:1.0190898557490407"	118944
1	0	"Chromosome"	"S15_LN:i:146657_dp:f:1.0426340447183637"	146657
1	0	"Chromosome"	"S17_LN:i:113169_dp:f:0.9117595386717963"	113169
1	0	"Chromosome"	"S18_LN:i:107467_dp:f:1.0017738370197915"	107467
1	0	"Chromosome"	"S19_LN:i:106713_dp:f:1.0052026391076097"	106713
1	0	"Chromosome"	"S20_LN:i:92562_dp:f:0.9741476872915382"	92562
1	0	"Chromosome"	"S21_LN:i:91696_dp:f:1.1012825096378702"	91696
1	0	"Chromosome"	"S24_LN:i:84046_dp:f:0.9056721006627525"	84046
1	0	"Chromosome"	"S22_LN:i:89555_dp:f:0.8989294611433738"	89555
1	0	"Chromosome"	"S23_LN:i:86744_dp:f:1.0650174723735422"	86744
1	0	"Chromosome"	"S26_LN:i:68042_dp:f:0.9718227638735665"	68042
1	0	"Chromosome"	"S28_LN:i:52601_dp:f:0.8328391355920206"	52601
1	0	"Chromosome"	"S25_LN:i:80544_dp:f:1.0527242190255535"	80544
1	0	"Chromosome"	"S27_LN:i:56467_dp:f:0.9601186856038252"	56467
1	0	"Chromosome"	"S31_LN:i:43753_dp:f:1.0682659377456618"	43753
1	0	"Chromosome"	"S29_LN:i:51885_dp:f:1.0133675341914654"	51885
1	0	"Chromosome"	"S30_LN:i:46485_dp:f:0.8504530657850177"	46485
1	0	"Chromosome"	"S37_LN:i:12994_dp:f:1.6818532723374449"	12994
1	0	"Chromosome"	"S35_LN:i:19348_dp:f:0.8840540865877723"	19348
1	0	"Chromosome"	"S32_LN:i:35772_dp:f:0.9674970120460417"	35772
1	0	"Chromosome"	"S38_LN:i:12981_dp:f:0.8839821101811696"	12981
1	0	"Chromosome"	"S39_LN:i:12585_dp:f:0.796880896165275"	12585
1	0	"Chromosome"	"S36_LN:i:19164_dp:f:0.8422443438900896"	19164
1	0	"Chromosome"	"S33_LN:i:30232_dp:f:1.1432443086108226"	30232
1	0	"Chromosome"	"S41_LN:i:11251_dp:f:0.9500379262100065"	11251
1	0	"Chromosome"	"S40_LN:i:11897_dp:f:0.9841514083020111"	11897
0.5	0.5	"Plasmid"	"S43_LN:i:10406_dp:f:0.9336532920763148"	10406
1	0	"Chromosome"	"S34_LN:i:26275_dp:f:1.0860877888148857"	26275
1	0	"Chromosome"	"S42_LN:i:10912_dp:f:0.8214926500014501"	10912
1	0	"Chromosome"	"S44_LN:i:10073_dp:f:0.9466248405710722"	10073
1	0	"Chromosome"	"S45_LN:i:9676_dp:f:1.0496339991214596"	9676
0	1	"Plasmid"	"S48_LN:i:4729_dp:f:1.9409447600086502"	4729
1	0	"Chromosome"	"S46_LN:i:7041_dp:f:0.8162721601841251"	7041
1	0	"Chromosome"	"S49_LN:i:4621_dp:f:1.9341018833314623"	4621
0.5	0.5	"Plasmid"	"S52_LN:i:3990_dp:f:1.8470353169921216"	3990
1	0	"Chromosome"	"S50_LN:i:4219_dp:f:1.082290047862867"	4219
1	0	"Chromosome"	"S47_LN:i:5446_dp:f:0.7315426498586836"	5446
1	0	"Chromosome"	"S51_LN:i:4141_dp:f:1.8078785804915647"	4141
1	0	"Chromosome"	"S55_LN:i:2079_dp:f:2.3400890472646"	2079
1	0	"Chromosome"	"S56_LN:i:1820_dp:f:0.6989991612839914"	1820
1	0	"Chromosome"	"S59_LN:i:1523_dp:f:0.7611845955830848"	1523
1	0	"Chromosome"	"S54_LN:i:3005_dp:f:2.090848001846648"	3005
1	0	"Chromosome"	"S57_LN:i:1628_dp:f:7.230489107737512"	1628
1	0	"Chromosome"	"S58_LN:i:1596_dp:f:0.956850458333277"	1596
1	0	"Chromosome"	"S60_LN:i:1517_dp:f:1.8157502029915153"	1517
1	0	"Chromosome"	"S62_LN:i:1382_dp:f:2.233253519308577"	1382
1	0	"Chromosome"	"S61_LN:i:1481_dp:f:2.312423291148067"	1481
1	0	"Chromosome"	"S53_LN:i:3149_dp:f:7.6540662397796035"	3149
1	0	"Chromosome"	"S63_LN:i:1337_dp:f:4.772092036646224"	1337
1	0	"Chromosome"	"S65_LN:i:1270_dp:f:1.0248555841038596"	1270
1	0	"Chromosome"	"S64_LN:i:1270_dp:f:0.9701005482386437"	1270
1	0	"Chromosome"	"S68_LN:i:1001_dp:f:0.9374551694195816"	1001
1	0	"Chromosome"	"S67_LN:i:1173_dp:f:2.0995463930477793"	1173
1	0	"Chromosome"	"S69_LN:i:1001_dp:f:0.9678310106715754"	1001
0	1	"Plasmid"	"S66_LN:i:1258_dp:f:3.7240621326109045"	1258
