"Prob_Chromosome"	"Prob_Plasmid"	"Prediction"	"Contig_name"	"Contig_length"
1	0	"Chromosome"	"S7_LN:i:186959_dp:f:0.9183693698878033"	186959
1	0	"Chromosome"	"S8_LN:i:186304_dp:f:0.9819401723687385"	186304
1	0	"Chromosome"	"S4_LN:i:239914_dp:f:0.9277766693030309"	239914
1	0	"Chromosome"	"S5_LN:i:234844_dp:f:1.071011675746205"	234844
1	0	"Chromosome"	"S3_LN:i:308139_dp:f:0.9522601515862917"	308139
1	0	"Chromosome"	"S6_LN:i:191919_dp:f:1.0"	191919
1	0	"Chromosome"	"S1_LN:i:347659_dp:f:1.0308837429215925"	347659
1	0	"Chromosome"	"S2_LN:i:340064_dp:f:1.0481539551005037"	340064
1	0	"Chromosome"	"S10_LN:i:148774_dp:f:0.9844754564884308"	148774
1	0	"Chromosome"	"S9_LN:i:161238_dp:f:1.0190111372241974"	161238
1	0	"Chromosome"	"S11_LN:i:142601_dp:f:0.9804855645240308"	142601
1	0	"Chromosome"	"S12_LN:i:138196_dp:f:1.0093767139844882"	138196
1	0	"Chromosome"	"S13_LN:i:124545_dp:f:1.0372644705467078"	124545
1	0	"Chromosome"	"S16_LN:i:119309_dp:f:1.027806290571538"	119309
1	0	"Chromosome"	"S14_LN:i:122280_dp:f:0.9835875740635721"	122280
1	0	"Chromosome"	"S15_LN:i:122226_dp:f:0.9307391005824364"	122226
1	0	"Chromosome"	"S24_LN:i:70826_dp:f:1.0496979626729108"	70826
1	0	"Chromosome"	"S23_LN:i:72754_dp:f:1.0133048796425346"	72754
1	0	"Chromosome"	"S20_LN:i:93643_dp:f:1.0428191093676276"	93643
1	0	"Chromosome"	"S21_LN:i:90064_dp:f:0.933673372950958"	90064
1	0	"Chromosome"	"S19_LN:i:106470_dp:f:0.9756523725367415"	106470
1	0	"Chromosome"	"S22_LN:i:88511_dp:f:1.0873998953801562"	88511
1	0	"Chromosome"	"S18_LN:i:111967_dp:f:0.9599023169317976"	111967
1	0	"Chromosome"	"S17_LN:i:117916_dp:f:0.9663166892075158"	117916
1	0	"Chromosome"	"S29_LN:i:38452_dp:f:1.0103564600550374"	38452
1	0	"Chromosome"	"S31_LN:i:37406_dp:f:0.9659252634890545"	37406
1	0	"Chromosome"	"S30_LN:i:38423_dp:f:1.086721524634193"	38423
1	0	"Chromosome"	"S32_LN:i:36561_dp:f:0.9035411651819758"	36561
1	0	"Chromosome"	"S28_LN:i:48449_dp:f:1.02060704788938"	48449
1	0	"Chromosome"	"S26_LN:i:63011_dp:f:1.006301064222395"	63011
1	0	"Chromosome"	"S27_LN:i:58763_dp:f:0.9753907082287818"	58763
1	0	"Chromosome"	"S25_LN:i:70459_dp:f:1.0555039465522706"	70459
1	0	"Chromosome"	"S34_LN:i:32960_dp:f:1.048068771254892"	32960
1	0	"Chromosome"	"S35_LN:i:32380_dp:f:0.944604534786678"	32380
1	0	"Chromosome"	"S36_LN:i:31574_dp:f:0.9706198209727421"	31574
1	0	"Chromosome"	"S37_LN:i:31008_dp:f:0.9457924373373869"	31008
1	0	"Chromosome"	"S39_LN:i:28546_dp:f:0.9651234524594882"	28546
1	0	"Chromosome"	"S38_LN:i:29778_dp:f:1.0410399226402238"	29778
1	0	"Chromosome"	"S40_LN:i:27547_dp:f:1.0067100723444715"	27547
1	0	"Chromosome"	"S33_LN:i:34928_dp:f:1.0283846554624558"	34928
1	0	"Chromosome"	"S44_LN:i:22617_dp:f:1.0600355211157102"	22617
1	0	"Chromosome"	"S48_LN:i:15404_dp:f:1.1513646134292306"	15404
1	0	"Chromosome"	"S45_LN:i:20295_dp:f:0.9526571710165885"	20295
1	0	"Chromosome"	"S41_LN:i:27332_dp:f:1.0030625250257925"	27332
1	0	"Chromosome"	"S43_LN:i:26055_dp:f:1.0341213527570785"	26055
1	0	"Chromosome"	"S46_LN:i:20161_dp:f:1.0453214856945525"	20161
1	0	"Chromosome"	"S47_LN:i:18309_dp:f:0.9997768965466188"	18309
1	0	"Chromosome"	"S50_LN:i:12333_dp:f:1.2237255820934048"	12333
1	0	"Chromosome"	"S42_LN:i:26374_dp:f:0.9676323225918447"	26374
1	0	"Chromosome"	"S52_LN:i:11890_dp:f:1.335942661366448"	11890
1	0	"Chromosome"	"S54_LN:i:11144_dp:f:1.1970219988095465"	11144
1	0	"Chromosome"	"S51_LN:i:12194_dp:f:1.0548773523085422"	12194
1	0	"Chromosome"	"S55_LN:i:10811_dp:f:0.9513540448746242"	10811
1	0	"Chromosome"	"S49_LN:i:14799_dp:f:0.9867452883995337"	14799
1	0	"Chromosome"	"S53_LN:i:11635_dp:f:1.8157409959618966"	11635
1	0	"Chromosome"	"S56_LN:i:9988_dp:f:1.09818791219491"	9988
1	0	"Chromosome"	"S58_LN:i:9665_dp:f:0.9918582370827085"	9665
1	0	"Chromosome"	"S59_LN:i:9307_dp:f:1.0335228503118983"	9307
1	0	"Chromosome"	"S62_LN:i:7800_dp:f:1.4202809428959104"	7800
1	0	"Chromosome"	"S61_LN:i:9080_dp:f:1.1520865580732713"	9080
1	0	"Chromosome"	"S57_LN:i:9976_dp:f:1.0528605618788343"	9976
1	0	"Chromosome"	"S63_LN:i:7349_dp:f:1.8272935917852435"	7349
1	0	"Chromosome"	"S60_LN:i:9140_dp:f:1.013839037393238"	9140
1	0	"Chromosome"	"S64_LN:i:7245_dp:f:0.857043221957226"	7245
1	0	"Chromosome"	"S68_LN:i:6135_dp:f:1.0144130578331028"	6135
1	0	"Chromosome"	"S67_LN:i:6290_dp:f:1.2385947033971765"	6290
1	0	"Chromosome"	"S69_LN:i:6098_dp:f:0.9623914723882279"	6098
1	0	"Chromosome"	"S71_LN:i:5757_dp:f:0.8950032254499658"	5757
1	0	"Chromosome"	"S65_LN:i:7046_dp:f:1.0289826073857993"	7046
1	0	"Chromosome"	"S66_LN:i:7041_dp:f:0.8821792182210367"	7041
0	1	"Plasmid"	"S70_LN:i:5903_dp:f:0.2629874079314644"	5903
1	0	"Chromosome"	"S78_LN:i:3869_dp:f:0.9153059274187181"	3869
1	0	"Chromosome"	"S75_LN:i:4584_dp:f:0.9344503699880095"	4584
1	0	"Chromosome"	"S77_LN:i:4116_dp:f:1.0295671462391218"	4116
1	0	"Chromosome"	"S73_LN:i:4902_dp:f:1.0082979237332703"	4902
1	0	"Chromosome"	"S79_LN:i:3729_dp:f:1.881456161653082"	3729
0	1	"Plasmid"	"S72_LN:i:5633_dp:f:0.3285421418402494"	5633
1	0	"Chromosome"	"S76_LN:i:4410_dp:f:1.0880847599315506"	4410
0	1	"Plasmid"	"S74_LN:i:4788_dp:f:0.45933022426936865"	4788
1	0	"Chromosome"	"S80_LN:i:3643_dp:f:1.2961265726170375"	3643
1	0	"Chromosome"	"S82_LN:i:3578_dp:f:1.0611659650844316"	3578
1	0	"Chromosome"	"S81_LN:i:3600_dp:f:1.0096769241869268"	3600
1	0	"Chromosome"	"S84_LN:i:3467_dp:f:0.8020895674348646"	3467
1	0	"Chromosome"	"S83_LN:i:3472_dp:f:0.937794040379642"	3472
1	0	"Chromosome"	"S85_LN:i:3396_dp:f:1.2499492961352698"	3396
1	0	"Chromosome"	"S87_LN:i:3047_dp:f:1.25605753186922"	3047
1	0	"Chromosome"	"S88_LN:i:2647_dp:f:1.04149361931434"	2647
1	0	"Chromosome"	"S86_LN:i:3130_dp:f:8.127019008180225"	3130
1	0	"Chromosome"	"S89_LN:i:2617_dp:f:1.2534740409548075"	2617
1	0	"Chromosome"	"S91_LN:i:2492_dp:f:1.0735885568943748"	2492
1	0	"Chromosome"	"S90_LN:i:2560_dp:f:1.0892422807497053"	2560
1	0	"Chromosome"	"S93_LN:i:2342_dp:f:1.752404882274845"	2342
1	0	"Chromosome"	"S94_LN:i:2216_dp:f:0.8910699506923035"	2216
0.5	0.5	"Plasmid"	"S92_LN:i:2467_dp:f:11.981973486024346"	2467
1	0	"Chromosome"	"S96_LN:i:2005_dp:f:0.8647861687806178"	2005
1	0	"Chromosome"	"S99_LN:i:1776_dp:f:1.3667296024643065"	1776
1	0	"Chromosome"	"S95_LN:i:2163_dp:f:1.1463700845226759"	2163
0	1	"Plasmid"	"S98_LN:i:1938_dp:f:0.6463470838068105"	1938
1	0	"Chromosome"	"S101_LN:i:1727_dp:f:3.5018553729804123"	1727
1	0	"Chromosome"	"S102_LN:i:1725_dp:f:2.6836441218363136"	1725
1	0	"Chromosome"	"S97_LN:i:1987_dp:f:2.278801911451629"	1987
1	0	"Chromosome"	"S100_LN:i:1732_dp:f:7.978536987382189"	1732
1	0	"Chromosome"	"S103_LN:i:1687_dp:f:0.9799857437778619"	1687
1	0	"Chromosome"	"S105_LN:i:1670_dp:f:0.937218410912469"	1670
1	0	"Chromosome"	"S106_LN:i:1657_dp:f:1.1697017476337908"	1657
1	0	"Chromosome"	"S110_LN:i:1514_dp:f:2.3526932420242446"	1514
1	0	"Chromosome"	"S107_LN:i:1636_dp:f:2.466137819656123"	1636
1	0	"Chromosome"	"S109_LN:i:1534_dp:f:1.2954123119999843"	1534
1	0	"Chromosome"	"S108_LN:i:1596_dp:f:0.9010736579594399"	1596
0	1	"Plasmid"	"S104_LN:i:1675_dp:f:0.49973276831041513"	1675
1	0	"Chromosome"	"S112_LN:i:1347_dp:f:1.175512981695173"	1347
1	0	"Chromosome"	"S114_LN:i:1289_dp:f:0.9745670690081628"	1289
1	0	"Chromosome"	"S115_LN:i:1272_dp:f:2.1348454352548467"	1272
1	0	"Chromosome"	"S113_LN:i:1309_dp:f:2.0779985465471915"	1309
1	0	"Chromosome"	"S111_LN:i:1451_dp:f:4.67261172621235"	1451
1	0	"Chromosome"	"S117_LN:i:1194_dp:f:0.972976666481516"	1194
1	0	"Chromosome"	"S118_LN:i:1189_dp:f:0.7307421851400163"	1189
0.5	0.5	"Plasmid"	"S116_LN:i:1230_dp:f:6.963954219599395"	1230
1	0	"Chromosome"	"S121_LN:i:1141_dp:f:0.806301727943645"	1141
1	0	"Chromosome"	"S122_LN:i:1091_dp:f:2.0855996037851"	1091
1	0	"Chromosome"	"S124_LN:i:1019_dp:f:2.260227482642696"	1019
1	0	"Chromosome"	"S123_LN:i:1075_dp:f:2.141329731899764"	1075
1	0	"Chromosome"	"S120_LN:i:1146_dp:f:3.871396561274911"	1146
1	0	"Chromosome"	"S119_LN:i:1151_dp:f:1.9986705672791292"	1151
