"Prob_Chromosome"	"Prob_Plasmid"	"Prediction"	"Contig_name"	"Contig_length"
1	0	"Chromosome"	"S7_LN:i:215869_dp:f:0.7830538018730733"	215869
1	0	"Chromosome"	"S6_LN:i:218179_dp:f:1.0198264440670257"	218179
1	0	"Chromosome"	"S5_LN:i:220625_dp:f:1.2109147572654022"	220625
1	0	"Chromosome"	"S4_LN:i:227268_dp:f:0.825669607469096"	227268
1	0	"Chromosome"	"S8_LN:i:213894_dp:f:1.2088752689277893"	213894
1	0	"Chromosome"	"S2_LN:i:354649_dp:f:0.9615001891544367"	354649
1	0	"Chromosome"	"S3_LN:i:325876_dp:f:0.8534243521027389"	325876
1	0	"Chromosome"	"S12_LN:i:132317_dp:f:1.4351172313209448"	132317
1	0	"Chromosome"	"S13_LN:i:124560_dp:f:1.4226601678004307"	124560
1	0	"Chromosome"	"S11_LN:i:169087_dp:f:1.0919823720010062"	169087
1	0	"Chromosome"	"S9_LN:i:202436_dp:f:1.3306978931968645"	202436
1	0	"Chromosome"	"S1_LN:i:434214_dp:f:1.0"	434214
1	0	"Chromosome"	"S10_LN:i:188191_dp:f:1.2584120262890435"	188191
1	0	"Chromosome"	"S14_LN:i:122755_dp:f:1.177353792797739"	122755
1	0	"Chromosome"	"S15_LN:i:120584_dp:f:1.1298013434116643"	120584
1	0	"Chromosome"	"S17_LN:i:119428_dp:f:1.3065675848001117"	119428
1	0	"Chromosome"	"S16_LN:i:120496_dp:f:1.0751587080865495"	120496
1	0	"Chromosome"	"S18_LN:i:113001_dp:f:1.467123006904392"	113001
1	0	"Chromosome"	"S19_LN:i:108895_dp:f:1.457084580220637"	108895
1	0	"Chromosome"	"S21_LN:i:107350_dp:f:1.2001544700536553"	107350
1	0	"Chromosome"	"S26_LN:i:50191_dp:f:0.8083945238588787"	50191
1	0	"Chromosome"	"S27_LN:i:46543_dp:f:1.3031852966184838"	46543
1	0	"Chromosome"	"S25_LN:i:53678_dp:f:1.4032237975947015"	53678
1	0	"Chromosome"	"S23_LN:i:78989_dp:f:1.0777245121862218"	78989
1	0	"Chromosome"	"S24_LN:i:57843_dp:f:1.0491479310059009"	57843
1	0	"Chromosome"	"S20_LN:i:107629_dp:f:0.9178026154151616"	107629
1	0	"Chromosome"	"S29_LN:i:41219_dp:f:1.4061017419251742"	41219
1	0	"Chromosome"	"S28_LN:i:42912_dp:f:0.9189013572358892"	42912
1	0	"Chromosome"	"S22_LN:i:104942_dp:f:1.3496079178867262"	104942
1	0	"Chromosome"	"S30_LN:i:40002_dp:f:0.7972537718356109"	40002
1	0	"Chromosome"	"S33_LN:i:30601_dp:f:0.9207860259082582"	30601
1	0	"Chromosome"	"S34_LN:i:29665_dp:f:1.4019810157993846"	29665
1	0	"Chromosome"	"S32_LN:i:33105_dp:f:0.7511492388445861"	33105
1	0	"Chromosome"	"S37_LN:i:19443_dp:f:1.3053056909046068"	19443
1	0	"Chromosome"	"S31_LN:i:39790_dp:f:1.1103947633355917"	39790
1	0	"Chromosome"	"S36_LN:i:22724_dp:f:0.9697809144411583"	22724
0	1	"Plasmid"	"S35_LN:i:26377_dp:f:1.1758546874392277"	26377
1	0	"Chromosome"	"S41_LN:i:15220_dp:f:0.6109938568873702"	15220
0	1	"Plasmid"	"S38_LN:i:18606_dp:f:1.1047283073656897"	18606
1	0	"Chromosome"	"S40_LN:i:17811_dp:f:0.9105305486964513"	17811
1	0	"Chromosome"	"S42_LN:i:15095_dp:f:1.2302029742914575"	15095
1	0	"Chromosome"	"S44_LN:i:12770_dp:f:0.9214267765476467"	12770
1	0	"Chromosome"	"S39_LN:i:17896_dp:f:0.9239557467916462"	17896
1	0	"Chromosome"	"S43_LN:i:13657_dp:f:1.0722276565782844"	13657
0	1	"Plasmid"	"S45_LN:i:12459_dp:f:1.138471273799627"	12459
1	0	"Chromosome"	"S47_LN:i:11706_dp:f:1.2073378811003035"	11706
1	0	"Chromosome"	"S48_LN:i:11548_dp:f:1.0837954300229826"	11548
1	0	"Chromosome"	"S46_LN:i:12328_dp:f:1.354689842807346"	12328
1	0	"Chromosome"	"S49_LN:i:11518_dp:f:0.9941098463777548"	11518
1	0	"Chromosome"	"S53_LN:i:10652_dp:f:1.30621230101471"	10652
1	0	"Chromosome"	"S56_LN:i:8856_dp:f:1.0150845746851203"	8856
1	0	"Chromosome"	"S50_LN:i:11330_dp:f:0.9407184022866928"	11330
0	1	"Plasmid"	"S51_LN:i:10849_dp:f:0.9339638189880172"	10849
1	0	"Chromosome"	"S54_LN:i:10217_dp:f:1.1061335420126062"	10217
1	0	"Chromosome"	"S55_LN:i:10062_dp:f:0.8807168652062303"	10062
0	1	"Plasmid"	"S52_LN:i:10779_dp:f:1.1097217805543413"	10779
1	0	"Chromosome"	"S59_LN:i:6395_dp:f:0.8998783788685433"	6395
1	0	"Chromosome"	"S60_LN:i:6393_dp:f:0.9052717785804925"	6393
1	0	"Chromosome"	"S62_LN:i:6012_dp:f:1.1959957501506264"	6012
1	0	"Chromosome"	"S61_LN:i:6177_dp:f:1.9312503086414807"	6177
1	0	"Chromosome"	"S57_LN:i:8478_dp:f:1.3168479427033222"	8478
0.5	0.5	"Plasmid"	"S64_LN:i:5587_dp:f:1.029331800480745"	5587
1	0	"Chromosome"	"S58_LN:i:7326_dp:f:1.1791188360381375"	7326
1	0	"Chromosome"	"S63_LN:i:5990_dp:f:0.8606828118269522"	5990
1	0	"Chromosome"	"S66_LN:i:4819_dp:f:1.2481868196139676"	4819
0	1	"Plasmid"	"S67_LN:i:4406_dp:f:1.05493744064797"	4406
0	1	"Plasmid"	"S68_LN:i:4378_dp:f:0.8876651932966056"	4378
1	0	"Chromosome"	"S69_LN:i:4312_dp:f:0.8972969051653801"	4312
0	1	"Plasmid"	"S65_LN:i:5159_dp:f:0.9937321051672446"	5159
1	0	"Chromosome"	"S70_LN:i:4242_dp:f:1.615024470626144"	4242
0	1	"Plasmid"	"S71_LN:i:4238_dp:f:0.6845589817329402"	4238
1	0	"Chromosome"	"S72_LN:i:3931_dp:f:0.921015604184909"	3931
1	0	"Chromosome"	"S73_LN:i:3873_dp:f:0.889038438483146"	3873
1	0	"Chromosome"	"S76_LN:i:3516_dp:f:0.9805966001499439"	3516
1	0	"Chromosome"	"S75_LN:i:3516_dp:f:0.8128404761651571"	3516
1	0	"Chromosome"	"S79_LN:i:3036_dp:f:1.3284630011154066"	3036
1	0	"Chromosome"	"S77_LN:i:3245_dp:f:10.660630981908911"	3245
1	0	"Chromosome"	"S78_LN:i:3216_dp:f:1.2766613142103562"	3216
1	0	"Chromosome"	"S80_LN:i:2673_dp:f:1.4016649086545037"	2673
0.5	0.5	"Plasmid"	"S74_LN:i:3763_dp:f:1.078977083106025"	3763
1	0	"Chromosome"	"S83_LN:i:2505_dp:f:0.7107990503966563"	2505
1	0	"Chromosome"	"S82_LN:i:2580_dp:f:1.0155060023211295"	2580
1	0	"Chromosome"	"S86_LN:i:2363_dp:f:0.9542952478607776"	2363
0.5	0.5	"Plasmid"	"S81_LN:i:2582_dp:f:2.4248783023910083"	2582
1	0	"Chromosome"	"S87_LN:i:2320_dp:f:0.8209052288928922"	2320
1	0	"Chromosome"	"S84_LN:i:2460_dp:f:2.857757932140682"	2460
1	0	"Chromosome"	"S85_LN:i:2403_dp:f:1.2674808634998362"	2403
1	0	"Chromosome"	"S88_LN:i:2288_dp:f:0.825265701165707"	2288
1	0	"Chromosome"	"S89_LN:i:2205_dp:f:0.7722913587231952"	2205
1	0	"Chromosome"	"S90_LN:i:2176_dp:f:2.3744721484112845"	2176
1	0	"Chromosome"	"S91_LN:i:2127_dp:f:2.108993102600367"	2127
1	0	"Chromosome"	"S94_LN:i:1631_dp:f:2.4516243755609266"	1631
1	0	"Chromosome"	"S92_LN:i:2009_dp:f:0.6136342984118456"	2009
1	0	"Chromosome"	"S93_LN:i:1673_dp:f:10.534405291021784"	1673
0	1	"Plasmid"	"S95_LN:i:1551_dp:f:0.9586496893336854"	1551
0.5	0.5	"Plasmid"	"S97_LN:i:1443_dp:f:3.0919871791603524"	1443
0	1	"Plasmid"	"S96_LN:i:1546_dp:f:25.869825368010726"	1546
1	0	"Chromosome"	"S98_LN:i:1428_dp:f:2.507790817480754"	1428
1	0	"Chromosome"	"S99_LN:i:1422_dp:f:1.9470271434067405"	1422
1	0	"Chromosome"	"S100_LN:i:1404_dp:f:0.6766675780846558"	1404
1	0	"Chromosome"	"S103_LN:i:1304_dp:f:2.1597851403712376"	1304
1	0	"Chromosome"	"S101_LN:i:1327_dp:f:2.069472717258474"	1327
0	1	"Plasmid"	"S102_LN:i:1311_dp:f:1.0094442035199769"	1311
1	0	"Chromosome"	"S104_LN:i:1299_dp:f:0.9622978571286022"	1299
1	0	"Chromosome"	"S106_LN:i:1181_dp:f:0.8868201820864557"	1181
1	0	"Chromosome"	"S105_LN:i:1218_dp:f:1.7205084634410435"	1218
1	0	"Chromosome"	"S107_LN:i:1172_dp:f:1.0633905827165724"	1172
1	0	"Chromosome"	"S112_LN:i:1019_dp:f:0.8603641991323514"	1019
0.5	0.5	"Plasmid"	"S108_LN:i:1149_dp:f:1.4201818242470494"	1149
1	0	"Chromosome"	"S109_LN:i:1114_dp:f:2.1184047631082863"	1114
1	0	"Chromosome"	"S110_LN:i:1104_dp:f:1.8479217266267538"	1104
1	0	"Chromosome"	"S113_LN:i:1018_dp:f:2.11670524290649"	1018
1	0	"Chromosome"	"S111_LN:i:1071_dp:f:1.3426097135792492"	1071
