"Prob_Chromosome"	"Prob_Plasmid"	"Prediction"	"Contig_name"	"Contig_length"
1	0	"Chromosome"	"S8_LN:i:160054_dp:f:1.0580492050800345"	160054
1	0	"Chromosome"	"S6_LN:i:225923_dp:f:1.0704140615576323"	225923
1	0	"Chromosome"	"S7_LN:i:206292_dp:f:1.0251449150397296"	206292
1	0	"Chromosome"	"S5_LN:i:250951_dp:f:0.9711491570572977"	250951
1	0	"Chromosome"	"S2_LN:i:344444_dp:f:1.0519358001084615"	344444
1	0	"Chromosome"	"S3_LN:i:334059_dp:f:0.9673043803750727"	334059
1	0	"Chromosome"	"S4_LN:i:313894_dp:f:1.0"	313894
1	0	"Chromosome"	"S9_LN:i:156815_dp:f:1.056051772995156"	156815
1	0	"Chromosome"	"S11_LN:i:147177_dp:f:1.0076441938731138"	147177
1	0	"Chromosome"	"S12_LN:i:133008_dp:f:0.9753746792953023"	133008
1	0	"Chromosome"	"S10_LN:i:156490_dp:f:1.0880374586265218"	156490
1	0	"Chromosome"	"S1_LN:i:475836_dp:f:0.9764514482976816"	475836
1	0	"Chromosome"	"S16_LN:i:103401_dp:f:0.9836182200187088"	103401
1	0	"Chromosome"	"S15_LN:i:107498_dp:f:0.9929948056981085"	107498
1	0	"Chromosome"	"S14_LN:i:109489_dp:f:0.9744603536997408"	109489
1	0	"Chromosome"	"S13_LN:i:126711_dp:f:1.0303926165247788"	126711
1	0	"Chromosome"	"S19_LN:i:90881_dp:f:1.0006254278545956"	90881
1	0	"Chromosome"	"S17_LN:i:94722_dp:f:1.0380617863643065"	94722
1	0	"Chromosome"	"S18_LN:i:94694_dp:f:1.012357343760329"	94694
1	0	"Chromosome"	"S20_LN:i:86407_dp:f:0.9672445147216483"	86407
1	0	"Chromosome"	"S23_LN:i:66104_dp:f:1.067494953891139"	66104
1	0	"Chromosome"	"S22_LN:i:81991_dp:f:1.1112575642216567"	81991
1	0	"Chromosome"	"S28_LN:i:49387_dp:f:1.0096630973286496"	49387
1	0	"Chromosome"	"S27_LN:i:52551_dp:f:0.9661460237854457"	52551
1	0	"Chromosome"	"S21_LN:i:85461_dp:f:0.9932165713978123"	85461
1	0	"Chromosome"	"S26_LN:i:64495_dp:f:1.0466117113781184"	64495
1	0	"Chromosome"	"S24_LN:i:66060_dp:f:1.0708781517840822"	66060
1	0	"Chromosome"	"S25_LN:i:65098_dp:f:1.0408672368975669"	65098
1	0	"Chromosome"	"S29_LN:i:42151_dp:f:0.9445202719534149"	42151
1	0	"Chromosome"	"S32_LN:i:35149_dp:f:1.0537782433509428"	35149
1	0	"Chromosome"	"S31_LN:i:38726_dp:f:1.154405002317806"	38726
1	0	"Chromosome"	"S34_LN:i:30740_dp:f:1.0016524304397822"	30740
1	0	"Chromosome"	"S36_LN:i:27504_dp:f:1.2880927028819629"	27504
1	0	"Chromosome"	"S35_LN:i:29495_dp:f:0.954816251853575"	29495
1	0	"Chromosome"	"S30_LN:i:40603_dp:f:1.110180939806873"	40603
1	0	"Chromosome"	"S33_LN:i:34385_dp:f:1.1090209834097178"	34385
0	1	"Plasmid"	"S37_LN:i:27274_dp:f:0.8951085049437006"	27274
1	0	"Chromosome"	"S42_LN:i:19145_dp:f:1.2652800341632078"	19145
1	0	"Chromosome"	"S39_LN:i:25715_dp:f:1.123551107564785"	25715
1	0	"Chromosome"	"S44_LN:i:18750_dp:f:1.210852530111843"	18750
1	0	"Chromosome"	"S38_LN:i:26142_dp:f:1.092041448744098"	26142
1	0	"Chromosome"	"S41_LN:i:21079_dp:f:0.9828357502829751"	21079
1	0	"Chromosome"	"S43_LN:i:19132_dp:f:1.0534782142176338"	19132
1	0	"Chromosome"	"S40_LN:i:24858_dp:f:0.9717344971340003"	24858
1	0	"Chromosome"	"S47_LN:i:17048_dp:f:1.0544470449093464"	17048
1	0	"Chromosome"	"S45_LN:i:18284_dp:f:1.1158230065600814"	18284
1	0	"Chromosome"	"S50_LN:i:14686_dp:f:1.0516346441197375"	14686
1	0	"Chromosome"	"S46_LN:i:17157_dp:f:0.9941817225420458"	17157
1	0	"Chromosome"	"S48_LN:i:15892_dp:f:1.0423595562250294"	15892
0	1	"Plasmid"	"S49_LN:i:14961_dp:f:1.03353208820139"	14961
1	0	"Chromosome"	"S51_LN:i:14675_dp:f:0.9112388326430596"	14675
0	1	"Plasmid"	"S52_LN:i:13990_dp:f:1.1161708114050986"	13990
0	1	"Plasmid"	"S53_LN:i:13943_dp:f:0.9779663656417006"	13943
1	0	"Chromosome"	"S57_LN:i:9688_dp:f:0.9837896875682259"	9688
1	0	"Chromosome"	"S58_LN:i:8566_dp:f:1.0899113411869816"	8566
1	0	"Chromosome"	"S54_LN:i:13334_dp:f:1.040822556678182"	13334
0	1	"Plasmid"	"S59_LN:i:8254_dp:f:1.1089515976572606"	8254
1	0	"Chromosome"	"S55_LN:i:13249_dp:f:0.9601296716300735"	13249
1	0	"Chromosome"	"S60_LN:i:8047_dp:f:0.8920713013247932"	8047
1	0	"Chromosome"	"S56_LN:i:12388_dp:f:1.065012375534614"	12388
0	1	"Plasmid"	"S61_LN:i:7936_dp:f:17.680680147227857"	7936
1	0	"Chromosome"	"S62_LN:i:7825_dp:f:1.1930917514488555"	7825
1	0	"Chromosome"	"S63_LN:i:7010_dp:f:1.117330399966294"	7010
1	0	"Chromosome"	"S66_LN:i:5452_dp:f:0.9627739813459698"	5452
0	1	"Plasmid"	"S69_LN:i:4950_dp:f:1.0112182025853134"	4950
1	0	"Chromosome"	"S64_LN:i:5892_dp:f:3.383148423471598"	5892
1	0	"Chromosome"	"S68_LN:i:5006_dp:f:0.9687660368068788"	5006
1	0	"Chromosome"	"S67_LN:i:5234_dp:f:1.117725741445216"	5234
1	0	"Chromosome"	"S65_LN:i:5862_dp:f:1.0354264126922874"	5862
1	0	"Chromosome"	"S71_LN:i:4357_dp:f:1.2613008663897345"	4357
1	0	"Chromosome"	"S70_LN:i:4923_dp:f:0.967232169897285"	4923
0.5	0.5	"Plasmid"	"S73_LN:i:4068_dp:f:1.2057060545488676"	4068
1	0	"Chromosome"	"S72_LN:i:4226_dp:f:1.1088170313494656"	4226
0.5	0.5	"Plasmid"	"S75_LN:i:3539_dp:f:1.1821156703409637"	3539
1	0	"Chromosome"	"S76_LN:i:3305_dp:f:1.1311880416298075"	3305
0	1	"Plasmid"	"S78_LN:i:3004_dp:f:0.9811752814762842"	3004
0	1	"Plasmid"	"S74_LN:i:3764_dp:f:1.0459623588563882"	3764
1	0	"Chromosome"	"S77_LN:i:3246_dp:f:7.68579204924935"	3246
0	1	"Plasmid"	"S79_LN:i:2988_dp:f:0.8109952191836367"	2988
0	1	"Plasmid"	"S80_LN:i:2988_dp:f:1.1294050194112053"	2988
1	0	"Chromosome"	"S83_LN:i:2774_dp:f:1.028037939760426"	2774
0	1	"Plasmid"	"S82_LN:i:2823_dp:f:1.0445739429410648"	2823
0	1	"Plasmid"	"S81_LN:i:2937_dp:f:1.7143761046369375"	2937
0	1	"Plasmid"	"S85_LN:i:2574_dp:f:0.8339968764101318"	2574
0	1	"Plasmid"	"S86_LN:i:2291_dp:f:1.2938080914157777"	2291
0	1	"Plasmid"	"S84_LN:i:2628_dp:f:2.0500871531743288"	2628
0	1	"Plasmid"	"S88_LN:i:2213_dp:f:2.2730909173776617"	2213
0	1	"Plasmid"	"S87_LN:i:2278_dp:f:0.9307146682185728"	2278
1	0	"Chromosome"	"S90_LN:i:2100_dp:f:1.1492553749522159"	2100
0	1	"Plasmid"	"S94_LN:i:1823_dp:f:1.1762822936444772"	1823
1	0	"Chromosome"	"S91_LN:i:2058_dp:f:1.008734800064719"	2058
1	0	"Chromosome"	"S93_LN:i:1974_dp:f:2.8965101052884905"	1974
1	0	"Chromosome"	"S89_LN:i:2195_dp:f:1.311331907080678"	2195
0	1	"Plasmid"	"S92_LN:i:2047_dp:f:0.9172314583655955"	2047
0	1	"Plasmid"	"S95_LN:i:1812_dp:f:2.1436309454003264"	1812
1	0	"Chromosome"	"S99_LN:i:1630_dp:f:2.9308808750987434"	1630
1	0	"Chromosome"	"S101_LN:i:1498_dp:f:0.984416145127866"	1498
1	0	"Chromosome"	"S102_LN:i:1484_dp:f:0.9711690733380954"	1484
1	0	"Chromosome"	"S100_LN:i:1500_dp:f:0.9832015440267776"	1500
0	1	"Plasmid"	"S97_LN:i:1790_dp:f:2.2083863669910095"	1790
0	1	"Plasmid"	"S103_LN:i:1461_dp:f:1.8188523580720108"	1461
1	0	"Chromosome"	"S96_LN:i:1809_dp:f:1.2233988407046543"	1809
0.5	0.5	"Plasmid"	"S98_LN:i:1774_dp:f:1.1517666369037207"	1774
0.5	0.5	"Plasmid"	"S104_LN:i:1459_dp:f:7.674999819683076"	1459
1	0	"Chromosome"	"S106_LN:i:1447_dp:f:3.37562737001947"	1447
1	0	"Chromosome"	"S108_LN:i:1381_dp:f:2.0516787618782026"	1381
1	0	"Chromosome"	"S105_LN:i:1458_dp:f:1.2147903349587599"	1458
0	1	"Plasmid"	"S109_LN:i:1359_dp:f:1.800333487638922"	1359
0	1	"Plasmid"	"S107_LN:i:1382_dp:f:1.1178263741484844"	1382
0	1	"Plasmid"	"S110_LN:i:1346_dp:f:1.2423613594337548"	1346
0	1	"Plasmid"	"S111_LN:i:1341_dp:f:4.510294098490052"	1341
0	1	"Plasmid"	"S115_LN:i:1258_dp:f:2.3156220474131004"	1258
0	1	"Plasmid"	"S112_LN:i:1340_dp:f:0.9351278473779948"	1340
0	1	"Plasmid"	"S113_LN:i:1320_dp:f:0.9099668680960806"	1320
1	0	"Chromosome"	"S114_LN:i:1277_dp:f:1.8569518528051183"	1277
1	0	"Chromosome"	"S116_LN:i:1230_dp:f:1.0323639778906681"	1230
1	0	"Chromosome"	"S117_LN:i:1226_dp:f:2.8697457777940794"	1226
1	0	"Chromosome"	"S119_LN:i:1216_dp:f:1.1301379647959136"	1216
1	0	"Chromosome"	"S120_LN:i:1201_dp:f:0.8991003467140454"	1201
0	1	"Plasmid"	"S118_LN:i:1219_dp:f:2.2421228529025408"	1219
1	0	"Chromosome"	"S122_LN:i:1174_dp:f:2.2784806951623624"	1174
1	0	"Chromosome"	"S121_LN:i:1193_dp:f:2.86001787193742"	1193
1	0	"Chromosome"	"S124_LN:i:1109_dp:f:1.107662996767988"	1109
1	0	"Chromosome"	"S123_LN:i:1143_dp:f:0.8674420458563193"	1143
1	0	"Chromosome"	"S125_LN:i:1061_dp:f:2.320562978810907"	1061
0.5	0.5	"Plasmid"	"S127_LN:i:1011_dp:f:1.7178440489329236"	1011
0.5	0.5	"Plasmid"	"S126_LN:i:1033_dp:f:5.705873048818011"	1033
