"Prob_Chromosome"	"Prob_Plasmid"	"Prediction"	"Contig_name"	"Contig_length"
1	0	"Chromosome"	"S3_LN:i:115286_dp:f:1.0935839656406119"	115286
1	0	"Chromosome"	"S5_LN:i:102232_dp:f:1.0842616302114128"	102232
1	0	"Chromosome"	"S4_LN:i:113840_dp:f:0.9370660173128735"	113840
1	0	"Chromosome"	"S1_LN:i:124379_dp:f:1.1308465954056581"	124379
1	0	"Chromosome"	"S2_LN:i:119432_dp:f:0.8592570336654473"	119432
1	0	"Chromosome"	"S6_LN:i:102207_dp:f:0.9094164597689366"	102207
1	0	"Chromosome"	"S7_LN:i:100787_dp:f:0.9695919990972227"	100787
1	0	"Chromosome"	"S9_LN:i:94437_dp:f:1.00731819011348"	94437
1	0	"Chromosome"	"S10_LN:i:94083_dp:f:0.8669523832042305"	94083
1	0	"Chromosome"	"S13_LN:i:84562_dp:f:1.106737083844355"	84562
1	0	"Chromosome"	"S11_LN:i:91526_dp:f:0.9454254466033376"	91526
1	0	"Chromosome"	"S12_LN:i:87333_dp:f:1.144164702202593"	87333
1	0	"Chromosome"	"S8_LN:i:100346_dp:f:1.0"	100346
1	0	"Chromosome"	"S16_LN:i:77878_dp:f:1.0176501664352762"	77878
1	0	"Chromosome"	"S15_LN:i:79179_dp:f:1.1133127704482175"	79179
1	0	"Chromosome"	"S17_LN:i:77065_dp:f:1.0329731898058176"	77065
1	0	"Chromosome"	"S19_LN:i:70282_dp:f:1.1592005992381174"	70282
1	0	"Chromosome"	"S22_LN:i:62499_dp:f:0.8272074421669278"	62499
1	0	"Chromosome"	"S20_LN:i:69927_dp:f:1.0898681268403998"	69927
1	0	"Chromosome"	"S18_LN:i:76539_dp:f:0.9775240643059834"	76539
1	0	"Chromosome"	"S14_LN:i:84256_dp:f:0.8878232400658209"	84256
1	0	"Chromosome"	"S25_LN:i:58906_dp:f:1.0942472581498122"	58906
1	0	"Chromosome"	"S26_LN:i:58753_dp:f:1.0354742863124347"	58753
1	0	"Chromosome"	"S21_LN:i:62904_dp:f:1.145304194973576"	62904
1	0	"Chromosome"	"S27_LN:i:58127_dp:f:1.062203123056071"	58127
1	0	"Chromosome"	"S24_LN:i:60554_dp:f:1.1155952409105072"	60554
1	0	"Chromosome"	"S28_LN:i:57554_dp:f:1.0731368352575392"	57554
1	0	"Chromosome"	"S23_LN:i:61645_dp:f:0.9926523296708768"	61645
1	0	"Chromosome"	"S29_LN:i:57151_dp:f:1.0976185019139355"	57151
1	0	"Chromosome"	"S31_LN:i:55829_dp:f:0.9140327682352979"	55829
1	0	"Chromosome"	"S30_LN:i:56481_dp:f:1.0909027263374387"	56481
1	0	"Chromosome"	"S33_LN:i:55580_dp:f:0.9702205714984071"	55580
1	0	"Chromosome"	"S35_LN:i:54852_dp:f:1.046295504278079"	54852
1	0	"Chromosome"	"S34_LN:i:55245_dp:f:0.9069978336987178"	55245
1	0	"Chromosome"	"S32_LN:i:55791_dp:f:0.9565150393961294"	55791
1	0	"Chromosome"	"S38_LN:i:47195_dp:f:1.0241840075599165"	47195
1	0	"Chromosome"	"S36_LN:i:51739_dp:f:1.0455344036772583"	51739
1	0	"Chromosome"	"S40_LN:i:45333_dp:f:1.214042516468909"	45333
1	0	"Chromosome"	"S44_LN:i:41255_dp:f:1.0771503331542311"	41255
1	0	"Chromosome"	"S41_LN:i:42824_dp:f:0.9633312863033502"	42824
1	0	"Chromosome"	"S37_LN:i:48395_dp:f:0.9258329690217497"	48395
1	0	"Chromosome"	"S43_LN:i:41677_dp:f:1.1681584956914626"	41677
1	0	"Chromosome"	"S42_LN:i:42236_dp:f:1.1945561205211772"	42236
1	0	"Chromosome"	"S39_LN:i:46753_dp:f:0.8773564440941244"	46753
1	0	"Chromosome"	"S47_LN:i:39620_dp:f:1.023850379625969"	39620
1	0	"Chromosome"	"S48_LN:i:39454_dp:f:1.004434781208891"	39454
1	0	"Chromosome"	"S46_LN:i:39829_dp:f:1.1613992317544948"	39829
1	0	"Chromosome"	"S53_LN:i:34857_dp:f:0.9432521415777962"	34857
1	0	"Chromosome"	"S51_LN:i:38565_dp:f:1.0650001141501595"	38565
1	0	"Chromosome"	"S52_LN:i:35192_dp:f:0.8683224294368097"	35192
1	0	"Chromosome"	"S50_LN:i:38714_dp:f:0.8979285288612457"	38714
1	0	"Chromosome"	"S56_LN:i:32224_dp:f:0.925658846625158"	32224
1	0	"Chromosome"	"S54_LN:i:34686_dp:f:1.1067564597249595"	34686
1	0	"Chromosome"	"S55_LN:i:33225_dp:f:0.9812902062992965"	33225
1	0	"Chromosome"	"S57_LN:i:32136_dp:f:0.9946831271649336"	32136
1	0	"Chromosome"	"S59_LN:i:31387_dp:f:1.0389318552864812"	31387
1	0	"Chromosome"	"S49_LN:i:39326_dp:f:1.1597917911946276"	39326
1	0	"Chromosome"	"S58_LN:i:31586_dp:f:0.9176257157696857"	31586
0	1	"Plasmid"	"S45_LN:i:40034_dp:f:4.196611257735777"	40034
1	0	"Chromosome"	"S60_LN:i:30986_dp:f:0.9019463435036323"	30986
1	0	"Chromosome"	"S61_LN:i:30853_dp:f:0.9683375474885841"	30853
1	0	"Chromosome"	"S63_LN:i:29971_dp:f:0.9552542775566695"	29971
1	0	"Chromosome"	"S62_LN:i:30510_dp:f:0.8871941790313729"	30510
1	0	"Chromosome"	"S64_LN:i:29907_dp:f:1.0662015547604649"	29907
1	0	"Chromosome"	"S65_LN:i:29808_dp:f:1.1388304529257667"	29808
1	0	"Chromosome"	"S68_LN:i:29472_dp:f:0.9373906598240274"	29472
1	0	"Chromosome"	"S67_LN:i:29523_dp:f:0.8704005595610965"	29523
1	0	"Chromosome"	"S74_LN:i:24772_dp:f:0.9789315995684065"	24772
1	0	"Chromosome"	"S70_LN:i:29073_dp:f:1.1693140590675632"	29073
1	0	"Chromosome"	"S73_LN:i:25045_dp:f:0.8906967292596564"	25045
1	0	"Chromosome"	"S71_LN:i:27253_dp:f:0.9541542283485852"	27253
1	0	"Chromosome"	"S66_LN:i:29792_dp:f:1.2320534571305615"	29792
1	0	"Chromosome"	"S69_LN:i:29383_dp:f:0.90352471343919"	29383
1	0	"Chromosome"	"S76_LN:i:23400_dp:f:0.8117457131599909"	23400
1	0	"Chromosome"	"S72_LN:i:25268_dp:f:1.031059430482186"	25268
1	0	"Chromosome"	"S77_LN:i:22588_dp:f:0.6125098313691316"	22588
1	0	"Chromosome"	"S80_LN:i:21463_dp:f:0.9784171230342997"	21463
1	0	"Chromosome"	"S79_LN:i:22409_dp:f:0.8693914775789404"	22409
0	1	"Plasmid"	"S78_LN:i:22579_dp:f:2.6619209699218263"	22579
1	0	"Chromosome"	"S82_LN:i:21282_dp:f:0.9461288341864552"	21282
1	0	"Chromosome"	"S81_LN:i:21361_dp:f:0.7369163217979054"	21361
1	0	"Chromosome"	"S75_LN:i:24095_dp:f:0.8135353748630163"	24095
0	1	"Plasmid"	"S88_LN:i:18362_dp:f:2.3821110493472633"	18362
0	1	"Plasmid"	"S84_LN:i:20684_dp:f:1.755978611219025"	20684
1	0	"Chromosome"	"S85_LN:i:20545_dp:f:0.843033459189879"	20545
1	0	"Chromosome"	"S86_LN:i:20402_dp:f:0.8605790038141354"	20402
1	0	"Chromosome"	"S89_LN:i:18287_dp:f:0.863528692803135"	18287
1	0	"Chromosome"	"S87_LN:i:18435_dp:f:0.9737196471535767"	18435
1	0	"Chromosome"	"S91_LN:i:18097_dp:f:0.8312799018107744"	18097
1	0	"Chromosome"	"S93_LN:i:15931_dp:f:0.9630296272192398"	15931
1	0	"Chromosome"	"S83_LN:i:20785_dp:f:1.1815985436339866"	20785
1	0	"Chromosome"	"S95_LN:i:14841_dp:f:0.9431129353902223"	14841
1	0	"Chromosome"	"S94_LN:i:15371_dp:f:1.0559311079219043"	15371
1	0	"Chromosome"	"S92_LN:i:17638_dp:f:1.1562677138041313"	17638
1	0	"Chromosome"	"S97_LN:i:13369_dp:f:1.0217215872371355"	13369
1	0	"Chromosome"	"S96_LN:i:14173_dp:f:0.8537114261703777"	14173
1	0	"Chromosome"	"S98_LN:i:11995_dp:f:1.15609422184922"	11995
1	0	"Chromosome"	"S102_LN:i:10836_dp:f:1.0708137098440844"	10836
1	0	"Chromosome"	"S99_LN:i:11729_dp:f:0.9902098253670863"	11729
1	0	"Chromosome"	"S101_LN:i:11334_dp:f:0.8863771994857473"	11334
1	0	"Chromosome"	"S103_LN:i:10767_dp:f:1.103159521685585"	10767
1	0	"Chromosome"	"S100_LN:i:11722_dp:f:1.0712109686874844"	11722
1	0	"Chromosome"	"S105_LN:i:10559_dp:f:1.0303243903220969"	10559
1	0	"Chromosome"	"S106_LN:i:10336_dp:f:1.138995098003952"	10336
1	0	"Chromosome"	"S104_LN:i:10596_dp:f:0.9527061908178589"	10596
1	0	"Chromosome"	"S107_LN:i:10288_dp:f:0.9194760690327801"	10288
1	0	"Chromosome"	"S111_LN:i:9272_dp:f:0.9467486654814775"	9272
0	1	"Plasmid"	"S109_LN:i:9500_dp:f:2.553237802091746"	9500
0	1	"Plasmid"	"S108_LN:i:9541_dp:f:2.3963174371250466"	9541
1	0	"Chromosome"	"S110_LN:i:9424_dp:f:0.8082590939803722"	9424
1	0	"Chromosome"	"S113_LN:i:8946_dp:f:0.861352163507967"	8946
1	0	"Chromosome"	"S112_LN:i:9220_dp:f:0.8749425414787882"	9220
0	1	"Plasmid"	"S114_LN:i:8635_dp:f:0.8986130769174178"	8635
1	0	"Chromosome"	"S115_LN:i:8136_dp:f:2.247167002614822"	8136
1	0	"Chromosome"	"S90_LN:i:18250_dp:f:2.2764806449785344"	18250
1	0	"Chromosome"	"S116_LN:i:8083_dp:f:0.9981684396498419"	8083
1	0	"Chromosome"	"S118_LN:i:7601_dp:f:0.8492306862884049"	7601
1	0	"Chromosome"	"S117_LN:i:7918_dp:f:4.305899787887014"	7918
1	0	"Chromosome"	"S121_LN:i:7202_dp:f:2.2932131852908464"	7202
1	0	"Chromosome"	"S119_LN:i:7403_dp:f:0.7908005325891606"	7403
1	0	"Chromosome"	"S122_LN:i:7023_dp:f:0.8052168007426573"	7023
1	0	"Chromosome"	"S123_LN:i:6977_dp:f:0.8296264482852406"	6977
1	0	"Chromosome"	"S124_LN:i:6731_dp:f:1.0685258746107866"	6731
1	0	"Chromosome"	"S125_LN:i:6698_dp:f:1.1311221302738086"	6698
0	1	"Plasmid"	"S126_LN:i:6691_dp:f:1.7364396381802734"	6691
1	0	"Chromosome"	"S127_LN:i:6658_dp:f:1.7428987674307361"	6658
0	1	"Plasmid"	"S129_LN:i:6479_dp:f:1.6541451859185774"	6479
0	1	"Plasmid"	"S128_LN:i:6651_dp:f:4.042077396432193"	6651
1	0	"Chromosome"	"S133_LN:i:5838_dp:f:1.0349563893454818"	5838
1	0	"Chromosome"	"S135_LN:i:5632_dp:f:0.9962911649432344"	5632
0	1	"Plasmid"	"S132_LN:i:5973_dp:f:7.485431358522901"	5973
1	0	"Chromosome"	"S130_LN:i:6065_dp:f:0.9205412818691026"	6065
1	0	"Chromosome"	"S134_LN:i:5675_dp:f:0.8046808786375318"	5675
0	1	"Plasmid"	"S131_LN:i:5980_dp:f:2.643715010295367"	5980
1	0	"Chromosome"	"S136_LN:i:5584_dp:f:0.9467730148868209"	5584
1	0	"Chromosome"	"S138_LN:i:5428_dp:f:0.801900093880023"	5428
0	1	"Plasmid"	"S137_LN:i:5445_dp:f:7.232819690170459"	5445
1	0	"Chromosome"	"S140_LN:i:5252_dp:f:1.8712052842538498"	5252
0	1	"Plasmid"	"S139_LN:i:5379_dp:f:2.7305121683121327"	5379
1	0	"Chromosome"	"S120_LN:i:7393_dp:f:0.8266016530154485"	7393
0	1	"Plasmid"	"S141_LN:i:5136_dp:f:3.0487119586449034"	5136
1	0	"Chromosome"	"S143_LN:i:5077_dp:f:0.8321967356572539"	5077
0	1	"Plasmid"	"S142_LN:i:5101_dp:f:1.9639436971778959"	5101
0	1	"Plasmid"	"S146_LN:i:4571_dp:f:2.7308891662214445"	4571
1	0	"Chromosome"	"S144_LN:i:4987_dp:f:0.7898433475342967"	4987
1	0	"Chromosome"	"S145_LN:i:4728_dp:f:1.0099824518221852"	4728
1	0	"Chromosome"	"S147_LN:i:4557_dp:f:1.0882733804535956"	4557
1	0	"Chromosome"	"S149_LN:i:4437_dp:f:0.8525990796918232"	4437
1	0	"Chromosome"	"S150_LN:i:4361_dp:f:0.6978104587769568"	4361
1	0	"Chromosome"	"S148_LN:i:4546_dp:f:0.8416362974836398"	4546
0	1	"Plasmid"	"S151_LN:i:4235_dp:f:1.9191675427004633"	4235
0.5	0.5	"Plasmid"	"S155_LN:i:3816_dp:f:1.687174595696015"	3816
1	0	"Chromosome"	"S152_LN:i:4142_dp:f:1.0180147139962996"	4142
1	0	"Chromosome"	"S153_LN:i:3993_dp:f:0.9100364267954211"	3993
1	0	"Chromosome"	"S154_LN:i:3842_dp:f:4.333972827592837"	3842
1	0	"Chromosome"	"S159_LN:i:3348_dp:f:1.121559332986277"	3348
0	1	"Plasmid"	"S160_LN:i:3232_dp:f:2.1392092551049213"	3232
1	0	"Chromosome"	"S156_LN:i:3762_dp:f:0.835638266206479"	3762
1	0	"Chromosome"	"S157_LN:i:3583_dp:f:0.7895328945605697"	3583
1	0	"Chromosome"	"S162_LN:i:2994_dp:f:3.7843509387988736"	2994
0	1	"Plasmid"	"S161_LN:i:3160_dp:f:2.588353703051539"	3160
1	0	"Chromosome"	"S163_LN:i:2950_dp:f:8.06147489661538"	2950
0.5	0.5	"Plasmid"	"S167_LN:i:2697_dp:f:6.452956710377535"	2697
1	0	"Chromosome"	"S164_LN:i:2848_dp:f:1.0622354271440608"	2848
1	0	"Chromosome"	"S158_LN:i:3521_dp:f:0.9412461934450769"	3521
1	0	"Chromosome"	"S166_LN:i:2839_dp:f:0.9419541958979074"	2839
1	0	"Chromosome"	"S168_LN:i:2653_dp:f:0.8177722324538106"	2653
1	0	"Chromosome"	"S165_LN:i:2842_dp:f:1.709003336632241"	2842
0	1	"Plasmid"	"S169_LN:i:2640_dp:f:0.8887728797854688"	2640
1	0	"Chromosome"	"S172_LN:i:2496_dp:f:0.9332776436192923"	2496
1	0	"Chromosome"	"S173_LN:i:2455_dp:f:1.9341150524481299"	2455
0.5	0.5	"Plasmid"	"S176_LN:i:2260_dp:f:9.817791424882557"	2260
1	0	"Chromosome"	"S174_LN:i:2355_dp:f:0.8516280568116522"	2355
1	0	"Chromosome"	"S175_LN:i:2353_dp:f:1.8798142694106101"	2353
1	0	"Chromosome"	"S171_LN:i:2505_dp:f:0.779075394676895"	2505
1	0	"Chromosome"	"S179_LN:i:2089_dp:f:1.1861383809945765"	2089
1	0	"Chromosome"	"S178_LN:i:2132_dp:f:4.237583156898268"	2132
1	0	"Chromosome"	"S180_LN:i:2080_dp:f:0.7911524423668601"	2080
1	0	"Chromosome"	"S177_LN:i:2234_dp:f:0.7690599209071052"	2234
0	1	"Plasmid"	"S182_LN:i:1958_dp:f:2.5262771631570624"	1958
0	1	"Plasmid"	"S183_LN:i:1948_dp:f:5.772990758343351"	1948
1	0	"Chromosome"	"S186_LN:i:1886_dp:f:0.9728587567817885"	1886
1	0	"Chromosome"	"S181_LN:i:1984_dp:f:0.8692024036521752"	1984
1	0	"Chromosome"	"S185_LN:i:1887_dp:f:3.937005426788173"	1887
1	0	"Chromosome"	"S184_LN:i:1913_dp:f:0.741241622009432"	1913
1	0	"Chromosome"	"S189_LN:i:1619_dp:f:0.9031096430878766"	1619
0	1	"Plasmid"	"S188_LN:i:1721_dp:f:2.887699076959741"	1721
1	0	"Chromosome"	"S190_LN:i:1520_dp:f:1.9149759390194372"	1520
1	0	"Chromosome"	"S187_LN:i:1825_dp:f:0.804753033482807"	1825
1	0	"Chromosome"	"S192_LN:i:1496_dp:f:2.2866207353208527"	1496
1	0	"Chromosome"	"S191_LN:i:1498_dp:f:3.624996067180884"	1498
1	0	"Chromosome"	"S194_LN:i:1479_dp:f:3.1661836843561586"	1479
1	0	"Chromosome"	"S193_LN:i:1495_dp:f:1.9390623828043654"	1495
1	0	"Chromosome"	"S198_LN:i:1387_dp:f:1.9375534289934293"	1387
1	0	"Chromosome"	"S195_LN:i:1466_dp:f:0.889295953576365"	1466
1	0	"Chromosome"	"S196_LN:i:1455_dp:f:8.402180276193436"	1455
0.5	0.5	"Plasmid"	"S200_LN:i:1355_dp:f:0.9389391278806614"	1355
1	0	"Chromosome"	"S199_LN:i:1379_dp:f:3.6540012019835357"	1379
1	0	"Chromosome"	"S197_LN:i:1397_dp:f:0.7306034786399263"	1397
1	0	"Chromosome"	"S170_LN:i:2608_dp:f:0.8593488695727333"	2608
1	0	"Chromosome"	"S201_LN:i:1352_dp:f:0.8976611107345317"	1352
1	0	"Chromosome"	"S204_LN:i:1331_dp:f:1.6694460036219125"	1331
1	0	"Chromosome"	"S206_LN:i:1302_dp:f:1.9742283143811037"	1302
1	0	"Chromosome"	"S202_LN:i:1348_dp:f:0.913083869583456"	1348
1	0	"Chromosome"	"S203_LN:i:1343_dp:f:0.7906624789348163"	1343
1	0	"Chromosome"	"S208_LN:i:1239_dp:f:2.878646300178869"	1239
0.5	0.5	"Plasmid"	"S210_LN:i:1203_dp:f:1.5528562066590776"	1203
0	1	"Plasmid"	"S209_LN:i:1214_dp:f:2.2838132657578862"	1214
1	0	"Chromosome"	"S212_LN:i:1175_dp:f:0.9401871079922675"	1175
1	0	"Chromosome"	"S211_LN:i:1197_dp:f:1.4837067545649134"	1197
1	0	"Chromosome"	"S213_LN:i:1175_dp:f:1.9542788841234173"	1175
1	0	"Chromosome"	"S214_LN:i:1152_dp:f:2.329557238812694"	1152
1	0	"Chromosome"	"S215_LN:i:1141_dp:f:2.3848664251750584"	1141
0.5	0.5	"Plasmid"	"S205_LN:i:1328_dp:f:26.002193936207785"	1328
1	0	"Chromosome"	"S218_LN:i:1093_dp:f:1.9940111206958635"	1093
1	0	"Chromosome"	"S217_LN:i:1102_dp:f:2.428188107410169"	1102
1	0	"Chromosome"	"S219_LN:i:1076_dp:f:1.8783889533266462"	1076
1	0	"Chromosome"	"S207_LN:i:1243_dp:f:3.054209055715403"	1243
0	1	"Plasmid"	"S216_LN:i:1121_dp:f:2.9841009865967076"	1121
0.5	0.5	"Plasmid"	"S221_LN:i:1037_dp:f:30.775614691823208"	1037
0.5	0.5	"Plasmid"	"S225_LN:i:1005_dp:f:5.176348776433803"	1005
1	0	"Chromosome"	"S222_LN:i:1031_dp:f:2.229462723566345"	1031
1	0	"Chromosome"	"S224_LN:i:1023_dp:f:1.8267052357569986"	1023
1	0	"Chromosome"	"S220_LN:i:1043_dp:f:2.0284893009539235"	1043
1	0	"Chromosome"	"S223_LN:i:1031_dp:f:2.235132878251077"	1031
