"Prob_Chromosome"	"Prob_Plasmid"	"Prediction"	"Contig_name"	"Contig_length"
1	0	"Chromosome"	"S6_LN:i:240330_dp:f:1.017598652747249"	240330
1	0	"Chromosome"	"S3_LN:i:382438_dp:f:0.9551483480056617"	382438
1	0	"Chromosome"	"S4_LN:i:296826_dp:f:0.983502002862676"	296826
1	0	"Chromosome"	"S8_LN:i:210155_dp:f:1.0180452127940252"	210155
1	0	"Chromosome"	"S7_LN:i:228194_dp:f:0.94972391678483"	228194
1	0	"Chromosome"	"S10_LN:i:173059_dp:f:1.0"	173059
1	0	"Chromosome"	"S5_LN:i:291498_dp:f:1.0248912598762576"	291498
1	0	"Chromosome"	"S9_LN:i:203293_dp:f:1.026114523117419"	203293
1	0	"Chromosome"	"S11_LN:i:147269_dp:f:1.0403219557081527"	147269
1	0	"Chromosome"	"S2_LN:i:459892_dp:f:0.9743317784784764"	459892
1	0	"Chromosome"	"S14_LN:i:123361_dp:f:1.0036331732560368"	123361
1	0	"Chromosome"	"S16_LN:i:95047_dp:f:0.9450576502688343"	95047
1	0	"Chromosome"	"S17_LN:i:94762_dp:f:1.0097267558215954"	94762
1	0	"Chromosome"	"S19_LN:i:88076_dp:f:1.0217843509111666"	88076
1	0	"Chromosome"	"S18_LN:i:88143_dp:f:1.052085218319705"	88143
1	0	"Chromosome"	"S13_LN:i:125086_dp:f:1.0206036611376414"	125086
1	0	"Chromosome"	"S12_LN:i:139580_dp:f:0.9739125845468004"	139580
1	0	"Chromosome"	"S1_LN:i:543964_dp:f:1.002500541647521"	543964
1	0	"Chromosome"	"S15_LN:i:119249_dp:f:0.9875933239208395"	119249
1	0	"Chromosome"	"S21_LN:i:79872_dp:f:0.9659574530406595"	79872
1	0	"Chromosome"	"S22_LN:i:78653_dp:f:0.9928078977248499"	78653
1	0	"Chromosome"	"S20_LN:i:82415_dp:f:1.0108978713204895"	82415
1	0	"Chromosome"	"S26_LN:i:42283_dp:f:0.9395157812415862"	42283
1	0	"Chromosome"	"S30_LN:i:34436_dp:f:0.9527854890778861"	34436
1	0	"Chromosome"	"S29_LN:i:39440_dp:f:0.8897015096274721"	39440
1	0	"Chromosome"	"S27_LN:i:41317_dp:f:0.9528522634663723"	41317
1	0	"Chromosome"	"S24_LN:i:70347_dp:f:0.9882517275395308"	70347
1	0	"Chromosome"	"S31_LN:i:31587_dp:f:0.987771587640565"	31587
0	1	"Plasmid"	"S25_LN:i:51012_dp:f:2.628525156162464"	51012
1	0	"Chromosome"	"S32_LN:i:30733_dp:f:1.0896323161467663"	30733
1	0	"Chromosome"	"S33_LN:i:28570_dp:f:0.8963712019857155"	28570
0	1	"Plasmid"	"S36_LN:i:22771_dp:f:2.467721454297857"	22771
1	0	"Chromosome"	"S37_LN:i:17382_dp:f:0.8914202149754655"	17382
1	0	"Chromosome"	"S35_LN:i:24154_dp:f:0.9199021091444102"	24154
1	0	"Chromosome"	"S28_LN:i:41163_dp:f:1.000453408995116"	41163
1	0	"Chromosome"	"S34_LN:i:27526_dp:f:0.9846782564369454"	27526
1	0	"Chromosome"	"S38_LN:i:14654_dp:f:0.9522016202888767"	14654
0	1	"Plasmid"	"S39_LN:i:14418_dp:f:2.0567723542674097"	14418
0	1	"Plasmid"	"S44_LN:i:6676_dp:f:63.87652616860397"	6676
1	0	"Chromosome"	"S42_LN:i:7402_dp:f:0.9335240724067906"	7402
1	0	"Chromosome"	"S40_LN:i:12272_dp:f:0.9095847366996466"	12272
1	0	"Chromosome"	"S46_LN:i:4115_dp:f:0.91815459351427"	4115
0	1	"Plasmid"	"S43_LN:i:6711_dp:f:49.43122550989452"	6711
1	0	"Chromosome"	"S41_LN:i:9598_dp:f:1.1238407024212496"	9598
0	1	"Plasmid"	"S45_LN:i:5428_dp:f:2.635075971421019"	5428
0	1	"Plasmid"	"S47_LN:i:4064_dp:f:99.01499295096761"	4064
0	1	"Plasmid"	"S49_LN:i:3580_dp:f:2.03318591151512"	3580
0.5	0.5	"Plasmid"	"S53_LN:i:1683_dp:f:11.502069739265707"	1683
1	0	"Chromosome"	"S50_LN:i:3234_dp:f:7.105125541869194"	3234
1	0	"Chromosome"	"S55_LN:i:1600_dp:f:0.9073466515082353"	1600
0	1	"Plasmid"	"S48_LN:i:3659_dp:f:2.6971143485338493"	3659
1	0	"Chromosome"	"S54_LN:i:1624_dp:f:0.8906051080318221"	1624
1	0	"Chromosome"	"S52_LN:i:2393_dp:f:1.8089090430800143"	2393
1	0	"Chromosome"	"S51_LN:i:3012_dp:f:3.274540611097631"	3012
1	0	"Chromosome"	"S57_LN:i:1523_dp:f:0.773309028038173"	1523
0	1	"Plasmid"	"S56_LN:i:1552_dp:f:83.92320855741205"	1552
0.5	0.5	"Plasmid"	"S59_LN:i:1340_dp:f:9.746950484214187"	1340
0.5	0.5	"Plasmid"	"S60_LN:i:1283_dp:f:7.354596891361422"	1283
1	0	"Chromosome"	"S58_LN:i:1421_dp:f:0.9468032503596016"	1421
1	0	"Chromosome"	"S62_LN:i:1133_dp:f:2.0680780295946075"	1133
1	0	"Chromosome"	"S64_LN:i:1031_dp:f:1.9050269687032784"	1031
1	0	"Chromosome"	"S63_LN:i:1062_dp:f:2.341767691167394"	1062
1	0	"Chromosome"	"S61_LN:i:1219_dp:f:1.1151534791171474"	1219
1	0	"Chromosome"	"S23_LN:i:78157_dp:f:0.8851061098583582"	78157
