"Prob_Chromosome"	"Prob_Plasmid"	"Prediction"	"Contig_name"	"Contig_length"
1	0	"Chromosome"	"S3_LN:i:221603_dp:f:1.0129242434265668"	221603
1	0	"Chromosome"	"S1_LN:i:283733_dp:f:0.9632801221458558"	283733
1	0	"Chromosome"	"S4_LN:i:218501_dp:f:0.9271424869926451"	218501
1	0	"Chromosome"	"S8_LN:i:148208_dp:f:1.0073636482625585"	148208
1	0	"Chromosome"	"S5_LN:i:210627_dp:f:1.0059087034663199"	210627
1	0	"Chromosome"	"S2_LN:i:264106_dp:f:1.0017972836095759"	264106
1	0	"Chromosome"	"S7_LN:i:174218_dp:f:1.0"	174218
1	0	"Chromosome"	"S11_LN:i:112049_dp:f:0.9937138821298448"	112049
1	0	"Chromosome"	"S6_LN:i:198756_dp:f:0.9514253210185829"	198756
1	0	"Chromosome"	"S10_LN:i:117865_dp:f:0.9336659633930039"	117865
1	0	"Chromosome"	"S9_LN:i:133388_dp:f:0.9931388195913072"	133388
1	0	"Chromosome"	"S13_LN:i:104744_dp:f:1.0051695041199702"	104744
1	0	"Chromosome"	"S14_LN:i:94950_dp:f:1.0133500946912022"	94950
1	0	"Chromosome"	"S12_LN:i:105288_dp:f:0.9849273456856511"	105288
1	0	"Chromosome"	"S15_LN:i:94440_dp:f:0.9511286744535216"	94440
0	1	"Plasmid"	"S17_LN:i:91330_dp:f:0.9337323787061502"	91330
1	0	"Chromosome"	"S16_LN:i:93745_dp:f:1.0160815900917588"	93745
1	0	"Chromosome"	"S21_LN:i:84842_dp:f:1.04508185113689"	84842
1	0	"Chromosome"	"S22_LN:i:82105_dp:f:1.013436761657921"	82105
1	0	"Chromosome"	"S20_LN:i:88153_dp:f:1.0459837016487685"	88153
1	0	"Chromosome"	"S19_LN:i:88471_dp:f:0.9584653263599598"	88471
1	0	"Chromosome"	"S18_LN:i:89951_dp:f:0.9067669780919447"	89951
1	0	"Chromosome"	"S23_LN:i:76853_dp:f:1.0169619144246933"	76853
1	0	"Chromosome"	"S30_LN:i:57323_dp:f:0.9113372917108167"	57323
1	0	"Chromosome"	"S24_LN:i:76031_dp:f:1.0019384889177236"	76031
1	0	"Chromosome"	"S25_LN:i:75285_dp:f:0.9592866946654878"	75285
1	0	"Chromosome"	"S29_LN:i:67998_dp:f:1.009991448524993"	67998
1	0	"Chromosome"	"S27_LN:i:68880_dp:f:0.8826476651098283"	68880
1	0	"Chromosome"	"S28_LN:i:68509_dp:f:0.9398521695493857"	68509
1	0	"Chromosome"	"S26_LN:i:73845_dp:f:1.0132529055997013"	73845
1	0	"Chromosome"	"S31_LN:i:50656_dp:f:0.9776318044058658"	50656
1	0	"Chromosome"	"S33_LN:i:48678_dp:f:0.9602643687330495"	48678
1	0	"Chromosome"	"S34_LN:i:48252_dp:f:0.8992052818367827"	48252
1	0	"Chromosome"	"S32_LN:i:50322_dp:f:0.9665593302860365"	50322
1	0	"Chromosome"	"S36_LN:i:44797_dp:f:0.9885173982755084"	44797
1	0	"Chromosome"	"S35_LN:i:45660_dp:f:1.0081017231070233"	45660
1	0	"Chromosome"	"S37_LN:i:43617_dp:f:0.9871749839893468"	43617
0	1	"Plasmid"	"S38_LN:i:42210_dp:f:0.897355107646849"	42210
1	0	"Chromosome"	"S40_LN:i:40954_dp:f:1.0402385411960495"	40954
1	0	"Chromosome"	"S42_LN:i:38097_dp:f:0.935944605820104"	38097
1	0	"Chromosome"	"S39_LN:i:42172_dp:f:1.017624246035038"	42172
1	0	"Chromosome"	"S43_LN:i:34801_dp:f:0.8022289621567914"	34801
1	0	"Chromosome"	"S44_LN:i:34499_dp:f:0.9829666528298291"	34499
1	0	"Chromosome"	"S41_LN:i:40547_dp:f:0.9452400596888845"	40547
1	0	"Chromosome"	"S45_LN:i:34441_dp:f:1.0145011830137647"	34441
1	0	"Chromosome"	"S46_LN:i:34123_dp:f:0.9055584822765703"	34123
1	0	"Chromosome"	"S49_LN:i:30879_dp:f:0.8526331766859208"	30879
1	0	"Chromosome"	"S47_LN:i:32312_dp:f:1.0273578540312052"	32312
1	0	"Chromosome"	"S50_LN:i:30746_dp:f:1.0834369236860244"	30746
1	0	"Chromosome"	"S52_LN:i:27911_dp:f:0.9413362710730745"	27911
1	0	"Chromosome"	"S48_LN:i:32043_dp:f:0.8824935773924091"	32043
1	0	"Chromosome"	"S51_LN:i:28396_dp:f:0.9798594566540365"	28396
1	0	"Chromosome"	"S53_LN:i:26220_dp:f:1.0211694791926165"	26220
1	0	"Chromosome"	"S54_LN:i:25841_dp:f:0.9652136228157826"	25841
1	0	"Chromosome"	"S55_LN:i:25776_dp:f:0.919114025462159"	25776
1	0	"Chromosome"	"S58_LN:i:23347_dp:f:0.7118052651397642"	23347
1	0	"Chromosome"	"S57_LN:i:23503_dp:f:0.8314801153652934"	23503
1	0	"Chromosome"	"S61_LN:i:20491_dp:f:1.0190764598981268"	20491
0	1	"Plasmid"	"S59_LN:i:22997_dp:f:0.9337941566079095"	22997
1	0	"Chromosome"	"S56_LN:i:24968_dp:f:0.8859537500145334"	24968
1	0	"Chromosome"	"S60_LN:i:21612_dp:f:0.8932410844811519"	21612
1	0	"Chromosome"	"S62_LN:i:20446_dp:f:0.9879204484176282"	20446
1	0	"Chromosome"	"S63_LN:i:20010_dp:f:0.9579266096354168"	20010
1	0	"Chromosome"	"S64_LN:i:18954_dp:f:0.7942458710012088"	18954
1	0	"Chromosome"	"S67_LN:i:16979_dp:f:1.007572323683814"	16979
1	0	"Chromosome"	"S69_LN:i:15950_dp:f:1.044718276524177"	15950
1	0	"Chromosome"	"S66_LN:i:17098_dp:f:1.0074377850654141"	17098
1	0	"Chromosome"	"S68_LN:i:16121_dp:f:0.9035528470894051"	16121
1	0	"Chromosome"	"S65_LN:i:18290_dp:f:1.015206807946687"	18290
1	0	"Chromosome"	"S70_LN:i:14001_dp:f:0.8364688397357101"	14001
1	0	"Chromosome"	"S71_LN:i:12855_dp:f:0.9222345985149724"	12855
1	0	"Chromosome"	"S73_LN:i:12140_dp:f:0.8469247565037564"	12140
1	0	"Chromosome"	"S72_LN:i:12178_dp:f:2.155134770585306"	12178
1	0	"Chromosome"	"S74_LN:i:11823_dp:f:0.8673693483235935"	11823
1	0	"Chromosome"	"S78_LN:i:11195_dp:f:0.9675730822633282"	11195
1	0	"Chromosome"	"S75_LN:i:11669_dp:f:1.0313165825962605"	11669
1	0	"Chromosome"	"S76_LN:i:11627_dp:f:0.9847923251378716"	11627
0	1	"Plasmid"	"S77_LN:i:11409_dp:f:0.8331134064320298"	11409
1	0	"Chromosome"	"S80_LN:i:10200_dp:f:1.0086530503169924"	10200
0	1	"Plasmid"	"S79_LN:i:10779_dp:f:0.9956411980394033"	10779
1	0	"Chromosome"	"S81_LN:i:10163_dp:f:0.8578707041506136"	10163
1	0	"Chromosome"	"S83_LN:i:9752_dp:f:0.895067436185738"	9752
1	0	"Chromosome"	"S82_LN:i:10146_dp:f:0.9413271314804913"	10146
0.5	0.5	"Plasmid"	"S84_LN:i:8601_dp:f:0.7730822434729865"	8601
1	0	"Chromosome"	"S85_LN:i:8170_dp:f:0.9911266442568384"	8170
0	1	"Plasmid"	"S86_LN:i:7939_dp:f:18.2316998272713"	7939
1	0	"Chromosome"	"S87_LN:i:6396_dp:f:0.9898524229778537"	6396
1	0	"Chromosome"	"S89_LN:i:5888_dp:f:0.8030671289134869"	5888
1	0	"Chromosome"	"S92_LN:i:4221_dp:f:0.961623489904362"	4221
1	0	"Chromosome"	"S91_LN:i:4674_dp:f:0.8141929393205609"	4674
0	1	"Plasmid"	"S93_LN:i:4072_dp:f:24.90443843114187"	4072
0	1	"Plasmid"	"S88_LN:i:6127_dp:f:1.0172485959031814"	6127
1	0	"Chromosome"	"S90_LN:i:5869_dp:f:0.9223711099031832"	5869
0.5	0.5	"Plasmid"	"S95_LN:i:3232_dp:f:0.9571134341293376"	3232
1	0	"Chromosome"	"S94_LN:i:3770_dp:f:0.930777921265724"	3770
1	0	"Chromosome"	"S96_LN:i:3090_dp:f:0.9098860417064865"	3090
1	0	"Chromosome"	"S98_LN:i:2823_dp:f:0.9127202683864066"	2823
0	1	"Plasmid"	"S97_LN:i:2996_dp:f:0.9910794151776626"	2996
0.5	0.5	"Plasmid"	"S99_LN:i:2583_dp:f:1.8778436097651254"	2583
0.5	0.5	"Plasmid"	"S102_LN:i:2270_dp:f:5.631683674305916"	2270
1	0	"Chromosome"	"S100_LN:i:2376_dp:f:2.188770630008781"	2376
1	0	"Chromosome"	"S103_LN:i:1834_dp:f:6.946097702884689"	1834
1	0	"Chromosome"	"S104_LN:i:1741_dp:f:1.028774967371165"	1741
0	1	"Plasmid"	"S101_LN:i:2310_dp:f:0.9484338860073583"	2310
0	1	"Plasmid"	"S107_LN:i:1552_dp:f:20.056325421463644"	1552
1	0	"Chromosome"	"S106_LN:i:1625_dp:f:6.818217581432723"	1625
1	0	"Chromosome"	"S112_LN:i:1095_dp:f:1.9986626625940755"	1095
1	0	"Chromosome"	"S110_LN:i:1190_dp:f:0.704772721136537"	1190
0.5	0.5	"Plasmid"	"S108_LN:i:1428_dp:f:4.056455007814216"	1428
1	0	"Chromosome"	"S111_LN:i:1114_dp:f:1.8793780729089558"	1114
0	1	"Plasmid"	"S105_LN:i:1642_dp:f:0.9586295839567527"	1642
1	0	"Chromosome"	"S109_LN:i:1230_dp:f:7.18255370224807"	1230
1	0	"Chromosome"	"S113_LN:i:1068_dp:f:0.8096954940309627"	1068
