"Prob_Chromosome"	"Prob_Plasmid"	"Prediction"	"Contig_name"	"Contig_length"
1	0	"Chromosome"	"S8_LN:i:182992_dp:f:1.0664656010976252"	182992
1	0	"Chromosome"	"S7_LN:i:187300_dp:f:1.0338400020832994"	187300
1	0	"Chromosome"	"S6_LN:i:266587_dp:f:0.9649741349967462"	266587
1	0	"Chromosome"	"S9_LN:i:126691_dp:f:1.0419669739182496"	126691
1	0	"Chromosome"	"S10_LN:i:113862_dp:f:0.964169486924403"	113862
1	0	"Chromosome"	"S11_LN:i:106166_dp:f:1.0357615079663545"	106166
0	1	"Plasmid"	"S13_LN:i:83612_dp:f:1.424764024260968"	83612
1	0	"Chromosome"	"S12_LN:i:86503_dp:f:1.006129687489314"	86503
1	0	"Chromosome"	"S5_LN:i:412116_dp:f:1.0"	412116
1	0	"Chromosome"	"S14_LN:i:76588_dp:f:0.9966577775720199"	76588
1	0	"Chromosome"	"S17_LN:i:38520_dp:f:0.9644382509544509"	38520
1	0	"Chromosome"	"S16_LN:i:62334_dp:f:0.965972119562444"	62334
1	0	"Chromosome"	"S18_LN:i:38313_dp:f:0.9703828220394133"	38313
1	0	"Chromosome"	"S19_LN:i:30712_dp:f:0.9940254420303541"	30712
1	0	"Chromosome"	"S15_LN:i:73386_dp:f:1.0346186089136804"	73386
1	0	"Chromosome"	"S23_LN:i:4392_dp:f:1.1210316698328258"	4392
1	0	"Chromosome"	"S24_LN:i:3287_dp:f:1.6123652628771312"	3287
1	0	"Chromosome"	"S25_LN:i:3229_dp:f:0.8411727554948336"	3229
1	0	"Chromosome"	"S26_LN:i:2428_dp:f:0.9025063906259947"	2428
1	0	"Chromosome"	"S22_LN:i:15185_dp:f:2.0414032730947675"	15185
1	0	"Chromosome"	"S27_LN:i:2382_dp:f:1.8726342583848852"	2382
1	0	"Chromosome"	"S20_LN:i:26062_dp:f:1.0527112878525233"	26062
1	0	"Chromosome"	"S28_LN:i:2346_dp:f:1.8405711107405132"	2346
1	0	"Chromosome"	"S29_LN:i:2149_dp:f:1.1933431351866632"	2149
1	0	"Chromosome"	"S30_LN:i:1710_dp:f:1.6709784431125123"	1710
1	0	"Chromosome"	"S31_LN:i:1687_dp:f:6.740599440455253"	1687
0.5	0.5	"Plasmid"	"S32_LN:i:1463_dp:f:6.287728169942515"	1463
1	0	"Chromosome"	"S33_LN:i:1363_dp:f:1.637986951496477"	1363
1	0	"Chromosome"	"S34_LN:i:1291_dp:f:2.525064432345642"	1291
1	0	"Chromosome"	"S35_LN:i:1247_dp:f:0.9093548426977464"	1247
1	0	"Chromosome"	"S36_LN:i:1247_dp:f:0.8146383081925748"	1247
1	0	"Chromosome"	"S21_LN:i:25335_dp:f:0.9835696861004476"	25335
1	0	"Chromosome"	"S1_LN:i:725342_dp:f:0.9855722519010527"	725342
1	0	"Chromosome"	"S4_LN:i:654736_dp:f:1.0385288723721362"	654736
1	0	"Chromosome"	"S2_LN:i:720508_dp:f:0.9978993058905525"	720508
1	0	"Chromosome"	"S3_LN:i:704821_dp:f:1.0292639771762981"	704821
